\relax 
\@writefile{toc}{\contentsline {chapter}{\numberline {11}Thermodynamique}{139}}
\@writefile{lof}{\addvspace {10\p@ }}
\@writefile{lot}{\addvspace {10\p@ }}
\@writefile{toc}{\contentsline {section}{\numberline {11.1}Temp\IeC {\'e}rature et dilatation}{139}}
\@writefile{toc}{\contentsline {subsection}{\numberline {11.1.1}Temp\IeC {\'e}rature}{139}}
\@writefile{toc}{\contentsline {subsection}{\numberline {11.1.2}Dilatation}{139}}
\newlabel{dilatation}{{11.1.2}{139}}
\@writefile{lof}{\contentsline {figure}{\numberline {11.1}{\ignorespaces Dilatation lin\IeC {\'e}aire\relax }}{140}}
\newlabel{dilatationlineaire}{{11.1}{140}}
\@writefile{lot}{\contentsline {table}{\numberline {11.1}{\ignorespaces Coefficient de dilatation lin\IeC {\'e}aire\relax }}{140}}
\newlabel{coefflineaire}{{11.1}{140}}
\@writefile{lof}{\contentsline {figure}{\numberline {11.2}{\ignorespaces Fusible bilame\relax }}{140}}
\newlabel{bilame}{{11.2}{140}}
\newlabel{gamma}{{11.2}{140}}
\@writefile{lof}{\contentsline {figure}{\numberline {11.3}{\ignorespaces Dilatation volumique\relax }}{140}}
\newlabel{dilatationvolumique}{{11.3}{140}}
\@writefile{lot}{\contentsline {table}{\numberline {11.2}{\ignorespaces Coefficient de dilatation volumique\relax }}{141}}
\newlabel{coeffvolume}{{11.2}{141}}
\@writefile{toc}{\contentsline {section}{\numberline {11.2}Chaleurs sp\IeC {\'e}cifique et latente}{141}}
\@writefile{toc}{\contentsline {subsection}{\numberline {11.2.1}Introduction}{141}}
\@writefile{toc}{\contentsline {subsection}{\numberline {11.2.2}Chaleur sp\IeC {\'e}cifique}{141}}
\@writefile{toc}{\contentsline {subsubsection}{Chaleur massique}{141}}
\newlabel{ParaChaleurMassique}{{11.2.2}{141}}
\newlabel{chaleurmassique}{{11.4}{141}}
\newlabel{Qchaleurmassique}{{11.5}{141}}
\@writefile{lot}{\contentsline {table}{\numberline {11.3}{\ignorespaces Chaleur massique\relax }}{142}}
\newlabel{tabchaleurmassique}{{11.3}{142}}
\@writefile{toc}{\contentsline {subsubsection}{Capacit\IeC {\'e} thermique}{142}}
\@writefile{toc}{\contentsline {subsubsection}{Notion de mole}{142}}
\newlabel{Avogadro}{{11.6}{142}}
\@writefile{toc}{\contentsline {subsubsection}{Chaleur molaire}{142}}
\newlabel{chaleurmolaire}{{11.7}{142}}
\newlabel{Qchaleurmolaire}{{11.8}{142}}
\@writefile{toc}{\contentsline {subsubsection}{Relation entre chaleur massique et molaire}{143}}
\@writefile{toc}{\contentsline {subsubsection}{Chaleur latente}{143}}
\@writefile{lot}{\contentsline {table}{\numberline {11.4}{\ignorespaces Chaleur latente\relax }}{143}}
\newlabel{chaleurlatente}{{11.4}{143}}
\@writefile{toc}{\contentsline {subsubsection}{\IeC {\'E}vaporation}{143}}
\@writefile{toc}{\contentsline {subsection}{\numberline {11.2.3}Bilan thermique}{144}}
\@writefile{toc}{\contentsline {section}{\numberline {11.3}Loi des gaz parfaits}{145}}
\@writefile{toc}{\contentsline {subsection}{\numberline {11.3.1}\IeC {\'E}quation d'\IeC {\'e}tat}{145}}
\@writefile{toc}{\contentsline {subsubsection}{Pression}{145}}
\@writefile{toc}{\contentsline {subsubsection}{\IeC {\'E}tat d'un gaz parfait}{145}}
\@writefile{toc}{\contentsline {subsubsection}{Approche intuitive}{145}}
\newlabel{pvkt}{{11.12}{146}}
\newlabel{nRNk}{{11.14}{146}}
\@writefile{toc}{\contentsline {subsubsection}{Approche mol\IeC {\'e}culaire}{146}}
\newlabel{apprmolecul}{{11.3.1}{146}}
\newlabel{tempencin}{{11.19}{147}}
\@writefile{toc}{\contentsline {subsection}{\numberline {11.3.2}Gaz parfait}{147}}
\@writefile{toc}{\contentsline {section}{\numberline {11.4}Premier principe}{147}}
\@writefile{toc}{\contentsline {subsection}{\numberline {11.4.1}Chaleur}{147}}
\@writefile{toc}{\contentsline {subsection}{\numberline {11.4.2}Travail}{148}}
\newlabel{generaltravail}{{11.20}{148}}
\newlabel{generalpression}{{11.21}{148}}
\newlabel{thermotravail}{{11.22}{148}}
\@writefile{toc}{\contentsline {subsection}{\numberline {11.4.3}\IeC {\'E}nergie interne}{148}}
\@writefile{lof}{\contentsline {figure}{\numberline {11.4}{\ignorespaces Travail et diagramme P-V\relax }}{148}}
\newlabel{diagtravailpv}{{11.4}{148}}
\newlabel{eninterne}{{11.23}{148}}
\@writefile{toc}{\contentsline {subsubsection}{\IeC {\'E}quipartition de l'\IeC {\'e}nergie}{149}}
\newlabel{equipartition}{{11.24}{149}}
\newlabel{iequipartition}{{11.25}{149}}
\newlabel{iequipartitiondiatomique}{{11.26}{149}}
\newlabel{iequipartitiondiatomiquevibrant}{{11.27}{149}}
\newlabel{iequipartitiontriatomique}{{11.28}{149}}
\@writefile{toc}{\contentsline {subsection}{\numberline {11.4.4}Premier principe}{149}}
\@writefile{toc}{\contentsline {subsection}{\numberline {11.4.5}Changements d'\IeC {\'e}tats}{149}}
\@writefile{toc}{\contentsline {subsubsection}{Transformation isobare}{150}}
\@writefile{lof}{\contentsline {figure}{\numberline {11.5}{\ignorespaces Transformation isobare\relax }}{150}}
\newlabel{diagtravailpvisobare}{{11.5}{150}}
\newlabel{chaleurspecisobare}{{11.33}{150}}
\@writefile{toc}{\contentsline {subsubsection}{Transformation isochore}{150}}
\@writefile{lof}{\contentsline {figure}{\numberline {11.6}{\ignorespaces Transformation isochore\relax }}{151}}
\newlabel{diagtravailpvisochore}{{11.6}{151}}
\newlabel{enintisochore}{{11.35}{151}}
\newlabel{chaleurspecisochore}{{11.37}{151}}
\@writefile{toc}{\contentsline {subsubsection}{Transformation isotherme}{151}}
\@writefile{lof}{\contentsline {figure}{\numberline {11.7}{\ignorespaces Transformation isotherme\relax }}{151}}
\newlabel{diagtravailpvisotherme}{{11.7}{151}}
\newlabel{travailisotherme}{{11.40}{151}}
\@writefile{toc}{\contentsline {subsubsection}{Transformation adiabatique}{151}}
\@writefile{lof}{\contentsline {figure}{\numberline {11.8}{\ignorespaces Transformation adiabatique\relax }}{152}}
\newlabel{diagtravailpvadiabatique}{{11.8}{152}}
\newlabel{adiabaU0}{{11.41}{152}}
\newlabel{adiabaU}{{11.42}{152}}
\newlabel{adiabdiff}{{11.43}{152}}
\newlabel{adiabadef}{{11.44}{152}}
\newlabel{equationadiabatique}{{11.46}{152}}
\newlabel{adiavariation1}{{11.47}{152}}
\newlabel{adiavariation2}{{11.48}{153}}
\newlabel{travailadiabatique}{{11.49}{153}}
\newlabel{gammacpcv}{{11.50}{153}}
\newlabel{tvadiabat}{{11.57}{153}}
\@writefile{toc}{\contentsline {subsection}{\numberline {11.4.6}Chaleurs sp\IeC {\'e}cifiques}{153}}
\newlabel{cpi}{{11.60}{153}}
\newlabel{cvi}{{11.61}{153}}
\@writefile{toc}{\contentsline {section}{\numberline {11.5}Machines thermiques}{154}}
\@writefile{toc}{\contentsline {subsection}{\numberline {11.5.1}Machine simple}{154}}
\@writefile{lot}{\contentsline {table}{\numberline {11.5}{\ignorespaces \IeC {\'E}tats caract\IeC {\'e}ristiques\relax }}{154}}
\newlabel{etats}{{11.5}{154}}
\newlabel{moteur1}{{11.9(a)}{155}}
\newlabel{sub@moteur1}{{(a)}{155}}
\newlabel{moteur2}{{11.9(b)}{155}}
\newlabel{sub@moteur2}{{(b)}{155}}
\newlabel{moteur3}{{11.9(c)}{155}}
\newlabel{sub@moteur3}{{(c)}{155}}
\newlabel{moteur4}{{11.9(d)}{155}}
\newlabel{sub@moteur4}{{(d)}{155}}
\@writefile{lof}{\contentsline {figure}{\numberline {11.9}{\ignorespaces Moteur thermique}}{155}}
\newlabel{moteurtherm}{{11.9}{155}}
\@writefile{lof}{\contentsline {subfigure}{\numberline{(a)}{\ignorespaces {Chargement}}}{155}}
\@writefile{lof}{\contentsline {subfigure}{\numberline{(b)}{\ignorespaces {Chauffage}}}{155}}
\@writefile{lof}{\contentsline {subfigure}{\numberline{(c)}{\ignorespaces {D\IeC {\'e}chargement}}}{155}}
\@writefile{lof}{\contentsline {subfigure}{\numberline{(d)}{\ignorespaces {Refroidissement}}}{155}}
\@writefile{lof}{\contentsline {figure}{\numberline {11.10}{\ignorespaces Diagramme d'\IeC {\'e}tat\relax }}{155}}
\newlabel{diagpvmotsimple}{{11.10}{155}}
\@writefile{lot}{\contentsline {table}{\numberline {11.6}{\ignorespaces Grandeurs caract\IeC {\'e}ristiques\relax }}{156}}
\newlabel{transetats}{{11.6}{156}}
\@writefile{lof}{\contentsline {figure}{\numberline {11.11}{\ignorespaces Diagramme d'\IeC {\'e}tat\relax }}{156}}
\newlabel{diagpvchal}{{11.11}{156}}
\@writefile{lof}{\contentsline {figure}{\numberline {11.12}{\ignorespaces Diagramme d'\IeC {\'e}tat\relax }}{156}}
\newlabel{bilanmot}{{11.12}{156}}
\@writefile{toc}{\contentsline {subsection}{\numberline {11.5.2}Moteur \IeC {\`a} explosion}{156}}
\newlabel{paraOtto}{{11.5.2}{156}}
\newlabel{admission}{{11.13(a)}{157}}
\newlabel{sub@admission}{{(a)}{157}}
\newlabel{compression}{{11.13(b)}{157}}
\newlabel{sub@compression}{{(b)}{157}}
\newlabel{allumage}{{11.13(c)}{157}}
\newlabel{sub@allumage}{{(c)}{157}}
\newlabel{tempsmoteur}{{11.13(d)}{157}}
\newlabel{sub@tempsmoteur}{{(d)}{157}}
\newlabel{echappement}{{11.13(e)}{157}}
\newlabel{sub@echappement}{{(e)}{157}}
\newlabel{evacuation}{{11.13(f)}{157}}
\newlabel{sub@evacuation}{{(f)}{157}}
\@writefile{lof}{\contentsline {figure}{\numberline {11.13}{\ignorespaces Moteur \IeC {\`a} explosion}}{157}}
\newlabel{motess}{{11.13}{157}}
\@writefile{lof}{\contentsline {subfigure}{\numberline{(a)}{\ignorespaces {Admission}}}{157}}
\@writefile{lof}{\contentsline {subfigure}{\numberline{(b)}{\ignorespaces {Compression}}}{157}}
\@writefile{lof}{\contentsline {subfigure}{\numberline{(c)}{\ignorespaces {Allumage}}}{157}}
\@writefile{lof}{\contentsline {subfigure}{\numberline{(d)}{\ignorespaces {Temps moteur}}}{157}}
\@writefile{lof}{\contentsline {subfigure}{\numberline{(e)}{\ignorespaces {\IeC {\'E}chappement}}}{157}}
\@writefile{lof}{\contentsline {subfigure}{\numberline{(f)}{\ignorespaces {\IeC {\'E}vacuation}}}{157}}
\@writefile{lof}{\contentsline {figure}{\numberline {11.14}{\ignorespaces Diagramme d'\IeC {\'e}tat\relax }}{157}}
\newlabel{diagetatmotess}{{11.14}{157}}
\newlabel{rendementotto}{{11.64}{158}}
\@writefile{toc}{\contentsline {subsection}{\numberline {11.5.3}Moteur Diesel}{158}}
\@writefile{lof}{\contentsline {figure}{\numberline {11.15}{\ignorespaces Diagramme d'\IeC {\'e}tat\relax }}{158}}
\newlabel{diagetatmotdiesel}{{11.15}{158}}
\newlabel{T3T2V3V2}{{11.65}{159}}
\newlabel{eqqq1}{{11.66}{159}}
\newlabel{eqqq2}{{11.67}{159}}
\@writefile{toc}{\contentsline {subsection}{\numberline {11.5.4}Machine de Stirling}{160}}
\@writefile{toc}{\contentsline {subsection}{\numberline {11.5.5}Climatiseur}{160}}
\@writefile{toc}{\contentsline {subsection}{\numberline {11.5.6}R\IeC {\'e}frig\IeC {\'e}rateur}{160}}
\@writefile{toc}{\contentsline {subsection}{\numberline {11.5.7}Pompe \IeC {\`a} chaleur}{160}}
\@writefile{toc}{\contentsline {subsection}{\numberline {11.5.8}Cycle de Carnot}{160}}
\@writefile{lof}{\contentsline {figure}{\numberline {11.16}{\ignorespaces Le cycle de Carnot\relax }}{160}}
\newlabel{diagpvcarnot}{{11.16}{160}}
\newlabel{rendementcarnot}{{11.68}{161}}
\@writefile{toc}{\contentsline {section}{\numberline {11.6}Thermodynamique statistique}{161}}
\newlabel{thermostat}{{11.6}{161}}
\newlabel{entropie}{{11.69}{161}}
\@writefile{toc}{\contentsline {section}{\numberline {11.7}Second principe}{162}}
\newlabel{secondprincipe}{{11.7}{162}}
\@setckpt{ThermodynamiqueOS/ThermodynamiqueOS}{
\setcounter{page}{163}
\setcounter{equation}{69}
\setcounter{enumi}{3}
\setcounter{enumii}{0}
\setcounter{enumiii}{0}
\setcounter{enumiv}{0}
\setcounter{footnote}{0}
\setcounter{mpfootnote}{0}
\setcounter{part}{0}
\setcounter{chapter}{11}
\setcounter{section}{7}
\setcounter{subsection}{0}
\setcounter{subsubsection}{0}
\setcounter{paragraph}{0}
\setcounter{subparagraph}{0}
\setcounter{figure}{16}
\setcounter{table}{6}
\setcounter{NAT@ctr}{0}
\setcounter{parentequation}{0}
\setcounter{FancyVerbLine}{0}
\setcounter{float@type}{8}
\setcounter{fignum}{1}
\setcounter{r@tfl@t}{4}
\setcounter{subfigure}{0}
\setcounter{lofdepth}{1}
\setcounter{subtable}{0}
\setcounter{lotdepth}{1}
\setcounter{ContinuedFloat}{0}
\setcounter{endnote}{91}
\setcounter{OptionTest}{0}
\setcounter{DefaultLines}{2}
\setcounter{DefaultDepth}{0}
\setcounter{L@lines}{3}
\setcounter{L@depth}{0}
\setcounter{lstnumber}{1}
\setcounter{Solution}{0}
\setcounter{exc}{0}
\setcounter{Solution OS}{0}
\setcounter{exosc}{0}
\setcounter{lstlisting}{0}
}
