%!PS-Adobe-2.0 EPSF-2.0
%%Title: Bilame.fig
%%Creator: fig2dev Version 3.2 Patchlevel 5-alpha5
%%CreationDate: Fri Mar 17 20:47:21 2006
%%For: guyotv@debian ()
%%BoundingBox: 0 0 136 50
%Magnification: 1.0000
%%EndComments
/$F2psDict 200 dict def
$F2psDict begin
$F2psDict /mtrx matrix put
/col-1 {0 setgray} bind def
/col0 {0.000 0.000 0.000 srgb} bind def
/col1 {0.000 0.000 1.000 srgb} bind def
/col2 {0.000 1.000 0.000 srgb} bind def
/col3 {0.000 1.000 1.000 srgb} bind def
/col4 {1.000 0.000 0.000 srgb} bind def
/col5 {1.000 0.000 1.000 srgb} bind def
/col6 {1.000 1.000 0.000 srgb} bind def
/col7 {1.000 1.000 1.000 srgb} bind def
/col8 {0.000 0.000 0.560 srgb} bind def
/col9 {0.000 0.000 0.690 srgb} bind def
/col10 {0.000 0.000 0.820 srgb} bind def
/col11 {0.530 0.810 1.000 srgb} bind def
/col12 {0.000 0.560 0.000 srgb} bind def
/col13 {0.000 0.690 0.000 srgb} bind def
/col14 {0.000 0.820 0.000 srgb} bind def
/col15 {0.000 0.560 0.560 srgb} bind def
/col16 {0.000 0.690 0.690 srgb} bind def
/col17 {0.000 0.820 0.820 srgb} bind def
/col18 {0.560 0.000 0.000 srgb} bind def
/col19 {0.690 0.000 0.000 srgb} bind def
/col20 {0.820 0.000 0.000 srgb} bind def
/col21 {0.560 0.000 0.560 srgb} bind def
/col22 {0.690 0.000 0.690 srgb} bind def
/col23 {0.820 0.000 0.820 srgb} bind def
/col24 {0.500 0.190 0.000 srgb} bind def
/col25 {0.630 0.250 0.000 srgb} bind def
/col26 {0.750 0.380 0.000 srgb} bind def
/col27 {1.000 0.500 0.500 srgb} bind def
/col28 {1.000 0.630 0.630 srgb} bind def
/col29 {1.000 0.750 0.750 srgb} bind def
/col30 {1.000 0.880 0.880 srgb} bind def
/col31 {1.000 0.840 0.000 srgb} bind def

end
save
newpath 0 50 moveto 0 0 lineto 136 0 lineto 136 50 lineto closepath clip newpath
-6.5 66.5 translate
1 -1 scale

/cp {closepath} bind def
/ef {eofill} bind def
/gr {grestore} bind def
/gs {gsave} bind def
/sa {save} bind def
/rs {restore} bind def
/l {lineto} bind def
/m {moveto} bind def
/rm {rmoveto} bind def
/n {newpath} bind def
/s {stroke} bind def
/sh {show} bind def
/slc {setlinecap} bind def
/slj {setlinejoin} bind def
/slw {setlinewidth} bind def
/srgb {setrgbcolor} bind def
/rot {rotate} bind def
/sc {scale} bind def
/sd {setdash} bind def
/ff {findfont} bind def
/sf {setfont} bind def
/scf {scalefont} bind def
/sw {stringwidth} bind def
/tr {translate} bind def
/tnt {dup dup currentrgbcolor
  4 -2 roll dup 1 exch sub 3 -1 roll mul add
  4 -2 roll dup 1 exch sub 3 -1 roll mul add
  4 -2 roll dup 1 exch sub 3 -1 roll mul add srgb}
  bind def
/shd {dup dup currentrgbcolor 4 -2 roll mul 4 -2 roll mul
  4 -2 roll mul srgb} bind def
/$F2psBegin {$F2psDict begin /$F2psEnteredState save def} def
/$F2psEnd {$F2psEnteredState restore end} def

$F2psBegin
10 setmiterlimit
0 slj 0 slc
 0.06299 0.06299 sc
%
% Fig objects follow
%
% 
% here starts figure with depth 50
/Symbol ff 158.75 scf sf
1177 997 m
gs 1 -1 sc (a) col0 sh gr
/Times-Roman ff 127.00 scf sf
1275 1040 m
gs 1 -1 sc (1) col0 sh gr
/Symbol ff 158.75 scf sf
1412 449 m
gs 1 -1 sc (a) col0 sh gr
/Times-Roman ff 127.00 scf sf
1522 490 m
gs 1 -1 sc (2) col0 sh gr
/Symbol ff 158.75 scf sf
481 367 m
gs 1 -1 sc (a) col0 sh gr
/Times-Roman ff 127.00 scf sf
579 410 m
gs 1 -1 sc (1) col0 sh gr
/Symbol ff 158.75 scf sf
754 374 m
gs 1 -1 sc (a) col0 sh gr
/Times-Roman ff 127.00 scf sf
864 415 m
gs 1 -1 sc (2) col0 sh gr
% Arc
7.500 slw
0 slc
n 323.4 -6813.3 7669.4 89.0544 77.5259 arcn
gs col0 s gr

% Arc
n 405.0 -5835.8 6632.0 89.6024 76.4661 arcn
gs col0 s gr

% Arc
n 433.8 -5816.7 6544.8 89.8495 76.7578 arcn
gs col0 s gr

% Polyline
0 slj
n 455 856 m
 455 726 l gs col0 s gr 
% Polyline
n 1981 674 m
 1933 550 l gs col0 s gr 
% Polyline
n 453 790 m 115 790 l 115 858 l 453 858 l
 cp gs col0 s gr 
% Polyline
n 2229 743 m 1891 743 l 1891 811 l 2229 811 l
 cp gs col0 s gr 
% Polyline
gs  clippath
1467 820 m 1561 730 l 1540 708 l 1446 799 l 1446 799 l 1511 758 l 1467 820 l cp
eoclip
n 1540 730 m
 1343 921 l gs col0 s gr gr

% arrowhead
n 1467 820 m 1511 758 l 1446 799 l 1467 799 l 1467 820 l 
 cp gs 0.00 setgray ef gr  col0 s
% Polyline
gs  clippath
1365 578 m 1316 699 l 1344 710 l 1393 590 l 1393 590 l 1351 654 l 1365 578 l cp
eoclip
n 1336 691 m
 1420 488 l gs col0 s gr gr

% arrowhead
n 1365 578 m 1351 654 l 1393 590 l 1373 598 l 1365 578 l 
 cp gs 0.00 setgray ef gr  col0 s
/Times-Roman ff 158.75 scf sf
119 1008 m
gs 1 -1 sc (Contact) col0 sh gr
/Times-Roman ff 158.75 scf sf
1729 971 m
gs 1 -1 sc (Contact) col0 sh gr
/Times-Roman ff 158.75 scf sf
666 645 m
gs 1 -1 sc (Bilame) col0 sh gr
/Symbol ff 158.75 scf sf
649 372 m
gs 1 -1 sc (>) col0 sh gr
% here ends figure;
$F2psEnd
rs
showpage
%%Trailer
%EOF
