%!PS-Adobe-3.0 EPSF-3.0
%%Creator: cairo 1.14.8 (http://cairographics.org)
%%CreationDate: Thu Apr  4 10:47:12 2019
%%Pages: 1
%%DocumentData: Clean7Bit
%%LanguageLevel: 2
%%BoundingBox: 0 -1 195 179
%%EndComments
%%BeginProlog
save
50 dict begin
/q { gsave } bind def
/Q { grestore } bind def
/cm { 6 array astore concat } bind def
/w { setlinewidth } bind def
/J { setlinecap } bind def
/j { setlinejoin } bind def
/M { setmiterlimit } bind def
/d { setdash } bind def
/m { moveto } bind def
/l { lineto } bind def
/c { curveto } bind def
/h { closepath } bind def
/re { exch dup neg 3 1 roll 5 3 roll moveto 0 rlineto
      0 exch rlineto 0 rlineto closepath } bind def
/S { stroke } bind def
/f { fill } bind def
/f* { eofill } bind def
/n { newpath } bind def
/W { clip } bind def
/W* { eoclip } bind def
/BT { } bind def
/ET { } bind def
/pdfmark where { pop globaldict /?pdfmark /exec load put }
    { globaldict begin /?pdfmark /pop load def /pdfmark
    /cleartomark load def end } ifelse
/BDC { mark 3 1 roll /BDC pdfmark } bind def
/EMC { mark /EMC pdfmark } bind def
/cairo_store_point { /cairo_point_y exch def /cairo_point_x exch def } def
/Tj { show currentpoint cairo_store_point } bind def
/TJ {
  {
    dup
    type /stringtype eq
    { show } { -0.001 mul 0 cairo_font_matrix dtransform rmoveto } ifelse
  } forall
  currentpoint cairo_store_point
} bind def
/cairo_selectfont { cairo_font_matrix aload pop pop pop 0 0 6 array astore
    cairo_font exch selectfont cairo_point_x cairo_point_y moveto } bind def
/Tf { pop /cairo_font exch def /cairo_font_matrix where
      { pop cairo_selectfont } if } bind def
/Td { matrix translate cairo_font_matrix matrix concatmatrix dup
      /cairo_font_matrix exch def dup 4 get exch 5 get cairo_store_point
      /cairo_font where { pop cairo_selectfont } if } bind def
/Tm { 2 copy 8 2 roll 6 array astore /cairo_font_matrix exch def
      cairo_store_point /cairo_font where { pop cairo_selectfont } if } bind def
/g { setgray } bind def
/rg { setrgbcolor } bind def
/d1 { setcachedevice } bind def
%%EndProlog
%%BeginSetup
%%EndSetup
%%Page: 1 1
%%BeginPageSetup
%%PageBoundingBox: 0 -1 195 179
%%EndPageSetup
q 0 -1 195 180 rectclip q
0 g
0.75 w
0 J
0 j
[] 0.0 d
4 M q 1 0 0 -1 0 178.798813 cm
1.906 1.477 m 1.906 176.895 l 193.23 176.895 l S Q
1.906 174.322 m 3.406 172.822 l 1.906 178.072 l 0.406 172.822 l h
1.906 174.322 m f*
0.4 w
q 0 -1 -1 0 0 178.798813 cm
4.477 -1.906 m 5.977 -3.406 l 0.727 -1.906 l 5.977 -0.406 l h
4.477 -1.906 m S Q
190.23 1.904 m 188.73 0.404 l 193.98 1.904 l 188.73 3.404 l h
190.23 1.904 m f*
q -1 0 0 1 0 178.798813 cm
-190.23 -176.895 m -188.73 -178.395 l -193.98 -176.895 l -188.73 -175.395
 l h
-190.23 -176.895 m S Q
0.75 w
q 1 0 0 -1 0 178.798813 cm
43.219 9.406 m 43.219 9.406 50.926 26.805 69.957 46.035 c 88.984 65.262
 107.262 80.277 152.551 87.59 c S Q
67.848 134.896 m 65.727 134.908 l 70.484 132.232 l 67.855 137.018 l h
67.848 134.896 m f*
0.284307 w
q -0.989669 1 1 0.989669 0 178.798813 cm
-56.101 12.326 m -55.035 11.26 l -58.765 12.326 l -55.033 13.391 l h
-56.101 12.326 m S Q
0.75 w
q 1 0 0 -1 0 178.798813 cm
42.902 105.387 m 42.902 105.387 80.73 135.43 115.352 146.043 c 149.977 
156.66 157.953 154.965 157.953 154.965 c S Q
118.219 31.877 m 120.094 32.869 l 114.637 32.975 l 119.215 30.002 l h
118.219 31.877 m f*
0.382431 w
q 1 -0.306584 -0.306584 -1 0 178.798813 cm
149.235 101.169 m 150.671 99.736 l 145.654 101.169 l 150.671 102.603 l 
h
149.235 101.169 m S Q
0.75 w
q 1 0 0 -1 0 178.798813 cm
56.57 30.383 m 56.57 30.383 55.375 49.848 57.918 72.176 c 60.461 94.5 66.738
 119.688 81.676 131.129 c S Q
58.258 103.643 m 59.918 102.322 l 57.836 107.369 l 56.938 101.982 l h
58.258 103.643 m f*
0.397431 w
q 0.113879 -1 -1 -0.113879 0 178.798813 cm
80.743 -49.063 m 82.234 -50.553 l 77.017 -49.065 l 82.234 -47.573 l h
80.743 -49.063 m S Q
0.75 w
q 1 0 0 -1 0 178.798813 cm
107.102 73.922 m 107.102 73.922 109.168 88.223 114.969 105.387 c 120.766
 122.547 130.301 142.57 145.238 154.012 c S Q
114.008 76.256 m 112.105 77.197 l 115.207 72.701 l 114.949 78.154 l h
114.008 76.256 m f*
0.378944 w
q -0.337963 1 1 0.337963 0 178.798813 cm
-126.612 71.218 m -125.19 69.796 l -130.166 71.216 l -125.194 72.638 l 
h
-126.612 71.218 m S Q
1.125 w
q 1 0 0 -1 0 178.798813 cm
82.949 38.645 m 82.949 76.465 l S Q
82.949 106.834 m 80.699 109.084 l 82.949 101.209 l 85.199 109.084 l h
82.949 106.834 m f*
0.6 w
q 0 1 1 0 0 178.798813 cm
-71.965 82.949 m -69.715 80.699 l -77.59 82.949 l -69.715 85.199 l h
-71.965 82.949 m S Q
1.125 w
q 1 0 0 -1 0 178.798813 cm
103.246 122.707 m 103.246 160.527 l S Q
103.246 22.771 m 100.996 25.021 l 103.246 17.146 l 105.496 25.021 l h
103.246 22.771 m f*
0.6 w
q 0 1 1 0 0 178.798813 cm
-156.027 103.246 m -153.777 100.996 l -161.652 103.246 l -153.777 105.496
 l h
-156.027 103.246 m S Q
Q Q
showpage
%%Trailer
end restore
%%EOF
