%!PS-Adobe-3.0 EPSF-3.0
%%Creator: inkscape 0.44.1
%%Pages: 1
%%Orientation: Portrait
%%BoundingBox: 24 725 172 832
%%HiResBoundingBox: 24.483334 725.60157 171.90088 831.34247
%%DocumentMedia: plain 596 842 0 () ()
%%EndComments
%%Page: 1 1
0 842 translate
0.8 -0.8 scale
gsave [1 0 0 1 0 0] concat
0 0 0 setrgbcolor
[] 0 setdash
0.70866144 setlinewidth
0 setlinejoin
0 setlinecap
newpath
32.198656 16.968514 moveto
32.198656 130.47328 lineto
199.84753 130.47328 lineto
stroke
gsave [1.7356626e-17 0.28346457 -0.28346457 1.7356626e-17 32.198656 19.80316] concat
gsave
0 0 0 setrgbcolor
newpath
0 0 moveto
5 -5 lineto
-12.5 0 lineto
5 5 lineto
0 0 lineto
closepath
eofill
grestore
0 0 0 setrgbcolor
[] 0 setdash
1.25 setlinewidth
0 setlinejoin
0 setlinecap
newpath
0 0 moveto
5 -5 lineto
-12.5 0 lineto
5 5 lineto
0 0 lineto
closepath
stroke
grestore
gsave [-0.28346457 0 0 -0.28346457 197.01288 130.47328] concat
gsave
0 0 0 setrgbcolor
newpath
0 0 moveto
5 -5 lineto
-12.5 0 lineto
5 5 lineto
0 0 lineto
closepath
eofill
grestore
0 0 0 setrgbcolor
[] 0 setdash
1.25 setlinewidth
0 setlinejoin
0 setlinecap
newpath
0 0 moveto
5 -5 lineto
-12.5 0 lineto
5 5 lineto
0 0 lineto
closepath
stroke
grestore
0 0 0 setrgbcolor
[] 0 setdash
0.70866144 setlinewidth
0 setlinejoin
0 setlinecap
newpath
71.853832 41.873467 moveto
121.6808 62.020112 121.51314 62.020112 174.94257 62.020112 curveto
174.94257 106.10796 lineto
120.4384 106.10796 120.51448 106.10796 72.126554 85.601553 curveto
71.853832 41.873467 lineto
closepath
stroke
gsave [2.118757 0 0 2.118517 -18.83438 -58.68067] concat
0 0 0 setrgbcolor
[] 0 setdash
0.70866144 setlinewidth
1 setlinejoin
1 setlinecap
newpath
42.387278 47.938861 moveto
42.221304 47.754271 42.236412 47.469756 42.421002 47.303782 curveto
42.605592 47.137807 42.890108 47.152916 43.056082 47.337506 curveto
43.222056 47.522096 43.206947 47.806612 43.022357 47.972586 curveto
42.840306 48.136277 42.561437 48.124488 42.393851 47.946015 curveto
stroke
grestore
gsave [2.118757 0 0 2.118517 84.41718 -39.07367] concat
0 0 0 setrgbcolor
[] 0 setdash
0.70866144 setlinewidth
1 setlinejoin
1 setlinecap
newpath
42.387278 47.938861 moveto
42.221304 47.754271 42.236412 47.469756 42.421002 47.303782 curveto
42.605592 47.137807 42.890108 47.152916 43.056082 47.337506 curveto
43.222056 47.522096 43.206947 47.806612 43.022357 47.972586 curveto
42.840306 48.136277 42.561437 48.124488 42.393851 47.946015 curveto
stroke
grestore
gsave [2.118757 0 0 2.118517 84.41718 4.997121] concat
0 0 0 setrgbcolor
[] 0 setdash
0.70866144 setlinewidth
1 setlinejoin
1 setlinecap
newpath
42.387278 47.938861 moveto
42.221304 47.754271 42.236412 47.469756 42.421002 47.303782 curveto
42.605592 47.137807 42.890108 47.152916 43.056082 47.337506 curveto
43.222056 47.522096 43.206947 47.806612 43.022357 47.972586 curveto
42.840306 48.136277 42.561437 48.124488 42.393851 47.946015 curveto
stroke
grestore
gsave [2.118757 0 0 2.118517 -18.47462 -15.50929] concat
0 0 0 setrgbcolor
[] 0 setdash
0.70866144 setlinewidth
1 setlinejoin
1 setlinecap
newpath
42.387278 47.938861 moveto
42.221304 47.754271 42.236412 47.469756 42.421002 47.303782 curveto
42.605592 47.137807 42.890108 47.152916 43.056082 47.337506 curveto
43.222056 47.522096 43.206947 47.806612 43.022357 47.972586 curveto
42.840306 48.136277 42.561437 48.124488 42.393851 47.946015 curveto
stroke
grestore
0 0 0 setrgbcolor
[] 0 setdash
0.70866144 setlinewidth
0 setlinejoin
0 setlinecap
newpath
71.952305 85.682965 moveto
71.952305 67.155247 lineto
stroke
gsave [-1.7356626e-17 0.28346457 -0.28346457 -1.7356626e-17 71.952305 69.989893] concat
gsave
0 0 0 setrgbcolor
newpath
0 0 moveto
5 -5 lineto
-12.5 0 lineto
5 5 lineto
0 0 lineto
closepath
eofill
grestore
0 0 0 setrgbcolor
[] 0 setdash
1.25 setlinewidth
0 setlinejoin
0 setlinecap
newpath
0 0 moveto
5 -5 lineto
-12.5 0 lineto
5 5 lineto
0 0 lineto
closepath
stroke
grestore
0 0 0 setrgbcolor
[] 0 setdash
0.70866144 setlinewidth
0 setlinejoin
0 setlinecap
newpath
175.02398 65.180632 moveto
175.02398 83.708349 lineto
stroke
gsave [-1.7356626e-17 -0.28346457 0.28346457 -1.7356626e-17 175.02398 80.873703] concat
gsave
0 0 0 setrgbcolor
newpath
0 0 moveto
5 -5 lineto
-12.5 0 lineto
5 5 lineto
0 0 lineto
closepath
eofill
grestore
0 0 0 setrgbcolor
[] 0 setdash
1.25 setlinewidth
0 setlinejoin
0 setlinecap
newpath
0 0 moveto
5 -5 lineto
-12.5 0 lineto
5 5 lineto
0 0 lineto
closepath
stroke
grestore
0 0 0 setrgbcolor
[] 0 setdash
0.70866144 setlinewidth
0 setlinejoin
0 setlinecap
newpath
151.98666 61.938705 moveto
155.15868 61.938705 lineto
stroke
gsave [-0.28346457 0 0 -0.28346457 152.32403 61.938705] concat
gsave
0 0 0 setrgbcolor
newpath
0 0 moveto
5 -5 lineto
-12.5 0 lineto
5 5 lineto
0 0 lineto
closepath
eofill
grestore
0 0 0 setrgbcolor
[] 0 setdash
1.25 setlinewidth
0 setlinejoin
0 setlinecap
newpath
0 0 moveto
5 -5 lineto
-12.5 0 lineto
5 5 lineto
0 0 lineto
closepath
stroke
grestore
0 0 0 setrgbcolor
[] 0 setdash
0.70866144 setlinewidth
0 setlinejoin
0 setlinecap
newpath
97.563705 96.06963 moveto
95.090751 94.924209 lineto
stroke
gsave [0.25721351 0.11913596 -0.11913596 0.25721351 97.662886 96.115569] concat
gsave
0 0 0 setrgbcolor
newpath
0 0 moveto
5 -5 lineto
-12.5 0 lineto
5 5 lineto
0 0 lineto
closepath
eofill
grestore
0 0 0 setrgbcolor
[] 0 setdash
1.25 setlinewidth
0 setlinejoin
0 setlinecap
newpath
0 0 moveto
5 -5 lineto
-12.5 0 lineto
5 5 lineto
0 0 lineto
closepath
stroke
grestore
gsave [1 0 0 -1 195.5304 124.53721] concat
gsave
/newlatin1font {findfont dup length dict copy dup /Encoding ISOLatin1Encoding put definefont} def
/(Thryomanes-ISOLatin1) /(Thryomanes) newlatin1font
10 scalefont
setfont
0 0 0 setrgbcolor
newpath
0 0 moveto
(V/m) show
grestore
grestore
gsave [1 0 0 -1 38.134724 20.38625] concat
gsave
/(Thryomanes-ISOLatin1) findfont
10 scalefont
setfont
0 0 0 setrgbcolor
newpath
0 0 moveto
(p/bar) show
grestore
grestore
0 0 0 setrgbcolor
[3.0394145 3.0394145] 0 setdash
0.37992683 setlinewidth
0 setlinejoin
0 setlinecap
newpath
72.222126 85.831377 moveto
72.222126 130.50475 lineto
stroke
0 0 0 setrgbcolor
[2.8346457 2.8346457] 0 setdash
0.35433072 setlinewidth
0 setlinejoin
0 setlinecap
newpath
174.8441 106.09943 moveto
174.8441 130.38334 lineto
stroke
0 0 0 setrgbcolor
[] 0 setdash
0.60113013 setlinewidth
0 setlinejoin
0 setlinecap
newpath
72.335187 105.64973 moveto
174.28133 105.64973 lineto
stroke
0 0 0 setrgbcolor
[] 0 setdash
1.0805978 setlinewidth
0 setlinejoin
0 setlinecap
newpath
123.83975 68.484692 moveto
123.83975 46.257794 lineto
stroke
gsave [-2.6466138e-17 0.4322391 -0.4322391 -2.6466138e-17 123.83975 50.580185] concat
gsave
0 0 0 setrgbcolor
newpath
0 0 moveto
5 -5 lineto
-12.5 0 lineto
5 5 lineto
0 0 lineto
closepath
eofill
grestore
0 0 0 setrgbcolor
[] 0 setdash
1.25 setlinewidth
0 setlinejoin
0 setlinecap
newpath
0 0 moveto
5 -5 lineto
-12.5 0 lineto
5 5 lineto
0 0 lineto
closepath
stroke
grestore
0 0 0 setrgbcolor
[] 0 setdash
2.480315 setlinewidth
0 setlinejoin
0 setlinecap
newpath
51.407042 63.056856 moveto
92.239977 63.056856 lineto
stroke
gsave [-0.99212599 0 0 -0.99212599 82.318717 63.056856] concat
gsave
0 0 0 setrgbcolor
newpath
0 0 moveto
5 -5 lineto
-12.5 0 lineto
5 5 lineto
0 0 lineto
closepath
eofill
grestore
0 0 0 setrgbcolor
[] 0 setdash
1.25 setlinewidth
0 setlinejoin
0 setlinecap
newpath
0 0 moveto
5 -5 lineto
-12.5 0 lineto
5 5 lineto
0 0 lineto
closepath
stroke
grestore
0 0 0 setrgbcolor
[] 0 setdash
2.1259842 setlinewidth
0 setlinejoin
0 setlinecap
newpath
156.81717 88.420043 moveto
197.65011 88.420043 lineto
stroke
gsave [-0.85039368 0 0 -0.85039368 189.14617 88.420043] concat
gsave
0 0 0 setrgbcolor
newpath
0 0 moveto
5 -5 lineto
-12.5 0 lineto
5 5 lineto
0 0 lineto
closepath
eofill
grestore
0 0 0 setrgbcolor
[] 0 setdash
1.25 setlinewidth
0 setlinejoin
0 setlinecap
newpath
0 0 moveto
5 -5 lineto
-12.5 0 lineto
5 5 lineto
0 0 lineto
closepath
stroke
grestore
0 0 0 setrgbcolor
[] 0 setdash
0.70348704 setlinewidth
0 setlinejoin
0 setlinecap
newpath
89.482535 100.63821 moveto
89.482535 84.330113 lineto
stroke
gsave [-1.7229894e-17 0.28139482 -0.28139482 -1.7229894e-17 89.482535 87.144061] concat
gsave
0 0 0 setrgbcolor
newpath
0 0 moveto
5 -5 lineto
-12.5 0 lineto
5 5 lineto
0 0 lineto
closepath
eofill
grestore
0 0 0 setrgbcolor
[] 0 setdash
1.25 setlinewidth
0 setlinejoin
0 setlinecap
newpath
0 0 moveto
5 -5 lineto
-12.5 0 lineto
5 5 lineto
0 0 lineto
closepath
stroke
grestore
gsave [1 0 0 -1 170.16721 145.2235] concat
gsave
/(Thryomanes-ISOLatin1) findfont
10 scalefont
setfont
0 0 0 setrgbcolor
newpath
0 0 moveto
(V1) show
grestore
grestore
gsave [1 0 0 -1 67.275406 144.3241] concat
gsave
/(Thryomanes-ISOLatin1) findfont
10 scalefont
setfont
0 0 0 setrgbcolor
newpath
0 0 moveto
(V2) show
grestore
grestore
gsave [1 0 0 -1 130.41354 55.283119] concat
gsave
/(Thryomanes-ISOLatin1) findfont
10 scalefont
setfont
0 0 0 setrgbcolor
newpath
0 0 moveto
(A) show
grestore
grestore
gsave [1 0 0 -1 93.178238 88.201302] concat
gsave
/(Thryomanes-ISOLatin1) findfont
10 scalefont
setfont
0 0 0 setrgbcolor
newpath
0 0 moveto
(A) show
grestore
grestore
gsave [1 0 0 -1 41.552456 54.743477] concat
gsave
/(Thryomanes-ISOLatin1) findfont
10 scalefont
setfont
0 0 0 setrgbcolor
newpath
0 0 moveto
(Q1) show
grestore
grestore
gsave [1 0 0 -1 184.01802 77.408455] concat
gsave
/(Thryomanes-ISOLatin1) findfont
10 scalefont
setfont
0 0 0 setrgbcolor
newpath
0 0 moveto
(Q2) show
grestore
grestore
0 0 0 setrgbcolor
[] 0 setdash
0.70866144 setlinewidth
0 setlinejoin
0 setlinecap
newpath
82.571852 105.64972 moveto
85.297192 105.64972 lineto
stroke
gsave [-0.28346457 0 0 -0.28346457 82.462546 105.64972] concat
gsave
0 0 0 setrgbcolor
newpath
0 0 moveto
5 -5 lineto
-12.5 0 lineto
5 5 lineto
0 0 lineto
closepath
eofill
grestore
0 0 0 setrgbcolor
[] 0 setdash
1.25 setlinewidth
0 setlinejoin
0 setlinecap
newpath
0 0 moveto
5 -5 lineto
-12.5 0 lineto
5 5 lineto
0 0 lineto
closepath
stroke
grestore
0 0 0 setrgbcolor
[] 0 setdash
0.70866144 setlinewidth
0 setlinejoin
0 setlinecap
newpath
106.42468 105.64972 moveto
103.69934 105.64972 lineto
stroke
gsave [0.28346457 -3.4713252e-17 3.4713252e-17 0.28346457 106.53399 105.64972] concat
gsave
0 0 0 setrgbcolor
newpath
0 0 moveto
5 -5 lineto
-12.5 0 lineto
5 5 lineto
0 0 lineto
closepath
eofill
grestore
0 0 0 setrgbcolor
[] 0 setdash
1.25 setlinewidth
0 setlinejoin
0 setlinecap
newpath
0 0 moveto
5 -5 lineto
-12.5 0 lineto
5 5 lineto
0 0 lineto
closepath
stroke
grestore
gsave [1 0 0 -1 108.46809 120.0402] concat
gsave
/(Thryomanes-ISOLatin1) findfont
10 scalefont
setfont
0 0 0 setrgbcolor
newpath
0 0 moveto
(a ; f) show
grestore
grestore
gsave [1 0 0 -1 115.66333 97.914864] concat
gsave
/(Thryomanes-ISOLatin1) findfont
10 scalefont
setfont
0 0 0 setrgbcolor
newpath
0 0 moveto
(b) show
grestore
grestore
gsave [1 0 0 -1 50.186733 78.307861] concat
gsave
/(Thryomanes-ISOLatin1) findfont
10 scalefont
setfont
0 0 0 setrgbcolor
newpath
0 0 moveto
(c) show
grestore
grestore
gsave [1 0 0 -1 98.394775 45.389679] concat
gsave
/(Thryomanes-ISOLatin1) findfont
10 scalefont
setfont
0 0 0 setrgbcolor
newpath
0 0 moveto
(d) show
grestore
grestore
gsave [1 0 0 -1 158.29506 75.789528] concat
gsave
/(Thryomanes-ISOLatin1) findfont
10 scalefont
setfont
0 0 0 setrgbcolor
newpath
0 0 moveto
(e) show
grestore
grestore
grestore
showpage
%%EOF
