%!PS-Adobe-3.0 EPSF-3.0
%%Creator: inkscape 0.44.1
%%Pages: 1
%%Orientation: Portrait
%%BoundingBox: 12 724 129 830
%%HiResBoundingBox: 12.168477 724.88925 128.50117 829.21782
%%DocumentMedia: plain 596 842 0 () ()
%%EndComments
%%Page: 1 1
0 842 translate
0.8 -0.8 scale
gsave [1 0 0 1 0 0] concat
0 0 0 setrgbcolor
[] 0 setdash
0.70866144 setlinewidth
0 setlinejoin
0 setlinecap
newpath
16.805085 16.725731 moveto
16.805085 134.36133 lineto
159.74064 134.36133 lineto
stroke
gsave [1.7356626e-17 0.28346457 -0.28346457 1.7356626e-17 16.805085 19.560377] concat
gsave
0 0 0 setrgbcolor
newpath
0 0 moveto
5 -5 lineto
-12.5 0 lineto
5 5 lineto
0 0 lineto
closepath
eofill
grestore
0 0 0 setrgbcolor
[] 0 setdash
1.25 setlinewidth
0 setlinejoin
0 setlinecap
newpath
0 0 moveto
5 -5 lineto
-12.5 0 lineto
5 5 lineto
0 0 lineto
closepath
stroke
grestore
gsave [-0.28346457 0 0 -0.28346457 156.90599 134.36133] concat
gsave
0 0 0 setrgbcolor
newpath
0 0 moveto
5 -5 lineto
-12.5 0 lineto
5 5 lineto
0 0 lineto
closepath
eofill
grestore
0 0 0 setrgbcolor
[] 0 setdash
1.25 setlinewidth
0 setlinejoin
0 setlinecap
newpath
0 0 moveto
5 -5 lineto
-12.5 0 lineto
5 5 lineto
0 0 lineto
closepath
stroke
grestore
0 0 0 setrgbcolor
[] 0 setdash
1 setlinewidth
0 setlinejoin
0 setlinecap
newpath
25.115292 92.44095 moveto
25.115292 92.44095 30.470759 81.960855 42.659062 79.144618 curveto
54.847365 76.328381 53.09507 82.145487 65.373628 81.914687 curveto
77.654267 81.683848 73.817047 70.814729 88.826878 61.785519 curveto
103.75452 52.805747 110.03636 55.979641 115.6042 65.294273 curveto
121.22125 74.691219 124.32994 77.621082 132.77865 68.064344 curveto
141.22736 58.507606 146.81366 56.245382 146.81366 56.245382 curveto
stroke
0 0 0 setrgbcolor
[] 0 setdash
0.35433072 setlinewidth
0 setlinejoin
0 setlinecap
newpath
35.826225 81.545345 moveto
35.826225 134.36133 lineto
35.826225 134.17666 lineto
stroke
0 0 0 setrgbcolor
[] 0 setdash
0.35433072 setlinewidth
0 setlinejoin
0 setlinecap
newpath
136.65674 64.001575 moveto
136.65674 134.17666 lineto
stroke
gsave [1 0 0 -1 20.313839 27.067322] concat
gsave
/newlatin1font {findfont dup length dict copy dup /Encoding ISOLatin1Encoding put definefont} def
/(Thryomanes-ISOLatin1) /(Thryomanes) newlatin1font
10 scalefont
setfont
0 0 0 setrgbcolor
newpath
0 0 moveto
(p) show
grestore
grestore
gsave [1 0 0 -1 152.72314 128.63652] concat
gsave
/(Thryomanes-ISOLatin1) findfont
10 scalefont
setfont
0 0 0 setrgbcolor
newpath
0 0 moveto
(V) show
grestore
grestore
gsave [1 0 0 -1 31.024775 145.81094] concat
gsave
/(Thryomanes-ISOLatin1) findfont
10 scalefont
setfont
0 0 0 setrgbcolor
newpath
0 0 moveto
(V1) show
grestore
grestore
gsave [1 0 0 -1 131.52071 146.11391] concat
gsave
/(Thryomanes-ISOLatin1) findfont
10 scalefont
setfont
0 0 0 setrgbcolor
newpath
0 0 moveto
(V2) show
grestore
grestore
gsave [1 0 0 -1 60.202831 112.93945] concat
gsave
/(Thryomanes-ISOLatin1) findfont
10 scalefont
setfont
0 0 0 setrgbcolor
newpath
0 0 moveto
(int) show
grestore
grestore
grestore
showpage
%%EOF
