%!PS-Adobe-2.0
%%Creator: inkscape 0.41.1
%%Pages: 1
%%Orientation: Portrait
%%BoundingBox: 0 10 136 64
%%HiResBoundingBox: 0.58799043 10.172154 135.44845 63.237817
%%EndComments
%%Page: 1 1
0 63 translate
0.80000000 -0.80000000 scale
gsave [1.0000000 0.0000000 0.0000000 1.0000000 0.0000000 0.0000000] concat
0.0000000 0.0000000 0.0000000 setrgbcolor
newpath
1.6761000 77.000000 moveto
1.6761000 77.000000 lineto
1.6761000 77.000000 lineto
1.6761000 77.000000 lineto
fill
0.80000001 0.80000001 0.80000001 setrgbcolor
newpath
10.979600 59.933600 moveto
110.18900 59.933600 lineto
110.18900 31.587900 lineto
10.979600 31.587900 lineto
10.979600 59.933600 lineto
closepath
fill
0.0000000 0.0000000 0.0000000 setrgbcolor
[] 0 setdash
0.47242501 setlinewidth
0 setlinejoin
0 setlinecap
newpath
10.979600 59.933600 moveto
110.18900 59.933600 lineto
110.18900 31.587900 lineto
10.979600 31.587900 lineto
10.979600 59.933600 lineto
closepath
stroke
0.60000002 0.60000002 0.60000002 setrgbcolor
newpath
110.18900 31.587900 moveto
130.03100 20.250000 lineto
130.03100 48.595700 lineto
110.18900 59.933600 lineto
110.18900 31.587900 lineto
fill
0.0000000 0.0000000 0.0000000 setrgbcolor
[] 0 setdash
0.47242501 setlinewidth
0 setlinejoin
0 setlinecap
newpath
110.18900 31.587900 moveto
130.03100 20.250000 lineto
130.03100 48.595700 lineto
110.18900 59.933600 lineto
110.18900 31.587900 lineto
stroke
0.60000002 0.60000002 0.60000002 setrgbcolor
newpath
10.980100 31.587900 moveto
30.821900 20.250000 lineto
130.03100 20.250000 lineto
110.18900 31.587900 lineto
10.980100 31.587900 lineto
fill
0.0000000 0.0000000 0.0000000 setrgbcolor
[] 0 setdash
0.47242501 setlinewidth
0 setlinejoin
0 setlinecap
newpath
10.980100 31.587900 moveto
30.821900 20.250000 lineto
130.03100 20.250000 lineto
110.18900 31.587900 lineto
10.980100 31.587900 lineto
stroke
0.0000000 0.0000000 0.0000000 setrgbcolor
[] 0 setdash
0.58733535 setlinewidth
0 setlinejoin
0 setlinecap
newpath
2.0382274 65.266938 moveto
114.79569 65.266938 lineto
114.79569 26.718993 lineto
2.0382274 26.718993 lineto
2.0382274 65.266938 lineto
closepath
stroke
0.0000000 0.0000000 0.0000000 setrgbcolor
[] 0 setdash
0.12500000 setlinewidth
0 setlinejoin
0 setlinecap
newpath
30.962033 48.267624 moveto
1.8577220 65.141932 lineto
stroke
0.0000000 0.0000000 0.0000000 setrgbcolor
[] 0 setdash
0.12500000 setlinewidth
0 setlinejoin
0 setlinecap
newpath
30.962029 9.7198927 moveto
1.8577191 26.594201 lineto
stroke
0.0000000 0.0000000 0.0000000 setrgbcolor
[] 0 setdash
0.66453803 setlinewidth
0 setlinejoin
0 setlinecap
newpath
114.78665 26.764606 moveto
145.71349 9.9763405 lineto
145.40387 48.310257 lineto
114.78665 65.253335 lineto
114.78665 26.764606 lineto
stroke
0.0000000 0.0000000 0.0000000 setrgbcolor
[] 0 setdash
0.60813165 setlinewidth
0 setlinejoin
0 setlinecap
newpath
2.1940748 26.525605 moveto
30.924739 10.140899 lineto
145.93830 9.9860888 lineto
114.88525 26.525605 lineto
2.1940748 26.525605 lineto
stroke
0.0000000 0.0000000 0.0000000 setrgbcolor
[] 0 setdash
0.12500000 setlinewidth
0 setlinejoin
0 setlinecap
newpath
145.67636 48.577244 moveto
30.807220 48.267624 lineto
stroke
0.0000000 0.0000000 0.0000000 setrgbcolor
[] 0 setdash
0.12500000 setlinewidth
0 setlinejoin
0 setlinecap
newpath
30.962033 48.267624 moveto
31.116843 9.7198929 lineto
stroke
0.0000000 0.0000000 0.0000000 setrgbcolor
newpath
22.225870 52.447498 moveto
20.033487 52.447498 lineto
20.053019 52.222889 lineto
20.219031 52.196848 20.316687 52.178944 20.345987 52.169178 curveto
20.456661 52.126861 20.511999 52.056874 20.512003 51.959217 curveto
20.511999 51.845285 20.341101 51.563710 19.999308 51.114491 curveto
19.774695 50.831289 19.550086 50.546459 19.325480 50.259998 curveto
18.501910 51.207265 18.090127 51.754140 18.090128 51.900623 curveto
18.090127 52.082915 18.329384 52.190337 18.807901 52.222889 curveto
18.807901 52.447498 lineto
16.874308 52.447498 lineto
16.835245 52.286366 lineto
17.251911 52.204986 17.572549 52.029204 17.797159 51.759022 curveto
19.198526 50.093983 lineto
18.080362 48.619373 lineto
17.894814 48.375237 17.580687 48.253167 17.137980 48.253162 curveto
17.123331 47.969959 lineto
19.296183 47.969959 lineto
19.257120 48.175037 lineto
18.925087 48.175042 18.759071 48.238518 18.759073 48.365467 curveto
18.759071 48.456617 19.042274 48.868400 19.608683 49.600819 curveto
20.375284 48.677967 lineto
20.437130 48.603101 20.468054 48.508700 20.468058 48.394764 curveto
20.468054 48.274325 20.290645 48.186435 19.935831 48.131092 curveto
19.916300 47.969959 lineto
21.962198 47.969959 lineto
21.942667 48.111561 lineto
21.548782 48.111565 21.136999 48.311760 20.707315 48.712147 curveto
20.648718 48.764234 20.329708 49.119051 19.750284 49.776600 curveto
20.147416 50.290925 20.653601 50.925690 21.268839 51.680897 curveto
21.552037 52.032460 21.858027 52.206613 22.186808 52.203358 curveto
22.225870 52.447498 lineto
fill
0.0000000 0.0000000 0.0000000 setrgbcolor
newpath
87.971359 40.695320 moveto
87.610026 40.695324 87.299154 40.942720 87.038742 41.437508 curveto
86.963868 41.577485 86.763673 42.051117 86.438156 42.858406 curveto
86.106121 43.737314 85.585289 45.044278 84.875656 46.779305 curveto
84.657555 47.274094 84.397139 47.521489 84.094406 47.521492 curveto
83.687504 47.521489 83.484054 47.415695 83.484055 47.204109 curveto
83.484054 46.894863 83.708663 46.684902 84.157883 46.574226 curveto
84.441084 46.502610 84.681969 46.292650 84.880539 45.944344 curveto
84.948896 45.820645 85.079104 45.511400 85.271164 45.016609 curveto
83.601242 41.437508 lineto
83.493819 41.206392 83.389653 41.045259 83.288742 40.954109 curveto
83.171554 40.849947 82.997401 40.770194 82.766281 40.714851 curveto
82.741867 40.539070 lineto
84.934250 40.539070 lineto
84.909836 40.734383 lineto
84.512699 40.734387 84.314131 40.848319 84.314133 41.076180 curveto
84.314131 41.134777 84.760094 42.130870 85.652023 44.064461 curveto
85.863609 43.550139 86.073569 43.035817 86.281906 42.521492 curveto
86.623699 41.678396 86.794597 41.216157 86.794601 41.134773 curveto
86.794597 40.841809 86.584637 40.701835 86.164719 40.714851 curveto
86.169601 40.539070 lineto
87.961594 40.539070 lineto
87.971359 40.695320 lineto
fill
0.0000000 0.0000000 0.0000000 setrgbcolor
newpath
35.822998 37.215755 moveto
35.324951 38.514584 lineto
31.828857 38.514584 lineto
31.814209 38.236263 lineto
34.641357 34.476498 lineto
32.781006 34.476498 lineto
32.601969 34.476502 32.453857 34.614848 32.336670 34.891537 curveto
32.268310 35.112894 32.201578 35.334248 32.136475 35.555599 curveto
31.926514 35.536068 lineto
32.307373 33.856380 lineto
32.478271 33.792904 lineto
32.579182 33.955669 32.699625 34.037049 32.839600 34.037045 curveto
35.783936 34.037045 lineto
35.761145 34.098898 35.735103 34.164002 35.705811 34.232357 curveto
32.741943 38.055599 lineto
34.968506 38.055599 lineto
35.118242 38.055600 35.264726 37.944923 35.407959 37.723568 curveto
35.495846 37.554298 35.582109 37.385027 35.666748 37.215755 curveto
35.822998 37.215755 lineto
fill
0.0000000 0.0000000 0.0000000 setrgbcolor
newpath
6.1256130 12.351665 moveto
3.9332302 12.351665 lineto
3.9527615 12.127055 lineto
4.1187738 12.101014 4.2164299 12.083110 4.2457302 12.073344 curveto
4.3564037 12.031027 4.4117422 11.961040 4.4117458 11.863383 curveto
4.4117422 11.749452 4.2408439 11.467876 3.8990505 11.018657 curveto
3.6744383 10.735455 3.4498291 10.450625 3.2252224 10.164165 curveto
2.4016531 11.111431 1.9898696 11.658306 1.9898708 11.804790 curveto
1.9898696 11.987082 2.2291272 12.094503 2.7076443 12.127055 curveto
2.7076443 12.351665 lineto
0.77405053 12.351665 lineto
0.73498803 12.190532 lineto
1.1516543 12.109152 1.4722920 11.933371 1.6969021 11.663188 curveto
3.0982693 9.9981489 lineto
1.9801052 8.5235395 lineto
1.7945573 8.2794030 1.4804300 8.1573328 1.0377224 8.1573286 curveto
1.0230740 7.8741255 lineto
3.1959255 7.8741255 lineto
3.1568630 8.0792036 lineto
2.8248297 8.0792079 2.6588143 8.1426844 2.6588162 8.2696333 curveto
2.6588143 8.3607831 2.9420171 8.7725666 3.5084255 9.5049849 curveto
4.2750271 8.5821333 lineto
4.3368725 8.5072673 4.3677969 8.4128664 4.3678005 8.2989302 curveto
4.3677969 8.1784916 4.1903883 8.0906011 3.8355740 8.0352583 curveto
3.8160427 7.8741255 lineto
5.8619412 7.8741255 lineto
5.8424099 8.0157270 lineto
5.4485250 8.0157314 5.0367416 8.2159265 4.6070583 8.6163130 curveto
4.5484608 8.6684000 4.2294507 9.0232174 3.6500271 9.6807661 curveto
4.0471592 10.195091 4.5533436 10.829856 5.1685818 11.585063 curveto
5.4517802 11.936626 5.7577695 12.110779 6.0865505 12.107524 curveto
6.1256130 12.351665 lineto
fill
0.0000000 0.0000000 0.0000000 setrgbcolor
newpath
10.988894 9.0948286 moveto
9.1920193 9.0948286 lineto
9.1920193 10.891704 lineto
8.7330349 10.891704 lineto
8.7330349 9.0948286 lineto
6.9361599 9.0948286 lineto
6.9361599 8.6358442 lineto
8.7330349 8.6358442 lineto
8.7330349 6.8389692 lineto
9.1920193 6.8389692 lineto
9.1920193 8.6358442 lineto
10.988894 8.6358442 lineto
10.988894 9.0948286 lineto
fill
0.0000000 0.0000000 0.0000000 setrgbcolor
newpath
18.459597 12.351665 moveto
11.164676 12.351665 lineto
11.257449 12.180766 lineto
11.592735 12.157980 11.820599 12.083110 11.941043 11.956157 curveto
12.006146 11.884543 12.111940 11.668071 12.258426 11.306743 curveto
14.655886 5.2911177 lineto
15.031863 5.2911177 lineto
17.492801 11.336040 lineto
17.606727 11.612733 17.717403 11.799907 17.824832 11.897563 curveto
17.948523 12.011496 18.150346 12.094503 18.430301 12.146586 curveto
18.459597 12.351665 lineto
16.667605 11.731547 moveto
16.667600 11.653423 16.600868 11.449973 16.467410 11.121196 curveto
14.597293 6.5997114 lineto
12.878543 10.837993 lineto
12.712526 11.248150 12.629518 11.523215 12.629519 11.663188 curveto
12.629518 11.894308 12.767864 12.009868 13.044558 12.009868 curveto
16.423465 12.009868 lineto
16.586220 12.009868 16.667600 11.917095 16.667605 11.731547 curveto
fill
0.0000000 0.0000000 0.0000000 setrgbcolor
newpath
24.250613 12.351665 moveto
22.058230 12.351665 lineto
22.077761 12.127055 lineto
22.243774 12.101014 22.341430 12.083110 22.370730 12.073344 curveto
22.481404 12.031027 22.536742 11.961040 22.536746 11.863383 curveto
22.536742 11.749452 22.365844 11.467876 22.024051 11.018657 curveto
21.799438 10.735455 21.574829 10.450625 21.350222 10.164165 curveto
20.526653 11.111431 20.114870 11.658306 20.114871 11.804790 curveto
20.114870 11.987082 20.354127 12.094503 20.832644 12.127055 curveto
20.832644 12.351665 lineto
18.899051 12.351665 lineto
18.859988 12.190532 lineto
19.276654 12.109152 19.597292 11.933371 19.821902 11.663188 curveto
21.223269 9.9981489 lineto
20.105105 8.5235395 lineto
19.919557 8.2794030 19.605430 8.1573328 19.162722 8.1573286 curveto
19.148074 7.8741255 lineto
21.320926 7.8741255 lineto
21.281863 8.0792036 lineto
20.949830 8.0792079 20.783814 8.1426844 20.783816 8.2696333 curveto
20.783814 8.3607831 21.067017 8.7725666 21.633426 9.5049849 curveto
22.400027 8.5821333 lineto
22.461872 8.5072673 22.492797 8.4128664 22.492801 8.2989302 curveto
22.492797 8.1784916 22.315388 8.0906011 21.960574 8.0352583 curveto
21.941043 7.8741255 lineto
23.986941 7.8741255 lineto
23.967410 8.0157270 lineto
23.573525 8.0157314 23.161742 8.2159265 22.732058 8.6163130 curveto
22.673461 8.6684000 22.354451 9.0232174 21.775027 9.6807661 curveto
22.172159 10.195091 22.678344 10.829856 23.293582 11.585063 curveto
23.576780 11.936626 23.882770 12.110779 24.211551 12.107524 curveto
24.250613 12.351665 lineto
fill
0.0000000 0.0000000 0.0000000 setrgbcolor
newpath
77.444275 1.9927826 moveto
77.082942 1.9927869 76.772070 2.2401825 76.511658 2.7349701 curveto
76.436784 2.8749475 76.236589 3.3485798 75.911072 4.1558685 curveto
75.579037 5.0347761 75.058204 6.3417409 74.348572 8.0767670 curveto
74.130471 8.5715564 73.870054 8.8189520 73.567322 8.8189545 curveto
73.160420 8.8189520 72.956969 8.7131578 72.956970 8.5015717 curveto
72.956969 8.1923250 73.181579 7.9823643 73.630798 7.8716888 curveto
73.914000 7.8000728 74.154885 7.5901120 74.353455 7.2418060 curveto
74.421812 7.1181073 74.552020 6.8088628 74.744080 6.3140717 curveto
73.074158 2.7349701 lineto
72.966735 2.5038541 72.862568 2.3427215 72.761658 2.2515717 curveto
72.644470 2.1474092 72.470316 2.0676566 72.239197 2.0123138 curveto
72.214783 1.8365326 lineto
74.407166 1.8365326 lineto
74.382751 2.0318451 lineto
73.985614 2.0318494 73.787047 2.1457816 73.787048 2.3736420 curveto
73.787047 2.4322396 74.233010 3.4283324 75.124939 5.3619232 curveto
75.336524 4.8476018 75.546485 4.3332794 75.754822 3.8189545 curveto
76.096615 2.9758588 76.267513 2.5136197 76.267517 2.4322357 curveto
76.267513 2.1392711 76.057552 1.9992973 75.637634 2.0123138 curveto
75.642517 1.8365326 lineto
77.434509 1.8365326 lineto
77.444275 1.9927826 lineto
fill
0.0000000 0.0000000 0.0000000 setrgbcolor
newpath
81.829041 3.0572357 moveto
80.032166 3.0572357 lineto
80.032166 4.8541107 lineto
79.573181 4.8541107 lineto
79.573181 3.0572357 lineto
77.776306 3.0572357 lineto
77.776306 2.5982513 lineto
79.573181 2.5982513 lineto
79.573181 0.80137634 lineto
80.032166 0.80137634 lineto
80.032166 2.5982513 lineto
81.829041 2.5982513 lineto
81.829041 3.0572357 lineto
fill
0.0000000 0.0000000 0.0000000 setrgbcolor
newpath
89.299744 6.3140717 moveto
82.004822 6.3140717 lineto
82.097595 6.1431732 lineto
82.432881 6.1203870 82.660746 6.0455172 82.781189 5.9185638 curveto
82.846292 5.8469497 82.952087 5.6304786 83.098572 5.2691498 curveto
85.496033 -0.74647522 lineto
85.872009 -0.74647522 lineto
88.332947 5.2984467 lineto
88.446873 5.5751401 88.557550 5.7623144 88.664978 5.8599701 curveto
88.788669 5.9739027 88.990492 6.0569105 89.270447 6.1089935 curveto
89.299744 6.3140717 lineto
87.507751 5.6939545 moveto
87.507746 5.6158302 87.441014 5.4123798 87.307556 5.0836029 curveto
85.437439 0.56211853 lineto
83.718689 4.8003998 lineto
83.552672 5.2105571 83.469664 5.4856220 83.469666 5.6255951 curveto
83.469664 5.8567153 83.608010 5.9722751 83.884705 5.9722748 curveto
87.263611 5.9722748 lineto
87.426366 5.9722751 87.507746 5.8795018 87.507751 5.6939545 curveto
fill
0.0000000 0.0000000 0.0000000 setrgbcolor
newpath
95.041931 1.9927826 moveto
94.680598 1.9927869 94.369726 2.2401825 94.109314 2.7349701 curveto
94.034440 2.8749475 93.834245 3.3485798 93.508728 4.1558685 curveto
93.176693 5.0347761 92.655861 6.3417409 91.946228 8.0767670 curveto
91.728127 8.5715564 91.467711 8.8189520 91.164978 8.8189545 curveto
90.758076 8.8189520 90.554626 8.7131578 90.554626 8.5015717 curveto
90.554626 8.1923250 90.779235 7.9823643 91.228455 7.8716888 curveto
91.511656 7.8000728 91.752541 7.5901120 91.951111 7.2418060 curveto
92.019468 7.1181073 92.149676 6.8088628 92.341736 6.3140717 curveto
90.671814 2.7349701 lineto
90.564391 2.5038541 90.460225 2.3427215 90.359314 2.2515717 curveto
90.242126 2.1474092 90.067972 2.0676566 89.836853 2.0123138 curveto
89.812439 1.8365326 lineto
92.004822 1.8365326 lineto
91.980408 2.0318451 lineto
91.583270 2.0318494 91.384703 2.1457816 91.384705 2.3736420 curveto
91.384703 2.4322396 91.830666 3.4283324 92.722595 5.3619232 curveto
92.934181 4.8476018 93.144141 4.3332794 93.352478 3.8189545 curveto
93.694271 2.9758588 93.865169 2.5136197 93.865173 2.4322357 curveto
93.865169 2.1392711 93.655208 1.9992973 93.235291 2.0123138 curveto
93.240173 1.8365326 lineto
95.032166 1.8365326 lineto
95.041931 1.9927826 lineto
fill
0.0000000 0.0000000 0.0000000 setrgbcolor
newpath
152.24025 31.642593 moveto
151.74220 32.941422 lineto
148.24611 32.941422 lineto
148.23146 32.663101 lineto
151.05861 28.903336 lineto
149.19826 28.903336 lineto
149.01922 28.903340 148.87111 29.041686 148.75392 29.318375 curveto
148.68556 29.539732 148.61883 29.761086 148.55373 29.982437 curveto
148.34377 29.962906 lineto
148.72462 28.283218 lineto
148.89552 28.219742 lineto
148.99643 28.382507 149.11688 28.463887 149.25685 28.463882 curveto
152.20119 28.463882 lineto
152.17840 28.525736 152.15236 28.590840 152.12306 28.659195 curveto
149.15919 32.482437 lineto
151.38576 32.482437 lineto
151.53549 32.482438 151.68198 32.371761 151.82521 32.150406 curveto
151.91310 31.981136 151.99936 31.811865 152.08400 31.642593 curveto
152.24025 31.642593 lineto
fill
0.0000000 0.0000000 0.0000000 setrgbcolor
newpath
157.31349 29.684586 moveto
155.51662 29.684586 lineto
155.51662 31.481461 lineto
155.05763 31.481461 lineto
155.05763 29.684586 lineto
153.26076 29.684586 lineto
153.26076 29.225601 lineto
155.05763 29.225601 lineto
155.05763 27.428726 lineto
155.51662 27.428726 lineto
155.51662 29.225601 lineto
157.31349 29.225601 lineto
157.31349 29.684586 lineto
fill
0.0000000 0.0000000 0.0000000 setrgbcolor
newpath
164.78419 32.941422 moveto
157.48927 32.941422 lineto
157.58205 32.770523 lineto
157.91733 32.747737 158.14520 32.672867 158.26564 32.545914 curveto
158.33074 32.474300 158.43654 32.257828 158.58302 31.896500 curveto
160.98048 25.880875 lineto
161.35646 25.880875 lineto
163.81740 31.925797 lineto
163.93132 32.202490 164.04200 32.389664 164.14943 32.487320 curveto
164.27312 32.601253 164.47494 32.684260 164.75490 32.736343 curveto
164.78419 32.941422 lineto
162.99220 32.321304 moveto
162.99220 32.243180 162.92547 32.039730 162.79201 31.710953 curveto
160.92189 27.189468 lineto
159.20314 31.427750 lineto
159.03712 31.837907 158.95412 32.112972 158.95412 32.252945 curveto
158.95412 32.484065 159.09246 32.599625 159.36916 32.599625 curveto
162.74806 32.599625 lineto
162.91082 32.599625 162.99220 32.506852 162.99220 32.321304 curveto
fill
0.0000000 0.0000000 0.0000000 setrgbcolor
newpath
169.31056 31.642593 moveto
168.81252 32.941422 lineto
165.31642 32.941422 lineto
165.30177 32.663101 lineto
168.12892 28.903336 lineto
166.26857 28.903336 lineto
166.08953 28.903340 165.94142 29.041686 165.82423 29.318375 curveto
165.75587 29.539732 165.68914 29.761086 165.62404 29.982437 curveto
165.41408 29.962906 lineto
165.79494 28.283218 lineto
165.96584 28.219742 lineto
166.06675 28.382507 166.18719 28.463887 166.32716 28.463882 curveto
169.27150 28.463882 lineto
169.24871 28.525736 169.22267 28.590840 169.19337 28.659195 curveto
166.22951 32.482437 lineto
168.45607 32.482437 lineto
168.60581 32.482438 168.75229 32.371761 168.89552 32.150406 curveto
168.98341 31.981136 169.06967 31.811865 169.15431 31.642593 curveto
169.31056 31.642593 lineto
fill
grestore
showpage
