%!PS-Adobe-3.0 EPSF-3.0
%%Creator: inkscape 0.44.1
%%Pages: 1
%%Orientation: Portrait
%%BoundingBox: 8 725 153 819
%%HiResBoundingBox: 8.6084808 725.57351 152.55082 818.41186
%%DocumentMedia: plain 596 842 0 () ()
%%EndComments
%%Page: 1 1
0 842 translate
0.8 -0.8 scale
gsave [1 0 0 1 0 0] concat
0 0 0 setrgbcolor
[] 0 setdash
0.70866144 setlinewidth
0 setlinejoin
0 setlinecap
newpath
15.399206 86.11334 moveto
56.669078 86.11334 lineto
56.669078 145.04097 lineto
126.47881 145.04097 lineto
126.47881 48.333954 lineto
190.33419 48.539277 lineto
stroke
0 0 0 setrgbcolor
[] 0 setdash
0.70866144 setlinewidth
0 setlinejoin
0 setlinecap
newpath
58.927628 48.128631 moveto
124.01494 48.128631 lineto
124.01494 52.029763 lineto
93.216527 52.029763 lineto
93.216527 86.113338 lineto
126.47881 86.113338 lineto
126.47881 89.603828 lineto
56.669078 89.603828 lineto
56.669078 86.113338 lineto
88.083458 86.113338 lineto
88.083458 51.824441 lineto
58.927628 51.824441 lineto
58.927628 48.128631 lineto
closepath
stroke
0 0 0 setrgbcolor
[] 0 setdash
1.0629921 setlinewidth
1 setlinejoin
1 setlinecap
newpath
145.77914 32.524101 moveto
176.16691 32.524101 lineto
176.16691 47.923307 lineto
145.77914 47.923307 lineto
145.77914 32.524101 lineto
closepath
stroke
0 0 0 setrgbcolor
[] 0 setdash
0.35433072 setlinewidth
0 setlinejoin
0 setlinecap
newpath
107.3838 40.121045 moveto
143.93125 40.121045 lineto
stroke
gsave [-0.14173229 0 0 -0.14173229 142.51393 40.121045] concat
gsave
0 0 0 setrgbcolor
newpath
0 0 moveto
5 -5 lineto
-12.5 0 lineto
5 5 lineto
0 0 lineto
closepath
eofill
grestore
0 0 0 setrgbcolor
[] 0 setdash
1.25 setlinewidth
0 setlinejoin
0 setlinecap
newpath
0 0 moveto
5 -5 lineto
-12.5 0 lineto
5 5 lineto
0 0 lineto
closepath
stroke
grestore
0 0 0 setrgbcolor
[] 0 setdash
0.70866144 setlinewidth
0 setlinejoin
0 setlinecap
newpath
56.903601 89.633032 moveto
126.24428 89.633032 lineto
126.24428 144.60111 lineto
56.903601 144.60111 lineto
56.903601 89.633032 lineto
closepath
stroke
gsave [1 0 0 1 3.079841 -6.570328] concat
0 0 0 setrgbcolor
[] 0 setdash
0.70866144 setlinewidth
1 setlinejoin
1 setlinecap
newpath
62.112754 130.73762 moveto
61.961195 130.56906 61.974991 130.30926 62.14355 130.1577 curveto
62.312108 130.00614 62.571914 130.01994 62.723473 130.18849 curveto
62.875032 130.35705 62.861236 130.61686 62.692678 130.76842 curveto
62.526438 130.91789 62.271788 130.90713 62.118757 130.74416 curveto
stroke
grestore
gsave [1 0 0 1 1.847907 -20.12172] concat
0 0 0 setrgbcolor
[] 0 setdash
0.70866144 setlinewidth
1 setlinejoin
1 setlinecap
newpath
62.112754 130.73762 moveto
61.961195 130.56906 61.974991 130.30926 62.14355 130.1577 curveto
62.312108 130.00614 62.571914 130.01994 62.723473 130.18849 curveto
62.875032 130.35705 62.861236 130.61686 62.692678 130.76842 curveto
62.526438 130.91789 62.271788 130.90713 62.118757 130.74416 curveto
stroke
grestore
gsave [1 0 0 1 4.106453 -32.03045] concat
0 0 0 setrgbcolor
[] 0 setdash
0.70866144 setlinewidth
1 setlinejoin
1 setlinecap
newpath
62.112754 130.73762 moveto
61.961195 130.56906 61.974991 130.30926 62.14355 130.1577 curveto
62.312108 130.00614 62.571914 130.01994 62.723473 130.18849 curveto
62.875032 130.35705 62.861236 130.61686 62.692678 130.76842 curveto
62.526438 130.91789 62.271788 130.90713 62.118757 130.74416 curveto
stroke
grestore
gsave [1 0 0 1 13.75662 -17.65785] concat
0 0 0 setrgbcolor
[] 0 setdash
0.70866144 setlinewidth
1 setlinejoin
1 setlinecap
newpath
62.112754 130.73762 moveto
61.961195 130.56906 61.974991 130.30926 62.14355 130.1577 curveto
62.312108 130.00614 62.571914 130.01994 62.723473 130.18849 curveto
62.875032 130.35705 62.861236 130.61686 62.692678 130.76842 curveto
62.526438 130.91789 62.271788 130.90713 62.118757 130.74416 curveto
stroke
grestore
gsave [1 0 0 1 14.98856 5.748948] concat
0 0 0 setrgbcolor
[] 0 setdash
0.70866144 setlinewidth
1 setlinejoin
1 setlinecap
newpath
62.112754 130.73762 moveto
61.961195 130.56906 61.974991 130.30926 62.14355 130.1577 curveto
62.312108 130.00614 62.571914 130.01994 62.723473 130.18849 curveto
62.875032 130.35705 62.861236 130.61686 62.692678 130.76842 curveto
62.526438 130.91789 62.271788 130.90713 62.118757 130.74416 curveto
stroke
grestore
gsave [1 0 0 1 31.00374 8.212817] concat
0 0 0 setrgbcolor
[] 0 setdash
0.70866144 setlinewidth
1 setlinejoin
1 setlinecap
newpath
62.112754 130.73762 moveto
61.961195 130.56906 61.974991 130.30926 62.14355 130.1577 curveto
62.312108 130.00614 62.571914 130.01994 62.723473 130.18849 curveto
62.875032 130.35705 62.861236 130.61686 62.692678 130.76842 curveto
62.526438 130.91789 62.271788 130.90713 62.118757 130.74416 curveto
stroke
grestore
gsave [1 0 0 1 21.96953 -34.08367] concat
0 0 0 setrgbcolor
[] 0 setdash
0.70866144 setlinewidth
1 setlinejoin
1 setlinecap
newpath
62.112754 130.73762 moveto
61.961195 130.56906 61.974991 130.30926 62.14355 130.1577 curveto
62.312108 130.00614 62.571914 130.01994 62.723473 130.18849 curveto
62.875032 130.35705 62.861236 130.61686 62.692678 130.76842 curveto
62.526438 130.91789 62.271788 130.90713 62.118757 130.74416 curveto
stroke
grestore
gsave [1 0 0 1 28.53987 -16.42591] concat
0 0 0 setrgbcolor
[] 0 setdash
0.70866144 setlinewidth
1 setlinejoin
1 setlinecap
newpath
62.112754 130.73762 moveto
61.961195 130.56906 61.974991 130.30926 62.14355 130.1577 curveto
62.312108 130.00614 62.571914 130.01994 62.723473 130.18849 curveto
62.875032 130.35705 62.861236 130.61686 62.692678 130.76842 curveto
62.526438 130.91789 62.271788 130.90713 62.118757 130.74416 curveto
stroke
grestore
gsave [1 0 0 1 52.76794 -35.3156] concat
0 0 0 setrgbcolor
[] 0 setdash
0.70866144 setlinewidth
1 setlinejoin
1 setlinecap
newpath
62.112754 130.73762 moveto
61.961195 130.56906 61.974991 130.30926 62.14355 130.1577 curveto
62.312108 130.00614 62.571914 130.01994 62.723473 130.18849 curveto
62.875032 130.35705 62.861236 130.61686 62.692678 130.76842 curveto
62.526438 130.91789 62.271788 130.90713 62.118757 130.74416 curveto
stroke
grestore
gsave [1 0 0 1 40.03793 1.026521] concat
0 0 0 setrgbcolor
[] 0 setdash
0.70866144 setlinewidth
1 setlinejoin
1 setlinecap
newpath
62.112754 130.73762 moveto
61.961195 130.56906 61.974991 130.30926 62.14355 130.1577 curveto
62.312108 130.00614 62.571914 130.01994 62.723473 130.18849 curveto
62.875032 130.35705 62.861236 130.61686 62.692678 130.76842 curveto
62.526438 130.91789 62.271788 130.90713 62.118757 130.74416 curveto
stroke
grestore
gsave [1 0 0 1 45.58165 6.570231] concat
0 0 0 setrgbcolor
[] 0 setdash
0.70866144 setlinewidth
1 setlinejoin
1 setlinecap
newpath
62.112754 130.73762 moveto
61.961195 130.56906 61.974991 130.30926 62.14355 130.1577 curveto
62.312108 130.00614 62.571914 130.01994 62.723473 130.18849 curveto
62.875032 130.35705 62.861236 130.61686 62.692678 130.76842 curveto
62.526438 130.91789 62.271788 130.90713 62.118757 130.74416 curveto
stroke
grestore
gsave [1 0 0 1 48.66149 -19.30043] concat
0 0 0 setrgbcolor
[] 0 setdash
0.70866144 setlinewidth
1 setlinejoin
1 setlinecap
newpath
62.112754 130.73762 moveto
61.961195 130.56906 61.974991 130.30926 62.14355 130.1577 curveto
62.312108 130.00614 62.571914 130.01994 62.723473 130.18849 curveto
62.875032 130.35705 62.861236 130.61686 62.692678 130.76842 curveto
62.526438 130.91789 62.271788 130.90713 62.118757 130.74416 curveto
stroke
grestore
gsave [1 0 0 1 39.62729 -27.92398] concat
0 0 0 setrgbcolor
[] 0 setdash
0.70866144 setlinewidth
1 setlinejoin
1 setlinecap
newpath
62.112754 130.73762 moveto
61.961195 130.56906 61.974991 130.30926 62.14355 130.1577 curveto
62.312108 130.00614 62.571914 130.01994 62.723473 130.18849 curveto
62.875032 130.35705 62.861236 130.61686 62.692678 130.76842 curveto
62.526438 130.91789 62.271788 130.90713 62.118757 130.74416 curveto
stroke
grestore
gsave [1 0 0 1 56.05311 -8.00768] concat
0 0 0 setrgbcolor
[] 0 setdash
0.70866144 setlinewidth
1 setlinejoin
1 setlinecap
newpath
62.112754 130.73762 moveto
61.961195 130.56906 61.974991 130.30926 62.14355 130.1577 curveto
62.312108 130.00614 62.571914 130.01994 62.723473 130.18849 curveto
62.875032 130.35705 62.861236 130.61686 62.692678 130.76842 curveto
62.526438 130.91789 62.271788 130.90713 62.118757 130.74416 curveto
stroke
grestore
gsave [1 0 0 1 58.51698 -23.40688] concat
0 0 0 setrgbcolor
[] 0 setdash
0.70866144 setlinewidth
1 setlinejoin
1 setlinecap
newpath
62.112754 130.73762 moveto
61.961195 130.56906 61.974991 130.30926 62.14355 130.1577 curveto
62.312108 130.00614 62.571914 130.01994 62.723473 130.18849 curveto
62.875032 130.35705 62.861236 130.61686 62.692678 130.76842 curveto
62.526438 130.91789 62.271788 130.90713 62.118757 130.74416 curveto
stroke
grestore
gsave [1 0 0 1 38.60068 -10.06091] concat
0 0 0 setrgbcolor
[] 0 setdash
0.70866144 setlinewidth
1 setlinejoin
1 setlinecap
newpath
62.112754 130.73762 moveto
61.961195 130.56906 61.974991 130.30926 62.14355 130.1577 curveto
62.312108 130.00614 62.571914 130.01994 62.723473 130.18849 curveto
62.875032 130.35705 62.861236 130.61686 62.692678 130.76842 curveto
62.526438 130.91789 62.271788 130.90713 62.118757 130.74416 curveto
stroke
grestore
gsave [1 0 0 1 57.6957 5.338303] concat
0 0 0 setrgbcolor
[] 0 setdash
0.70866144 setlinewidth
1 setlinejoin
1 setlinecap
newpath
62.112754 130.73762 moveto
61.961195 130.56906 61.974991 130.30926 62.14355 130.1577 curveto
62.312108 130.00614 62.571914 130.01994 62.723473 130.18849 curveto
62.875032 130.35705 62.861236 130.61686 62.692678 130.76842 curveto
62.526438 130.91789 62.271788 130.90713 62.118757 130.74416 curveto
stroke
grestore
gsave [1 0 0 1 0.821293 7.802173] concat
0 0 0 setrgbcolor
[] 0 setdash
0.70866144 setlinewidth
1 setlinejoin
1 setlinecap
newpath
62.112754 130.73762 moveto
61.961195 130.56906 61.974991 130.30926 62.14355 130.1577 curveto
62.312108 130.00614 62.571914 130.01994 62.723473 130.18849 curveto
62.875032 130.35705 62.861236 130.61686 62.692678 130.76842 curveto
62.526438 130.91789 62.271788 130.90713 62.118757 130.74416 curveto
stroke
grestore
gsave [1 0 0 1 19.50566 -6.159775] concat
0 0 0 setrgbcolor
[] 0 setdash
0.70866144 setlinewidth
1 setlinejoin
1 setlinecap
newpath
62.112754 130.73762 moveto
61.961195 130.56906 61.974991 130.30926 62.14355 130.1577 curveto
62.312108 130.00614 62.571914 130.01994 62.723473 130.18849 curveto
62.875032 130.35705 62.861236 130.61686 62.692678 130.76842 curveto
62.526438 130.91789 62.271788 130.90713 62.118757 130.74416 curveto
stroke
grestore
gsave [1 0 0 1 29.77179 -4.311875] concat
0 0 0 setrgbcolor
[] 0 setdash
0.70866144 setlinewidth
1 setlinejoin
1 setlinecap
newpath
62.112754 130.73762 moveto
61.961195 130.56906 61.974991 130.30926 62.14355 130.1577 curveto
62.312108 130.00614 62.571914 130.01994 62.723473 130.18849 curveto
62.875032 130.35705 62.861236 130.61686 62.692678 130.76842 curveto
62.526438 130.91789 62.271788 130.90713 62.118757 130.74416 curveto
stroke
grestore
gsave [1 0 0 -1 10.794781 36.583683] concat
gsave
/newlatin1font {findfont dup length dict copy dup /Encoding ISOLatin1Encoding put definefont} def
/(Thryomanes-ISOLatin1) /(Thryomanes) newlatin1font
10 scalefont
setfont
0 0 0 setrgbcolor
newpath
0 0 moveto
(Etape3 : isochore) show
grestore
grestore
grestore
showpage
%%EOF
