%!PS-Adobe-3.0 EPSF-3.0
%%Creator: inkscape 0.44.1
%%Pages: 1
%%Orientation: Portrait
%%BoundingBox: 12 699 153 815
%%HiResBoundingBox: 12.0359 699.86711 152.55082 814.44232
%%DocumentMedia: plain 596 842 0 () ()
%%EndComments
%%Page: 1 1
0 842 translate
0.8 -0.8 scale
gsave [1 0 0 1 0 0] concat
0 0 0 setrgbcolor
[] 0 setdash
0.70866144 setlinewidth
0 setlinejoin
0 setlinecap
newpath
15.399206 86.11334 moveto
56.669078 86.11334 lineto
56.669078 145.04097 lineto
126.47881 145.04097 lineto
126.47881 48.333954 lineto
190.33419 48.539277 lineto
stroke
0 0 0 setrgbcolor
[] 0 setdash
0.70866144 setlinewidth
0 setlinejoin
0 setlinecap
newpath
58.927628 68.455583 moveto
124.01494 68.455583 lineto
124.01494 72.356715 lineto
93.216527 72.356715 lineto
93.216527 106.44029 lineto
126.47881 106.44029 lineto
126.47881 109.93078 lineto
56.669078 109.93078 lineto
56.669078 106.44029 lineto
88.083458 106.44029 lineto
88.083458 72.151393 lineto
58.927628 72.151393 lineto
58.927628 68.455583 lineto
closepath
stroke
0 0 0 setrgbcolor
[] 0 setdash
1.0629921 setlinewidth
1 setlinejoin
1 setlinecap
newpath
74.942802 52.851055 moveto
105.33057 52.851055 lineto
105.33057 68.250261 lineto
74.942802 68.250261 lineto
74.942802 52.851055 lineto
closepath
stroke
0 0 0 setrgbcolor
[] 0 setdash
0.35433072 setlinewidth
0 setlinejoin
0 setlinecap
newpath
90.680205 93.021864 moveto
90.680205 56.474416 lineto
stroke
gsave [-8.678313e-18 0.14173229 -0.14173229 -8.678313e-18 90.680205 57.891739] concat
gsave
0 0 0 setrgbcolor
newpath
0 0 moveto
5 -5 lineto
-12.5 0 lineto
5 5 lineto
0 0 lineto
closepath
eofill
grestore
0 0 0 setrgbcolor
[] 0 setdash
1.25 setlinewidth
0 setlinejoin
0 setlinecap
newpath
0 0 moveto
5 -5 lineto
-12.5 0 lineto
5 5 lineto
0 0 lineto
closepath
stroke
grestore
0 0 0 setrgbcolor
[] 0 setdash
0.70866144 setlinewidth
0 setlinejoin
0 setlinecap
newpath
56.812035 110.07374 moveto
126.33585 110.07374 lineto
126.33585 144.69268 lineto
56.812035 144.69268 lineto
56.812035 110.07374 lineto
closepath
stroke
0 0 0 setrgbcolor
[] 0 setdash
0.70866144 setlinewidth
1 setlinejoin
1 setlinecap
newpath
62.112754 130.73762 moveto
61.961195 130.56906 61.974991 130.30926 62.14355 130.1577 curveto
62.312108 130.00614 62.571914 130.01994 62.723473 130.18849 curveto
62.875032 130.35705 62.861236 130.61686 62.692678 130.76842 curveto
62.526438 130.91789 62.271788 130.90713 62.118757 130.74416 curveto
stroke
gsave [1 0 0 1 2.258552 -12.31946] concat
0 0 0 setrgbcolor
[] 0 setdash
0.70866144 setlinewidth
1 setlinejoin
1 setlinecap
newpath
62.112754 130.73762 moveto
61.961195 130.56906 61.974991 130.30926 62.14355 130.1577 curveto
62.312108 130.00614 62.571914 130.01994 62.723473 130.18849 curveto
62.875032 130.35705 62.861236 130.61686 62.692678 130.76842 curveto
62.526438 130.91789 62.271788 130.90713 62.118757 130.74416 curveto
stroke
grestore
gsave [1 0 0 1 14.37259 -10.67688] concat
0 0 0 setrgbcolor
[] 0 setdash
0.70866144 setlinewidth
1 setlinejoin
1 setlinecap
newpath
62.112754 130.73762 moveto
61.961195 130.56906 61.974991 130.30926 62.14355 130.1577 curveto
62.312108 130.00614 62.571914 130.01994 62.723473 130.18849 curveto
62.875032 130.35705 62.861236 130.61686 62.692678 130.76842 curveto
62.526438 130.91789 62.271788 130.90713 62.118757 130.74416 curveto
stroke
grestore
gsave [1 0 0 1 11.49807 -1.642677] concat
0 0 0 setrgbcolor
[] 0 setdash
0.70866144 setlinewidth
1 setlinejoin
1 setlinecap
newpath
62.112754 130.73762 moveto
61.961195 130.56906 61.974991 130.30926 62.14355 130.1577 curveto
62.312108 130.00614 62.571914 130.01994 62.723473 130.18849 curveto
62.875032 130.35705 62.861236 130.61686 62.692678 130.76842 curveto
62.526438 130.91789 62.271788 130.90713 62.118757 130.74416 curveto
stroke
grestore
gsave [1 0 0 1 14.98856 5.748948] concat
0 0 0 setrgbcolor
[] 0 setdash
0.70866144 setlinewidth
1 setlinejoin
1 setlinecap
newpath
62.112754 130.73762 moveto
61.961195 130.56906 61.974991 130.30926 62.14355 130.1577 curveto
62.312108 130.00614 62.571914 130.01994 62.723473 130.18849 curveto
62.875032 130.35705 62.861236 130.61686 62.692678 130.76842 curveto
62.526438 130.91789 62.271788 130.90713 62.118757 130.74416 curveto
stroke
grestore
gsave [1 0 0 1 23.61212 7.596849] concat
0 0 0 setrgbcolor
[] 0 setdash
0.70866144 setlinewidth
1 setlinejoin
1 setlinecap
newpath
62.112754 130.73762 moveto
61.961195 130.56906 61.974991 130.30926 62.14355 130.1577 curveto
62.312108 130.00614 62.571914 130.01994 62.723473 130.18849 curveto
62.875032 130.35705 62.861236 130.61686 62.692678 130.76842 curveto
62.526438 130.91789 62.271788 130.90713 62.118757 130.74416 curveto
stroke
grestore
gsave [1 0 0 1 29.36115 -11.70349] concat
0 0 0 setrgbcolor
[] 0 setdash
0.70866144 setlinewidth
1 setlinejoin
1 setlinecap
newpath
62.112754 130.73762 moveto
61.961195 130.56906 61.974991 130.30926 62.14355 130.1577 curveto
62.312108 130.00614 62.571914 130.01994 62.723473 130.18849 curveto
62.875032 130.35705 62.861236 130.61686 62.692678 130.76842 curveto
62.526438 130.91789 62.271788 130.90713 62.118757 130.74416 curveto
stroke
grestore
gsave [1 0 0 1 25.66535 -1.642674] concat
0 0 0 setrgbcolor
[] 0 setdash
0.70866144 setlinewidth
1 setlinejoin
1 setlinecap
newpath
62.112754 130.73762 moveto
61.961195 130.56906 61.974991 130.30926 62.14355 130.1577 curveto
62.312108 130.00614 62.571914 130.01994 62.723473 130.18849 curveto
62.875032 130.35705 62.861236 130.61686 62.692678 130.76842 curveto
62.526438 130.91789 62.271788 130.90713 62.118757 130.74416 curveto
stroke
grestore
gsave [1 0 0 1 47.22423 -11.29284] concat
0 0 0 setrgbcolor
[] 0 setdash
0.70866144 setlinewidth
1 setlinejoin
1 setlinecap
newpath
62.112754 130.73762 moveto
61.961195 130.56906 61.974991 130.30926 62.14355 130.1577 curveto
62.312108 130.00614 62.571914 130.01994 62.723473 130.18849 curveto
62.875032 130.35705 62.861236 130.61686 62.692678 130.76842 curveto
62.526438 130.91789 62.271788 130.90713 62.118757 130.74416 curveto
stroke
grestore
gsave [1 0 0 1 40.03793 1.026521] concat
0 0 0 setrgbcolor
[] 0 setdash
0.70866144 setlinewidth
1 setlinejoin
1 setlinecap
newpath
62.112754 130.73762 moveto
61.961195 130.56906 61.974991 130.30926 62.14355 130.1577 curveto
62.312108 130.00614 62.571914 130.01994 62.723473 130.18849 curveto
62.875032 130.35705 62.861236 130.61686 62.692678 130.76842 curveto
62.526438 130.91789 62.271788 130.90713 62.118757 130.74416 curveto
stroke
grestore
gsave [1 0 0 1 37.57406 10.26604] concat
0 0 0 setrgbcolor
[] 0 setdash
0.70866144 setlinewidth
1 setlinejoin
1 setlinecap
newpath
62.112754 130.73762 moveto
61.961195 130.56906 61.974991 130.30926 62.14355 130.1577 curveto
62.312108 130.00614 62.571914 130.01994 62.723473 130.18849 curveto
62.875032 130.35705 62.861236 130.61686 62.692678 130.76842 curveto
62.526438 130.91789 62.271788 130.90713 62.118757 130.74416 curveto
stroke
grestore
gsave [1 0 0 1 47.8402 -0.205415] concat
0 0 0 setrgbcolor
[] 0 setdash
0.70866144 setlinewidth
1 setlinejoin
1 setlinecap
newpath
62.112754 130.73762 moveto
61.961195 130.56906 61.974991 130.30926 62.14355 130.1577 curveto
62.312108 130.00614 62.571914 130.01994 62.723473 130.18849 curveto
62.875032 130.35705 62.861236 130.61686 62.692678 130.76842 curveto
62.526438 130.91789 62.271788 130.90713 62.118757 130.74416 curveto
stroke
grestore
gsave [1 0 0 1 38.39535 -10.47155] concat
0 0 0 setrgbcolor
[] 0 setdash
0.70866144 setlinewidth
1 setlinejoin
1 setlinecap
newpath
62.112754 130.73762 moveto
61.961195 130.56906 61.974991 130.30926 62.14355 130.1577 curveto
62.312108 130.00614 62.571914 130.01994 62.723473 130.18849 curveto
62.875032 130.35705 62.861236 130.61686 62.692678 130.76842 curveto
62.526438 130.91789 62.271788 130.90713 62.118757 130.74416 curveto
stroke
grestore
gsave [1 0 0 1 56.05311 -2.874611] concat
0 0 0 setrgbcolor
[] 0 setdash
0.70866144 setlinewidth
1 setlinejoin
1 setlinecap
newpath
62.112754 130.73762 moveto
61.961195 130.56906 61.974991 130.30926 62.14355 130.1577 curveto
62.312108 130.00614 62.571914 130.01994 62.723473 130.18849 curveto
62.875032 130.35705 62.861236 130.61686 62.692678 130.76842 curveto
62.526438 130.91789 62.271788 130.90713 62.118757 130.74416 curveto
stroke
grestore
gsave [1 0 0 1 58.31166 -14.16736] concat
0 0 0 setrgbcolor
[] 0 setdash
0.70866144 setlinewidth
1 setlinejoin
1 setlinecap
newpath
62.112754 130.73762 moveto
61.961195 130.56906 61.974991 130.30926 62.14355 130.1577 curveto
62.312108 130.00614 62.571914 130.01994 62.723473 130.18849 curveto
62.875032 130.35705 62.861236 130.61686 62.692678 130.76842 curveto
62.526438 130.91789 62.271788 130.90713 62.118757 130.74416 curveto
stroke
grestore
gsave [1 0 0 1 50.09875 10.88201] concat
0 0 0 setrgbcolor
[] 0 setdash
0.70866144 setlinewidth
1 setlinejoin
1 setlinecap
newpath
62.112754 130.73762 moveto
61.961195 130.56906 61.974991 130.30926 62.14355 130.1577 curveto
62.312108 130.00614 62.571914 130.01994 62.723473 130.18849 curveto
62.875032 130.35705 62.861236 130.61686 62.692678 130.76842 curveto
62.526438 130.91789 62.271788 130.90713 62.118757 130.74416 curveto
stroke
grestore
gsave [1 0 0 1 57.6957 5.338303] concat
0 0 0 setrgbcolor
[] 0 setdash
0.70866144 setlinewidth
1 setlinejoin
1 setlinecap
newpath
62.112754 130.73762 moveto
61.961195 130.56906 61.974991 130.30926 62.14355 130.1577 curveto
62.312108 130.00614 62.571914 130.01994 62.723473 130.18849 curveto
62.875032 130.35705 62.861236 130.61686 62.692678 130.76842 curveto
62.526438 130.91789 62.271788 130.90713 62.118757 130.74416 curveto
stroke
grestore
gsave [1 0 0 1 0.821293 7.802173] concat
0 0 0 setrgbcolor
[] 0 setdash
0.70866144 setlinewidth
1 setlinejoin
1 setlinecap
newpath
62.112754 130.73762 moveto
61.961195 130.56906 61.974991 130.30926 62.14355 130.1577 curveto
62.312108 130.00614 62.571914 130.01994 62.723473 130.18849 curveto
62.875032 130.35705 62.861236 130.61686 62.692678 130.76842 curveto
62.526438 130.91789 62.271788 130.90713 62.118757 130.74416 curveto
stroke
grestore
gsave [1 0 0 1 9.444847 10.67669] concat
0 0 0 setrgbcolor
[] 0 setdash
0.70866144 setlinewidth
1 setlinejoin
1 setlinecap
newpath
62.112754 130.73762 moveto
61.961195 130.56906 61.974991 130.30926 62.14355 130.1577 curveto
62.312108 130.00614 62.571914 130.01994 62.723473 130.18849 curveto
62.875032 130.35705 62.861236 130.61686 62.692678 130.76842 curveto
62.526438 130.91789 62.271788 130.90713 62.118757 130.74416 curveto
stroke
grestore
gsave [1 0 0 1 31.82502 2.258453] concat
0 0 0 setrgbcolor
[] 0 setdash
0.70866144 setlinewidth
1 setlinejoin
1 setlinecap
newpath
62.112754 130.73762 moveto
61.961195 130.56906 61.974991 130.30926 62.14355 130.1577 curveto
62.312108 130.00614 62.571914 130.01994 62.723473 130.18849 curveto
62.875032 130.35705 62.861236 130.61686 62.692678 130.76842 curveto
62.526438 130.91789 62.271788 130.90713 62.118757 130.74416 curveto
stroke
grestore
gsave [1 0 0 -1 18.802368 41.511425] concat
gsave
/newlatin1font {findfont dup length dict copy dup /Encoding ISOLatin1Encoding put definefont} def
/(Thryomanes-ISOLatin1) /(Thryomanes) newlatin1font
10 scalefont
setfont
0 0 0 setrgbcolor
newpath
0 0 moveto
(Etape2 : isobare) show
grestore
grestore
0 0 0 setrgbcolor
[] 0 setdash
0.70866144 setlinewidth
0 setlinejoin
0 setlinecap
newpath
90.882265 146.58088 moveto
90.266295 146.99153 89.313555 151.67303 82.669351 156.43637 curveto
77.442827 160.18335 90.266295 166.08654 90.266295 166.08654 curveto
90.266295 168.96106 lineto
85.954516 168.96106 lineto
85.954516 177.17397 lineto
99.711135 177.17397 lineto
99.711135 168.75574 lineto
96.015325 168.75574 lineto
96.015325 166.08654 lineto
96.015325 166.08654 104.83985 161.637 102.38034 155.20443 curveto
99.711145 148.22346 95.941195 154.16928 90.882265 146.58088 curveto
closepath
stroke
grestore
showpage
%%EOF
