\relax 
\citation{EL99}
\newlabel{dynamique}{{3}{51}}
\@writefile{toc}{\contentsline {chapter}{\numberline {3}La m\IeC {\'e}canique}{51}}
\@writefile{lof}{\addvspace {10\p@ }}
\@writefile{lot}{\addvspace {10\p@ }}
\@writefile{toc}{\contentsline {section}{\numberline {3.1}La \FB@og  m\IeC {\'e}canique\fg {} d'Aristote}{51}}
\@writefile{toc}{\contentsline {subsection}{\numberline {3.1.1}Introduction}{51}}
\@writefile{toc}{\contentsline {subsection}{\numberline {3.1.2}Platon}{51}}
\citation{GSJ05}
\newlabel{Aristote}{{3.1.3}{52}}
\@writefile{toc}{\contentsline {subsection}{\numberline {3.1.3}Aristote}{52}}
\@writefile{toc}{\contentsline {subsubsection}{Cin\IeC {\'e}matique}{52}}
\@writefile{toc}{\contentsline {subsubsection}{Dynamique}{52}}
\citation{SH03}
\citation{BM85}
\citation{BM85}
\@writefile{toc}{\contentsline {section}{\numberline {3.2}M\IeC {\'e}canique de Newton}{55}}
\newlabel{mecaniquenewton}{{3.2}{55}}
\@writefile{toc}{\contentsline {subsection}{\numberline {3.2.1}Introduction}{55}}
\@writefile{toc}{\contentsline {subsection}{\numberline {3.2.2}M\IeC {\'e}canique}{55}}
\@writefile{toc}{\contentsline {subsubsection}{Les trois lois de Newton}{55}}
\citation{BM85}
\@writefile{toc}{\contentsline {subsubsection}{Force ext\IeC {\'e}rieure}{56}}
\@writefile{toc}{\contentsline {subsubsection}{Exemples}{57}}
\@writefile{toc}{\contentsline {subsection}{\numberline {3.2.3}Types de forces}{57}}
\citation{SH03}
\@writefile{lof}{\contentsline {figure}{\numberline {3.1}{\ignorespaces La balance de Cavendish}}{58}}
\newlabel{balancedecavendish}{{3.1}{58}}
\@writefile{toc}{\contentsline {subsubsection}{Loi de la gravitation universelle}{58}}
\newlabel{gravitationuniverselle}{{3.2.3}{58}}
\@writefile{toc}{\contentsline {subsubsection}{Le poids}{58}}
\@writefile{lof}{\contentsline {figure}{\numberline {3.2}{\ignorespaces Loi de la gravitation universelle.\relax }}{59}}
\newlabel{gravitation}{{3.2}{59}}
\@writefile{toc}{\contentsline {paragraph}{Exemple}{59}}
\@writefile{toc}{\contentsline {subsubsection}{Masse et poids}{60}}
\@writefile{toc}{\contentsline {subsubsection}{Poids apparent}{60}}
\newlabel{poidsapparent}{{3.2.3}{60}}
\newlabel{a<0}{{3.3(a)}{61}}
\newlabel{sub@a<0}{{(a)}{61}}
\newlabel{a=0}{{3.3(b)}{61}}
\newlabel{sub@a=0}{{(b)}{61}}
\newlabel{a>0}{{3.3(c)}{61}}
\newlabel{sub@a>0}{{(c)}{61}}
\@writefile{lof}{\contentsline {figure}{\numberline {3.3}{\ignorespaces Poids apparent\relax }}{61}}
\newlabel{3ascenseur}{{3.3}{61}}
\@writefile{lof}{\contentsline {subfigure}{\numberline{(a)}{\ignorespaces {a<0}}}{61}}
\@writefile{lof}{\contentsline {subfigure}{\numberline{(b)}{\ignorespaces {a=0}}}{61}}
\@writefile{lof}{\contentsline {subfigure}{\numberline{(c)}{\ignorespaces {a>0}}}{61}}
\newlabel{eqa=0}{{3.10}{61}}
\newlabel{eqa>0}{{3.11}{61}}
\@writefile{toc}{\contentsline {subsubsection}{Gravitation et MCU}{62}}
\newlabel{accmcu}{{3.2.3}{62}}
\@writefile{lof}{\contentsline {figure}{\numberline {3.4}{\ignorespaces La sensation des mouvements}}{62}}
\newlabel{mcun}{{3.4}{62}}
\newlabel{inertiel}{{3.12}{63}}
\newlabel{centrifugenoninertiel}{{3.13}{63}}
\@writefile{lof}{\contentsline {figure}{\numberline {3.5}{\ignorespaces L'id\IeC {\'e}e de la chute de la Lune Illustration des Principia.\relax }}{63}}
\newlabel{chuteprincipia}{{3.5}{63}}
\@writefile{toc}{\contentsline {subsubsection}{Troisi\IeC {\`e}me loi de Kepler}{63}}
\newlabel{gravcentri}{{3.14}{64}}
\newlabel{vitcirc}{{3.15}{64}}
\newlabel{troiskeplernewton}{{3.16}{64}}
\newlabel{masselunekepler}{{3.17}{64}}
\citation{OG04}
\citation{BS07}
\@writefile{toc}{\contentsline {subsubsection}{Les mar\IeC {\'e}es}{65}}
\newlabel{paramarees}{{3.2.3}{65}}
\newlabel{logiquemaisfaux}{{3.6(a)}{65}}
\newlabel{sub@logiquemaisfaux}{{(a)}{65}}
\newlabel{lecasreel}{{3.6(b)}{65}}
\newlabel{sub@lecasreel}{{(b)}{65}}
\@writefile{lof}{\contentsline {figure}{\numberline {3.6}{\ignorespaces Pleines et basses mers\relax }}{65}}
\@writefile{lof}{\contentsline {subfigure}{\numberline{(a)}{\ignorespaces {Logique mais faux}}}{65}}
\@writefile{lof}{\contentsline {subfigure}{\numberline{(b)}{\ignorespaces {Le cas r\IeC {\'e}el}}}{65}}
\newlabel{rapportlunesoleil}{{3.18}{66}}
\citation{GC88}
\@writefile{lof}{\contentsline {figure}{\numberline {3.7}{\ignorespaces Syst\IeC {\`e}me Terre-Lune}}{67}}
\newlabel{pleinebassemercg}{{3.7}{67}}
\@writefile{lof}{\contentsline {figure}{\numberline {3.8}{\ignorespaces Construction de Proctor}}{67}}
\newlabel{constructionproctor}{{3.8}{67}}
\@writefile{lof}{\contentsline {figure}{\numberline {3.9}{\ignorespaces Force de mar\IeC {\'e}e}}{68}}
\newlabel{mareechampforce}{{3.9}{68}}
\newlabel{eqmareevect}{{3.19}{68}}
\newlabel{eqmaree}{{3.20}{68}}
\newlabel{rapportjuste}{{3.23}{69}}
\@writefile{toc}{\contentsline {subsubsection}{Le frottement}{69}}
\@writefile{lof}{\contentsline {figure}{\numberline {3.10}{\ignorespaces La force de frottement\relax }}{69}}
\newlabel{forcefrott}{{3.10}{69}}
\@writefile{lof}{\contentsline {figure}{\numberline {3.11}{\ignorespaces Freins de wagon\relax }}{70}}
\newlabel{freindewagon}{{3.11}{70}}
\@writefile{toc}{\contentsline {paragraph}{Exemple}{70}}
\@writefile{lof}{\contentsline {figure}{\numberline {3.12}{\ignorespaces Essieu de wagon\relax }}{70}}
\newlabel{essieudewagon}{{3.12}{70}}
\@writefile{lof}{\contentsline {figure}{\numberline {3.13}{\ignorespaces Force \IeC {\'e}lastique d'un ressort\relax }}{70}}
\newlabel{ressort}{{3.13}{70}}
\@writefile{toc}{\contentsline {subsubsection}{La force d'un ressort}{70}}
\@writefile{toc}{\contentsline {paragraph}{Exemple}{70}}
\newlabel{RF2}{72}
\@writefile{lof}{\contentsline {figure}{\numberline {3.14}{\ignorespaces R\IeC {\'e}sum\IeC {\'e} de m\IeC {\'e}canique\relax }}{72}}
\@setckpt{Dynamique/Dynamique}{
\setcounter{page}{73}
\setcounter{equation}{35}
\setcounter{enumi}{4}
\setcounter{enumii}{0}
\setcounter{enumiii}{0}
\setcounter{enumiv}{0}
\setcounter{footnote}{9}
\setcounter{mpfootnote}{0}
\setcounter{part}{0}
\setcounter{chapter}{3}
\setcounter{section}{2}
\setcounter{subsection}{3}
\setcounter{subsubsection}{0}
\setcounter{paragraph}{0}
\setcounter{subparagraph}{0}
\setcounter{figure}{14}
\setcounter{table}{0}
\setcounter{NAT@ctr}{0}
\setcounter{parentequation}{0}
\setcounter{FancyVerbLine}{0}
\setcounter{float@type}{8}
\setcounter{fignum}{0}
\setcounter{r@tfl@t}{2}
\setcounter{subfigure}{0}
\setcounter{lofdepth}{1}
\setcounter{subtable}{0}
\setcounter{lotdepth}{1}
\setcounter{ContinuedFloat}{0}
\setcounter{endnote}{62}
\setcounter{OptionTest}{0}
\setcounter{DefaultLines}{2}
\setcounter{DefaultDepth}{0}
\setcounter{L@lines}{3}
\setcounter{L@depth}{0}
\setcounter{lstnumber}{1}
\setcounter{Solution}{0}
\setcounter{exc}{0}
\setcounter{Solution OS}{0}
\setcounter{exosc}{0}
\setcounter{lstlisting}{0}
}
