%!PS-Adobe-3.0 EPSF-3.0
%%Creator: inkscape 0.44.1
%%Pages: 1
%%Orientation: Portrait
%%BoundingBox: 4 767 147 834
%%HiResBoundingBox: 4.8828924 767.53266 146.63987 833.48011
%%DocumentMedia: plain 596 842 0 () ()
%%EndComments
%%Page: 1 1
0 842 translate
0.8 -0.8 scale
gsave [1 0 0 1 0 0] concat
gsave [2.389775 -0.59315 0.258577 1.949462 -17.97745 -68.82838] concat
gsave
0 0.34509805 1 setrgbcolor
newpath
11.374947 83.887698 moveto
5.5896131 77.453475 6.1162481 67.536153 12.550472 61.750819 curveto
18.984695 55.965485 28.902017 56.49212 34.687351 62.926343 curveto
40.472685 69.360567 39.94605 79.277889 33.511826 85.063222 curveto
27.082154 90.844464 17.174981 90.323887 11.386599 83.900643 curveto
eofill
grestore
0 0.34509805 1 setrgbcolor
[] 0 setdash
0.35433072 setlinewidth
0 setlinejoin
1 setlinecap
newpath
11.374947 83.887698 moveto
5.5896131 77.453475 6.1162481 67.536153 12.550472 61.750819 curveto
18.984695 55.965485 28.902017 56.49212 34.687351 62.926343 curveto
40.472685 69.360567 39.94605 79.277889 33.511826 85.063222 curveto
27.082154 90.844464 17.174981 90.323887 11.386599 83.900643 curveto
stroke
grestore
gsave [0.445196 0.10329 -0.10329 0.445196 150.2325 -17.20578] concat
gsave
1 1 1 setrgbcolor
newpath
11.374947 83.887698 moveto
5.5896131 77.453475 6.1162481 67.536153 12.550472 61.750819 curveto
18.984695 55.965485 28.902017 56.49212 34.687351 62.926343 curveto
40.472685 69.360567 39.94605 79.277889 33.511826 85.063222 curveto
27.082154 90.844464 17.174981 90.323887 11.386599 83.900643 curveto
eofill
grestore
0 0 0 setrgbcolor
[] 0 setdash
0.77530509 setlinewidth
0 setlinejoin
1 setlinecap
newpath
11.374947 83.887698 moveto
5.5896131 77.453475 6.1162481 67.536153 12.550472 61.750819 curveto
18.984695 55.965485 28.902017 56.49212 34.687351 62.926343 curveto
40.472685 69.360567 39.94605 79.277889 33.511826 85.063222 curveto
27.082154 90.844464 17.174981 90.323887 11.386599 83.900643 curveto
stroke
grestore
gsave [1.887283 0.437871 -0.437871 1.887283 44.71981 -88.00959] concat
gsave
1 1 1 setrgbcolor
newpath
11.374947 83.887698 moveto
5.5896131 77.453475 6.1162481 67.536153 12.550472 61.750819 curveto
18.984695 55.965485 28.902017 56.49212 34.687351 62.926343 curveto
40.472685 69.360567 39.94605 79.277889 33.511826 85.063222 curveto
27.082154 90.844464 17.174981 90.323887 11.386599 83.900643 curveto
eofill
grestore
0 0 0 setrgbcolor
[] 0 setdash
0.35433072 setlinewidth
0 setlinejoin
1 setlinecap
newpath
11.374947 83.887698 moveto
5.5896131 77.453475 6.1162481 67.536153 12.550472 61.750819 curveto
18.984695 55.965485 28.902017 56.49212 34.687351 62.926343 curveto
40.472685 69.360567 39.94605 79.277889 33.511826 85.063222 curveto
27.082154 90.844464 17.174981 90.323887 11.386599 83.900643 curveto
stroke
grestore
gsave [0.445196 0.10329 -0.10329 0.445196 158.7711 25.55569] concat
gsave
1 1 1 setrgbcolor
newpath
11.374947 83.887698 moveto
5.5896131 77.453475 6.1162481 67.536153 12.550472 61.750819 curveto
18.984695 55.965485 28.902017 56.49212 34.687351 62.926343 curveto
40.472685 69.360567 39.94605 79.277889 33.511826 85.063222 curveto
27.082154 90.844464 17.174981 90.323887 11.386599 83.900643 curveto
eofill
grestore
0 0 0 setrgbcolor
[] 0 setdash
0.77530509 setlinewidth
0 setlinejoin
1 setlinecap
newpath
11.374947 83.887698 moveto
5.5896131 77.453475 6.1162481 67.536153 12.550472 61.750819 curveto
18.984695 55.965485 28.902017 56.49212 34.687351 62.926343 curveto
40.472685 69.360567 39.94605 79.277889 33.511826 85.063222 curveto
27.082154 90.844464 17.174981 90.323887 11.386599 83.900643 curveto
stroke
grestore
0 0 0 setrgbcolor
[1.1085457 1.1085457] 0 setdash
0.18475761 setlinewidth
0 setlinejoin
0 setlinecap
newpath
6.1959943 60.615147 moveto
180.80839 60.615147 lineto
stroke
gsave [6.590093 1.528975 -1.528975 6.590093 16.50321 -458.3584] concat
0 0 0 setrgbcolor
[] 0 setdash
0.05237598 setlinewidth
0 setlinejoin
1 setlinecap
newpath
35.550476 63.974201 moveto
36.931006 65.806453 37.774951 67.610907 38.296265 69.845016 curveto
stroke
gsave [0.025214526 0.033464957 -0.033464957 0.025214526 35.865658 64.392513] concat
gsave
0 0 0 setrgbcolor
newpath
0 0 moveto
5 -5 lineto
-12.5 0 lineto
5 5 lineto
0 0 lineto
closepath
eofill
grestore
0 0 0 setrgbcolor
[] 0 setdash
1.25 setlinewidth
0 setlinejoin
0 setlinecap
newpath
0 0 moveto
5 -5 lineto
-12.5 0 lineto
5 5 lineto
0 0 lineto
closepath
stroke
grestore
grestore
0 0 0 setrgbcolor
[1.4173228 1.4173228] 0 setdash
0.17716534 setlinewidth
0 setlinejoin
0 setlinecap
newpath
55.977471 60.619727 moveto
164.46478 11.577517 lineto
stroke
gsave [1.718413 0.398691 -0.398691 1.718413 45.78339 -74.71108] concat
0 0 0 setrgbcolor
[0.61709811 0.61709811] 0 setdash
0.077137262 setlinewidth
0 setlinejoin
1 setlinecap
newpath
38.51565 70.969426 moveto
39.861202 79.51687 34.016188 87.545969 25.468744 88.891522 curveto
16.921299 90.237074 8.8922002 84.39206 7.5466479 75.844615 curveto
6.2010956 67.297171 12.04611 59.268072 20.593554 57.92252 curveto
28.727706 56.642028 36.392031 61.787961 38.286045 69.801499 curveto
stroke
gsave [0.0095962787 0.060959101 -0.060959101 0.0095962787 38.635603 71.731415] concat
gsave
0 0 0 setrgbcolor
newpath
0 0 moveto
5 -5 lineto
-12.5 0 lineto
5 5 lineto
0 0 lineto
closepath
eofill
grestore
0 0 0 setrgbcolor
[] 0 setdash
1.25 setlinewidth
0 setlinejoin
0 setlinecap
newpath
0 0 moveto
5 -5 lineto
-12.5 0 lineto
5 5 lineto
0 0 lineto
closepath
stroke
grestore
grestore
gsave
0 0 0 setrgbcolor
newpath
49.887024 64.228867 moveto
49.67218 64.258163 lineto
49.60056 63.867544 49.543593 63.607128 49.501282 63.476913 curveto
49.384088 63.122102 49.226211 62.944693 49.027649 62.944687 curveto
47.162415 62.944687 lineto
47.162415 68.618515 lineto
47.162411 68.908229 47.269833 69.101914 47.48468 69.19957 curveto
47.62465 69.258164 47.85577 69.285833 48.17804 69.282578 curveto
48.17804 69.536484 lineto
45.228821 69.536484 lineto
45.228821 69.346054 lineto
45.925433 69.352565 46.27374 69.110052 46.273743 68.618515 curveto
46.273743 62.944687 lineto
44.432922 62.944687 lineto
44.117167 62.944693 43.903951 63.393912 43.793274 64.292343 curveto
43.637024 64.292343 lineto
43.793274 62.392929 lineto
43.881165 62.392929 lineto
44.011372 62.53942 44.16925 62.612663 44.354797 62.612656 curveto
49.027649 62.612656 lineto
49.216445 62.612663 49.400364 62.53942 49.579407 62.392929 curveto
49.642883 62.392929 lineto
49.887024 64.228867 lineto
fill
grestore
gsave
0 0 0 setrgbcolor
newpath
54.11554 68.335312 moveto
53.71189 69.194687 53.072242 69.624374 52.196594 69.624374 curveto
51.633442 69.624374 51.158182 69.378606 50.770813 68.88707 curveto
50.409485 68.428086 50.228821 67.910509 50.228821 67.334335 curveto
50.228821 66.680041 50.414367 66.129912 50.785461 65.683945 curveto
51.182596 65.208689 51.701801 64.971059 52.343079 64.971054 curveto
52.854144 64.971059 53.267555 65.125681 53.583313 65.434921 curveto
53.90232 65.74417 54.061825 66.155953 54.061829 66.670273 curveto
50.907532 66.670273 lineto
50.891255 66.806994 50.883117 66.946968 50.883118 67.090195 curveto
50.883117 67.575223 51.031229 68.021186 51.327454 68.428085 curveto
51.652973 68.88056 52.050108 69.106797 52.51886 69.106796 curveto
53.130836 69.106797 53.59633 68.831732 53.915344 68.281601 curveto
53.954407 68.281601 lineto
54.026017 68.278347 54.079728 68.296251 54.11554 68.335312 curveto
53.314758 66.391953 moveto
53.301734 66.059925 53.186175 65.789743 52.968079 65.581406 curveto
52.749977 65.369821 52.473285 65.264027 52.138 65.264023 curveto
51.861306 65.264027 51.615538 65.386097 51.400696 65.630234 curveto
51.211893 65.845081 51.083312 66.098987 51.014954 66.391953 curveto
53.314758 66.391953 lineto
fill
grestore
gsave
0 0 0 setrgbcolor
newpath
57.968079 65.176132 moveto
57.95831 65.361683 57.857398 65.612334 57.665344 65.928085 curveto
57.261696 65.719756 56.983376 65.615589 56.830383 65.615585 curveto
56.635069 65.615589 56.462543 65.70999 56.312805 65.898788 curveto
56.198871 66.071318 56.086567 66.243844 55.975891 66.416367 curveto
55.975891 68.838242 lineto
55.97589 69.189804 56.195616 69.365585 56.635071 69.365585 curveto
56.677386 69.365585 56.737608 69.363958 56.815735 69.360703 curveto
56.893857 69.357447 56.949196 69.35582 56.98175 69.35582 curveto
57.001282 69.536484 lineto
54.58429 69.536484 lineto
54.58429 69.394882 lineto
55.043273 69.381862 55.272765 69.196315 55.272766 68.838242 curveto
55.272766 65.976913 lineto
55.272765 65.78486 55.038391 65.638376 54.569641 65.53746 curveto
54.569641 65.356796 lineto
54.856099 65.324248 55.261372 65.158233 55.785461 64.858749 curveto
55.975891 64.897812 lineto
55.975891 66.050156 lineto
56.366514 65.320993 56.714821 64.95641 57.020813 64.956406 curveto
57.17706 64.95641 57.492815 65.029652 57.968079 65.176132 curveto
fill
grestore
gsave
0 0 0 setrgbcolor
newpath
61.698547 65.176132 moveto
61.688778 65.361683 61.587867 65.612334 61.395813 65.928085 curveto
60.992164 65.719756 60.713844 65.615589 60.560852 65.615585 curveto
60.365537 65.615589 60.193012 65.70999 60.043274 65.898788 curveto
59.92934 66.071318 59.817035 66.243844 59.70636 66.416367 curveto
59.70636 68.838242 lineto
59.706358 69.189804 59.926085 69.365585 60.36554 69.365585 curveto
60.407855 69.365585 60.468076 69.363958 60.546204 69.360703 curveto
60.624326 69.357447 60.679665 69.35582 60.712219 69.35582 curveto
60.73175 69.536484 lineto
58.314758 69.536484 lineto
58.314758 69.394882 lineto
58.773742 69.381862 59.003234 69.196315 59.003235 68.838242 curveto
59.003235 65.976913 lineto
59.003234 65.78486 58.768859 65.638376 58.30011 65.53746 curveto
58.30011 65.356796 lineto
58.586568 65.324248 58.991841 65.158233 59.51593 64.858749 curveto
59.70636 64.897812 lineto
59.70636 66.050156 lineto
60.096983 65.320993 60.44529 64.95641 60.751282 64.956406 curveto
60.907529 64.95641 61.223284 65.029652 61.698547 65.176132 curveto
fill
grestore
gsave
0 0 0 setrgbcolor
newpath
65.912415 68.335312 moveto
65.508765 69.194687 64.869117 69.624374 63.993469 69.624374 curveto
63.430317 69.624374 62.955057 69.378606 62.567688 68.88707 curveto
62.20636 68.428086 62.025696 67.910509 62.025696 67.334335 curveto
62.025696 66.680041 62.211242 66.129912 62.582336 65.683945 curveto
62.979471 65.208689 63.498676 64.971059 64.139954 64.971054 curveto
64.651019 64.971059 65.06443 65.125681 65.380188 65.434921 curveto
65.699195 65.74417 65.8587 66.155953 65.858704 66.670273 curveto
62.704407 66.670273 lineto
62.68813 66.806994 62.679992 66.946968 62.679993 67.090195 curveto
62.679992 67.575223 62.828104 68.021186 63.124329 68.428085 curveto
63.449848 68.88056 63.846983 69.106797 64.315735 69.106796 curveto
64.927711 69.106797 65.393205 68.831732 65.712219 68.281601 curveto
65.751282 68.281601 lineto
65.822892 68.278347 65.876603 68.296251 65.912415 68.335312 curveto
65.111633 66.391953 moveto
65.098609 66.059925 64.98305 65.789743 64.764954 65.581406 curveto
64.546852 65.369821 64.27016 65.264027 63.934875 65.264023 curveto
63.658181 65.264027 63.412413 65.386097 63.197571 65.630234 curveto
63.008768 65.845081 62.880187 66.098987 62.811829 66.391953 curveto
65.111633 66.391953 lineto
fill
grestore
gsave
0 0 0 setrgbcolor
newpath
156.19618 73.786667 moveto
155.81044 75.481003 lineto
150.31239 75.481003 lineto
150.31239 75.300339 lineto
151.09039 75.290573 151.47938 75.069219 151.47939 74.636276 curveto
151.47939 69.38237 lineto
151.47938 69.086152 151.37196 68.892468 151.15712 68.801315 curveto
151.03342 68.752494 150.79091 68.72808 150.42958 68.728073 curveto
150.42958 68.557175 lineto
153.53017 68.557175 lineto
153.53017 68.713425 lineto
153.45692 68.708542 lineto
153.20627 68.705293 152.97515 68.754122 152.76357 68.855026 curveto
152.49664 68.981986 152.36317 69.159395 152.36317 69.387253 curveto
152.36317 74.548386 lineto
152.36317 74.909714 152.50152 75.090378 152.77821 75.090378 curveto
154.84364 75.090378 lineto
155.16265 75.090378 155.42795 74.943894 155.63954 74.650925 curveto
155.81206 74.416551 155.93088 74.121955 155.99599 73.767136 curveto
156.19618 73.786667 lineto
fill
grestore
gsave
0 0 0 setrgbcolor
newpath
161.54774 74.880417 moveto
161.53798 75.080612 lineto
160.05849 75.500534 lineto
160.05849 74.621628 lineto
159.44976 75.227097 158.78733 75.529831 158.07118 75.529831 curveto
157.36155 75.529831 157.00673 75.046433 157.00673 74.079636 curveto
157.00673 71.921432 lineto
157.00673 71.722869 156.93837 71.566619 156.80165 71.452682 curveto
156.66493 71.338754 156.49566 71.281788 156.29384 71.281784 curveto
156.27431 71.081589 lineto
157.72939 70.8228 lineto
157.72939 74.001511 lineto
157.72938 74.28146 157.8189 74.51909 157.99794 74.714401 curveto
158.18023 74.91948 158.40972 75.022019 158.68642 75.022018 curveto
158.96311 75.022019 159.42046 74.790899 160.05849 74.328659 curveto
160.05849 71.643112 lineto
160.05848 71.398976 159.74436 71.259002 159.1161 71.22319 curveto
159.1161 71.062057 lineto
160.75673 70.759323 lineto
160.75673 74.5728 lineto
160.75672 74.816941 160.89344 74.939011 161.16689 74.939011 curveto
161.2385 74.939011 161.36545 74.91948 161.54774 74.880417 curveto
fill
grestore
gsave
0 0 0 setrgbcolor
newpath
167.36317 75.481003 moveto
165.16103 75.481003 lineto
165.16103 75.261276 lineto
165.61024 75.261276 165.83485 75.04155 165.83485 74.602097 curveto
165.83485 72.380417 lineto
165.83485 72.097217 165.77626 71.854704 165.65907 71.652878 curveto
165.51584 71.411996 165.31239 71.291554 165.04872 71.29155 curveto
164.6288 71.291554 164.11447 71.51128 163.50575 71.950729 curveto
163.50575 74.738815 lineto
163.50575 75.057826 163.7564 75.23198 164.25771 75.261276 curveto
164.22841 75.481003 lineto
162.11903 75.481003 lineto
162.0995 75.44194 lineto
162.1288 75.290573 lineto
162.33388 75.290573 162.49989 75.207566 162.62685 75.04155 curveto
162.74403 74.891811 162.80263 74.711147 162.80263 74.499557 curveto
162.80263 71.809128 lineto
162.80263 71.691944 162.70009 71.599171 162.49501 71.530807 curveto
162.46897 71.521046 162.31272 71.485239 162.02626 71.423386 curveto
162.02626 71.301315 lineto
162.17274 71.281788 162.40549 71.203663 162.7245 71.06694 curveto
163.02398 70.936737 163.22418 70.830942 163.32509 70.749557 curveto
163.50575 70.881393 lineto
163.50575 71.7603 lineto
164.46604 71.154835 165.12847 70.852101 165.49306 70.852097 curveto
165.84787 70.852101 166.12294 71.013234 166.31825 71.335495 curveto
166.48426 71.605681 166.56727 71.927946 166.56728 72.302292 curveto
166.56728 74.841354 lineto
166.56727 75.108282 166.82281 75.241745 167.33388 75.241745 curveto
167.36317 75.481003 lineto
fill
grestore
gsave
0 0 0 setrgbcolor
newpath
171.45497 74.279831 moveto
171.05132 75.139206 170.41167 75.568893 169.53603 75.568893 curveto
168.97287 75.568893 168.49761 75.323125 168.11024 74.831589 curveto
167.74892 74.372605 167.56825 73.855028 167.56825 73.278854 curveto
167.56825 72.62456 167.7538 72.074431 168.12489 71.628464 curveto
168.52203 71.153208 169.04123 70.915578 169.68251 70.915573 curveto
170.19358 70.915578 170.60699 71.0702 170.92274 71.37944 curveto
171.24175 71.688689 171.40126 72.100472 171.40126 72.614792 curveto
168.24696 72.614792 lineto
168.23069 72.751513 168.22255 72.891487 168.22255 73.034714 curveto
168.22255 73.519742 168.37066 73.965705 168.66689 74.372604 curveto
168.9924 74.825079 169.38954 75.051316 169.85829 75.051315 curveto
170.47027 75.051316 170.93576 74.776251 171.25478 74.22612 curveto
171.29384 74.22612 lineto
171.36545 74.222866 171.41916 74.24077 171.45497 74.279831 curveto
170.65419 72.336472 moveto
170.64117 72.004444 170.52561 71.734262 170.30751 71.525925 curveto
170.08941 71.31434 169.81272 71.208546 169.47743 71.208542 curveto
169.20074 71.208546 168.95497 71.330616 168.74013 71.574753 curveto
168.55132 71.7896 168.42274 72.043506 168.35439 72.336472 curveto
170.65419 72.336472 lineto
fill
grestore
gsave [3.200956 0.742658 -0.742658 3.200956 36.74433 -191.4621] concat
0 0 0 setrgbcolor
[0.61709811 0.61709811] 0 setdash
0.077137262 setlinewidth
0 setlinejoin
1 setlinecap
newpath
35.491576 63.896531 moveto
36.894725 65.734906 37.754097 67.550836 38.286045 69.801499 curveto
stroke
gsave [0.037440721 0.04905398 -0.04905398 0.037440721 35.959585 64.509706] concat
gsave
0 0 0 setrgbcolor
newpath
0 0 moveto
5 -5 lineto
-12.5 0 lineto
5 5 lineto
0 0 lineto
closepath
eofill
grestore
0 0 0 setrgbcolor
[] 0 setdash
1.25 setlinewidth
0 setlinejoin
0 setlinecap
newpath
0 0 moveto
5 -5 lineto
-12.5 0 lineto
5 5 lineto
0 0 lineto
closepath
stroke
grestore
grestore
gsave
0 0 0 setrgbcolor
newpath
47.286331 83.315117 moveto
47.286328 83.352227 47.200391 83.630547 47.028519 84.150078 curveto
44.57637 84.150078 lineto
44.520706 83.977226 lineto
45.825392 82.924493 46.477735 81.967463 46.477737 81.106133 curveto
46.477735 80.60223 46.24922 80.350277 45.792191 80.350273 curveto
45.284377 80.350277 44.897659 80.589535 44.632034 81.068047 curveto
44.503128 81.012383 lineto
44.608597 80.72137 44.788284 80.476253 45.042191 80.277031 curveto
45.309768 80.066098 45.592971 79.960629 45.8918 79.960625 curveto
46.167189 79.960629 46.398634 80.044613 46.586136 80.212578 curveto
46.781446 80.388363 46.879102 80.611995 46.879105 80.883476 curveto
46.879102 81.752619 46.290235 82.710626 45.112503 83.7575 curveto
46.715042 83.7575 lineto
46.822462 83.7575 46.925 83.674492 47.022659 83.508476 curveto
47.120313 83.342461 47.165235 83.259454 47.157425 83.259453 curveto
47.173047 83.259454 47.195508 83.268243 47.224808 83.28582 curveto
47.254102 83.301446 47.274609 83.311211 47.286331 83.315117 curveto
fill
grestore
gsave
0 0 0 setrgbcolor
newpath
50.403519 82.945976 moveto
49.720901 82.945976 lineto
49.720901 84.150078 lineto
49.316605 84.150078 lineto
49.316605 82.945976 lineto
47.602737 82.945976 lineto
47.602737 82.761406 lineto
49.574417 79.925468 lineto
49.720901 79.925468 lineto
49.720901 82.576836 lineto
50.403519 82.576836 lineto
50.403519 82.945976 lineto
49.316605 80.608086 moveto
47.971878 82.576836 lineto
49.316605 82.576836 lineto
49.316605 80.608086 lineto
fill
grestore
gsave
0 0 0 setrgbcolor
newpath
fill
grestore
gsave
0 0 0 setrgbcolor
newpath
55.310745 84.150078 moveto
53.989456 84.150078 lineto
53.989456 84.018242 lineto
54.258985 84.018242 54.393751 83.886406 54.393753 83.622734 curveto
54.393753 82.383476 lineto
54.393751 82.217463 54.355665 82.070002 54.279495 81.941093 curveto
54.187696 81.786799 54.06465 81.709651 53.910355 81.709648 curveto
53.709181 81.709651 53.404494 81.849299 52.996292 82.128593 curveto
52.996292 83.704765 lineto
52.996291 83.896172 53.146682 84.000664 53.447464 84.018242 curveto
53.506058 84.150078 lineto
52.164261 84.150078 lineto
52.155472 84.12664 lineto
52.17012 84.03582 lineto
52.332229 84.03582 52.442581 83.996758 52.501175 83.918633 curveto
52.551956 83.852227 52.577346 83.733086 52.577347 83.561211 curveto
52.577347 80.438164 lineto
52.577346 80.363949 52.540237 80.304379 52.466019 80.259453 curveto
52.405472 80.222347 52.336136 80.203793 52.258011 80.203789 curveto
52.258011 80.203793 52.208206 80.213558 52.108597 80.233086 curveto
52.108597 80.223324 52.109573 80.208676 52.111526 80.18914 curveto
52.11348 80.169613 52.114456 80.153988 52.114456 80.142265 curveto
52.114456 80.114926 52.142777 80.091488 52.199417 80.071953 curveto
52.312698 80.038754 52.425979 80.005551 52.539261 79.972343 curveto
52.660354 79.933285 52.771682 79.878598 52.873245 79.808281 curveto
52.996292 79.808281 lineto
52.996292 81.952812 lineto
53.4709 81.59344 53.870314 81.413752 54.194534 81.41375 curveto
54.413282 81.413752 54.580274 81.518245 54.695511 81.727226 curveto
54.787305 81.895197 54.833204 82.098322 54.833206 82.336601 curveto
54.833206 83.766289 lineto
54.833204 83.926445 54.9875 84.006523 55.296097 84.006523 curveto
55.310745 84.150078 lineto
fill
grestore
gsave
0 0 0 setrgbcolor
newpath
57.675003 82.471367 moveto
55.782425 82.471367 lineto
55.782425 82.105156 lineto
57.675003 82.105156 lineto
57.675003 82.471367 lineto
fill
grestore
gsave
0 0 0 setrgbcolor
newpath
60.452347 82.761406 moveto
60.452344 83.290704 60.307813 83.668633 60.018753 83.895195 curveto
59.760939 84.09832 59.359572 84.199882 58.814651 84.199883 curveto
58.656448 84.199882 58.512893 84.172539 58.383987 84.117851 curveto
58.216018 84.043633 58.132034 83.937187 58.132034 83.798515 curveto
58.132034 83.734063 58.154495 83.680352 58.199417 83.637383 curveto
58.244339 83.592461 58.300003 83.57 58.366409 83.57 curveto
58.501174 83.57 58.642776 83.63543 58.791214 83.766289 curveto
58.941604 83.897148 59.091017 83.962578 59.239456 83.962578 curveto
59.764845 83.962578 60.02754 83.594414 60.027542 82.858086 curveto
60.02754 82.656915 59.977735 82.467462 59.878128 82.289726 curveto
59.760939 82.080744 59.608595 81.976252 59.421097 81.97625 curveto
59.22383 81.976252 59.015822 82.031916 58.797073 82.143242 curveto
58.741409 81.993828 lineto
58.91133 81.946955 59.114455 81.816096 59.350784 81.60125 curveto
59.606642 81.368831 59.734572 81.175471 59.734573 81.021172 curveto
59.734572 80.841487 59.666212 80.686214 59.529495 80.555351 curveto
59.392775 80.424496 59.234572 80.359066 59.054886 80.359062 curveto
58.840041 80.359066 58.551956 80.530941 58.190628 80.874687 curveto
58.099808 80.836601 lineto
58.297073 80.535824 58.465042 80.326839 58.603714 80.209648 curveto
58.810744 80.03973 59.058791 79.95477 59.347855 79.954765 curveto
59.5959 79.95477 59.80879 80.032894 59.986526 80.18914 curveto
60.174024 80.353207 60.267774 80.557308 60.267776 80.801445 curveto
60.267774 81.010433 60.203321 81.18426 60.074417 81.322929 curveto
59.988478 81.416682 59.832228 81.524104 59.605667 81.645195 curveto
59.87129 81.662776 60.083204 81.789729 60.241409 82.026054 curveto
60.382032 82.236994 60.452344 82.482111 60.452347 82.761406 curveto
fill
grestore
gsave
0 0 0 setrgbcolor
newpath
63.414261 82.825859 moveto
63.414258 83.195001 63.279493 83.519219 63.009964 83.798515 curveto
62.740431 84.075859 62.422072 84.214531 62.054886 84.214531 curveto
61.603713 84.214531 61.249221 84.012383 60.991409 83.608086 curveto
60.768753 83.258477 60.657425 82.846368 60.657425 82.371758 curveto
60.657425 81.744807 60.881057 81.205745 61.328323 80.75457 curveto
61.703322 80.377621 62.218947 80.077816 62.875198 79.855156 curveto
62.930862 79.986992 lineto
61.946486 80.334652 61.364455 80.990901 61.184769 81.955742 curveto
61.38594 81.789729 61.533401 81.68133 61.627151 81.630547 curveto
61.793166 81.536799 61.968947 81.489924 62.154495 81.489922 curveto
62.484571 81.489924 62.778516 81.630549 63.036331 81.911797 curveto
63.288282 82.187189 63.414258 82.491876 63.414261 82.825859 curveto
62.913284 82.784843 moveto
62.913282 82.505548 62.849805 82.258478 62.722855 82.043633 curveto
62.572462 81.787775 62.368361 81.659846 62.11055 81.659843 curveto
61.944533 81.659846 61.773635 81.711604 61.597855 81.815117 curveto
61.537307 81.850275 61.390823 81.956721 61.158401 82.134453 curveto
61.152542 82.202814 61.149612 82.274103 61.149612 82.34832 curveto
61.149612 83.506524 61.465041 84.085625 62.095901 84.085625 curveto
62.427931 84.085625 62.657423 83.941094 62.784378 83.652031 curveto
62.870313 83.454766 62.913282 83.165704 62.913284 82.784843 curveto
fill
grestore
gsave
0 0 0 setrgbcolor
newpath
66.346878 82.034843 moveto
66.346875 82.509454 66.246289 82.958673 66.04512 83.3825 curveto
65.795118 83.911797 65.458204 84.176445 65.034378 84.176445 curveto
64.594924 84.176445 64.253127 83.915703 64.008987 83.394218 curveto
63.817581 82.986016 63.721878 82.532892 63.721878 82.034843 curveto
63.721878 81.560237 63.822464 81.111018 64.023636 80.687187 curveto
64.273635 80.159847 64.610549 79.896176 65.034378 79.896172 curveto
65.473829 79.896176 65.814649 80.155941 66.056839 80.675468 curveto
66.250196 81.085628 66.346875 81.538752 66.346878 82.034843 curveto
65.916214 82.166679 moveto
65.916212 80.762386 65.622267 80.060238 65.034378 80.060234 curveto
64.446486 80.060238 64.152541 80.675472 64.152542 81.905937 curveto
64.152541 83.308282 64.446486 84.009453 65.034378 84.009453 curveto
65.622267 84.009453 65.916212 83.395196 65.916214 82.166679 curveto
fill
grestore
gsave
0 0 0 setrgbcolor
newpath
68.968948 81.003593 moveto
68.968946 81.259456 68.878126 81.478205 68.696487 81.659843 curveto
68.514845 81.841486 68.295119 81.932307 68.037308 81.932304 curveto
67.781447 81.932307 67.562698 81.841486 67.381058 81.659843 curveto
67.199417 81.478205 67.108597 81.259456 67.108597 81.003593 curveto
67.108597 80.745784 67.199417 80.526058 67.381058 80.344414 curveto
67.562698 80.162777 67.781447 80.071957 68.037308 80.071953 curveto
68.295119 80.071957 68.514845 80.162777 68.696487 80.344414 curveto
68.878126 80.526058 68.968946 80.745784 68.968948 81.003593 curveto
68.634964 81.009453 moveto
68.634962 80.845394 68.576368 80.705745 68.459183 80.590508 curveto
68.343947 80.473324 68.203322 80.41473 68.037308 80.414726 curveto
67.873244 80.41473 67.732619 80.473324 67.615433 80.590508 curveto
67.500198 80.705745 67.442581 80.845394 67.442581 81.009453 curveto
67.442581 81.175471 67.500198 81.317073 67.615433 81.434258 curveto
67.732619 81.549494 67.873244 81.607112 68.037308 81.607109 curveto
68.203322 81.607112 68.343947 81.549494 68.459183 81.434258 curveto
68.576368 81.317073 68.634962 81.175471 68.634964 81.009453 curveto
fill
grestore
gsave [1 0 0 1 -4.706071 -34.42862] concat
gsave
0 0 0 setrgbcolor
newpath
92.371026 94.960351 moveto
92.487963 95.703184 91.979991 96.400969 91.237158 96.517907 curveto
90.494326 96.634845 89.796541 96.126872 89.679603 95.384039 curveto
89.562665 94.641207 90.070638 93.943422 90.81347 93.826484 curveto
91.520385 93.715201 92.186468 94.162418 92.351071 94.85885 curveto
eofill
grestore
0 0.34509805 1 setrgbcolor
[1.4173229 1.4173229] 0 setdash
0.17716536 setlinewidth
0 setlinejoin
1 setlinecap
newpath
92.371026 94.960351 moveto
92.487963 95.703184 91.979991 96.400969 91.237158 96.517907 curveto
90.494326 96.634845 89.796541 96.126872 89.679603 95.384039 curveto
89.562665 94.641207 90.070638 93.943422 90.81347 93.826484 curveto
91.520385 93.715201 92.186468 94.162418 92.351071 94.85885 curveto
stroke
grestore
gsave
0 0 0 setrgbcolor
newpath
82.043083 59.312523 moveto
82.04308 59.689479 81.876088 60.006861 81.542107 60.264671 curveto
81.235464 60.501001 80.887808 60.619165 80.499138 60.619164 curveto
80.366324 60.619165 80.18859 60.589868 79.965935 60.531273 curveto
79.963005 61.747093 lineto
79.963004 61.924828 80.03234 62.059593 80.171013 62.15139 curveto
80.292105 62.231468 80.444449 62.266625 80.628044 62.256859 curveto
80.648552 62.33889 lineto
80.645622 62.368187 lineto
78.864372 62.368187 lineto
78.88195 62.239281 lineto
78.914177 62.239281 lineto
79.113395 62.241234 79.252067 62.203148 79.330193 62.125023 curveto
79.41027 62.044945 79.450309 61.905297 79.45031 61.706078 curveto
79.45031 58.691429 lineto
79.450309 58.431667 79.260856 58.302761 78.88195 58.30471 curveto
78.88195 58.196312 lineto
79.153434 58.159207 79.552848 58.140652 80.080193 58.140648 curveto
80.668081 58.140652 81.101675 58.196316 81.380974 58.30764 curveto
81.822377 58.483425 82.04308 58.818386 82.043083 59.312523 curveto
81.427849 59.312523 moveto
81.427846 59.029323 81.341909 58.789089 81.170036 58.59182 curveto
80.990347 58.384792 80.760855 58.281277 80.48156 58.281273 curveto
80.415152 58.281277 80.329214 58.289089 80.223747 58.30471 curveto
80.092887 58.322293 80.006949 58.333035 79.965935 58.336937 curveto
79.965935 60.37307 lineto
80.098746 60.410181 80.295035 60.428736 80.554802 60.428734 curveto
80.86144 60.428736 81.089956 60.315455 81.240349 60.08889 curveto
81.365346 59.897486 81.427846 59.638697 81.427849 59.312523 curveto
fill
grestore
gsave
0 0 0 setrgbcolor
newpath
164.81644 41.149876 moveto
164.81643 41.186986 164.7305 41.465306 164.55862 41.984837 curveto
162.10648 41.984837 lineto
162.05081 41.811985 lineto
163.3555 40.759252 164.00784 39.802222 164.00784 38.940891 curveto
164.00784 38.436989 163.77933 38.185036 163.3223 38.185032 curveto
162.81448 38.185036 162.42776 38.424293 162.16214 38.902805 curveto
162.03323 38.847141 lineto
162.1387 38.556129 162.31839 38.311012 162.5723 38.11179 curveto
162.83987 37.900856 163.12308 37.795388 163.42191 37.795383 curveto
163.69729 37.795388 163.92874 37.879372 164.11624 38.047337 curveto
164.31155 38.223122 164.40921 38.446754 164.40921 38.718235 curveto
164.40921 39.587378 163.82034 40.545385 162.64261 41.592258 curveto
164.24515 41.592258 lineto
164.35257 41.592259 164.45511 41.509251 164.55276 41.343235 curveto
164.65042 41.17722 164.69534 41.094212 164.68753 41.094212 curveto
164.70315 41.094212 164.72561 41.103002 164.75491 41.120579 curveto
164.78421 41.136205 164.80472 41.14597 164.81644 41.149876 curveto
fill
grestore
gsave
0 0 0 setrgbcolor
newpath
167.93362 40.780735 moveto
167.25101 40.780735 lineto
167.25101 41.984837 lineto
166.84671 41.984837 lineto
166.84671 40.780735 lineto
165.13284 40.780735 lineto
165.13284 40.596165 lineto
167.10452 37.760227 lineto
167.25101 37.760227 lineto
167.25101 40.411594 lineto
167.93362 40.411594 lineto
167.93362 40.780735 lineto
166.84671 38.442844 moveto
165.50198 40.411594 lineto
166.84671 40.411594 lineto
166.84671 38.442844 lineto
fill
grestore
gsave
0 0 0 setrgbcolor
newpath
fill
grestore
gsave
0 0 0 setrgbcolor
newpath
172.84085 41.984837 moveto
171.51956 41.984837 lineto
171.51956 41.853001 lineto
171.78909 41.853001 171.92386 41.721165 171.92386 41.457493 curveto
171.92386 40.218235 lineto
171.92386 40.052221 171.88577 39.904761 171.8096 39.775852 curveto
171.7178 39.621558 171.59476 39.544409 171.44046 39.544407 curveto
171.23929 39.544409 170.9346 39.684058 170.5264 39.963352 curveto
170.5264 41.539524 lineto
170.5264 41.730931 170.67679 41.835423 170.97757 41.853001 curveto
171.03616 41.984837 lineto
169.69437 41.984837 lineto
169.68558 41.961399 lineto
169.70023 41.870579 lineto
169.86234 41.870579 169.97269 41.831516 170.03128 41.753391 curveto
170.08206 41.686985 170.10745 41.567845 170.10745 41.395969 curveto
170.10745 38.272923 lineto
170.10745 38.198708 170.07034 38.139137 169.99612 38.094212 curveto
169.93558 38.057106 169.86624 38.038551 169.78812 38.038548 curveto
169.78812 38.038551 169.73831 38.048317 169.6387 38.067844 curveto
169.6387 38.058083 169.63968 38.043434 169.64163 38.023899 curveto
169.64359 38.004372 169.64456 37.988747 169.64456 37.977024 curveto
169.64456 37.949684 169.67288 37.926247 169.72952 37.906712 curveto
169.8428 37.873513 169.95608 37.840309 170.06937 37.807102 curveto
170.19046 37.768044 170.30179 37.713356 170.40335 37.64304 curveto
170.5264 37.64304 lineto
170.5264 39.787571 lineto
171.00101 39.428199 171.40042 39.248511 171.72464 39.248508 curveto
171.94339 39.248511 172.11038 39.353003 172.22562 39.561985 curveto
172.31741 39.729956 172.36331 39.933081 172.36331 40.17136 curveto
172.36331 41.601048 lineto
172.36331 41.761204 172.51761 41.841282 172.8262 41.841282 curveto
172.84085 41.984837 lineto
fill
grestore
gsave
0 0 0 setrgbcolor
newpath
175.20511 40.306126 moveto
173.31253 40.306126 lineto
173.31253 39.939915 lineto
175.20511 39.939915 lineto
175.20511 40.306126 lineto
fill
grestore
gsave
0 0 0 setrgbcolor
newpath
177.54593 41.981907 moveto
175.83792 41.981907 lineto
175.83792 41.879368 lineto
176.25198 41.879368 176.45901 41.712376 176.45901 41.378391 curveto
176.45901 38.284641 lineto
176.35355 38.347145 176.24905 38.409645 176.14554 38.472141 curveto
176.02054 38.542457 175.91019 38.590309 175.81448 38.615696 curveto
175.75882 38.48679 lineto
176.1514 38.291481 176.48831 38.0532 176.76956 37.771946 curveto
176.94534 37.771946 lineto
176.94534 41.378391 lineto
176.94534 41.579564 176.9971 41.716282 177.10062 41.788548 curveto
177.1846 41.849095 177.33304 41.879368 177.54593 41.879368 curveto
177.54593 41.981907 lineto
fill
grestore
gsave
0 0 0 setrgbcolor
newpath
180.89456 41.149876 moveto
180.89456 41.186986 180.80862 41.465306 180.63675 41.984837 curveto
178.1846 41.984837 lineto
178.12894 41.811985 lineto
179.43362 40.759252 180.08597 39.802222 180.08597 38.940891 curveto
180.08597 38.436989 179.85745 38.185036 179.40042 38.185032 curveto
178.89261 38.185036 178.50589 38.424293 178.24026 38.902805 curveto
178.11136 38.847141 lineto
178.21683 38.556129 178.39651 38.311012 178.65042 38.11179 curveto
178.918 37.900856 179.2012 37.795388 179.50003 37.795383 curveto
179.77542 37.795388 180.00686 37.879372 180.19437 38.047337 curveto
180.38968 38.223122 180.48733 38.446754 180.48734 38.718235 curveto
180.48733 39.587378 179.89847 40.545385 178.72073 41.592258 curveto
180.32327 41.592258 lineto
180.43069 41.592259 180.53323 41.509251 180.63089 41.343235 curveto
180.72854 41.17722 180.77347 41.094212 180.76566 41.094212 curveto
180.78128 41.094212 180.80374 41.103002 180.83304 41.120579 curveto
180.86233 41.136205 180.88284 41.14597 180.89456 41.149876 curveto
fill
grestore
gsave
0 0 0 setrgbcolor
newpath
183.29984 38.838352 moveto
183.29983 39.094214 183.20901 39.312964 183.02737 39.494602 curveto
182.84573 39.676245 182.62601 39.767065 182.36819 39.767063 curveto
182.11233 39.767065 181.89358 39.676245 181.71194 39.494602 curveto
181.5303 39.312964 181.43948 39.094214 181.43948 38.838352 curveto
181.43948 38.580543 181.5303 38.360817 181.71194 38.179173 curveto
181.89358 37.997536 182.11233 37.906716 182.36819 37.906712 curveto
182.62601 37.906716 182.84573 37.997536 183.02737 38.179173 curveto
183.20901 38.360817 183.29983 38.580543 183.29984 38.838352 curveto
182.96585 38.844212 moveto
182.96585 38.680152 182.90726 38.540504 182.79007 38.425266 curveto
182.67483 38.308082 182.53421 38.249489 182.36819 38.249485 curveto
182.20413 38.249489 182.06351 38.308082 181.94632 38.425266 curveto
181.83108 38.540504 181.77347 38.680152 181.77347 38.844212 curveto
181.77347 39.01023 181.83108 39.151832 181.94632 39.269016 curveto
182.06351 39.384253 182.20413 39.44187 182.36819 39.441868 curveto
182.53421 39.44187 182.67483 39.384253 182.79007 39.269016 curveto
182.90726 39.151832 182.96585 39.01023 182.96585 38.844212 curveto
fill
grestore
gsave
0 0 0 setrgbcolor
newpath
110.47041 52.3848 moveto
108.76241 52.3848 lineto
108.76241 52.282261 lineto
109.17647 52.282261 109.3835 52.115269 109.3835 51.781284 curveto
109.3835 48.687534 lineto
109.27803 48.750038 109.17354 48.812538 109.07002 48.875034 curveto
108.94502 48.94535 108.83467 48.993202 108.73897 49.018589 curveto
108.6833 48.889683 lineto
109.07588 48.694374 109.41279 48.456093 109.69405 48.174839 curveto
109.86983 48.174839 lineto
109.86983 51.781284 lineto
109.86983 51.982457 109.92158 52.119175 110.0251 52.191441 curveto
110.10908 52.251988 110.25752 52.282261 110.47041 52.282261 curveto
110.47041 52.3848 lineto
fill
grestore
gsave
0 0 0 setrgbcolor
newpath
113.81905 51.552769 moveto
113.81904 51.589879 113.73311 51.868199 113.56123 52.38773 curveto
111.10909 52.38773 lineto
111.05342 52.214878 lineto
112.35811 51.162145 113.01045 50.205115 113.01045 49.343784 curveto
113.01045 48.839882 112.78193 48.587929 112.32491 48.587925 curveto
111.81709 48.587929 111.43037 48.827186 111.16475 49.305698 curveto
111.03584 49.250034 lineto
111.14131 48.959022 111.321 48.713905 111.57491 48.514683 curveto
111.84248 48.303749 112.12569 48.198281 112.42451 48.198277 curveto
112.6999 48.198281 112.93135 48.282265 113.11885 48.45023 curveto
113.31416 48.626015 113.41182 48.849647 113.41182 49.121128 curveto
113.41182 49.990271 112.82295 50.948278 111.64522 51.995152 curveto
113.24776 51.995152 lineto
113.35518 51.995152 113.45772 51.912144 113.55537 51.746128 curveto
113.65303 51.580113 113.69795 51.497106 113.69014 51.497105 curveto
113.70576 51.497106 113.72822 51.505895 113.75752 51.523472 curveto
113.78682 51.539098 113.80732 51.548863 113.81905 51.552769 curveto
fill
grestore
gsave
0 0 0 setrgbcolor
newpath
116.22432 49.241245 moveto
116.22432 49.497108 116.1335 49.715857 115.95186 49.897495 curveto
115.77022 50.079138 115.55049 50.169958 115.29268 50.169956 curveto
115.03682 50.169958 114.81807 50.079138 114.63643 49.897495 curveto
114.45479 49.715857 114.36397 49.497108 114.36397 49.241245 curveto
114.36397 48.983436 114.45479 48.76371 114.63643 48.582066 curveto
114.81807 48.400429 115.03682 48.309609 115.29268 48.309605 curveto
115.55049 48.309609 115.77022 48.400429 115.95186 48.582066 curveto
116.1335 48.76371 116.22432 48.983436 116.22432 49.241245 curveto
115.89034 49.247105 moveto
115.89033 49.083045 115.83174 48.943397 115.71455 48.828159 curveto
115.59932 48.710976 115.45869 48.652382 115.29268 48.652378 curveto
115.12862 48.652382 114.98799 48.710976 114.8708 48.828159 curveto
114.75557 48.943397 114.69795 49.083045 114.69795 49.247105 curveto
114.69795 49.413123 114.75557 49.554725 114.8708 49.671909 curveto
114.98799 49.787146 115.12862 49.844763 115.29268 49.844761 curveto
115.45869 49.844763 115.59932 49.787146 115.71455 49.671909 curveto
115.83174 49.554725 115.89033 49.413123 115.89034 49.247105 curveto
fill
grestore
gsave
0 0 0 setrgbcolor
newpath
118.71162 50.709019 moveto
116.81905 50.709019 lineto
116.81905 50.342808 lineto
118.71162 50.342808 lineto
118.71162 50.709019 lineto
fill
grestore
gsave
0 0 0 setrgbcolor
newpath
121.7878 51.183628 moveto
121.10518 51.183628 lineto
121.10518 52.38773 lineto
120.70088 52.38773 lineto
120.70088 51.183628 lineto
118.98701 51.183628 lineto
118.98701 50.999058 lineto
120.95869 48.16312 lineto
121.10518 48.16312 lineto
121.10518 50.814487 lineto
121.7878 50.814487 lineto
121.7878 51.183628 lineto
120.70088 48.845737 moveto
119.35616 50.814487 lineto
120.70088 50.814487 lineto
120.70088 48.845737 lineto
fill
grestore
gsave
0 0 0 setrgbcolor
newpath
124.4626 51.464878 moveto
124.45479 51.767613 124.31318 52.011753 124.0378 52.1973 curveto
123.78389 52.367222 123.47822 52.452183 123.1208 52.452183 curveto
122.38057 52.452183 122.00166 52.117222 121.98409 51.4473 curveto
121.97823 51.189489 122.07783 50.951208 122.28291 50.732456 curveto
122.40596 50.603552 122.60713 50.450232 122.88643 50.272495 curveto
122.58369 50.024451 122.41475 49.882849 122.37959 49.847691 curveto
122.19014 49.646521 122.09541 49.434608 122.09541 49.211948 curveto
122.09541 48.918983 122.18819 48.676796 122.37373 48.485386 curveto
122.55928 48.292031 122.8083 48.185585 123.1208 48.16605 curveto
123.44111 48.148476 123.71358 48.219765 123.93819 48.379917 curveto
124.16475 48.540077 124.27803 48.749061 124.27803 49.00687 curveto
124.27803 49.208045 124.19209 49.418983 124.02022 49.639683 curveto
123.87764 49.823279 123.70088 49.988318 123.48994 50.1348 curveto
123.82197 50.380896 124.04756 50.573278 124.1667 50.711948 curveto
124.37178 50.948278 124.47041 51.199254 124.4626 51.464878 curveto
123.82979 49.036167 moveto
123.82979 48.836952 123.76533 48.673866 123.63643 48.546909 curveto
123.50752 48.418007 123.34248 48.353554 123.14131 48.35355 curveto
122.93819 48.353554 122.77608 48.424843 122.65498 48.567417 curveto
122.54365 48.702186 122.48799 48.873085 122.48799 49.080112 curveto
122.48799 49.263709 122.58369 49.440467 122.7751 49.610386 curveto
122.77901 49.614295 122.95088 49.739295 123.29073 49.985386 curveto
123.6501 49.682654 123.82979 49.366248 123.82979 49.036167 curveto
124.03487 51.464878 moveto
124.01924 51.304723 123.88838 51.114293 123.64229 50.893589 curveto
123.44111 50.731481 123.24092 50.569372 123.0417 50.407261 curveto
122.68623 50.663122 122.48897 50.978551 122.44991 51.35355 curveto
122.446 51.402379 122.44405 51.449254 122.44405 51.494175 curveto
122.44405 51.732457 122.50655 51.923863 122.63155 52.068394 curveto
122.7585 52.212925 122.93428 52.285191 123.15889 52.285191 curveto
123.40694 52.285191 123.61983 52.20023 123.79756 52.030308 curveto
123.97529 51.860386 124.0544 51.67191 124.03487 51.464878 curveto
fill
grestore
gsave
0 0 0 setrgbcolor
newpath
fill
grestore
gsave
0 0 0 setrgbcolor
newpath
131.30049 52.38773 moveto
130.00264 52.38773 lineto
130.00264 52.255894 lineto
130.26826 52.255894 130.40107 52.124058 130.40108 51.860386 curveto
130.40108 50.527378 lineto
130.40107 50.361364 130.36103 50.215857 130.28096 50.090855 curveto
130.18721 49.946326 130.06123 49.87406 129.90303 49.874058 curveto
129.66084 49.87406 129.37275 49.99613 129.03877 50.240269 curveto
129.03877 52.003941 lineto
129.03877 52.164097 129.19502 52.244175 129.50752 52.244175 curveto
129.52217 52.38773 lineto
128.22725 52.38773 lineto
128.22725 52.255894 lineto
128.49092 52.255894 128.62275 52.124058 128.62276 51.860386 curveto
128.62276 50.527378 lineto
128.62275 50.359411 128.58858 50.21488 128.52022 50.093784 curveto
128.43623 49.947302 128.31611 49.87406 128.15987 49.874058 curveto
127.91377 49.87406 127.61201 50.005896 127.25459 50.269566 curveto
127.25459 51.942417 lineto
127.25459 52.133824 127.40205 52.238316 127.69698 52.255894 curveto
127.6794 52.38773 lineto
126.44014 52.38773 lineto
126.42842 52.364292 lineto
126.446 52.273472 lineto
126.56709 52.273472 126.66475 52.223667 126.73897 52.124058 curveto
126.80733 52.032261 126.84151 51.923863 126.84151 51.798862 curveto
126.84151 50.184605 lineto
126.84151 50.114294 126.78096 50.05863 126.65987 50.017612 curveto
126.64424 50.011755 126.55244 49.990271 126.38448 49.953159 curveto
126.38448 49.879917 lineto
126.40401 49.858435 126.42842 49.84281 126.45772 49.833042 curveto
126.61201 49.78031 126.84248 49.685584 127.14912 49.548862 curveto
127.25459 49.627964 lineto
127.25459 50.155308 lineto
127.81904 49.792029 128.20869 49.610389 128.42354 49.610386 curveto
128.5544 49.610389 128.67647 49.670935 128.78975 49.792027 curveto
128.88545 49.895545 128.95479 50.016638 128.99776 50.155308 curveto
129.56221 49.792029 129.95185 49.610389 130.1667 49.610386 curveto
130.37568 49.610389 130.54267 49.707068 130.66768 49.900425 curveto
130.77705 50.068396 130.83174 50.261755 130.83174 50.480503 curveto
130.83174 52.003941 lineto
130.83174 52.164097 130.98213 52.244175 131.28291 52.244175 curveto
131.30049 52.38773 lineto
fill
grestore
gsave
0 0 0 setrgbcolor
newpath
134.64912 52.38773 moveto
133.32784 52.38773 lineto
133.32784 52.255894 lineto
133.59736 52.255894 133.73213 52.124058 133.73213 51.860386 curveto
133.73213 50.527378 lineto
133.73213 50.357458 133.69697 50.211951 133.62666 50.090855 curveto
133.54072 49.946326 133.41865 49.87406 133.26045 49.874058 curveto
133.0085 49.87406 132.6999 50.005896 132.33467 50.269566 curveto
132.33467 51.942417 lineto
132.33467 52.133824 132.48506 52.238316 132.78584 52.255894 curveto
132.76826 52.38773 lineto
131.50264 52.38773 lineto
131.49092 52.364292 lineto
131.5085 52.273472 lineto
131.63155 52.273472 131.73116 52.223667 131.80733 52.124058 curveto
131.87764 52.034214 131.9128 51.925816 131.9128 51.798862 curveto
131.9128 50.184605 lineto
131.9128 50.114294 131.85127 50.05863 131.72823 50.017612 curveto
131.7126 50.011755 131.61885 49.990271 131.44698 49.953159 curveto
131.44698 49.879917 lineto
131.53487 49.868201 131.67451 49.821326 131.86592 49.739292 curveto
132.04561 49.66117 132.16572 49.597693 132.22627 49.548862 curveto
132.33467 49.627964 lineto
132.33467 50.155308 lineto
132.91084 49.792029 133.3083 49.610389 133.52705 49.610386 curveto
133.73994 49.610389 133.90498 49.707068 134.02217 49.900425 curveto
134.12178 50.062537 134.17158 50.255896 134.17159 50.480503 curveto
134.17159 52.003941 lineto
134.17158 52.164097 134.3249 52.244175 134.63155 52.244175 curveto
134.64912 52.38773 lineto
fill
grestore
grestore
showpage
%%EOF
