%!PS-Adobe-3.0 EPSF-3.0
%%Creator: inkscape 0.44.1
%%Pages: 1
%%Orientation: Portrait
%%BoundingBox: 5 759 156 833
%%HiResBoundingBox: 5.7271407 759.32256 155.74958 832.76049
%%DocumentMedia: plain 596 842 0 () ()
%%EndComments
%%Page: 1 1
0 842 translate
0.8 -0.8 scale
gsave [1 0 0 1 0 0] concat
gsave [1 0 0 1 -2.853293 -4.347875] concat
0 0 0 setrgbcolor
[] 0 setdash
0.35433072 setlinewidth
1 setlinejoin
1 setlinecap
newpath
53.661019 15.992924 moveto
78.868224 14.75096 100.33422 34.201011 101.57618 59.408215 curveto
102.81814 84.61542 83.368092 106.08141 58.160888 107.32338 curveto
32.953683 108.56534 11.487692 89.115289 10.245728 63.908084 curveto
9.0058302 38.74281 28.37976 17.304607 53.541708 15.998959 curveto
stroke
grestore
gsave [1 0 0 1 -0.203813 0] concat
gsave [0.09416728 0 0 0.09416728 143.1742 51.50409] concat
0 0 0 setrgbcolor
[] 0 setdash
3.7627795 setlinewidth
1 setlinejoin
1 setlinecap
newpath
53.661019 15.992924 moveto
78.868224 14.75096 100.33422 34.201011 101.57618 59.408215 curveto
102.81814 84.61542 83.368092 106.08141 58.160888 107.32338 curveto
32.953683 108.56534 11.487692 89.115289 10.245728 63.908084 curveto
9.0058302 38.74281 28.37976 17.304607 53.541708 15.998959 curveto
stroke
grestore
gsave [0.09416728 0 0 0.09416728 152.5493 51.50409] concat
0 0 0 setrgbcolor
[] 0 setdash
3.7627795 setlinewidth
1 setlinejoin
1 setlinecap
newpath
53.661019 15.992924 moveto
78.868224 14.75096 100.33422 34.201011 101.57618 59.408215 curveto
102.81814 84.61542 83.368092 106.08141 58.160888 107.32338 curveto
32.953683 108.56534 11.487692 89.115289 10.245728 63.908084 curveto
9.0058302 38.74281 28.37976 17.304607 53.541708 15.998959 curveto
stroke
grestore
grestore
gsave [0.228317 0 0 0.228317 140.1575 43.23267] concat
0 0 0 setrgbcolor
[12.415395 12.415395] 0 setdash
1.5519243 setlinewidth
1 setlinejoin
1 setlinecap
newpath
53.661019 15.992924 moveto
78.868224 14.75096 100.33422 34.201011 101.57618 59.408215 curveto
102.81814 84.61542 83.368092 106.08141 58.160888 107.32338 curveto
32.953683 108.56534 11.487692 89.115289 10.245728 63.908084 curveto
9.0058302 38.74281 28.37976 17.304607 53.541708 15.998959 curveto
stroke
grestore
0 0 0 setrgbcolor
[] 0 setdash
0.35433072 setlinewidth
0 setlinejoin
0 setlinecap
newpath
147.82022 43.284909 moveto
157.61799 43.284909 lineto
stroke
gsave [0.35433072 0 0 0.35433072 147.82022 43.284909] concat
1 1 1 setrgbcolor
[] 0 setdash
1.15 setlinewidth
0 setlinejoin
2 setlinecap
newpath
0 0 moveto
-2 0 lineto
stroke
gsave
0 0 0 setrgbcolor
newpath
0 0 moveto
-13 4 lineto
-9 0 lineto
-13 -4 lineto
0 0 lineto
closepath
eofill
grestore
0 0 0 setrgbcolor
[] 0 setdash
1 setlinewidth
0 setlinejoin
2 setlinecap
newpath
0 -4 moveto
0 40 lineto
stroke
grestore
gsave [0.35433072 0 0 0.35433072 157.61799 43.284909] concat
1 1 1 setrgbcolor
[] 0 setdash
1.15 setlinewidth
0 setlinejoin
2 setlinecap
newpath
0 0 moveto
2 0 lineto
stroke
gsave
0 0 0 setrgbcolor
newpath
0 0 moveto
13 4 lineto
9 0 lineto
13 -4 lineto
0 0 lineto
closepath
eofill
grestore
0 0 0 setrgbcolor
[] 0 setdash
1 setlinewidth
0 setlinejoin
2 setlinecap
newpath
0 -4 moveto
0 40 lineto
stroke
grestore
0 0 0 setrgbcolor
[] 0 setdash
0.35917881 setlinewidth
0 setlinejoin
0 setlinecap
newpath
152.9876 72.429264 moveto
53.128839 72.429264 lineto
stroke
gsave [-0.35917881 4.3985265e-17 -4.3985265e-17 -0.35917881 152.9876 72.429264] concat
1 1 1 setrgbcolor
[] 0 setdash
1.15 setlinewidth
0 setlinejoin
2 setlinecap
newpath
0 0 moveto
2 0 lineto
stroke
gsave
0 0 0 setrgbcolor
newpath
0 0 moveto
13 4 lineto
9 0 lineto
13 -4 lineto
0 0 lineto
closepath
eofill
grestore
0 0 0 setrgbcolor
[] 0 setdash
1 setlinewidth
0 setlinejoin
2 setlinecap
newpath
0 -4 moveto
0 40 lineto
stroke
grestore
gsave [-0.35917881 4.3985265e-17 -4.3985265e-17 -0.35917881 53.128839 72.429264] concat
1 1 1 setrgbcolor
[] 0 setdash
1.15 setlinewidth
0 setlinejoin
2 setlinecap
newpath
0 0 moveto
-2 0 lineto
stroke
gsave
0 0 0 setrgbcolor
newpath
0 0 moveto
-13 4 lineto
-9 0 lineto
-13 -4 lineto
0 0 lineto
closepath
eofill
grestore
0 0 0 setrgbcolor
[] 0 setdash
1 setlinewidth
0 setlinejoin
2 setlinecap
newpath
0 -4 moveto
0 40 lineto
stroke
grestore
0 0 0 setrgbcolor
[2.1259843 2.1259843] 0 setdash
0.35433072 setlinewidth
0 setlinejoin
0 setlinecap
newpath
44.022232 57.51408 moveto
171.46931 57.51408 lineto
stroke
gsave
0 0 0 setrgbcolor
newpath
37.665314 31.249832 moveto
37.665308 31.878092 37.386988 32.407063 36.830353 32.836746 curveto
36.319281 33.23063 35.739854 33.427569 35.092072 33.427567 curveto
34.870715 33.427569 34.574491 33.378741 34.2034 33.281082 curveto
34.198517 35.307449 lineto
34.198515 35.603674 34.314075 35.828283 34.545197 35.981277 curveto
34.747017 36.114741 35.000923 36.173335 35.306915 36.157059 curveto
35.341095 36.293777 lineto
35.336212 36.342606 lineto
32.367462 36.342606 lineto
32.396759 36.127762 lineto
32.45047 36.127762 lineto
32.782501 36.131017 33.01362 36.067541 33.143829 35.937332 curveto
33.277292 35.803869 33.344024 35.571122 33.344025 35.23909 curveto
33.344025 30.214676 lineto
33.344024 29.78174 33.028269 29.566896 32.396759 29.570145 curveto
32.396759 29.389481 lineto
32.849232 29.327639 33.514922 29.296714 34.393829 29.296707 curveto
35.373644 29.296714 36.096299 29.389488 36.561798 29.575027 curveto
37.29747 29.868003 37.665308 30.42627 37.665314 31.249832 curveto
36.639923 31.249832 moveto
36.639919 30.777832 36.49669 30.377442 36.210236 30.04866 curveto
35.910753 29.703615 35.528266 29.531089 35.062775 29.531082 curveto
34.952095 29.531089 34.808866 29.54411 34.633087 29.570145 curveto
34.414986 29.599448 34.271757 29.617352 34.2034 29.623856 curveto
34.2034 33.01741 lineto
34.424752 33.079262 34.7519 33.110187 35.184845 33.110184 curveto
35.695909 33.110187 36.076768 32.921385 36.327423 32.543777 curveto
36.535752 32.224771 36.639919 31.793456 36.639923 31.249832 curveto
fill
grestore
gsave
0 0 0 setrgbcolor
newpath
40.424103 36.098465 moveto
40.394806 36.318192 lineto
38.285431 36.318192 lineto
38.2659 36.279129 lineto
38.295197 36.127762 lineto
38.500274 36.127762 38.664662 36.044754 38.788361 35.878738 curveto
38.902292 35.728999 38.959258 35.548336 38.959259 35.336746 curveto
38.959259 30.126785 lineto
38.959258 30.009604 38.897409 29.911948 38.773712 29.833817 curveto
38.669545 29.768719 38.553985 29.736167 38.427032 29.73616 curveto
38.427032 29.736167 38.345652 29.752443 38.182892 29.784988 curveto
38.182892 29.768719 38.184519 29.744305 38.187775 29.711746 curveto
38.19103 29.679201 38.192657 29.653159 38.192657 29.633621 curveto
38.192657 29.588055 38.239858 29.548993 38.334259 29.516434 curveto
38.588165 29.438316 38.962513 29.291831 39.457306 29.076981 curveto
39.67215 29.076981 lineto
39.67215 35.576004 lineto
39.672148 35.895015 39.922799 36.069168 40.424103 36.098465 curveto
fill
grestore
gsave
0 0 0 setrgbcolor
newpath
45.111603 35.82991 moveto
44.786078 36.067541 44.620062 36.189611 44.613556 36.196121 curveto
44.401964 36.32633 44.206651 36.391434 44.027618 36.391434 curveto
43.747667 36.391434 43.55561 36.178218 43.451447 35.751785 curveto
43.057564 36.038244 42.839465 36.192866 42.79715 36.215652 curveto
42.582304 36.336095 42.334908 36.396316 42.054962 36.396317 curveto
41.778268 36.396316 41.543894 36.301916 41.351837 36.113113 curveto
41.163035 35.921057 41.068634 35.688309 41.068634 35.414871 curveto
41.068634 35.073076 41.203725 34.793128 41.473907 34.575027 curveto
41.633412 34.448076 41.918242 34.299964 42.3284 34.130692 curveto
43.431915 33.67659 lineto
43.431915 32.949051 lineto
43.431913 32.691893 43.339139 32.475422 43.153595 32.299637 curveto
42.971301 32.12386 42.749947 32.035969 42.489532 32.035965 curveto
42.07612 32.035969 41.869414 32.255696 41.869415 32.695145 curveto
41.869414 32.724445 41.875924 32.763508 41.888947 32.812332 curveto
41.901966 32.861164 41.908477 32.898599 41.908478 32.924637 curveto
41.908477 33.045083 41.817331 33.152505 41.63504 33.246902 curveto
41.475534 33.331541 41.32905 33.373859 41.195587 33.373856 curveto
41.140248 33.373859 41.112579 33.328286 41.112579 33.237137 curveto
41.112579 32.804198 41.29487 32.44938 41.659454 32.172684 curveto
41.991484 31.918782 42.382109 31.791829 42.831329 31.791824 curveto
43.280545 31.791829 43.609321 31.874837 43.817657 32.040848 curveto
44.048774 32.223144 44.164334 32.532388 44.164337 32.968582 curveto
44.164337 35.483231 lineto
44.164334 35.763179 44.260362 35.903153 44.452423 35.903152 curveto
44.572862 35.903153 44.789333 35.812007 45.101837 35.629715 curveto
45.111603 35.82991 lineto
43.436798 35.424637 moveto
43.431915 33.959793 lineto
42.440704 34.394363 lineto
41.994739 34.589678 41.771758 34.903805 41.771759 35.336746 curveto
41.771758 35.522294 41.831979 35.670406 41.952423 35.781082 curveto
42.072864 35.89176 42.225859 35.947098 42.411407 35.947098 curveto
42.603463 35.947098 42.78901 35.893387 42.968048 35.785965 curveto
43.046171 35.737137 43.202421 35.616695 43.436798 35.424637 curveto
fill
grestore
gsave
0 0 0 setrgbcolor
newpath
50.428986 36.318192 moveto
48.226837 36.318192 lineto
48.226837 36.098465 lineto
48.676052 36.098465 48.900661 35.878739 48.900665 35.439285 curveto
48.900665 33.217606 lineto
48.900661 32.934406 48.842068 32.691893 48.724884 32.490067 curveto
48.581651 32.249185 48.378201 32.128743 48.114532 32.128738 curveto
47.694608 32.128743 47.180286 32.348469 46.571564 32.787918 curveto
46.571564 35.576004 lineto
46.571562 35.895015 46.822213 36.069168 47.323517 36.098465 curveto
47.29422 36.318192 lineto
45.184845 36.318192 lineto
45.165314 36.279129 lineto
45.194611 36.127762 lineto
45.399688 36.127762 45.565704 36.044754 45.692657 35.878738 curveto
45.809844 35.728999 45.868438 35.548336 45.868439 35.336746 curveto
45.868439 32.646317 lineto
45.868438 32.529133 45.765899 32.436359 45.560822 32.367996 curveto
45.534779 32.358235 45.37853 32.322427 45.092072 32.260574 curveto
45.092072 32.138504 lineto
45.238556 32.118977 45.471303 32.040852 45.790314 31.904129 curveto
46.089792 31.773925 46.289987 31.668131 46.3909 31.586746 curveto
46.571564 31.718582 lineto
46.571564 32.597488 lineto
47.531848 31.992024 48.194282 31.68929 48.558868 31.689285 curveto
48.913682 31.68929 49.188747 31.850423 49.384064 32.172684 curveto
49.550075 32.44287 49.633083 32.765135 49.633087 33.139481 curveto
49.633087 35.678543 lineto
49.633083 35.945471 49.888616 36.078934 50.399689 36.078934 curveto
50.428986 36.318192 lineto
fill
grestore
gsave
0 0 0 setrgbcolor
newpath
54.520782 35.11702 moveto
54.117133 35.976395 53.477485 36.406082 52.601837 36.406082 curveto
52.038685 36.406082 51.563425 36.160314 51.176056 35.668777 curveto
50.814728 35.209794 50.634064 34.692217 50.634064 34.116043 curveto
50.634064 33.461749 50.81961 32.911619 51.190704 32.465652 curveto
51.587839 31.990396 52.107044 31.752766 52.748322 31.752762 curveto
53.259387 31.752766 53.672798 31.907389 53.988556 32.216629 curveto
54.307563 32.525878 54.467068 32.937661 54.467072 33.451981 curveto
51.312775 33.451981 lineto
51.296498 33.588702 51.28836 33.728676 51.288361 33.871902 curveto
51.28836 34.35693 51.436472 34.802894 51.732697 35.209793 curveto
52.058216 35.662268 52.455351 35.888504 52.924103 35.888504 curveto
53.536079 35.888504 54.001573 35.61344 54.320587 35.063309 curveto
54.35965 35.063309 lineto
54.43126 35.060055 54.484971 35.077958 54.520782 35.11702 curveto
53.720001 33.17366 moveto
53.706977 32.841633 53.591417 32.57145 53.373322 32.363113 curveto
53.15522 32.151529 52.878528 32.045735 52.543243 32.045731 curveto
52.266549 32.045735 52.020781 32.167805 51.805939 32.411942 curveto
51.617136 32.626789 51.488555 32.880695 51.420197 33.17366 curveto
53.720001 33.17366 lineto
53.07547 31.235184 moveto
52.958282 31.381668 lineto
51.47879 29.565262 lineto
52.3284 29.277176 lineto
53.07547 31.235184 lineto
fill
grestore
gsave
0 0 0 setrgbcolor
newpath
57.60672 35.458817 moveto
57.317004 36.031733 56.918241 36.318192 56.410431 36.318192 curveto
56.107695 36.318192 55.853789 36.225418 55.648712 36.039871 curveto
55.433868 35.844559 55.326446 35.597164 55.326447 35.297684 curveto
55.326447 32.23616 lineto
54.852814 32.23616 lineto
54.779572 31.996902 lineto
55.134389 31.863443 55.393178 31.663248 55.555939 31.396317 curveto
55.67638 31.201009 55.783802 30.885254 55.878204 30.449051 curveto
56.049103 30.449051 lineto
56.049103 31.850418 lineto
57.60672 31.850418 lineto
57.401642 32.23616 lineto
56.049103 32.23616 lineto
56.049103 34.999832 lineto
56.049101 35.169104 56.136992 35.351396 56.312775 35.546707 curveto
56.488554 35.74202 56.66108 35.839676 56.830353 35.839676 curveto
56.944283 35.839676 57.085884 35.750158 57.255157 35.571121 curveto
57.427681 35.38883 57.513944 35.297685 57.513947 35.297684 curveto
57.579048 35.297685 57.609972 35.351396 57.60672 35.458817 curveto
fill
grestore
gsave
0 0 0 setrgbcolor
newpath
62.13797 35.11702 moveto
61.734321 35.976395 61.094673 36.406082 60.219025 36.406082 curveto
59.655872 36.406082 59.180612 36.160314 58.793243 35.668777 curveto
58.431915 35.209794 58.251251 34.692217 58.251251 34.116043 curveto
58.251251 33.461749 58.436798 32.911619 58.807892 32.465652 curveto
59.205026 31.990396 59.724231 31.752766 60.365509 31.752762 curveto
60.876574 31.752766 61.289985 31.907389 61.605743 32.216629 curveto
61.92475 32.525878 62.084255 32.937661 62.084259 33.451981 curveto
58.929962 33.451981 lineto
58.913685 33.588702 58.905547 33.728676 58.905548 33.871902 curveto
58.905547 34.35693 59.053659 34.802894 59.349884 35.209793 curveto
59.675403 35.662268 60.072538 35.888504 60.54129 35.888504 curveto
61.153266 35.888504 61.618761 35.61344 61.937775 35.063309 curveto
61.976837 35.063309 lineto
62.048448 35.060055 62.102159 35.077958 62.13797 35.11702 curveto
61.337189 33.17366 moveto
61.324165 32.841633 61.208605 32.57145 60.990509 32.363113 curveto
60.772407 32.151529 60.495715 32.045735 60.160431 32.045731 curveto
59.883736 32.045735 59.637969 32.167805 59.423126 32.411942 curveto
59.234323 32.626789 59.105742 32.880695 59.037384 33.17366 curveto
61.337189 33.17366 lineto
fill
grestore
gsave
0 0 0 setrgbcolor
newpath
166.80124 70.397011 moveto
166.80123 70.963418 166.60429 71.401243 166.21042 71.710487 curveto
165.85234 71.993691 165.38196 72.135292 164.79929 72.135292 curveto
164.6235 72.135292 164.35983 72.10274 164.00827 72.037636 curveto
163.65996 71.972532 163.39629 71.93998 163.21725 71.93998 curveto
163.13262 71.93998 163.05938 71.970904 162.99753 72.032753 curveto
162.84128 72.032753 lineto
162.56296 70.318886 lineto
162.7485 70.255409 lineto
162.86895 70.750202 163.10495 71.144082 163.45651 71.43705 curveto
163.81133 71.730019 164.23939 71.876503 164.74069 71.876503 curveto
165.1248 71.876503 165.43893 71.74955 165.68307 71.495644 curveto
165.93047 71.241738 166.05416 70.9211 166.05417 70.53373 curveto
166.05416 70.146362 165.75469 69.737833 165.15573 69.308144 curveto
164.60234 68.920777 164.04733 68.533408 163.49069 68.146034 curveto
162.89173 67.641481 162.59225 67.104373 162.59225 66.534706 curveto
162.59225 66.059452 162.83802 65.681848 163.32956 65.401894 curveto
163.73971 65.167526 164.20195 65.050338 164.71628 65.050331 curveto
164.84323 65.050338 165.02389 65.08289 165.25827 65.147987 curveto
165.4959 65.209843 165.67331 65.240768 165.7905 65.240761 curveto
165.8914 65.240768 165.96953 65.196822 166.02487 65.108925 curveto
166.21042 65.108925 lineto
166.52292 67.169472 lineto
166.30319 67.169472 lineto
166.15019 66.564008 165.95814 66.129439 165.72702 65.865761 curveto
165.42754 65.530481 164.99622 65.362838 164.43307 65.362831 curveto
164.12057 65.362838 163.86992 65.460494 163.68112 65.6558 curveto
163.49557 65.851119 163.4028 66.106652 163.4028 66.422401 curveto
163.4028 66.813032 163.6974 67.213422 164.28659 67.623573 curveto
164.83021 67.997926 165.37545 68.372275 165.92233 68.74662 curveto
166.50827 69.247925 166.80123 69.798055 166.80124 70.397011 curveto
fill
grestore
gsave
0 0 0 setrgbcolor
newpath
171.50827 71.564003 moveto
171.18275 71.801633 171.01673 71.923704 171.01022 71.930214 curveto
170.79863 72.060422 170.60332 72.125526 170.42429 72.125526 curveto
170.14433 72.125526 169.95228 71.91231 169.84811 71.485878 curveto
169.45423 71.772337 169.23613 71.926959 169.19382 71.949745 curveto
168.97897 72.070188 168.73158 72.130409 168.45163 72.130409 curveto
168.17494 72.130409 167.94056 72.036008 167.7485 71.847206 curveto
167.5597 71.655149 167.4653 71.422402 167.4653 71.148964 curveto
167.4653 70.807168 167.60039 70.527221 167.87057 70.30912 curveto
168.03008 70.182169 168.31491 70.034057 168.72507 69.864784 curveto
169.82858 69.410683 lineto
169.82858 68.683144 lineto
169.82858 68.425986 169.73581 68.209515 169.55026 68.03373 curveto
169.36797 67.857952 169.14661 67.770062 168.8862 67.770058 curveto
168.47279 67.770062 168.26608 67.989788 168.26608 68.429237 curveto
168.26608 68.458538 168.27259 68.4976 168.28561 68.546425 curveto
168.29863 68.595256 168.30514 68.632691 168.30515 68.65873 curveto
168.30514 68.779176 168.214 68.886597 168.03171 68.980995 curveto
167.8722 69.065634 167.72572 69.107951 167.59225 69.107948 curveto
167.53692 69.107951 167.50925 69.062378 167.50925 68.97123 curveto
167.50925 68.53829 167.69154 68.183473 168.05612 67.906776 curveto
168.38815 67.652875 168.77878 67.525922 169.228 67.525917 curveto
169.67721 67.525922 170.00599 67.608929 170.21432 67.77494 curveto
170.44544 67.957236 170.561 68.266481 170.561 68.702675 curveto
170.561 71.217323 lineto
170.561 71.497272 170.65703 71.637246 170.84909 71.637245 curveto
170.96953 71.637246 171.186 71.5461 171.4985 71.363808 curveto
171.50827 71.564003 lineto
169.83347 71.15873 moveto
169.82858 69.693886 lineto
168.83737 70.128456 lineto
168.39141 70.32377 168.16843 70.637898 168.16843 71.070839 curveto
168.16843 71.256387 168.22865 71.404498 168.34909 71.515175 curveto
168.46953 71.625852 168.62253 71.681191 168.80807 71.68119 curveto
169.00013 71.681191 169.18568 71.62748 169.36472 71.520058 curveto
169.44284 71.47123 169.59909 71.350788 169.83347 71.15873 curveto
fill
grestore
gsave
0 0 0 setrgbcolor
newpath
174.37448 71.192909 moveto
174.08477 71.765826 173.686 72.052284 173.17819 72.052284 curveto
172.87546 72.052284 172.62155 71.959511 172.41647 71.773964 curveto
172.20163 71.578652 172.09421 71.331256 172.09421 71.031776 curveto
172.09421 67.970253 lineto
171.62057 67.970253 lineto
171.54733 67.730995 lineto
171.90215 67.597536 172.16094 67.397341 172.3237 67.130409 curveto
172.44414 66.935102 172.55156 66.619347 172.64597 66.183144 curveto
172.81686 66.183144 lineto
172.81686 67.584511 lineto
174.37448 67.584511 lineto
174.1694 67.970253 lineto
172.81686 67.970253 lineto
172.81686 70.733925 lineto
172.81686 70.903197 172.90475 71.085488 173.08054 71.2808 curveto
173.25632 71.476113 173.42884 71.573769 173.59811 71.573769 curveto
173.71204 71.573769 173.85365 71.484251 174.02292 71.305214 curveto
174.19544 71.122923 174.2817 71.031777 174.28171 71.031776 curveto
174.34681 71.031777 174.37773 71.085488 174.37448 71.192909 curveto
fill
grestore
gsave
0 0 0 setrgbcolor
newpath
178.90573 70.851112 moveto
178.50208 71.710488 177.86243 72.140175 176.98679 72.140175 curveto
176.42363 72.140175 175.94837 71.894407 175.561 71.40287 curveto
175.19968 70.943887 175.01901 70.426309 175.01901 69.850136 curveto
175.01901 69.195842 175.20456 68.645712 175.57565 68.199745 curveto
175.97279 67.724489 176.49199 67.486859 177.13327 67.486855 curveto
177.64434 67.486859 178.05775 67.641481 178.3735 67.950722 curveto
178.69251 68.25997 178.85202 68.671754 178.85202 69.186073 curveto
175.69772 69.186073 lineto
175.68145 69.322795 175.67331 69.462769 175.67331 69.605995 curveto
175.67331 70.091023 175.82142 70.536986 176.11765 70.943886 curveto
176.44316 71.39636 176.8403 71.622597 177.30905 71.622597 curveto
177.92103 71.622597 178.38652 71.347532 178.70554 70.797401 curveto
178.7446 70.797401 lineto
178.81621 70.794147 178.86992 70.812051 178.90573 70.851112 curveto
178.10495 68.907753 moveto
178.09193 68.575725 177.97637 68.305543 177.75827 68.097206 curveto
177.54017 67.885622 177.26348 67.779828 176.92819 67.779823 curveto
176.6515 67.779828 176.40573 67.901898 176.19089 68.146034 curveto
176.00208 68.360882 175.8735 68.614788 175.80515 68.907753 curveto
178.10495 68.907753 lineto
fill
grestore
gsave
0 0 0 setrgbcolor
newpath
181.68405 71.832558 moveto
181.65475 72.052284 lineto
179.54538 72.052284 lineto
179.52585 72.013222 lineto
179.55515 71.861855 lineto
179.76022 71.861855 179.92461 71.778847 180.04831 71.612831 curveto
180.16224 71.463092 180.21921 71.282428 180.21921 71.070839 curveto
180.21921 65.860878 lineto
180.21921 65.743697 180.15736 65.646041 180.03366 65.567909 curveto
179.92949 65.502812 179.81393 65.47026 179.68698 65.470253 curveto
179.68698 65.47026 179.6056 65.486536 179.44284 65.519081 curveto
179.44284 65.502812 179.44447 65.478398 179.44772 65.445839 curveto
179.45098 65.413293 179.45261 65.387252 179.45261 65.367714 curveto
179.45261 65.322148 179.49981 65.283085 179.59421 65.250526 curveto
179.84811 65.172408 180.22246 65.025924 180.71725 64.811073 curveto
180.9321 64.811073 lineto
180.9321 71.310097 lineto
180.9321 71.629108 181.18275 71.803261 181.68405 71.832558 curveto
fill
grestore
gsave
0 0 0 setrgbcolor
newpath
184.32077 71.832558 moveto
184.29147 72.052284 lineto
182.1821 72.052284 lineto
182.16257 72.013222 lineto
182.19186 71.861855 lineto
182.39694 71.861855 182.56133 71.778847 182.68503 71.612831 curveto
182.79896 71.463092 182.85593 71.282428 182.85593 71.070839 curveto
182.85593 65.860878 lineto
182.85593 65.743697 182.79408 65.646041 182.67038 65.567909 curveto
182.56621 65.502812 182.45065 65.47026 182.3237 65.470253 curveto
182.3237 65.47026 182.24232 65.486536 182.07956 65.519081 curveto
182.07956 65.502812 182.08119 65.478398 182.08444 65.445839 curveto
182.0877 65.413293 182.08932 65.387252 182.08932 65.367714 curveto
182.08932 65.322148 182.13653 65.283085 182.23093 65.250526 curveto
182.48483 65.172408 182.85918 65.025924 183.35397 64.811073 curveto
183.56882 64.811073 lineto
183.56882 71.310097 lineto
183.56882 71.629108 183.81947 71.803261 184.32077 71.832558 curveto
fill
grestore
gsave
0 0 0 setrgbcolor
newpath
187.00632 72.052284 moveto
184.76511 72.052284 lineto
184.74557 72.013222 lineto
184.77487 71.861855 lineto
185.00599 71.861855 185.17038 71.829303 185.26804 71.764198 curveto
185.38848 71.682818 185.4487 71.526569 185.4487 71.295448 curveto
185.4487 68.380409 lineto
185.4487 68.142783 185.33151 68.023968 185.09714 68.023964 curveto
185.00925 68.023968 184.90671 68.038616 184.78952 68.067909 curveto
184.66745 67.872597 lineto
185.28594 67.700075 185.74981 67.516156 186.05905 67.320839 curveto
186.23972 67.452675 lineto
186.23972 71.310097 lineto
186.23971 71.629108 186.48874 71.803261 186.98679 71.832558 curveto
187.00632 72.052284 lineto
186.29831 65.802284 moveto
186.29831 65.942264 186.24948 66.062707 186.15182 66.163612 curveto
186.05417 66.261274 185.93535 66.310102 185.79538 66.310097 curveto
185.6554 66.310102 185.53659 66.261274 185.43893 66.163612 curveto
185.34128 66.062707 185.29245 65.942264 185.29245 65.802284 curveto
185.29245 65.662317 185.34128 65.543502 185.43893 65.445839 curveto
185.53659 65.348189 185.6554 65.299361 185.79538 65.299355 curveto
185.93535 65.299361 186.05417 65.348189 186.15182 65.445839 curveto
186.24948 65.543502 186.29831 65.662317 186.29831 65.802284 curveto
fill
grestore
gsave
0 0 0 setrgbcolor
newpath
190.15573 71.192909 moveto
189.86602 71.765826 189.46725 72.052284 188.95944 72.052284 curveto
188.65671 72.052284 188.4028 71.959511 188.19772 71.773964 curveto
187.98288 71.578652 187.87546 71.331256 187.87546 71.031776 curveto
187.87546 67.970253 lineto
187.40182 67.970253 lineto
187.32858 67.730995 lineto
187.6834 67.597536 187.94219 67.397341 188.10495 67.130409 curveto
188.22539 66.935102 188.33281 66.619347 188.42722 66.183144 curveto
188.59811 66.183144 lineto
188.59811 67.584511 lineto
190.15573 67.584511 lineto
189.95065 67.970253 lineto
188.59811 67.970253 lineto
188.59811 70.733925 lineto
188.59811 70.903197 188.686 71.085488 188.86179 71.2808 curveto
189.03757 71.476113 189.21009 71.573769 189.37936 71.573769 curveto
189.49329 71.573769 189.6349 71.484251 189.80417 71.305214 curveto
189.97669 71.122923 190.06295 71.031777 190.06296 71.031776 curveto
190.12806 71.031777 190.15898 71.085488 190.15573 71.192909 curveto
fill
grestore
gsave
0 0 0 setrgbcolor
newpath
194.68698 70.851112 moveto
194.28333 71.710488 193.64368 72.140175 192.76804 72.140175 curveto
192.20488 72.140175 191.72962 71.894407 191.34225 71.40287 curveto
190.98093 70.943887 190.80026 70.426309 190.80026 69.850136 curveto
190.80026 69.195842 190.98581 68.645712 191.3569 68.199745 curveto
191.75404 67.724489 192.27324 67.486859 192.91452 67.486855 curveto
193.42559 67.486859 193.839 67.641481 194.15475 67.950722 curveto
194.47376 68.25997 194.63327 68.671754 194.63327 69.186073 curveto
191.47897 69.186073 lineto
191.4627 69.322795 191.45456 69.462769 191.45456 69.605995 curveto
191.45456 70.091023 191.60267 70.536986 191.8989 70.943886 curveto
192.22441 71.39636 192.62155 71.622597 193.0903 71.622597 curveto
193.70228 71.622597 194.16777 71.347532 194.48679 70.797401 curveto
194.52585 70.797401 lineto
194.59746 70.794147 194.65117 70.812051 194.68698 70.851112 curveto
193.8862 68.907753 moveto
193.87318 68.575725 193.75762 68.305543 193.53952 68.097206 curveto
193.32142 67.885622 193.04473 67.779828 192.70944 67.779823 curveto
192.43275 67.779828 192.18698 67.901898 191.97214 68.146034 curveto
191.78333 68.360882 191.65475 68.614788 191.5864 68.907753 curveto
193.8862 68.907753 lineto
fill
grestore
gsave
0 0 0 setrgbcolor
newpath
51.696724 46.10091 moveto
49.084419 46.10091 lineto
49.084419 45.94466 lineto
49.247173 45.94466 49.437603 45.868163 49.655708 45.715168 curveto
49.886821 45.552408 49.997498 45.392903 49.98774 45.236652 curveto
49.601997 40.363605 lineto
47.14106 46.10091 lineto
46.892036 46.10091 lineto
44.318794 40.178059 lineto
44.001411 45.402668 lineto
44.00141 45.558919 44.128363 45.692382 44.382271 45.803059 curveto
44.593857 45.89746 44.790797 45.94466 44.973091 45.94466 curveto
44.98774 46.10091 lineto
42.814888 46.10091 lineto
42.80024 45.94466 lineto
43.311307 45.94466 43.579861 45.711913 43.605904 45.246418 curveto
43.908638 39.958332 lineto
43.908637 39.75326 43.817491 39.598638 43.635201 39.494465 curveto
43.48546 39.409836 43.301541 39.367518 43.083443 39.367512 curveto
43.088326 39.142902 lineto
44.738716 39.142902 lineto
47.199654 44.870441 lineto
49.660591 39.142902 lineto
51.208443 39.142902 lineto
51.208443 39.367512 lineto
51.169372 39.367518 51.110778 39.365891 51.032661 39.362629 curveto
50.954528 39.35938 50.894307 39.357753 50.851997 39.357746 curveto
50.529724 39.357753 50.378357 39.486333 50.397896 39.743488 curveto
50.798286 45.578449 lineto
50.808044 45.682616 50.936625 45.770507 51.184029 45.842121 curveto
51.379332 45.89746 51.550231 45.925129 51.696724 45.925129 curveto
51.696724 46.10091 lineto
fill
grestore
gsave
0 0 0 setrgbcolor
newpath
141.30795 55.611885 moveto
139.14487 55.611885 lineto
139.14487 55.392159 lineto
139.58757 55.392159 139.80892 55.172432 139.80893 54.732979 curveto
139.80893 52.511299 lineto
139.80892 52.23461 139.74219 51.992097 139.60873 51.78376 curveto
139.45248 51.542879 139.24252 51.422436 138.97885 51.422432 curveto
138.5752 51.422436 138.09506 51.625886 137.53842 52.032784 curveto
137.53842 54.972237 lineto
137.53842 55.239164 137.79883 55.372627 138.31967 55.372627 curveto
138.34409 55.611885 lineto
136.18588 55.611885 lineto
136.18588 55.392159 lineto
136.62533 55.392159 136.84506 55.172432 136.84506 54.732979 curveto
136.84506 52.511299 lineto
136.84506 52.231355 136.78809 51.990469 136.67416 51.788643 curveto
136.53419 51.544506 136.33399 51.422436 136.07358 51.422432 curveto
135.66342 51.422436 135.16049 51.642162 134.56479 52.081612 curveto
134.56479 54.869698 lineto
134.56479 55.188708 134.81056 55.362862 135.30209 55.392159 curveto
135.2728 55.611885 lineto
133.20737 55.611885 lineto
133.18784 55.572823 lineto
133.21713 55.421455 lineto
133.41896 55.421456 133.58172 55.338448 133.70541 55.172432 curveto
133.81935 55.019438 133.87631 54.838774 133.87631 54.63044 curveto
133.87631 51.94001 lineto
133.87631 51.822826 133.7754 51.730053 133.57358 51.66169 curveto
133.54754 51.651928 133.39454 51.616121 133.11459 51.554268 curveto
133.11459 51.432198 lineto
133.14715 51.396394 133.18784 51.370353 133.23666 51.354073 curveto
133.49382 51.266186 133.87794 51.108309 134.38901 50.88044 curveto
134.56479 51.012276 lineto
134.56479 51.891182 lineto
135.50554 51.285718 136.15496 50.982983 136.51303 50.982979 curveto
136.73113 50.982983 136.93458 51.083895 137.12338 51.285713 curveto
137.28288 51.458243 137.39844 51.660066 137.47006 51.891182 curveto
138.41081 51.285718 139.06023 50.982983 139.4183 50.982979 curveto
139.76661 50.982983 140.04493 51.144116 140.25327 51.466377 curveto
140.43555 51.746329 140.5267 52.068594 140.5267 52.433174 curveto
140.5267 54.972237 lineto
140.5267 55.239164 140.77735 55.372627 141.27866 55.372627 curveto
141.30795 55.611885 lineto
fill
grestore
gsave
0 0 0 setrgbcolor
newpath
172.96593 56.019501 moveto
170.80284 56.019501 lineto
170.80284 55.799774 lineto
171.24554 55.799774 171.4669 55.580048 171.4669 55.140594 curveto
171.4669 52.918915 lineto
171.4669 52.642225 171.40017 52.399713 171.26671 52.191376 curveto
171.11045 51.950494 170.90049 51.830052 170.63683 51.830048 curveto
170.23317 51.830052 169.75303 52.033502 169.1964 52.440399 curveto
169.1964 55.379852 lineto
169.19639 55.64678 169.45681 55.780243 169.97765 55.780243 curveto
170.00206 56.019501 lineto
167.84386 56.019501 lineto
167.84386 55.799774 lineto
168.28331 55.799774 168.50303 55.580048 168.50304 55.140594 curveto
168.50304 52.918915 lineto
168.50303 52.63897 168.44607 52.398085 168.33214 52.196259 curveto
168.19216 51.952122 167.99197 51.830052 167.73155 51.830048 curveto
167.32139 51.830052 166.81846 52.049778 166.22276 52.489227 curveto
166.22276 55.277313 lineto
166.22276 55.596324 166.46853 55.770478 166.96007 55.799774 curveto
166.93077 56.019501 lineto
164.86534 56.019501 lineto
164.84581 55.980438 lineto
164.87511 55.829071 lineto
165.07693 55.829071 165.23969 55.746064 165.36339 55.580048 curveto
165.47732 55.427053 165.53429 55.24639 165.53429 55.038055 curveto
165.53429 52.347626 lineto
165.53429 52.230442 165.43337 52.137669 165.23155 52.069305 curveto
165.20551 52.059544 165.05252 52.023736 164.77257 51.961884 curveto
164.77257 51.839813 lineto
164.80512 51.80401 164.84581 51.777969 164.89464 51.761688 curveto
165.1518 51.673802 165.53591 51.515925 166.04698 51.288055 curveto
166.22276 51.419891 lineto
166.22276 52.298798 lineto
167.16352 51.693333 167.81293 51.390599 168.17101 51.390594 curveto
168.3891 51.390599 168.59255 51.49151 168.78136 51.693329 curveto
168.94086 51.865859 169.05642 52.067682 169.12804 52.298798 curveto
170.06879 51.693333 170.7182 51.390599 171.07628 51.390594 curveto
171.42458 51.390599 171.7029 51.551732 171.91124 51.873993 curveto
172.09352 52.153945 172.18467 52.47621 172.18468 52.84079 curveto
172.18468 55.379852 lineto
172.18467 55.64678 172.43532 55.780243 172.93663 55.780243 curveto
172.96593 56.019501 lineto
fill
grestore
gsave
0 0 0 setrgbcolor
newpath
151.5219 38.051628 moveto
151.52189 38.113478 151.37866 38.577345 151.09221 39.44323 curveto
147.00529 39.44323 lineto
146.91252 39.155144 lineto
149.087 37.400588 150.17424 35.805538 150.17424 34.369987 curveto
150.17424 33.53015 149.79338 33.110228 149.03166 33.110222 curveto
148.18531 33.110228 147.54078 33.508991 147.09807 34.306511 curveto
146.88322 34.213737 lineto
147.05901 33.728717 147.35848 33.320189 147.78166 32.988152 curveto
148.22762 32.636596 148.69963 32.460815 149.19768 32.460808 curveto
149.65666 32.460815 150.0424 32.600789 150.3549 32.88073 curveto
150.68042 33.173705 150.84318 33.546426 150.84319 33.998894 curveto
150.84318 35.447465 149.86174 37.044144 147.89885 38.788933 curveto
150.56975 38.788933 lineto
150.74878 38.788933 150.91968 38.650587 151.08244 38.373894 curveto
151.2452 38.097202 151.32007 37.958856 151.30705 37.958855 curveto
151.33309 37.958856 151.37052 37.973505 151.41936 38.0028 curveto
151.46818 38.028843 151.50236 38.045119 151.5219 38.051628 curveto
fill
grestore
gsave
0 0 0 setrgbcolor
newpath
154.1635 35.585808 moveto
154.1635 35.725785 154.11304 35.846228 154.01213 35.947136 curveto
153.91447 36.044796 153.79729 36.093624 153.66057 36.09362 curveto
153.52059 36.093624 153.40015 36.044796 153.29924 35.947136 curveto
153.20158 35.846228 153.15275 35.725785 153.15276 35.585808 curveto
153.15275 35.449093 153.20158 35.331906 153.29924 35.234245 curveto
153.40015 35.133338 153.52059 35.082882 153.66057 35.082878 curveto
153.79729 35.082882 153.91447 35.133338 154.01213 35.234245 curveto
154.11304 35.331906 154.1635 35.449093 154.1635 35.585808 curveto
fill
grestore
gsave
0 0 0 setrgbcolor
newpath
158.5385 35.082878 moveto
158.52873 35.268429 158.42782 35.51908 158.23576 35.834831 curveto
157.83211 35.626502 157.55379 35.522335 157.4008 35.522331 curveto
157.20549 35.522335 157.03296 35.616736 156.88322 35.805534 curveto
156.76929 35.978064 156.65699 36.15059 156.54631 36.323112 curveto
156.54631 38.744987 lineto
156.54631 39.09655 156.76604 39.272331 157.20549 39.272331 curveto
157.24781 39.272331 157.30803 39.270704 157.38615 39.267448 curveto
157.46428 39.264193 157.51962 39.262566 157.55217 39.262566 curveto
157.5717 39.44323 lineto
155.15471 39.44323 lineto
155.15471 39.301628 lineto
155.61369 39.288607 155.84318 39.103061 155.84319 38.744987 curveto
155.84319 35.883659 lineto
155.84318 35.691606 155.60881 35.545122 155.14006 35.444206 curveto
155.14006 35.263542 lineto
155.42652 35.230994 155.83179 35.064979 156.35588 34.765495 curveto
156.54631 34.804558 lineto
156.54631 35.956902 lineto
156.93693 35.227739 157.28524 34.863156 157.59123 34.863152 curveto
157.74748 34.863156 158.06323 34.936398 158.5385 35.082878 curveto
fill
grestore
gsave
0 0 0 setrgbcolor
newpath
109.18957 70.079185 moveto
108.9617 70.157311 108.73221 70.237063 108.50109 70.318443 curveto
108.23741 70.419355 108.01932 70.521894 107.84679 70.62606 curveto
107.81749 70.645592 107.78657 70.655357 107.75402 70.655357 curveto
107.69542 70.655357 107.65799 70.593508 107.64172 70.46981 curveto
107.62869 70.38192 107.62544 70.25985 107.63195 70.1036 curveto
107.64497 69.888756 107.65148 69.800866 107.65148 69.839928 curveto
107.37804 70.009199 107.1046 70.180097 106.83117 70.352623 curveto
106.53169 70.521894 106.21593 70.606529 105.8839 70.606529 curveto
105.36632 70.606529 104.93826 70.362389 104.59972 69.874107 curveto
104.29699 69.437911 104.14562 68.951257 104.14562 68.414146 curveto
104.14562 67.714279 104.3507 67.151129 104.76086 66.724693 curveto
105.24263 66.226651 105.79438 65.977628 106.41613 65.977623 curveto
106.93045 65.977628 107.34223 66.065518 107.65148 66.241295 curveto
107.65148 64.302818 lineto
107.65148 64.055429 107.47081 63.931731 107.10949 63.931725 curveto
107.10623 63.931731 107.00044 63.936614 106.79211 63.946373 curveto
106.79211 63.775475 lineto
107.29666 63.710377 107.80447 63.542734 108.31554 63.272545 curveto
108.31554 69.615318 lineto
108.31554 69.696699 108.34809 69.773197 108.4132 69.84481 curveto
108.4783 69.913171 108.54991 69.94735 108.62804 69.94735 curveto
108.69314 69.94735 108.78754 69.94084 108.91125 69.927818 curveto
109.03494 69.914798 109.12771 69.908288 109.18957 69.908287 curveto
109.18957 70.079185 lineto
107.65148 69.649498 moveto
107.65148 67.13485 lineto
107.42687 66.815843 107.21854 66.599372 107.02648 66.485435 curveto
106.81164 66.361742 106.51867 66.299893 106.14758 66.299889 curveto
105.68208 66.299893 105.34191 66.548916 105.12707 67.046959 curveto
104.97407 67.405035 104.89757 67.84937 104.89758 68.379967 curveto
104.89757 68.796635 105.02616 69.185632 105.28332 69.546959 curveto
105.56652 69.94084 105.90832 70.13778 106.30871 70.137779 curveto
106.5854 70.13778 107.03299 69.975019 107.65148 69.649498 curveto
fill
grestore
grestore
showpage
%%EOF
