\relax 
\@writefile{toc}{\contentsline {chapter}{\numberline {6}Quantit\IeC {\'e} de mouvement}{95}}
\@writefile{lof}{\addvspace {10\p@ }}
\@writefile{lot}{\addvspace {10\p@ }}
\@writefile{toc}{\contentsline {section}{\numberline {6.1}Introduction}{95}}
\@writefile{toc}{\contentsline {section}{\numberline {6.2}Quantit\IeC {\'e} de mouvement}{95}}
\newlabel{3eloichoc}{{6.1}{95}}
\newlabel{2sur1}{{6.2}{95}}
\newlabel{1sur2}{{6.3}{95}}
\newlabel{achoc}{{6.4}{95}}
\newlabel{varqtitedemvt}{{6.5}{95}}
\newlabel{qtitedemvt}{{6.6}{95}}
\@writefile{toc}{\contentsline {subsection}{\numberline {6.2.1}Masse d'inertie}{95}}
\@writefile{toc}{\contentsline {section}{\numberline {6.3}\IeC {\'E}nergie cin\IeC {\'e}tique}{96}}
\@writefile{toc}{\contentsline {section}{\numberline {6.4}Choc parfaitement \IeC {\'e}lastique}{96}}
\newlabel{qtitemvt1dim}{{6.8}{96}}
\newlabel{encin1dim}{{6.9}{96}}
\newlabel{qtitemvtsuppr}{{6.10}{96}}
\newlabel{encincarre}{{6.11}{96}}
\newlabel{encinremarquable}{{6.12}{96}}
\newlabel{qtitemvtvitrelative}{{6.13}{96}}
\@writefile{toc}{\contentsline {subsection}{\numberline {6.4.1}Exemple}{96}}
\newlabel{chocsimplemvt}{{6.14}{97}}
\newlabel{chocsimpleen}{{6.15}{97}}
\newlabel{solv1'}{{6.16}{97}}
\@writefile{toc}{\contentsline {section}{\numberline {6.5}Choc parfaitement mou}{97}}
\@writefile{toc}{\contentsline {subsection}{\numberline {6.5.1}Exemple}{97}}
\@writefile{toc}{\contentsline {section}{\numberline {6.6}choc bidimentionnel}{98}}
\newlabel{consqtitemvt}{{6.17}{98}}
\@writefile{toc}{\contentsline {subsection}{\numberline {6.6.1}Exemple}{98}}
\@writefile{lof}{\contentsline {figure}{\numberline {6.1}{\ignorespaces Choc 2 dim}}{99}}
\newlabel{choc2dimimpact}{{6.1}{99}}
\@writefile{toc}{\contentsline {section}{\numberline {6.7}Impulsion}{99}}
\newlabel{qtitemvtimpuls}{{6.7}{99}}
\@setckpt{QtiteMvt/QtiteMvt}{
\setcounter{page}{100}
\setcounter{equation}{18}
\setcounter{enumi}{2}
\setcounter{enumii}{0}
\setcounter{enumiii}{0}
\setcounter{enumiv}{0}
\setcounter{footnote}{1}
\setcounter{mpfootnote}{0}
\setcounter{part}{0}
\setcounter{chapter}{6}
\setcounter{section}{7}
\setcounter{subsection}{0}
\setcounter{subsubsection}{0}
\setcounter{paragraph}{0}
\setcounter{subparagraph}{0}
\setcounter{figure}{1}
\setcounter{table}{0}
\setcounter{NAT@ctr}{0}
\setcounter{parentequation}{0}
\setcounter{FancyVerbLine}{0}
\setcounter{float@type}{8}
\setcounter{fignum}{0}
\setcounter{r@tfl@t}{2}
\setcounter{subfigure}{0}
\setcounter{lofdepth}{1}
\setcounter{subtable}{0}
\setcounter{lotdepth}{1}
\setcounter{ContinuedFloat}{0}
\setcounter{endnote}{63}
\setcounter{OptionTest}{0}
\setcounter{DefaultLines}{2}
\setcounter{DefaultDepth}{0}
\setcounter{L@lines}{3}
\setcounter{L@depth}{0}
\setcounter{lstnumber}{1}
\setcounter{Solution}{0}
\setcounter{exc}{0}
\setcounter{Solution OS}{0}
\setcounter{exosc}{0}
\setcounter{lstlisting}{0}
}
