\relax 
\@writefile{toc}{\contentsline {chapter}{\numberline {7}L'\IeC {\'e}nergie}{101}}
\@writefile{lof}{\addvspace {10\p@ }}
\@writefile{lot}{\addvspace {10\p@ }}
\@writefile{toc}{\contentsline {section}{\numberline {7.1}Introduction}{101}}
\@writefile{toc}{\contentsline {section}{\numberline {7.2}Travail}{101}}
\@writefile{lof}{\contentsline {figure}{\numberline {7.1}{\ignorespaces Puissance}}{102}}
\newlabel{chevalvapeur}{{7.1}{102}}
\@writefile{toc}{\contentsline {section}{\numberline {7.3}Puissance}{102}}
\newlabel{puissance}{{7.3}{102}}
\newlabel{puiss}{{7.2}{102}}
\@writefile{toc}{\contentsline {section}{\numberline {7.4}\IeC {\'E}nergie potentielle}{102}}
\newlabel{defenpot}{{7.3}{102}}
\@writefile{toc}{\contentsline {section}{\numberline {7.5}\IeC {\'E}nergie cin\IeC {\'e}tique}{103}}
\newlabel{encindef}{{7.5}{103}}
\@writefile{toc}{\contentsline {section}{\numberline {7.6}Th\IeC {\'e}or\IeC {\`e}me de l'\IeC {\'e}nergie cin\IeC {\'e}tique}{103}}
\@writefile{toc}{\contentsline {section}{\numberline {7.7}Conservation de l'\IeC {\'e}nergie m\IeC {\'e}canique}{103}}
\newlabel{enmecdef}{{7.7}{103}}
\@writefile{lof}{\contentsline {figure}{\numberline {7.2}{\ignorespaces \IeC {\'E}nergie cin\IeC {\'e}tique et potentielle}}{104}}
\newlabel{encinpotcirc}{{7.2}{104}}
\citation{LJ04}
\citation{HRaFL03}
\@writefile{toc}{\contentsline {section}{\numberline {7.8}Variation de l'\IeC {\'e}nergie m\IeC {\'e}canique}{105}}
\newlabel{varenmec}{{7.8}{105}}
\newlabel{thmennoncons}{{7.8}{105}}
\@writefile{toc}{\contentsline {section}{\numberline {7.9}\IeC {\'E}nergies renouvelables}{105}}
\@writefile{toc}{\contentsline {subsection}{\numberline {7.9.1}\IeC {\'E}nergie hydraulique}{105}}
\@writefile{lof}{\contentsline {figure}{\numberline {7.3}{\ignorespaces Barrage d'Emosson}}{106}}
\newlabel{Emosson}{{7.3}{106}}
\@writefile{toc}{\contentsline {subsubsection}{Exemple}{106}}
\@writefile{toc}{\contentsline {subsubsection}{Types de turbines}{107}}
\@writefile{lof}{\contentsline {figure}{\numberline {7.4}{\ignorespaces Turbine Pelton}}{107}}
\newlabel{pelton}{{7.4}{107}}
\@writefile{lof}{\contentsline {figure}{\numberline {7.5}{\ignorespaces Ancienne turbine Pelton}}{107}}
\newlabel{turbinepelton}{{7.5}{107}}
\@writefile{toc}{\contentsline {subsubsection}{Alternateur}{107}}
\@writefile{toc}{\contentsline {subsubsection}{Probl\IeC {\`e}mes rencontr\IeC {\'e}s}{107}}
\citation{OP06}
\citation{HRaFL03}
\@writefile{toc}{\contentsline {subsection}{\numberline {7.9.2}\IeC {\'E}nergie \IeC {\'e}olienne}{108}}
\@writefile{lof}{\contentsline {figure}{\numberline {7.6}{\ignorespaces \IeC {\'E}olienne}}{108}}
\newlabel{eolienne}{{7.6}{108}}
\@writefile{lof}{\contentsline {figure}{\numberline {7.7}{\ignorespaces Pale d'\IeC {\'e}olienne}}{108}}
\newlabel{aile}{{7.7}{108}}
\@writefile{lof}{\contentsline {figure}{\numberline {7.8}{\ignorespaces Tube de vent\relax }}{109}}
\newlabel{tubecourant}{{7.8}{109}}
\newlabel{puissvent}{{7.10}{109}}
\newlabel{puissdebetz}{{7.12}{109}}
\@writefile{toc}{\contentsline {subsection}{\numberline {7.9.3}\IeC {\'E}nergie solaire}{109}}
\@writefile{toc}{\contentsline {subsubsection}{\IeC {\'E}nergie solaire thermique}{109}}
\newlabel{puissincidphoto}{{7.13}{110}}
\newlabel{puisssolthermique}{{7.14}{110}}
\@writefile{lof}{\contentsline {figure}{\numberline {7.9}{\ignorespaces Solaire thermique}}{111}}
\newlabel{solairethermique}{{7.9}{111}}
\@writefile{lof}{\contentsline {figure}{\numberline {7.10}{\ignorespaces Effet photo\IeC {\'e}lectrique}}{111}}
\newlabel{effetphotoelectrique}{{7.10}{111}}
\@writefile{toc}{\contentsline {subsubsection}{\IeC {\'E}nergie solaire \IeC {\'e}lectrique}{111}}
\@writefile{lof}{\contentsline {figure}{\numberline {7.11}{\ignorespaces Cellule photo\IeC {\'e}lectrique}}{111}}
\newlabel{cellulephotoelectrique}{{7.11}{111}}
\citation{HRaFL03}
\@writefile{toc}{\contentsline {subsection}{\numberline {7.9.4}\IeC {\'E}nergie g\IeC {\'e}othermique}{112}}
\@writefile{toc}{\contentsline {section}{\numberline {7.10}\IeC {\'E}nergies non renouvelables}{112}}
\@writefile{lof}{\contentsline {figure}{\numberline {7.12}{\ignorespaces Applications de la g\IeC {\'e}othermie}}{113}}
\newlabel{geothermieapplications}{{7.12}{113}}
\@writefile{toc}{\contentsline {subsection}{\numberline {7.10.1}\IeC {\'E}nergie nucl\IeC {\'e}aire}{113}}
\@writefile{toc}{\contentsline {subsubsection}{Fission}{113}}
\@writefile{lof}{\contentsline {figure}{\numberline {7.13}{\ignorespaces Fission de l'uranium\relax }}{114}}
\newlabel{FissionUranium}{{7.13}{114}}
\@writefile{toc}{\contentsline {paragraph}{D\IeC {\'e}chets radioactifs}{114}}
\@writefile{lof}{\contentsline {figure}{\numberline {7.14}{\ignorespaces R\IeC {\'e}acteur nucl\IeC {\'e}aire\relax }}{114}}
\newlabel{reacteurnucleaire}{{7.14}{114}}
\citation{SV06}
\citation{HRaFL03}
\@writefile{toc}{\contentsline {paragraph}{Accidents nucl\IeC {\'e}aires}{115}}
\@writefile{toc}{\contentsline {subsubsection}{Fusion}{115}}
\@writefile{toc}{\contentsline {subsection}{\numberline {7.10.2}\IeC {\'E}nergie de combustion~: p\IeC {\'e}trole et gaz}{115}}
\@writefile{lof}{\contentsline {figure}{\numberline {7.15}{\ignorespaces Combustion du m\IeC {\'e}thane}}{116}}
\newlabel{combustiongaz}{{7.15}{116}}
\newlabel{RF3}{117}
\@writefile{lof}{\contentsline {figure}{\numberline {7.16}{\ignorespaces R\IeC {\'e}sum\IeC {\'e} de l'\IeC {\'e}nergie\relax }}{117}}
\@setckpt{Energie/Energie}{
\setcounter{page}{118}
\setcounter{equation}{26}
\setcounter{enumi}{7}
\setcounter{enumii}{0}
\setcounter{enumiii}{0}
\setcounter{enumiv}{0}
\setcounter{footnote}{1}
\setcounter{mpfootnote}{0}
\setcounter{part}{0}
\setcounter{chapter}{7}
\setcounter{section}{10}
\setcounter{subsection}{2}
\setcounter{subsubsection}{0}
\setcounter{paragraph}{0}
\setcounter{subparagraph}{0}
\setcounter{figure}{16}
\setcounter{table}{0}
\setcounter{NAT@ctr}{0}
\setcounter{parentequation}{0}
\setcounter{FancyVerbLine}{0}
\setcounter{float@type}{8}
\setcounter{fignum}{0}
\setcounter{r@tfl@t}{3}
\setcounter{subfigure}{0}
\setcounter{lofdepth}{1}
\setcounter{subtable}{0}
\setcounter{lotdepth}{1}
\setcounter{ContinuedFloat}{0}
\setcounter{endnote}{82}
\setcounter{OptionTest}{0}
\setcounter{DefaultLines}{2}
\setcounter{DefaultDepth}{0}
\setcounter{L@lines}{3}
\setcounter{L@depth}{0}
\setcounter{lstnumber}{1}
\setcounter{Solution}{0}
\setcounter{exc}{0}
\setcounter{Solution OS}{0}
\setcounter{exosc}{0}
\setcounter{lstlisting}{0}
}
