\relax 
\@writefile{toc}{\contentsline {chapter}{\numberline {Q}Thermodynamique}{201}}
\@writefile{lof}{\addvspace {10\p@ }}
\@writefile{lot}{\addvspace {10\p@ }}
\@writefile{toc}{\contentsline {section}{\numberline {Q.1}Temp\IeC {\'e}rature et dilatation}{201}}
\@writefile{toc}{\contentsline {subsection}{\numberline {Q.1.1}Temp\IeC {\'e}rature}{201}}
\@writefile{toc}{\contentsline {subsection}{\numberline {Q.1.2}Dilatation}{201}}
\newlabel{dilatation}{{Q.1.2}{201}}
\@writefile{lof}{\contentsline {figure}{\numberline {Q.1}{\ignorespaces Dilatation lin\IeC {\'e}aire}}{202}}
\newlabel{dilatationlineaire}{{Q.1}{202}}
\@writefile{lot}{\contentsline {table}{\numberline {Q.1}{\ignorespaces Coefficient de dilatation lin\IeC {\'e}aire}}{202}}
\newlabel{coefflineaire}{{Q.1}{202}}
\@writefile{lof}{\contentsline {figure}{\numberline {Q.2}{\ignorespaces Fusible bilame}}{202}}
\newlabel{bilame}{{Q.2}{202}}
\newlabel{gamma}{{Q.2}{202}}
\@writefile{lof}{\contentsline {figure}{\numberline {Q.3}{\ignorespaces Dilatation volumique}}{202}}
\newlabel{dilatationvolumique}{{Q.3}{202}}
\@writefile{lot}{\contentsline {table}{\numberline {Q.2}{\ignorespaces Coefficient de dilatation volumique}}{203}}
\newlabel{coeffvolume}{{Q.2}{203}}
\@writefile{toc}{\contentsline {section}{\numberline {Q.2}Chaleurs sp\IeC {\'e}cifique et latente}{203}}
\@writefile{toc}{\contentsline {subsection}{\numberline {Q.2.1}Introduction}{203}}
\@writefile{toc}{\contentsline {subsection}{\numberline {Q.2.2}Chaleur sp\IeC {\'e}cifique}{203}}
\@writefile{toc}{\contentsline {subsubsection}{Chaleur massique}{203}}
\newlabel{ParaChaleurMassique}{{Q.2.2}{203}}
\newlabel{chaleurmassique}{{Q.4}{203}}
\newlabel{Qchaleurmassique}{{Q.5}{203}}
\@writefile{lot}{\contentsline {table}{\numberline {Q.3}{\ignorespaces Chaleur massique}}{204}}
\newlabel{tabchaleurmassique}{{Q.3}{204}}
\@writefile{toc}{\contentsline {subsubsection}{Capacit\IeC {\'e} thermique}{204}}
\@writefile{toc}{\contentsline {subsubsection}{Notion de mole}{204}}
\newlabel{Avogadro}{{Q.6}{204}}
\@writefile{toc}{\contentsline {subsubsection}{Chaleur molaire}{204}}
\newlabel{chaleurmolaire}{{Q.7}{204}}
\newlabel{Qchaleurmolaire}{{Q.8}{204}}
\@writefile{toc}{\contentsline {subsubsection}{Relation entre chaleur massique et molaire}{205}}
\@writefile{toc}{\contentsline {subsubsection}{Chaleur latente}{205}}
\@writefile{lot}{\contentsline {table}{\numberline {Q.4}{\ignorespaces Chaleur latente}}{205}}
\newlabel{chaleurlatente}{{Q.4}{205}}
\@writefile{toc}{\contentsline {subsubsection}{\IeC {\'E}vaporation}{205}}
\@writefile{toc}{\contentsline {subsection}{\numberline {Q.2.3}Bilan thermique}{206}}
\@writefile{toc}{\contentsline {section}{\numberline {Q.3}Loi des gaz parfaits}{207}}
\@writefile{toc}{\contentsline {subsection}{\numberline {Q.3.1}\IeC {\'E}quation d'\IeC {\'e}tat}{207}}
\@writefile{toc}{\contentsline {subsubsection}{Pression}{207}}
\@writefile{toc}{\contentsline {subsubsection}{\IeC {\'E}tat d'un gaz parfait}{207}}
\@writefile{toc}{\contentsline {subsubsection}{Approche intuitive}{207}}
\newlabel{pvkt}{{Q.12}{208}}
\newlabel{nRNk}{{Q.14}{208}}
\@writefile{toc}{\contentsline {subsubsection}{Approche mol\IeC {\'e}culaire}{208}}
\newlabel{apprmolecul}{{Q.3.1}{208}}
\newlabel{tempencin}{{Q.19}{209}}
\@writefile{toc}{\contentsline {subsection}{\numberline {Q.3.2}Gaz parfait}{209}}
\@writefile{toc}{\contentsline {section}{\numberline {Q.4}Premier principe}{209}}
\@writefile{toc}{\contentsline {subsection}{\numberline {Q.4.1}Chaleur}{209}}
\@writefile{toc}{\contentsline {subsection}{\numberline {Q.4.2}Travail}{210}}
\newlabel{generaltravail}{{Q.20}{210}}
\newlabel{generalpression}{{Q.21}{210}}
\newlabel{thermotravail}{{Q.22}{210}}
\@writefile{toc}{\contentsline {subsection}{\numberline {Q.4.3}\IeC {\'E}nergie interne}{210}}
\@writefile{lof}{\contentsline {figure}{\numberline {Q.4}{\ignorespaces Travail et diagramme P-V}}{210}}
\newlabel{diagtravailpv}{{Q.4}{210}}
\newlabel{eninterne}{{Q.23}{210}}
\@writefile{toc}{\contentsline {subsubsection}{\IeC {\'E}quipartition de l'\IeC {\'e}nergie}{211}}
\newlabel{equipartition}{{Q.24}{211}}
\newlabel{iequipartition}{{Q.25}{211}}
\newlabel{iequipartitiondiatomique}{{Q.26}{211}}
\newlabel{iequipartitiondiatomiquevibrant}{{Q.27}{211}}
\newlabel{iequipartitiontriatomique}{{Q.28}{211}}
\@writefile{toc}{\contentsline {subsection}{\numberline {Q.4.4}Premier principe}{211}}
\@writefile{toc}{\contentsline {subsection}{\numberline {Q.4.5}Changements d'\IeC {\'e}tats}{211}}
\@writefile{toc}{\contentsline {subsubsection}{Transformation isobare}{212}}
\@writefile{lof}{\contentsline {figure}{\numberline {Q.5}{\ignorespaces Transformation isobare}}{212}}
\newlabel{diagtravailpvisobare}{{Q.5}{212}}
\newlabel{chaleurspecisobare}{{Q.33}{212}}
\@writefile{toc}{\contentsline {subsubsection}{Transformation isochore}{212}}
\@writefile{lof}{\contentsline {figure}{\numberline {Q.6}{\ignorespaces Transformation isochore}}{213}}
\newlabel{diagtravailpvisochore}{{Q.6}{213}}
\newlabel{enintisochore}{{Q.35}{213}}
\newlabel{chaleurspecisochore}{{Q.37}{213}}
\@writefile{toc}{\contentsline {subsubsection}{Transformation isotherme}{213}}
\@writefile{lof}{\contentsline {figure}{\numberline {Q.7}{\ignorespaces Transformation isotherme}}{213}}
\newlabel{diagtravailpvisotherme}{{Q.7}{213}}
\@writefile{toc}{\contentsline {subsubsection}{Transformation adiabatique}{214}}
\@writefile{lof}{\contentsline {figure}{\numberline {Q.8}{\ignorespaces Transformation adiabatique}}{214}}
\newlabel{diagtravailpvadiabatique}{{Q.8}{214}}
\newlabel{adiabaU0}{{Q.41}{214}}
\newlabel{adiabaU}{{Q.42}{214}}
\newlabel{adiabdiff}{{Q.43}{214}}
\newlabel{adiabadef}{{Q.44}{214}}
\newlabel{equationadiabatique}{{Q.46}{214}}
\newlabel{adiavariation1}{{Q.47}{214}}
\newlabel{adiavariation2}{{Q.48}{215}}
\newlabel{travailadiabatique}{{Q.49}{215}}
\newlabel{gammacpcv}{{Q.50}{215}}
\@writefile{toc}{\contentsline {subsection}{\numberline {Q.4.6}Chaleurs sp\IeC {\'e}cifiques}{215}}
\newlabel{cpi}{{Q.60}{215}}
\newlabel{cvi}{{Q.61}{215}}
\@writefile{toc}{\contentsline {section}{\numberline {Q.5}Machines thermiques}{216}}
\@writefile{toc}{\contentsline {subsection}{\numberline {Q.5.1}Machine simple}{216}}
\@writefile{lot}{\contentsline {table}{\numberline {Q.5}{\ignorespaces \IeC {\'E}tats caract\IeC {\'e}ristiques}}{216}}
\newlabel{etats}{{Q.5}{216}}
\newlabel{moteur1}{{Q.9(a)}{217}}
\newlabel{sub@moteur1}{{(a)}{217}}
\newlabel{moteur2}{{Q.9(b)}{217}}
\newlabel{sub@moteur2}{{(b)}{217}}
\newlabel{moteur3}{{Q.9(c)}{217}}
\newlabel{sub@moteur3}{{(c)}{217}}
\newlabel{moteur4}{{Q.9(d)}{217}}
\newlabel{sub@moteur4}{{(d)}{217}}
\@writefile{lof}{\contentsline {figure}{\numberline {Q.9}{\ignorespaces Moteur thermique}}{217}}
\newlabel{moteurtherm}{{Q.9}{217}}
\@writefile{lof}{\contentsline {subfigure}{\numberline{(a)}{\ignorespaces {Chargement}}}{217}}
\@writefile{lof}{\contentsline {subfigure}{\numberline{(b)}{\ignorespaces {Chauffage}}}{217}}
\@writefile{lof}{\contentsline {subfigure}{\numberline{(c)}{\ignorespaces {D\IeC {\'e}chargement}}}{217}}
\@writefile{lof}{\contentsline {subfigure}{\numberline{(d)}{\ignorespaces {Refroidissement}}}{217}}
\@writefile{lof}{\contentsline {figure}{\numberline {Q.10}{\ignorespaces Diagramme d'\IeC {\'e}tat}}{217}}
\newlabel{diagpvmotsimple}{{Q.10}{217}}
\@writefile{lot}{\contentsline {table}{\numberline {Q.6}{\ignorespaces Grandeurs caract\IeC {\'e}ristiques}}{218}}
\newlabel{transetats}{{Q.6}{218}}
\@writefile{lof}{\contentsline {figure}{\numberline {Q.11}{\ignorespaces Diagramme d'\IeC {\'e}tat}}{218}}
\newlabel{diagpvchal}{{Q.11}{218}}
\@writefile{lof}{\contentsline {figure}{\numberline {Q.12}{\ignorespaces Diagramme d'\IeC {\'e}tat}}{218}}
\newlabel{bilanmot}{{Q.12}{218}}
\@writefile{toc}{\contentsline {subsection}{\numberline {Q.5.2}Moteur \IeC {\`a} explosion}{218}}
\newlabel{paraOtto}{{Q.5.2}{218}}
\newlabel{admission}{{Q.13(a)}{219}}
\newlabel{sub@admission}{{(a)}{219}}
\newlabel{compression}{{Q.13(b)}{219}}
\newlabel{sub@compression}{{(b)}{219}}
\newlabel{allumage}{{Q.13(c)}{219}}
\newlabel{sub@allumage}{{(c)}{219}}
\newlabel{tempsmoteur}{{Q.13(d)}{219}}
\newlabel{sub@tempsmoteur}{{(d)}{219}}
\newlabel{echappement}{{Q.13(e)}{219}}
\newlabel{sub@echappement}{{(e)}{219}}
\newlabel{evacuation}{{Q.13(f)}{219}}
\newlabel{sub@evacuation}{{(f)}{219}}
\@writefile{lof}{\contentsline {figure}{\numberline {Q.13}{\ignorespaces Moteur \IeC {\`a} explosion}}{219}}
\newlabel{motess}{{Q.13}{219}}
\@writefile{lof}{\contentsline {subfigure}{\numberline{(a)}{\ignorespaces {Admission}}}{219}}
\@writefile{lof}{\contentsline {subfigure}{\numberline{(b)}{\ignorespaces {Compression}}}{219}}
\@writefile{lof}{\contentsline {subfigure}{\numberline{(c)}{\ignorespaces {Allumage}}}{219}}
\@writefile{lof}{\contentsline {subfigure}{\numberline{(d)}{\ignorespaces {Temps moteur}}}{219}}
\@writefile{lof}{\contentsline {subfigure}{\numberline{(e)}{\ignorespaces {\IeC {\'E}chappement}}}{219}}
\@writefile{lof}{\contentsline {subfigure}{\numberline{(f)}{\ignorespaces {\IeC {\'E}vacuation}}}{219}}
\@writefile{lof}{\contentsline {figure}{\numberline {Q.14}{\ignorespaces Diagramme d'\IeC {\'e}tat}}{219}}
\newlabel{diagetatmotess}{{Q.14}{219}}
\newlabel{rendementotto}{{Q.64}{220}}
\@writefile{toc}{\contentsline {subsection}{\numberline {Q.5.3}Moteur Diesel}{220}}
\@writefile{lof}{\contentsline {figure}{\numberline {Q.15}{\ignorespaces Diagramme d'\IeC {\'e}tat}}{220}}
\newlabel{diagetatmotdiesel}{{Q.15}{220}}
\newlabel{T3T2V3V2}{{Q.65}{221}}
\newlabel{eqqq1}{{Q.66}{221}}
\newlabel{eqqq2}{{Q.67}{221}}
\@writefile{toc}{\contentsline {subsection}{\numberline {Q.5.4}Machine de Stirling}{222}}
\@writefile{toc}{\contentsline {subsection}{\numberline {Q.5.5}R\IeC {\'e}frig\IeC {\'e}rateur}{222}}
\@writefile{toc}{\contentsline {subsection}{\numberline {Q.5.6}Climatiseur}{222}}
\@writefile{toc}{\contentsline {subsection}{\numberline {Q.5.7}Pompe \IeC {\`a} chaleur}{222}}
\@writefile{toc}{\contentsline {subsection}{\numberline {Q.5.8}Cycle de Carnot}{222}}
\@writefile{toc}{\contentsline {section}{\numberline {Q.6}Thermodynamique statistique}{222}}
\newlabel{thermostat}{{Q.6}{222}}
\newlabel{entropie}{{Q.68}{222}}
\@writefile{toc}{\contentsline {section}{\numberline {Q.7}Second principe}{222}}
\newlabel{secondprincipe}{{Q.7}{222}}
\@setckpt{Annexe-Thermodynamique/Annexe-Thermodynamique}{
\setcounter{page}{223}
\setcounter{equation}{68}
\setcounter{enumi}{3}
\setcounter{enumii}{0}
\setcounter{enumiii}{0}
\setcounter{enumiv}{0}
\setcounter{footnote}{0}
\setcounter{mpfootnote}{0}
\setcounter{part}{0}
\setcounter{chapter}{17}
\setcounter{section}{7}
\setcounter{subsection}{0}
\setcounter{subsubsection}{0}
\setcounter{paragraph}{0}
\setcounter{subparagraph}{0}
\setcounter{figure}{15}
\setcounter{table}{6}
\setcounter{FancyVerbLine}{0}
\setcounter{float@type}{8}
\setcounter{r@tfl@t}{4}
\setcounter{subfigure}{0}
\setcounter{lofdepth}{1}
\setcounter{subtable}{0}
\setcounter{lotdepth}{1}
\setcounter{parentequation}{0}
\setcounter{endnote}{67}
\setcounter{OptionTest}{0}
\setcounter{DefaultLines}{2}
\setcounter{L@lines}{3}
\setcounter{lstlisting}{0}
\setcounter{lstnumber}{1}
\setcounter{ex}{71}
}
