\relax 
\@writefile{toc}{\contentsline {chapter}{\numberline {C}Mesures de distances}{171}}
\@writefile{lof}{\addvspace {10\p@ }}
\@writefile{lot}{\addvspace {10\p@ }}
\@writefile{toc}{\contentsline {section}{\numberline {C.1}La taille de la Terre}{171}}
\newlabel{tailleterre}{{C.1}{171}}
\@writefile{toc}{\contentsline {subsection}{\numberline {C.1.1}Le principe}{171}}
\@writefile{lof}{\contentsline {figure}{\numberline {C.1}{\ignorespaces Taille de la terre\relax }}{171}}
\newlabel{erathostenetailleterre}{{C.1}{171}}
\citation{AS02}
\citation{JJD21}
\@writefile{toc}{\contentsline {subsection}{\numberline {C.1.2}Techniquement}{172}}
\newlabel{scaphe}{{a}{172}}
\@writefile{toc}{\contentsline {section}{\numberline {C.2}La taille de la Lune}{173}}
\newlabel{taillelune}{{C.2}{173}}
\@writefile{lof}{\contentsline {figure}{\numberline {C.2}{\ignorespaces Taille de la lune}}{173}}
\newlabel{tailledelalune}{{C.2}{173}}
\@writefile{toc}{\contentsline {section}{\numberline {C.3}La distance Terre-Lune}{173}}
\@writefile{toc}{\contentsline {section}{\numberline {C.4}La distance Terre-Soleil}{174}}
\@writefile{lof}{\contentsline {figure}{\numberline {C.3}{\ignorespaces Parallaxe de Mars}}{174}}
\newlabel{parallaxemars}{{C.3}{174}}
\newlabel{dtm}{{C.1}{175}}
\newlabel{opposition}{{C.2}{175}}
\newlabel{oppositionkepler}{{C.3}{175}}
\newlabel{cassiniua}{{C.4}{175}}
\newlabel{cassiniuaexcentrique}{{C.5}{176}}
\@writefile{toc}{\contentsline {section}{\numberline {C.5}La distance des \IeC {\'e}toiles}{176}}
\@setckpt{Annexe-MesuresDistances/Annexe-MesuresDistances}{
\setcounter{page}{177}
\setcounter{equation}{5}
\setcounter{enumi}{3}
\setcounter{enumii}{0}
\setcounter{enumiii}{0}
\setcounter{enumiv}{0}
\setcounter{footnote}{4}
\setcounter{mpfootnote}{0}
\setcounter{part}{0}
\setcounter{chapter}{3}
\setcounter{section}{5}
\setcounter{subsection}{0}
\setcounter{subsubsection}{0}
\setcounter{paragraph}{0}
\setcounter{subparagraph}{0}
\setcounter{figure}{3}
\setcounter{table}{0}
\setcounter{NAT@ctr}{0}
\setcounter{parentequation}{0}
\setcounter{FancyVerbLine}{0}
\setcounter{float@type}{8}
\setcounter{fignum}{1}
\setcounter{r@tfl@t}{4}
\setcounter{subfigure}{0}
\setcounter{lofdepth}{1}
\setcounter{subtable}{0}
\setcounter{lotdepth}{1}
\setcounter{ContinuedFloat}{0}
\setcounter{endnote}{95}
\setcounter{OptionTest}{0}
\setcounter{DefaultLines}{2}
\setcounter{DefaultDepth}{0}
\setcounter{L@lines}{3}
\setcounter{L@depth}{0}
\setcounter{lstnumber}{1}
\setcounter{Solution}{0}
\setcounter{exc}{0}
\setcounter{Solution OS}{0}
\setcounter{exosc}{0}
\setcounter{lstlisting}{0}
}
