\relax 
\@writefile{toc}{\contentsline {chapter}{\numberline {5}M\IeC {\'e}canique diff\IeC {\'e}rentielle}{87}}
\@writefile{lof}{\addvspace {10\p@ }}
\@writefile{lot}{\addvspace {10\p@ }}
\@writefile{toc}{\contentsline {section}{\numberline {5.1}Introduction}{87}}
\@writefile{toc}{\contentsline {section}{\numberline {5.2}Cin\IeC {\'e}matique}{87}}
\newlabel{cinemadiff}{{5.2}{87}}
\newlabel{posvitaccdiff}{{5.4}{87}}
\@writefile{toc}{\contentsline {subsection}{\numberline {5.2.1}Exemples}{88}}
\@writefile{toc}{\contentsline {subsubsection}{Mouvement rectiligne uniform\IeC {\'e}ment acc\IeC {\'e}l\IeC {\'e}r\IeC {\'e}~: MRUA}{88}}
\@writefile{toc}{\contentsline {subsubsection}{Port\IeC {\'e} maximum en balistique}{88}}
\@writefile{toc}{\contentsline {section}{\numberline {5.3}Dynamique}{89}}
\newlabel{diffma}{{5.7}{89}}
\@writefile{toc}{\contentsline {subsection}{\numberline {5.3.1}Int\IeC {\'e}gration}{89}}
\@writefile{toc}{\contentsline {subsubsection}{Chute libre}{89}}
\@writefile{toc}{\contentsline {subsubsection}{Freinage}{89}}
\@writefile{toc}{\contentsline {subsection}{\numberline {5.3.2}\IeC {\'E}quation diff\IeC {\'e}rentielle}{89}}
\@writefile{toc}{\contentsline {subsubsection}{Chute dans un fluide visqueux}{89}}
\@writefile{lof}{\contentsline {figure}{\numberline {5.1}{\ignorespaces Chute visqueuse\relax }}{90}}
\newlabel{chutevisqueuse}{{5.1}{90}}
\@writefile{lof}{\contentsline {figure}{\numberline {5.2}{\ignorespaces Chute dans un fluide visqueux\relax }}{91}}
\newlabel{figchutevisqueuse}{{5.2}{91}}
\@writefile{toc}{\contentsline {subsubsection}{Mouvement harmonique}{91}}
\@writefile{lof}{\contentsline {figure}{\numberline {5.3}{\ignorespaces Masse oscillante\relax }}{91}}
\newlabel{masseoscillante}{{5.3}{91}}
\newlabel{cond_init}{{5.8}{91}}
\newlabel{ressortposition}{{5.9}{91}}
\newlabel{ressortvitesse}{{5.10}{91}}
\newlabel{ressort1ersol}{{5.11}{92}}
\newlabel{ressortvitmax}{{5.12}{92}}
\@writefile{toc}{\contentsline {subsubsection}{Mouvement harmonique d'une masse pendante}{92}}
\@writefile{lof}{\contentsline {figure}{\numberline {5.4}{\ignorespaces Masse suspendue\relax }}{92}}
\newlabel{massesuspendue}{{5.4}{92}}
\@writefile{lof}{\contentsline {figure}{\numberline {5.5}{\ignorespaces Masse oscillante suspendue\relax }}{93}}
\newlabel{masseoscillantesuspendue}{{5.5}{93}}
\@writefile{toc}{\contentsline {subsubsection}{Mouvement non lin\IeC {\'e}aire}{93}}
\newlabel{non-lineaire}{{5.14}{93}}
\@setckpt{MecaniqueDifferentielle/MecaniqueDifferentielle}{
\setcounter{page}{94}
\setcounter{equation}{14}
\setcounter{enumi}{2}
\setcounter{enumii}{0}
\setcounter{enumiii}{0}
\setcounter{enumiv}{0}
\setcounter{footnote}{0}
\setcounter{mpfootnote}{0}
\setcounter{part}{0}
\setcounter{chapter}{5}
\setcounter{section}{3}
\setcounter{subsection}{2}
\setcounter{subsubsection}{0}
\setcounter{paragraph}{0}
\setcounter{subparagraph}{0}
\setcounter{figure}{5}
\setcounter{table}{0}
\setcounter{NAT@ctr}{0}
\setcounter{parentequation}{0}
\setcounter{FancyVerbLine}{0}
\setcounter{float@type}{8}
\setcounter{fignum}{0}
\setcounter{r@tfl@t}{2}
\setcounter{subfigure}{0}
\setcounter{lofdepth}{1}
\setcounter{subtable}{0}
\setcounter{lotdepth}{1}
\setcounter{ContinuedFloat}{0}
\setcounter{endnote}{62}
\setcounter{OptionTest}{0}
\setcounter{DefaultLines}{2}
\setcounter{DefaultDepth}{0}
\setcounter{L@lines}{3}
\setcounter{L@depth}{0}
\setcounter{lstnumber}{1}
\setcounter{Solution}{0}
\setcounter{exc}{0}
\setcounter{Solution OS}{0}
\setcounter{exosc}{0}
\setcounter{lstlisting}{0}
}
