<?xml version="1.0" encoding="UTF-8" standalone="no"?>
<svg
   xmlns:dc="http://purl.org/dc/elements/1.1/"
   xmlns:cc="http://creativecommons.org/ns#"
   xmlns:rdf="http://www.w3.org/1999/02/22-rdf-syntax-ns#"
   xmlns:svg="http://www.w3.org/2000/svg"
   xmlns="http://www.w3.org/2000/svg"
   xmlns:sodipodi="http://sodipodi.sourceforge.net/DTD/sodipodi-0.dtd"
   xmlns:inkscape="http://www.inkscape.org/namespaces/inkscape"
   version="1.1"
   baseProfile="full"
   id="body"
   width="8in"
   height="8in"
   viewBox="0 0 1 1"
   preserveAspectRatio="none"
   sodipodi:version="0.32"
   inkscape:version="0.46"
   sodipodi:docname="1dim.svg"
   inkscape:output_extension="org.inkscape.output.svg.inkscape">
  <metadata
     id="metadata2439">
    <rdf:RDF>
      <cc:Work
         rdf:about="">
        <dc:format>image/svg+xml</dc:format>
        <dc:type
           rdf:resource="http://purl.org/dc/dcmitype/StillImage" />
      </cc:Work>
    </rdf:RDF>
  </metadata>
  <defs
     id="defs2437"><inkscape:perspective
   sodipodi:type="inkscape:persp3d"
   inkscape:vp_x="0 : 360 : 1"
   inkscape:vp_y="0 : 1000 : 0"
   inkscape:vp_z="720 : 360 : 1"
   inkscape:persp3d-origin="360 : 240 : 1"
   id="perspective2441" />














</defs>
  <sodipodi:namedview
     inkscape:window-height="705"
     inkscape:window-width="1229"
     inkscape:pageshadow="2"
     inkscape:pageopacity="0.0"
     guidetolerance="10.0"
     gridtolerance="10.0"
     objecttolerance="10.0"
     borderopacity="1.0"
     bordercolor="#666666"
     pagecolor="#ffffff"
     id="base"
     showgrid="false"
     inkscape:zoom="7.104686"
     inkscape:cx="102.47113"
     inkscape:cy="687.48068"
     inkscape:window-x="298"
     inkscape:window-y="220"
     inkscape:current-layer="g2496" />
  <title
     id="title2404">SVG drawing</title>
  <desc
     id="desc2406">This was produced by version 4.2 of GNU libplot, a free library for exporting 2-D vector graphics.</desc>
  <g
     id="g2496">
    <line
       x1="0.031595532"
       y1="0.035390936"
       x2="0.25304648"
       y2="0.035390936"
       id="line2410"
       style="font-style:normal;font-variant:normal;font-weight:normal;font-stretch:normal;letter-spacing:normal;word-spacing:normal;text-anchor:start;fill-opacity:1;stroke:#000000;stroke-width:0.00082019;stroke-linecap:butt;stroke-linejoin:miter;stroke-miterlimit:10.43299961;stroke-dasharray:none;stroke-dashoffset:0;stroke-opacity:1" />
    <polygon
       transform="matrix(1.7361e-3,0,0,-1.7361e-3,3.0252767e-2,5.6793583e-2)"
       points="119.32,10.438 126.44,12.328 119.32,14.219 120.77,12.328 119.32,10.438 "
       id="polygon2412"
       style="font-style:normal;font-variant:normal;font-weight:normal;font-stretch:normal;letter-spacing:normal;word-spacing:normal;text-anchor:start;fill:#000000;fill-opacity:1;stroke:#000000;stroke-width:0;stroke-linecap:butt;stroke-linejoin:miter;stroke-miterlimit:10.43299961;stroke-dasharray:none;stroke-dashoffset:0;stroke-opacity:1" />
    <polygon
       transform="matrix(1.7361e-3,0,0,-1.7361e-3,3.0252767e-2,5.6793583e-2)"
       points="119.32,10.438 126.44,12.328 119.32,14.219 120.77,12.328 119.32,10.438 "
       id="polygon2414"
       style="font-style:normal;font-variant:normal;font-weight:normal;font-stretch:normal;letter-spacing:normal;word-spacing:normal;text-anchor:start;fill-opacity:1;stroke:#000000;stroke-width:0.47242999;stroke-linecap:butt;stroke-linejoin:miter;stroke-miterlimit:10.43299961;stroke-dasharray:none;stroke-dashoffset:0;stroke-opacity:1" />
    <line
       x1="0.056198779"
       y1="0.030474313"
       x2="0.056198779"
       y2="0.045237757"
       id="line2416"
       style="font-style:normal;font-variant:normal;font-weight:normal;font-stretch:normal;letter-spacing:normal;word-spacing:normal;text-anchor:start;fill-opacity:1;stroke:#000000;stroke-width:0.00082019;stroke-linecap:butt;stroke-linejoin:miter;stroke-miterlimit:10.43299961;stroke-dasharray:none;stroke-dashoffset:0;stroke-opacity:1" />
    <line
       x1="0.080802783"
       y1="0.030474313"
       x2="0.080802783"
       y2="0.040314175"
       id="line2418"
       style="font-style:normal;font-variant:normal;font-weight:normal;font-stretch:normal;letter-spacing:normal;word-spacing:normal;text-anchor:start;fill-opacity:1;stroke:#000000;stroke-width:0.00082019;stroke-linecap:butt;stroke-linejoin:miter;stroke-miterlimit:10.43299961;stroke-dasharray:none;stroke-dashoffset:0;stroke-opacity:1" />
    <line
       x1="0.10540679"
       y1="0.030474313"
       x2="0.10540679"
       y2="0.040314175"
       id="line2420"
       style="font-style:normal;font-variant:normal;font-weight:normal;font-stretch:normal;letter-spacing:normal;word-spacing:normal;text-anchor:start;fill-opacity:1;stroke:#000000;stroke-width:0.00082019;stroke-linecap:butt;stroke-linejoin:miter;stroke-miterlimit:10.43299961;stroke-dasharray:none;stroke-dashoffset:0;stroke-opacity:1" />
    <line
       x1="0.13001774"
       y1="0.030474313"
       x2="0.13001774"
       y2="0.040314175"
       id="line2422"
       style="font-style:normal;font-variant:normal;font-weight:normal;font-stretch:normal;letter-spacing:normal;word-spacing:normal;text-anchor:start;fill-opacity:1;stroke:#000000;stroke-width:0.00082019;stroke-linecap:butt;stroke-linejoin:miter;stroke-miterlimit:10.43299961;stroke-dasharray:none;stroke-dashoffset:0;stroke-opacity:1" />
    <line
       x1="0.15462177"
       y1="0.030474313"
       x2="0.15462177"
       y2="0.040314175"
       id="line2424"
       style="font-style:normal;font-variant:normal;font-weight:normal;font-stretch:normal;letter-spacing:normal;word-spacing:normal;text-anchor:start;fill-opacity:1;stroke:#000000;stroke-width:0.00082019;stroke-linecap:butt;stroke-linejoin:miter;stroke-miterlimit:10.43299961;stroke-dasharray:none;stroke-dashoffset:0;stroke-opacity:1" />
    <line
       x1="0.17922576"
       y1="0.030474313"
       x2="0.17922576"
       y2="0.040314175"
       id="line2426"
       style="font-style:normal;font-variant:normal;font-weight:normal;font-stretch:normal;letter-spacing:normal;word-spacing:normal;text-anchor:start;fill-opacity:1;stroke:#000000;stroke-width:0.00082019;stroke-linecap:butt;stroke-linejoin:miter;stroke-miterlimit:10.43299961;stroke-dasharray:none;stroke-dashoffset:0;stroke-opacity:1" />
    <line
       x1="0.20382805"
       y1="0.030474313"
       x2="0.20382805"
       y2="0.040314175"
       id="line2428"
       style="font-style:normal;font-variant:normal;font-weight:normal;font-stretch:normal;letter-spacing:normal;word-spacing:normal;text-anchor:start;fill-opacity:1;stroke:#000000;stroke-width:0.00082019;stroke-linecap:butt;stroke-linejoin:miter;stroke-miterlimit:10.43299961;stroke-dasharray:none;stroke-dashoffset:0;stroke-opacity:1" />
    <text
       y="0.058204316"
       x="0.042838756"
       font-size="20px"
       id="text2430"
       style="font-size:0.01736031px;font-style:normal;font-variant:normal;font-weight:normal;font-stretch:normal;letter-spacing:normal;word-spacing:normal;text-anchor:start;fill:#000000;fill-opacity:1;stroke:none;stroke-linecap:butt;stroke-linejoin:miter;stroke-miterlimit:10.43299961;stroke-dasharray:none;stroke-dashoffset:0;stroke-opacity:1;font-family:'Times-Roman,Times,serif'">0</text>
    <text
       y="0.058399804"
       x="0.071158051"
       font-size="20px"
       id="text2432"
       style="font-size:0.01736031px;font-style:normal;font-variant:normal;font-weight:normal;font-stretch:normal;letter-spacing:normal;word-spacing:normal;text-anchor:start;fill:#000000;fill-opacity:1;stroke:none;stroke-linecap:butt;stroke-linejoin:miter;stroke-miterlimit:10.43299961;stroke-dasharray:none;stroke-dashoffset:0;stroke-opacity:1;font-family:'Times-Roman,Times,serif'">1</text>
    <text
       y="0.054260649"
       x="0.21804178"
       font-size="20px"
       id="text2434"
       style="font-size:0.01736031px;font-style:normal;font-variant:normal;font-weight:normal;font-stretch:normal;letter-spacing:normal;word-spacing:normal;text-anchor:start;fill:#000000;fill-opacity:1;stroke:none;stroke-linecap:butt;stroke-linejoin:miter;stroke-miterlimit:10.43299961;stroke-dasharray:none;stroke-dashoffset:0;stroke-opacity:1;font-family:'Times-Roman,Times,serif'">x</text>
  </g>
</svg>
