%!PS-Adobe-3.0 EPSF-3.0
%%Creator: inkscape 0.46
%%Pages: 1
%%Orientation: Portrait
%%BoundingBox: 17 539 146 559
%%HiResBoundingBox: 17.962812 539.48445 145.99099 558.68301
%%EndComments
%%Page: 1 1
0 576 translate
0.8 -0.8 scale
0 0 0 setrgbcolor
[] 0 setdash
1 setlinewidth
0 setlinejoin
0 setlinecap
gsave [720 0 0 720 0 0] concat
gsave
0 0 0 setrgbcolor
newpath
0.031595532 0.035390936 moveto
0.25304648 0.035390936 lineto
fill
grestore
0 0 0 setrgbcolor
[] 0 setdash
0.00082019001 setlinewidth
0 setlinejoin
0 setlinecap
newpath
0.031595532 0.035390936 moveto
0.25304648 0.035390936 lineto
stroke
gsave [0.0017361 0 0 -0.0017361 0.030252767 0.056793583] concat
gsave
0 0 0 setrgbcolor
newpath
119.32 10.438 moveto
126.44 12.328 lineto
119.32 14.219 lineto
120.77 12.328 lineto
119.32 10.438 lineto
closepath
fill
grestore
0 0 0 setrgbcolor
[] 0 setdash
0 setlinewidth
0 setlinejoin
0 setlinecap
newpath
119.32 10.438 moveto
126.44 12.328 lineto
119.32 14.219 lineto
120.77 12.328 lineto
119.32 10.438 lineto
closepath
stroke
grestore
gsave [0.0017361 0 0 -0.0017361 0.030252767 0.056793583] concat
gsave
0 0 0 setrgbcolor
newpath
119.32 10.438 moveto
126.44 12.328 lineto
119.32 14.219 lineto
120.77 12.328 lineto
119.32 10.438 lineto
closepath
fill
grestore
0 0 0 setrgbcolor
[] 0 setdash
0.47242999 setlinewidth
0 setlinejoin
0 setlinecap
newpath
119.32 10.438 moveto
126.44 12.328 lineto
119.32 14.219 lineto
120.77 12.328 lineto
119.32 10.438 lineto
closepath
stroke
grestore
gsave
0 0 0 setrgbcolor
newpath
0.056198779 0.030474313 moveto
0.056198779 0.045237757 lineto
fill
grestore
0 0 0 setrgbcolor
[] 0 setdash
0.00082019001 setlinewidth
0 setlinejoin
0 setlinecap
newpath
0.056198779 0.030474313 moveto
0.056198779 0.045237757 lineto
stroke
gsave
0 0 0 setrgbcolor
newpath
0.080802783 0.030474313 moveto
0.080802783 0.040314175 lineto
fill
grestore
0 0 0 setrgbcolor
[] 0 setdash
0.00082019001 setlinewidth
0 setlinejoin
0 setlinecap
newpath
0.080802783 0.030474313 moveto
0.080802783 0.040314175 lineto
stroke
gsave
0 0 0 setrgbcolor
newpath
0.10540679 0.030474313 moveto
0.10540679 0.040314175 lineto
fill
grestore
0 0 0 setrgbcolor
[] 0 setdash
0.00082019001 setlinewidth
0 setlinejoin
0 setlinecap
newpath
0.10540679 0.030474313 moveto
0.10540679 0.040314175 lineto
stroke
gsave
0 0 0 setrgbcolor
newpath
0.13001774 0.030474313 moveto
0.13001774 0.040314175 lineto
fill
grestore
0 0 0 setrgbcolor
[] 0 setdash
0.00082019001 setlinewidth
0 setlinejoin
0 setlinecap
newpath
0.13001774 0.030474313 moveto
0.13001774 0.040314175 lineto
stroke
gsave
0 0 0 setrgbcolor
newpath
0.15462177 0.030474313 moveto
0.15462177 0.040314175 lineto
fill
grestore
0 0 0 setrgbcolor
[] 0 setdash
0.00082019001 setlinewidth
0 setlinejoin
0 setlinecap
newpath
0.15462177 0.030474313 moveto
0.15462177 0.040314175 lineto
stroke
gsave
0 0 0 setrgbcolor
newpath
0.17922576 0.030474313 moveto
0.17922576 0.040314175 lineto
fill
grestore
0 0 0 setrgbcolor
[] 0 setdash
0.00082019001 setlinewidth
0 setlinejoin
0 setlinecap
newpath
0.17922576 0.030474313 moveto
0.17922576 0.040314175 lineto
stroke
gsave
0 0 0 setrgbcolor
newpath
0.20382805 0.030474313 moveto
0.20382805 0.040314175 lineto
fill
grestore
0 0 0 setrgbcolor
[] 0 setdash
0.00082019001 setlinewidth
0 setlinejoin
0 setlinecap
newpath
0.20382805 0.030474313 moveto
0.20382805 0.040314175 lineto
stroke
gsave [1 0 0 -1 0.042838756 0.058204316] concat
gsave
/newlatin1font {findfont dup length dict copy dup /Encoding ISOLatin1Encoding put definefont} def
/NimbusRomNo9L-Regu-ISOLatin1 /NimbusRomNo9L-Regu newlatin1font
0.017360309 scalefont
setfont
0 0 0 setrgbcolor
newpath
0 0 moveto
(0) show
grestore
grestore
gsave [1 0 0 -1 0.071158051 0.058399804] concat
gsave
/NimbusRomNo9L-Regu-ISOLatin1 findfont
0.017360309 scalefont
setfont
0 0 0 setrgbcolor
newpath
0 0 moveto
(1) show
grestore
grestore
gsave [1 0 0 -1 0.21804178 0.054260649] concat
gsave
/NimbusRomNo9L-Regu-ISOLatin1 findfont
0.017360309 scalefont
setfont
0 0 0 setrgbcolor
newpath
0 0 moveto
(x) show
grestore
grestore
grestore
showpage
%%EOF
