%!PS-Adobe-3.0 EPSF-3.0
%%Creator: inkscape 0.46
%%Pages: 1
%%Orientation: Portrait
%%BoundingBox: 11 339 151 567
%%HiResBoundingBox: 11.6265 339.5679 150.6948 566.96329
%%EndComments
%%Page: 1 1
0 576 translate
0.8 -0.8 scale
0 0 0 setrgbcolor
[] 0 setdash
1 setlinewidth
0 setlinejoin
0 setlinecap
gsave [720 0 0 720 0 0] concat
gsave [1 0 0 -1 0.1983417 0.3419908] concat
gsave
/newlatin1font {findfont dup length dict copy dup /Encoding ISOLatin1Encoding put definefont} def
/NimbusRomNo9L-Regu-ISOLatin1 /NimbusRomNo9L-Regu newlatin1font
0.01968425 scalefont
setfont
0 0 0 setrgbcolor
newpath
0 0 moveto
(v2) show
grestore
grestore
0 0 0 setrgbcolor
[] 0 setdash
0.00095198001 setlinewidth
0 setlinejoin
0 setlinecap
newpath
0.19817737 0.38627586 moveto
0.19818488 0.3774698 0.20268952 0.36947431 0.20965875 0.36585159 curveto
stroke
gsave
0 0 0 setrgbcolor
newpath
0.22664735 0.38673401 moveto
0.13805763 0.38673401 lineto
fill
grestore
0 0 0 setrgbcolor
[] 0 setdash
0.00082019001 setlinewidth
0 setlinejoin
0 setlinecap
newpath
0.22664735 0.38673401 moveto
0.13805763 0.38673401 lineto
stroke
gsave [0.0017361 0 0 -0.0017361 0.028835837 0.4149678] concat
gsave
1 1 1 setrgbcolor
newpath
71.809 18.73 moveto
64.25 16.84 lineto
71.809 14.949 lineto
71.809 18.73 lineto
closepath
fill
grestore
1 1 1 setrgbcolor
[] 0 setdash
0 setlinewidth
0 setlinejoin
0 setlinecap
newpath
71.809 18.73 moveto
64.25 16.84 lineto
71.809 14.949 lineto
71.809 18.73 lineto
closepath
stroke
grestore
gsave [0.0017361 0 0 -0.0017361 0.027976874 0.4159699] concat
gsave
0 0 0 setrgbcolor
newpath
71.809 18.73 moveto
64.25 16.84 lineto
71.809 14.949 lineto
71.809 18.73 lineto
closepath
fill
grestore
0 0 0 setrgbcolor
[] 0 setdash
0.47242999 setlinewidth
0 setlinejoin
0 setlinecap
newpath
71.809 18.73 moveto
64.25 16.84 lineto
71.809 14.949 lineto
71.809 18.73 lineto
closepath
stroke
grestore
gsave
0 0 0 setrgbcolor
newpath
0.22721998 0.38693845 moveto
0.17001548 0.31607085 lineto
fill
grestore
0 0 0 setrgbcolor
[] 0 setdash
0.00082019001 setlinewidth
0 setlinejoin
0 setlinecap
newpath
0.22721998 0.38693845 moveto
0.17001548 0.31607085 lineto
stroke
gsave [0.0017361 0 0 -0.0017361 0.028835837 0.4149678] concat
gsave
1 1 1 setrgbcolor
newpath
88.125 51.484 moveto
81.953 56.145 lineto
85.227 49.09 lineto
88.125 51.484 lineto
closepath
fill
grestore
1 1 1 setrgbcolor
[] 0 setdash
0 setlinewidth
0 setlinejoin
0 setlinecap
newpath
88.125 51.484 moveto
81.953 56.145 lineto
85.227 49.09 lineto
88.125 51.484 lineto
closepath
stroke
grestore
gsave [0.0017361 0 0 -0.0017361 0.028835837 0.4149678] concat
gsave
0 0 0 setrgbcolor
newpath
88.125 51.484 moveto
81.953 56.145 lineto
85.227 49.09 lineto
88.125 51.484 lineto
closepath
fill
grestore
0 0 0 setrgbcolor
[] 0 setdash
0.47242999 setlinewidth
0 setlinejoin
0 setlinecap
newpath
88.125 51.484 moveto
81.953 56.145 lineto
85.227 49.09 lineto
88.125 51.484 lineto
closepath
stroke
grestore
gsave
0 0 0 setrgbcolor
newpath
0.13847855 0.3865433 moveto
0.170201 0.31668022 lineto
fill
grestore
0 0 0 setrgbcolor
[] 0 setdash
0.00083858002 setlinewidth
0 setlinejoin
0 setlinecap
newpath
0.13847855 0.3865433 moveto
0.170201 0.31668022 lineto
stroke
gsave [0.0017361 0 0 -0.0017361 0.028835837 0.4149678] concat
gsave
1 1 1 setrgbcolor
newpath
79.871 47.641 moveto
81.32 55.262 lineto
76.41 49.215 lineto
79.871 47.641 lineto
closepath
fill
grestore
1 1 1 setrgbcolor
[] 0 setdash
0 setlinewidth
0 setlinejoin
0 setlinecap
newpath
79.871 47.641 moveto
81.32 55.262 lineto
76.41 49.215 lineto
79.871 47.641 lineto
closepath
stroke
grestore
gsave [0.0017361 0 0 -0.0017361 0.028549516 0.4139657] concat
gsave
0 0 0 setrgbcolor
newpath
79.871 47.641 moveto
81.32 55.262 lineto
76.41 49.215 lineto
79.871 47.641 lineto
closepath
fill
grestore
0 0 0 setrgbcolor
[] 0 setdash
0.47242999 setlinewidth
0 setlinejoin
0 setlinecap
newpath
79.871 47.641 moveto
81.32 55.262 lineto
76.41 49.215 lineto
79.871 47.641 lineto
closepath
stroke
grestore
gsave [1 0 0 -1 0.182156 0.37392291] concat
gsave
/StandardSymL-ISOLatin1 /StandardSymL newlatin1font
0.01968425 scalefont
setfont
0 0 0 setrgbcolor
newpath
0 0 moveto
(a) show
grestore
grestore
0 0 0 setrgbcolor
[] 0 setdash
0.00086337002 setlinewidth
0 setlinejoin
0 setlinecap
newpath
0.14363915 0.13363302 moveto
0.14908279 0.13936244 0.15629129 0.14293402 0.16400609 0.14371531 curveto
stroke
0 0 0 setrgbcolor
[] 0 setdash
0.00082019001 setlinewidth
0 setlinejoin
0 setlinecap
newpath
0.26121282 0.11420584 moveto
0.2610913 0.11925789 lineto
0.26070935 0.12422313 lineto
0.26008436 0.1291363 lineto
0.25923367 0.13396265 lineto
0.25813992 0.13871957 lineto
0.25680313 0.14337232 lineto
0.25527536 0.1479209 lineto
0.25350454 0.15238267 lineto
0.25154275 0.15672293 lineto
0.24937262 0.16095901 lineto
0.24701152 0.1650562 lineto
0.24445946 0.16904923 lineto
0.24173378 0.17288602 lineto
0.23881713 0.17660127 lineto
0.23574423 0.18016028 lineto
0.23248037 0.18356303 lineto
0.22907761 0.18680954 lineto
0.22551861 0.1898998 lineto
0.22182071 0.19279908 lineto
0.21796657 0.19554212 lineto
0.2139909 0.19809419 lineto
0.20987634 0.20045528 lineto
0.20565762 0.20262541 lineto
0.20130696 0.2045872 lineto
0.19685212 0.20634066 lineto
0.19229486 0.20788579 lineto
0.18764038 0.20920523 lineto
0.18289388 0.21029897 lineto
0.17806405 0.21116702 lineto
0.17315436 0.21179202 lineto
0.16817349 0.2121566 lineto
0.16312664 0.21229549 lineto
0.10895338 0.21229549 0.065036994 0.16837216 0.065036994 0.11420584 curveto
0.065036994 0.060022155 0.10895338 0.016098825 0.16312664 0.016098825 curveto
0.21730685 0.016098825 0.26121282 0.060022155 0.26121282 0.11420584 curveto
closepath
stroke
gsave
0 0 0 setrgbcolor
newpath
0.16389227 0.21252118 moveto
0.075316444 0.21252118 lineto
fill
grestore
0 0 0 setrgbcolor
[] 0 setdash
0.00082019001 setlinewidth
0 setlinejoin
0 setlinecap
newpath
0.16389227 0.21252118 moveto
0.075316444 0.21252118 lineto
stroke
gsave [0.0017361 0 0 -0.0017361 0.028835837 0.4149678] concat
gsave
1 1 1 setrgbcolor
newpath
35.34 118.5 moveto
27.781 116.61 lineto
35.34 114.73 lineto
35.34 118.5 lineto
closepath
fill
grestore
1 1 1 setrgbcolor
[] 0 setdash
0 setlinewidth
0 setlinejoin
0 setlinecap
newpath
35.34 118.5 moveto
27.781 116.61 lineto
35.34 114.73 lineto
35.34 118.5 lineto
closepath
stroke
grestore
gsave [0.0017361 0 0 -0.0017361 0.028835837 0.4149678] concat
gsave
0 0 0 setrgbcolor
newpath
35.34 118.5 moveto
27.781 116.61 lineto
35.34 114.73 lineto
35.34 118.5 lineto
closepath
fill
grestore
0 0 0 setrgbcolor
[] 0 setdash
0.47242999 setlinewidth
0 setlinejoin
0 setlinecap
newpath
35.34 118.5 moveto
27.781 116.61 lineto
35.34 114.73 lineto
35.34 118.5 lineto
closepath
stroke
grestore
gsave
0 0 0 setrgbcolor
newpath
0.087340675 0.17620197 moveto
0.030151471 0.10535173 lineto
fill
grestore
0 0 0 setrgbcolor
[] 0 setdash
0.00082019001 setlinewidth
0 setlinejoin
0 setlinecap
newpath
0.087340675 0.17620197 moveto
0.030151471 0.10535173 lineto
stroke
gsave [0.0017361 0 0 -0.0017361 0.028835837 0.4149678] concat
gsave
1 1 1 setrgbcolor
newpath
7.5586 172.86 moveto
1.3867 177.53 lineto
4.6641 170.47 lineto
7.5586 172.86 lineto
closepath
fill
grestore
1 1 1 setrgbcolor
[] 0 setdash
0 setlinewidth
0 setlinejoin
0 setlinecap
newpath
7.5586 172.86 moveto
1.3867 177.53 lineto
4.6641 170.47 lineto
7.5586 172.86 lineto
closepath
stroke
grestore
gsave [0.0017361 0 0 -0.0017361 0.028835837 0.4149678] concat
gsave
0 0 0 setrgbcolor
newpath
7.5586 172.86 moveto
1.3867 177.53 lineto
4.6641 170.47 lineto
7.5586 172.86 lineto
closepath
fill
grestore
0 0 0 setrgbcolor
[] 0 setdash
0.47242999 setlinewidth
0 setlinejoin
0 setlinecap
newpath
7.5586 172.86 moveto
1.3867 177.53 lineto
4.6641 170.47 lineto
7.5586 172.86 lineto
closepath
stroke
grestore
gsave
0 0 0 setrgbcolor
newpath
0.16378289 0.21316354 moveto
0.16378289 0.11726138 lineto
fill
grestore
0 0 0 setrgbcolor
[] 0 setdash
0.00082019001 setlinewidth
0 setlinejoin
0 setlinecap
newpath
0.16378289 0.21316354 moveto
0.16378289 0.11726138 lineto
stroke
gsave
0 0 0 setrgbcolor
newpath
0.087781638 0.17686169 moveto
0.16378289 0.11825094 lineto
fill
grestore
0 0 0 setrgbcolor
[] 0 setdash
0.00082019001 setlinewidth
0 setlinejoin
0 setlinecap
newpath
0.087781638 0.17686169 moveto
0.16378289 0.11825094 lineto
stroke
gsave [0.0017361 0 0 -0.0017361 0.028835837 0.4149678] concat
0 0 0 setrgbcolor
[] 0 setdash
0.47242999 setlinewidth
0 setlinejoin
0 setlinecap
newpath
30.109 142.25 moveto
35.086 146.29 lineto
38.867 141.56 lineto
stroke
grestore
gsave [0.0017361 0 0 -0.0017361 0.028835837 0.4149678] concat
0 0 0 setrgbcolor
[] 0 setdash
0.47242999 setlinewidth
0 setlinejoin
0 setlinecap
newpath
72.379 116.74 moveto
72.379 121.72 lineto
77.855 121.72 lineto
stroke
grestore
gsave
0 0 0 setrgbcolor
newpath
0.17144082 0.24226056 moveto
0.17144082 0.29146686 lineto
fill
grestore
0 0 0 setrgbcolor
[] 0 setdash
0.00082019001 setlinewidth
0 setlinejoin
0 setlinecap
newpath
0.17144082 0.24226056 moveto
0.17144082 0.29146686 lineto
stroke
gsave [0.0017361 0 0 -0.0017361 0.028835837 0.4149678] concat
gsave
0 0 0 setrgbcolor
newpath
80.25 79.766 moveto
82.141 72.207 lineto
84.031 79.766 lineto
fill
grestore
0 0 0 setrgbcolor
[] 0 setdash
0.47242999 setlinewidth
0 setlinejoin
0 setlinecap
newpath
80.25 79.766 moveto
82.141 72.207 lineto
84.031 79.766 lineto
stroke
grestore
gsave [1 0 0 -1 0.16881581 0.1720527] concat
gsave
/NimbusRomNo9L-Regu-ISOLatin1 findfont
0.01968425 scalefont
setfont
0 0 0 setrgbcolor
newpath
0 0 moveto
(R) show
grestore
grestore
gsave [1 0 0 -1 0.13874763 0.15765989] concat
gsave
/StandardSymL-ISOLatin1 findfont
0.01968425 scalefont
setfont
0 0 0 setrgbcolor
newpath
0 0 moveto
(a) show
grestore
grestore
gsave [1 0 0 -1 0.086359777 0.16996939] concat
gsave
/NimbusRomNo9L-Regu-ISOLatin1 findfont
0.01968425 scalefont
setfont
grestore
grestore
gsave [1 0 0 -1 0.15602081 0.2085802] concat
gsave
/NimbusRomNo9L-Regu-ISOLatin1 findfont
0.01968425 scalefont
setfont
grestore
grestore
gsave [1 0 0 -1 0.112278 0.1417577] concat
gsave
/NimbusRomNo9L-Regu-ISOLatin1 findfont
0.01968425 scalefont
setfont
0 0 0 setrgbcolor
newpath
0 0 moveto
(R) show
grestore
grestore
gsave [1 0 0 -1 0.020736055 0.3531687] concat
gsave
/NimbusRomNo9L-Regu-ISOLatin1 findfont
0.01968425 scalefont
setfont
0 0 0 setrgbcolor
newpath
0 0 moveto
(v12) show
grestore
grestore
gsave [1 0 0 -1 0.17644089 0.40899608] concat
gsave
/NimbusRomNo9L-Regu-ISOLatin1 findfont
0.01968425 scalefont
setfont
0 0 0 setrgbcolor
newpath
0 0 moveto
(v1) show
grestore
grestore
gsave [1 0 0 -1 0.1128768 0.24201086] concat
gsave
/NimbusRomNo9L-Regu-ISOLatin1 findfont
0.01968425 scalefont
setfont
0 0 0 setrgbcolor
newpath
0 0 moveto
(v1) show
grestore
grestore
gsave [1 0 0 -1 0.03276154 0.17221385] concat
gsave
/NimbusRomNo9L-Regu-ISOLatin1 findfont
0.01968425 scalefont
setfont
0 0 0 setrgbcolor
newpath
0 0 moveto
(v2) show
grestore
grestore
grestore
showpage
%%EOF
