\relax 
\catcode `:\active 
\catcode `;\active 
\catcode `!\active 
\catcode `?\active 
\@input{Prefaces/Prefaces.aux}
\select@language{french}
\@writefile{toc}{\select@language{french}}
\@writefile{lof}{\select@language{french}}
\@writefile{lot}{\select@language{french}}
\@input{Introduction/Introduction.aux}
\@input{Cinematique/Cinematique.aux}
\@input{Dynamique/Dynamique.aux}
\@input{MecaniqueDim/MecaniqueDim.aux}
\@input{MecaniqueDifferentielle/MecaniqueDifferentielle.aux}
\@input{QtiteMvt/QtiteMvt.aux}
\@input{Energie/Energie.aux}
\@input{EnergieOS/EnergieOS.aux}
\@input{PhysiqueTheorique/PhysiqueTheorique.aux}
\@input{Thermodynamique/Thermodynamique.aux}
\@input{ThermodynamiqueOS/ThermodynamiqueOS.aux}
\@input{Annexe-UnitesInternationales/Annexe-UnitesInternationales.aux}
\@input{Annexe-SystemeCoordonnees/Annexe-SystemeCoordonnees.aux}
\@input{Annexe-MesuresDistances/Annexe-MesuresDistances.aux}
\@input{Annexe-TravauxPratiques/Annexe-TravauxPratiques.aux}
\@input{Annexe-Rotations/Annexe-Rotations.aux}
\@input{Annexe-MRUA/Annexe-MRUA.aux}
\@input{Annexe-ChuteLune/Annexe-ChuteLune.aux}
\@input{Annexe-Satellites/Annexe-Satellites.aux}
\@input{Annexe-Relativite/Annexe-Relativite.aux}
\@input{Annexe-Maree/Annexe-Maree.aux}
\@input{Annexe-Energies/Annexe-Energies.aux}
\@input{Annexe-Exercices/Annexe-Exercices.aux}
\@input{Annexe-Incertitudes/Annexe-Incertitudes.aux}
\bibstyle{apalike-fr}
\bibdata{Bibliographies/BiblioCours}
\bibcite{AK05}{{1}{2005}{{Alder}}{{}}}
\bibcite{FB05}{{2}{2005}{{Balibar \emph  {et~al.}}}{{}}}
\bibcite{BM85}{{3}{1985}{{Biarnais}}{{}}}
\bibcite{FC05}{{4}{2005}{{Casoli et Encrenaz}}{{}}}
\bibcite{JJD21}{{5}{1821}{{Delambre}}{{}}}
\bibcite{GG92}{{6}{1992}{{Galilei}}{{}}}
\bibcite{GSJ05}{{7}{2005}{{Gould}}{{}}}
\bibcite{GC88}{{8}{1988}{{Gruber}}{{}}}
\bibcite{OG04}{{9}{2004}{{Gu{\'e}rin}}{{}}}
\bibcite{SH03}{{10}{2003}{{Hawking}}{{}}}
\bibcite{JL96}{{11}{1996}{{L{\'e}vy-Leblond}}{{}}}
\bibcite{JL06}{{12}{2006}{{L{\'e}vy-Leblond}}{{}}}
\bibcite{LJ04}{{13}{2004}{{Lhomme}}{{}}}
\bibcite{EL99}{{14}{1999}{{Lindemann}}{{}}}
\bibcite{HNHR08}{{15}{2008}{{Nollert et Ruder}}{{}}}
\bibcite{OP06}{{16}{2006}{{Ollivier}}{{}}}
\bibcite{HRaFL03}{{17}{2003}{{Reeves et Lenoir}}{{}}}
\bibcite{JR07}{{18}{2007}{{Robredo}}{{}}}
\bibcite{JR00}{{19}{2000}{{Rocchi}}{{}}}
\bibcite{AS02}{{20}{2002}{{Simaan}}{{}}}
\bibcite{AS06}{{21}{2006}{{Simaan}}{{}}}
\bibcite{BS07}{{22}{2007}{{Simon}}{{}}}
\bibcite{SU03}{{23}{2017}{{Susskind et Hrabovsky}}{{}}}
\bibcite{SV06}{{24}{2006}{{Vauclair}}{{}}}
