\relax 
\@writefile{toc}{\contentsline {chapter}{\numberline {L}Exercices}{211}}
\@writefile{lof}{\addvspace {10\p@ }}
\@writefile{lot}{\addvspace {10\p@ }}
\newlabel{exos}{{L}{211}}
\@writefile{toc}{\contentsline {section}{\numberline {L.1}Probl\IeC {\`e}mes}{211}}
\@writefile{toc}{\contentsline {subsection}{\numberline {L.1.1}Relatifs \IeC {\`a} la conversion d'unit\IeC {\'e}s et \IeC {\`a} la notation scientifique}{211}}
\newlabel{centaure}{{1}{211}}
\@writefile{toc}{\contentsline {subsection}{\numberline {L.1.2}Relatifs aux notions de d\IeC {\'e}placement, position et distance parcourue}{211}}
\@writefile{lof}{\contentsline {figure}{\numberline {L.1}{\ignorespaces Le rayon de la Terre par Eratosth\IeC {\`e}ne\relax }}{212}}
\newlabel{Erathostene}{{L.1}{212}}
\@writefile{toc}{\contentsline {subsection}{\numberline {L.1.3}Relatifs \IeC {\`a} la notion de vitesse}{212}}
\newlabel{vitrotterresoleil}{{15}{212}}
\@writefile{toc}{\contentsline {subsection}{\numberline {L.1.4}Relatif \IeC {\`a} la notion d'acc\IeC {\'e}l\IeC {\'e}ration}{212}}
\newlabel{vitsprinter}{{18}{212}}
\@writefile{toc}{\contentsline {subsection}{\numberline {L.1.5}Relatif au MRU}{213}}
\@writefile{toc}{\contentsline {subsection}{\numberline {L.1.6}Relatif au MRUA}{213}}
\newlabel{caspremier}{{1}{213}}
\newlabel{castroisieme}{{3}{213}}
\@writefile{toc}{\contentsline {subsection}{\numberline {L.1.7}Relatifs \IeC {\`a} la physique aristot\IeC {\'e}licienne}{214}}
\@writefile{toc}{\contentsline {subsection}{\numberline {L.1.8}Relatifs \IeC {\`a} la physique newtonienne}{214}}
\newlabel{exfusee}{{36}{215}}
\@writefile{lof}{\contentsline {figure}{\numberline {L.2}{\ignorespaces La poulie}}{215}}
\newlabel{poulie}{{L.2}{215}}
\@writefile{lof}{\contentsline {figure}{\numberline {L.3}{\ignorespaces Masse pendante}}{216}}
\newlabel{pendante}{{L.3}{216}}
\newlabel{planinclinesimple}{{4}{216}}
\@writefile{lof}{\contentsline {figure}{\numberline {L.4}{\ignorespaces Deux poulies}}{216}}
\newlabel{deuxpoulies}{{L.4}{216}}
\@writefile{toc}{\contentsline {subsection}{\numberline {L.1.9}Relatifs aux forces}{216}}
\newlabel{massedelaterre}{{48}{217}}
\@writefile{lof}{\contentsline {figure}{\numberline {L.5}{\ignorespaces Bloc suspendu}}{218}}
\newlabel{blocsuspendu}{{L.5}{218}}
\@writefile{toc}{\contentsline {subsection}{\numberline {L.1.10}Relatifs \IeC {\`a} l'\IeC {\'e}nergie}{218}}
\newlabel{helico}{{54}{218}}
\@writefile{toc}{\contentsline {subsection}{\numberline {L.1.11}Relatifs \IeC {\`a} la conservation de l'\IeC {\'e}nergie}{218}}
\@writefile{toc}{\contentsline {subsection}{\numberline {L.1.12}Relatifs \IeC {\`a} l'\IeC {\'e}nergie hydraulique}{219}}
\@writefile{toc}{\contentsline {subsection}{\numberline {L.1.13}Relatifs \IeC {\`a} l'\IeC {\'e}nergie \IeC {\'e}olienne}{219}}
\@writefile{toc}{\contentsline {subsection}{\numberline {L.1.14}Relatifs \IeC {\`a} l'\IeC {\'e}nergie solaire}{219}}
\@writefile{toc}{\contentsline {section}{\numberline {L.2}Solutions}{220}}
\@writefile{lof}{\contentsline {figure}{\numberline {L.6}{\ignorespaces Graphes horaires du MRU.\relax }}{223}}
\newlabel{graphesmru}{{L.6}{223}}
\@writefile{lof}{\contentsline {figure}{\numberline {L.7}{\ignorespaces Chute aristot\IeC {\'e}licienne de la tour Eiffel.\relax }}{226}}
\newlabel{eiffelmecanique}{{L.7}{226}}
\@writefile{lof}{\contentsline {figure}{\numberline {L.8}{\ignorespaces Une fus\IeC {\'e}e.\relax }}{226}}
\newlabel{fusee}{{L.8}{226}}
\@writefile{lof}{\contentsline {figure}{\numberline {L.9}{\ignorespaces Une remorque\relax }}{227}}
\newlabel{remorque}{{L.9}{227}}
\@writefile{lof}{\contentsline {figure}{\numberline {L.10}{\ignorespaces Un ascenseur\relax }}{230}}
\newlabel{ascenseur}{{L.10}{230}}
\@writefile{toc}{\contentsline {section}{\numberline {L.3}Solutions OS}{235}}
\@writefile{lof}{\contentsline {figure}{\numberline {L.11}{\ignorespaces Force inclin\IeC {\'e}e}}{235}}
\newlabel{forceinclinee}{{L.11}{235}}
\@writefile{lof}{\contentsline {figure}{\numberline {L.12}{\ignorespaces Lampe suspendue}}{236}}
\newlabel{lampe}{{L.12}{236}}
\@writefile{lof}{\contentsline {figure}{\numberline {L.13}{\ignorespaces Plan inclin\IeC {\'e}}}{237}}
\newlabel{incline}{{L.13}{237}}
\@writefile{lof}{\contentsline {figure}{\numberline {L.14}{\ignorespaces Corde poulie}}{240}}
\newlabel{cordepoulie}{{L.14}{240}}
\@writefile{lof}{\contentsline {figure}{\numberline {L.15}{\ignorespaces Corde tir\IeC {\'e}e poulie}}{240}}
\newlabel{cordepoulietiree}{{L.15}{240}}
\@writefile{lof}{\contentsline {figure}{\numberline {L.16}{\ignorespaces Corde tir\IeC {\'e}e poulie juste}}{240}}
\newlabel{cordepoulietireejuste}{{L.16}{240}}
\@writefile{lof}{\contentsline {figure}{\numberline {L.17}{\ignorespaces Frottements}}{243}}
\newlabel{inclinefrottement}{{L.17}{243}}
\@writefile{lof}{\contentsline {figure}{\numberline {L.18}{\ignorespaces Forces sur bloc suspendu}}{244}}
\newlabel{blocsuspenduforces}{{L.18}{244}}
\@setckpt{Annexe-Exercices/Annexe-Exercices}{
\setcounter{page}{246}
\setcounter{equation}{0}
\setcounter{enumi}{2}
\setcounter{enumii}{0}
\setcounter{enumiii}{0}
\setcounter{enumiv}{0}
\setcounter{footnote}{2}
\setcounter{mpfootnote}{0}
\setcounter{part}{0}
\setcounter{chapter}{12}
\setcounter{section}{3}
\setcounter{subsection}{0}
\setcounter{subsubsection}{0}
\setcounter{paragraph}{0}
\setcounter{subparagraph}{0}
\setcounter{figure}{18}
\setcounter{table}{0}
\setcounter{NAT@ctr}{0}
\setcounter{parentequation}{0}
\setcounter{FancyVerbLine}{0}
\setcounter{float@type}{8}
\setcounter{fignum}{1}
\setcounter{r@tfl@t}{4}
\setcounter{subfigure}{0}
\setcounter{lofdepth}{1}
\setcounter{subtable}{0}
\setcounter{lotdepth}{1}
\setcounter{ContinuedFloat}{0}
\setcounter{endnote}{113}
\setcounter{OptionTest}{0}
\setcounter{DefaultLines}{2}
\setcounter{DefaultDepth}{0}
\setcounter{L@lines}{3}
\setcounter{L@depth}{0}
\setcounter{lstnumber}{1}
\setcounter{Solution}{71}
\setcounter{exc}{71}
\setcounter{Solution OS}{20}
\setcounter{exosc}{20}
\setcounter{lstlisting}{0}
}
