\relax 
\@writefile{toc}{\contentsline {chapter}{\numberline {M}Ordre de grandeur, erreur et incertitudes}{247}}
\@writefile{lof}{\addvspace {10\p@ }}
\@writefile{lot}{\addvspace {10\p@ }}
\@writefile{toc}{\contentsline {section}{\numberline {M.1}Ordre de grandeur}{247}}
\@writefile{toc}{\contentsline {subsection}{\numberline {M.1.1}Chiffres significatifs}{247}}
\@writefile{toc}{\contentsline {subsection}{\numberline {M.1.2}Ordre de grandeur}{247}}
\@writefile{toc}{\contentsline {section}{\numberline {M.2}\IeC {\'E}cart et erreur}{248}}
\@writefile{lot}{\contentsline {table}{\numberline {M.1}{\ignorespaces La longueur des baguettes de pain\relax }}{248}}
\newlabel{baguettepain}{{M.1}{248}}
\@writefile{lot}{\contentsline {table}{\numberline {M.2}{\ignorespaces La longueur d'autres baguettes de pain\relax }}{249}}
\newlabel{baguettepain2}{{M.2}{249}}
\@writefile{lot}{\contentsline {table}{\numberline {M.3}{\ignorespaces Des centaines de baguettes de pain\relax }}{249}}
\newlabel{enclassementbaguettes}{{M.3}{249}}
\@writefile{lof}{\contentsline {figure}{\numberline {M.1}{\ignorespaces Baguettes d'une ann\IeC {\'e}e\relax }}{250}}
\newlabel{baguettesgauss}{{M.1}{250}}
\@writefile{toc}{\contentsline {section}{\numberline {M.3}Incertitude}{250}}
\@writefile{toc}{\contentsline {subsection}{\numberline {M.3.1}Addition/soustraction}{250}}
\@writefile{toc}{\contentsline {subsection}{\numberline {M.3.2}Multiplication par un entier}{251}}
\@writefile{toc}{\contentsline {subsection}{\numberline {M.3.3}Multiplication/division}{251}}
\@writefile{toc}{\contentsline {subsection}{\numberline {M.3.4}Puissance}{252}}
\@writefile{toc}{\contentsline {subsection}{\numberline {M.3.5}R\IeC {\'e}sum\IeC {\'e}}{252}}
\@writefile{toc}{\contentsline {subsection}{\numberline {M.3.6}Exemples}{253}}
\@setckpt{Annexe-Incertitudes/Annexe-Incertitudes}{
\setcounter{page}{254}
\setcounter{equation}{1}
\setcounter{enumi}{3}
\setcounter{enumii}{0}
\setcounter{enumiii}{0}
\setcounter{enumiv}{0}
\setcounter{footnote}{1}
\setcounter{mpfootnote}{0}
\setcounter{part}{0}
\setcounter{chapter}{13}
\setcounter{section}{3}
\setcounter{subsection}{6}
\setcounter{subsubsection}{0}
\setcounter{paragraph}{0}
\setcounter{subparagraph}{0}
\setcounter{figure}{1}
\setcounter{table}{3}
\setcounter{NAT@ctr}{0}
\setcounter{parentequation}{0}
\setcounter{FancyVerbLine}{0}
\setcounter{float@type}{8}
\setcounter{fignum}{2}
\setcounter{r@tfl@t}{4}
\setcounter{subfigure}{0}
\setcounter{lofdepth}{1}
\setcounter{subtable}{0}
\setcounter{lotdepth}{1}
\setcounter{ContinuedFloat}{0}
\setcounter{endnote}{113}
\setcounter{OptionTest}{0}
\setcounter{DefaultLines}{2}
\setcounter{DefaultDepth}{0}
\setcounter{L@lines}{3}
\setcounter{L@depth}{0}
\setcounter{lstnumber}{1}
\setcounter{Solution}{71}
\setcounter{exc}{71}
\setcounter{Solution OS}{20}
\setcounter{exosc}{20}
\setcounter{lstlisting}{0}
}
