%!PS-Adobe-3.0 EPSF-3.0
%%Creator: cairo 1.14.8 (http://cairographics.org)
%%CreationDate: Mon Mar 25 22:41:55 2019
%%Pages: 1
%%DocumentData: Clean7Bit
%%LanguageLevel: 2
%%BoundingBox: 0 -1 118 94
%%EndComments
%%BeginProlog
save
50 dict begin
/q { gsave } bind def
/Q { grestore } bind def
/cm { 6 array astore concat } bind def
/w { setlinewidth } bind def
/J { setlinecap } bind def
/j { setlinejoin } bind def
/M { setmiterlimit } bind def
/d { setdash } bind def
/m { moveto } bind def
/l { lineto } bind def
/c { curveto } bind def
/h { closepath } bind def
/re { exch dup neg 3 1 roll 5 3 roll moveto 0 rlineto
      0 exch rlineto 0 rlineto closepath } bind def
/S { stroke } bind def
/f { fill } bind def
/f* { eofill } bind def
/n { newpath } bind def
/W { clip } bind def
/W* { eoclip } bind def
/BT { } bind def
/ET { } bind def
/pdfmark where { pop globaldict /?pdfmark /exec load put }
    { globaldict begin /?pdfmark /pop load def /pdfmark
    /cleartomark load def end } ifelse
/BDC { mark 3 1 roll /BDC pdfmark } bind def
/EMC { mark /EMC pdfmark } bind def
/cairo_store_point { /cairo_point_y exch def /cairo_point_x exch def } def
/Tj { show currentpoint cairo_store_point } bind def
/TJ {
  {
    dup
    type /stringtype eq
    { show } { -0.001 mul 0 cairo_font_matrix dtransform rmoveto } ifelse
  } forall
  currentpoint cairo_store_point
} bind def
/cairo_selectfont { cairo_font_matrix aload pop pop pop 0 0 6 array astore
    cairo_font exch selectfont cairo_point_x cairo_point_y moveto } bind def
/Tf { pop /cairo_font exch def /cairo_font_matrix where
      { pop cairo_selectfont } if } bind def
/Td { matrix translate cairo_font_matrix matrix concatmatrix dup
      /cairo_font_matrix exch def dup 4 get exch 5 get cairo_store_point
      /cairo_font where { pop cairo_selectfont } if } bind def
/Tm { 2 copy 8 2 roll 6 array astore /cairo_font_matrix exch def
      cairo_store_point /cairo_font where { pop cairo_selectfont } if } bind def
/g { setgray } bind def
/rg { setrgbcolor } bind def
/d1 { setcachedevice } bind def
%%EndProlog
%%BeginSetup
%%EndSetup
%%Page: 1 1
%%BeginPageSetup
%%PageBoundingBox: 0 -1 118 94
%%EndPageSetup
q 0 -1 118 95 rectclip q
0 g
0.7515 w
0 J
0 j
[] 0.0 d
4 M q 1 0 0 -1 0 93.784142 cm
16.43 36.301 m 16.43 40.734 12.836 44.328 8.402 44.328 c 3.969 44.328 0.375
 40.734 0.375 36.301 c 0.375 34.172 1.223 32.129 2.727 30.625 c 4.23 29.121
 6.273 28.273 8.402 28.273 c 10.531 28.273 12.574 29.121 14.078 30.625 c
 15.586 32.129 16.43 34.172 16.43 36.301 c h
16.43 36.301 m S Q
q 1 0 0 -1 0 93.784142 cm
70.016 36.301 m 70.016 40.734 66.422 44.328 61.988 44.328 c 57.559 44.328
 53.961 40.734 53.961 36.301 c 53.961 34.172 54.809 32.129 56.312 30.625
 c 57.82 29.121 59.859 28.273 61.988 28.273 c 64.117 28.273 66.16 29.121
 67.668 30.625 c 69.172 32.129 70.016 34.172 70.016 36.301 c h
70.016 36.301 m S Q
q 1 0 0 -1 0 93.784142 cm
78.914 49.75 m 78.914 51.883 78.066 53.922 76.562 55.43 c 75.055 56.934
 73.016 57.777 70.887 57.777 c 66.453 57.777 62.859 54.184 62.859 49.75 
c 62.859 45.32 66.453 41.727 70.887 41.727 c 75.32 41.727 78.914 45.32 78.914
 49.75 c h
78.914 49.75 m S Q
q 1 0 0 -1 0 93.784142 cm
98.438 79.039 m 98.438 83.473 94.844 87.066 90.41 87.066 c 85.977 87.066
 82.383 83.473 82.383 79.039 c 82.383 76.91 83.23 74.871 84.734 73.363 c
 86.238 71.859 88.281 71.012 90.41 71.012 c 92.539 71.012 94.582 71.859 
96.086 73.363 c 97.594 74.871 98.438 76.91 98.438 79.039 c h
98.438 79.039 m S Q
q 1 0 0 -1 0 93.784142 cm
110.152 10.051 m 110.152 14.484 106.559 18.078 102.125 18.078 c 97.691 
18.078 94.098 14.484 94.098 10.051 c 94.098 7.922 94.945 5.879 96.449 4.375
 c 97.957 2.867 99.996 2.023 102.125 2.023 c 104.254 2.023 106.297 2.867
 107.801 4.375 c 109.309 5.879 110.152 7.922 110.152 10.051 c h
110.152 10.051 m S Q
0.75 w
[ 2.25 2.25] 0 d
q 1 0 0 -1 0 93.784142 cm
7.754 36.52 m 62.426 36.52 l S Q
[] 0.0 d
q 1 0 0 -1 0 93.784142 cm
62.426 36.52 m 71.102 49.75 l S Q
[ 2.25 2.25] 0 d
q 1 0 0 -1 0 93.784142 cm
62.426 36.52 m 90.629 79.582 l S Q
[] 0.0 d
q 1 0 0 -1 0 93.784142 cm
90.629 79.582 m 99.305 92.816 l S Q
98.672 5.245 m 99.855 0.14 l 95.648 3.261 l 96.973 3.19 98.191 3.995 98.672
 5.245 c h
98.672 5.245 m f*
0.235194 w
1 j
q -0.655738 1 1 0.655738 0 93.784142 cm
-107.163 28.401 m -111.276 26.888 l -107.164 25.377 l -107.82 26.271 -107.817
 27.492 -107.163 28.401 c h
-107.163 28.401 m S Q
0.75 w
0 j
q 1 0 0 -1 0 93.784142 cm
7.754 36.52 m 29.012 36.52 l S Q
25.09 59.081 m 30.008 57.272 l 25.09 55.464 l 25.875 56.534 25.871 57.995
 25.09 59.081 c h
25.09 59.081 m f*
0.28125 w
1 j
q -1 -0.000000133324 -0.000000133324 1 0 93.784142 cm
-25.09 -34.703 m -30.008 -36.512 l -25.09 -38.32 l -25.875 -37.25 -25.871
 -35.789 -25.09 -34.703 c h
-25.09 -34.703 m S Q
0.75 w
0 j
[ 2.25 2.25] 0 d
q 1 0 0 -1 0 93.784142 cm
62.426 36.52 m 102.344 10.375 l S Q
[] 0.0 d
q 1 0 0 -1 0 93.784142 cm
102.344 10.375 m 116.66 1.48 l S Q
112.371 91.776 m 117.5 92.835 l 114.281 88.702 l 114.383 90.026 113.609
 91.265 112.371 91.776 c h
112.371 91.776 m f*
0.238905 w
1 j
q -1 -0.621213 -0.621213 1 0 93.784142 cm
-80.181 -51.818 m -84.357 -53.353 l -80.182 -54.892 l -80.849 -53.982 -80.846
 -52.742 -80.181 -51.818 c h
-80.181 -51.818 m S Q
67.848 56.507 m 67.848 55.968 67.41 55.53 66.871 55.53 c 66.332 55.53 65.895
 55.968 65.895 56.507 c 65.895 57.046 66.332 57.483 66.871 57.483 c 67.41
 57.483 67.848 57.046 67.848 56.507 c h
67.848 56.507 m f
0.75 w
0 j
q 1 0 0 -1 0 93.784142 cm
67.848 37.277 m 67.848 37.816 67.41 38.254 66.871 38.254 c 66.332 38.254
 65.895 37.816 65.895 37.277 c 65.895 36.738 66.332 36.301 66.871 36.301
 c 67.41 36.301 67.848 36.738 67.848 37.277 c h
67.848 37.277 m S Q
Q Q
showpage
%%Trailer
end restore
%%EOF
