%!PS-Adobe-3.0 EPSF-3.0
%%Creator: inkscape 0.46
%%Pages: 1
%%Orientation: Portrait
%%BoundingBox: 13 507 155 793
%%HiResBoundingBox: 13.033673 507.7576 154.8191 792.8559
%%EndComments
%%Page: 1 1
0 800 translate
0.8 -0.8 scale
0 0 0 setrgbcolor
[] 0 setdash
1 setlinewidth
0 setlinejoin
0 setlinecap
gsave [2.1367521 0 0 2.1367521 -2.7755576e-17 44.871795] concat
gsave [0.459367 0 0 0.459367 -271.977 84.3806] concat
0 0 0 setrgbcolor
[] 0 setdash
0.62274384 setlinewidth
0 setlinejoin
0 setlinecap
newpath
724.36214 -173.10733 moveto
723.69927 -172.79538 722.52949 -172.09352 721.78863 -171.54762 curveto
720.96978 -170.92374 719.99497 -170.5728 719.05914 -170.5728 curveto
716.99253 -170.5728 715.43283 -169.63698 714.10707 -167.57037 curveto
713.48319 -166.55656 712.46938 -165.54275 711.80651 -165.2698 curveto
710.2468 -164.60693 709.03803 -162.57931 709.11602 -160.62968 curveto
709.15501 -159.77184 708.88206 -158.29012 708.53113 -157.35429 curveto
707.75127 -155.28768 707.71228 -152.90913 708.45314 -151.54439 curveto
709.11602 -150.21864 709.81788 -148.19102 710.2468 -146.39736 curveto
710.87068 -143.86284 712.27442 -140.3535 712.97629 -139.57365 curveto
714.26305 -138.09193 715.0429 -134.81654 714.80894 -131.73612 curveto
714.69196 -130.17642 714.38002 -128.53873 714.14607 -128.07081 curveto
713.91211 -127.6029 712.74233 -126.78406 711.57255 -126.27715 curveto
709.58393 -125.41931 708.18019 -124.60047 704.74884 -122.33889 curveto
703.891 -121.754 702.05835 -121.20811 699.87476 -120.81818 curveto
695.81952 -120.15531 693.47996 -119.1025 689.89264 -116.37302 curveto
687.94301 -114.93029 686.8902 -113.76051 685.99337 -112.08383 curveto
685.01856 -110.32916 684.35568 -109.62729 683.1859 -109.08139 curveto
682.36706 -108.73046 681.04131 -107.91161 680.30045 -107.32672 curveto
679.52059 -106.70284 678.66276 -106.27392 678.31182 -106.31291 curveto
676.16723 -106.74183 676.16723 -121.05214 678.31182 -128.26578 curveto
678.9357 -130.2934 679.55959 -131.46317 680.76836 -132.74993 curveto
681.70418 -133.72475 683.1859 -135.98632 684.12173 -137.74099 curveto
685.21352 -139.92458 686.34431 -141.44529 687.47509 -142.34212 curveto
689.22976 -143.78485 689.73667 -144.72068 689.38573 -145.69549 curveto
688.99581 -146.63132 687.31912 -147.21621 685.72043 -146.94326 curveto
683.80979 -146.59232 682.99094 -146.1634 681.31426 -144.52571 curveto
680.49541 -143.74586 679.71556 -143.27795 679.55959 -143.43392 curveto
679.36462 -143.58989 679.20865 -147.09923 679.16966 -151.19346 curveto
679.13067 -155.48265 678.9357 -159.18695 678.66276 -159.81083 curveto
678.31182 -160.78565 678.11686 -160.90263 676.98607 -160.70766 curveto
675.7773 -160.5127 675.66032 -160.62968 675.30939 -161.72147 curveto
675.03644 -162.69629 674.7245 -162.96924 673.98364 -162.96924 curveto
673.24278 -162.96924 672.81386 -162.6183 672.18998 -161.37054 curveto
671.44911 -159.88882 671.33214 -159.81083 670.55228 -160.35673 curveto
669.22653 -161.21457 668.21272 -160.59068 666.92597 -158.01717 curveto
665.83417 -155.83358 665.7172 -155.7166 665.05432 -156.30149 curveto
662.5198 -158.60206 660.45319 -154.31287 661.11606 -148.03505 curveto
661.31103 -146.1634 661.66196 -142.53709 661.85692 -139.96357 curveto
662.12987 -136.84416 662.55879 -134.27065 663.22167 -132.24303 curveto
663.76756 -130.56634 664.23547 -128.73369 664.23547 -128.1488 curveto
664.23547 -127.56391 663.68958 -124.21054 663.06569 -120.66221 curveto
660.68714 -107.59967 660.18024 -96.09684 661.66196 -88.103347 curveto
662.44181 -83.970126 662.94872 -82.527398 663.80656 -82.098478 curveto
664.74238 -81.591574 670.90322 -80.49978 672.77486 -80.49978 curveto
673.78867 -80.49978 675.81629 -81.045677 677.84391 -81.864523 curveto
679.67656 -82.605383 682.36706 -83.580199 683.77079 -84.009118 curveto
688.21595 -85.334868 690.59451 -86.621626 692.46615 -88.571259 curveto
693.44097 -89.585067 694.3378 -90.286935 694.49377 -90.130965 curveto
694.64974 -90.013987 694.8837 -88.259317 695.07866 -86.270692 curveto
695.50758 -81.318625 696.13146 -77.731302 697.06729 -74.260956 curveto
697.49621 -72.662257 697.88613 -70.049749 697.88613 -68.412058 curveto
697.92512 -65.877536 697.73016 -64.902719 696.28743 -61.003454 curveto
694.53276 -56.168366 694.06485 -53.477873 693.51896 -44.041651 curveto
693.285 -40.337349 693.01205 -38.504695 692.42716 -37.217937 curveto
691.99824 -36.243121 691.33537 -33.825577 690.90645 -31.836951 curveto
690.20458 -28.327613 690.20458 -28.015672 690.86745 -20.919009 curveto
691.25738 -16.902766 691.84227 -8.5583387 692.11522 -2.3195145 curveto
692.62212 7.7405895 692.81709 9.5342514 693.8309 13.862436 curveto
694.49377 16.552929 695.19564 20.062267 695.4296 21.660966 curveto
695.66355 23.259665 696.20945 25.98915 696.67736 27.704827 curveto
697.61318 31.175173 697.69117 32.695886 697.10628 37.842916 curveto
696.87232 39.870534 696.83333 43.145917 697.02829 45.641446 curveto
697.57419 53.829903 697.96412 56.715359 699.56282 64.942808 curveto
702.37029 79.370089 702.8382 82.294538 702.8382 85.179994 curveto
702.79921 88.767318 701.98036 90.288032 697.92512 94.343267 curveto
694.25982 98.008577 692.58313 99.256341 691.37436 99.256341 curveto
688.95682 99.256341 685.91539 102.92165 685.3305 106.58696 curveto
684.86259 109.58939 685.25251 111.03212 687.04618 112.70881 curveto
689.11279 114.65844 692.93407 115.04837 694.68873 113.44967 curveto
695.03967 113.13773 696.20945 112.78679 697.30124 112.7478 curveto
700.53763 112.51384 701.94137 111.53903 703.77402 108.34163 curveto
706.46452 103.62352 707.0884 103.1946 713.17125 101.82986 curveto
715.31585 101.36194 716.7735 100.93736 717.82678 98.749437 curveto
718.45528 97.443904 717.88936 94.226289 717.88936 94.226289 curveto
717.73339 91.73076 717.38246 87.051642 717.07052 83.854244 curveto
716.0957 73.482199 716.01771 70.440772 716.68059 67.087404 curveto
717.92835 60.770595 718.43526 57.690175 718.43526 56.442411 curveto
718.43526 55.740543 718.78619 53.361991 719.2541 51.217395 curveto
720.93079 43.028939 720.77482 37.881909 718.63022 31.097187 curveto
717.46044 27.431878 717.46044 27.236915 718.47425 23.376643 curveto
719.2541 20.608164 719.33209 19.165436 719.41008 8.9883543 curveto
719.48806 0.21500781 719.64403 -2.9044043 720.15094 -4.9710148 curveto
720.50187 -6.4527355 720.77482 -8.4803534 720.77482 -9.5721476 curveto
720.77482 -10.624949 720.93079 -11.482787 721.08676 -11.482787 curveto
721.3987 -11.482787 722.84143 -6.8816547 724.16718 -1.7346247 curveto
724.47912 -0.48685991 724.94703 5.2060671 725.29797 12.107766 curveto
725.92185 24.936349 726.54573 30.239349 727.7935 33.163798 curveto
728.22241 34.177607 728.49536 35.347386 728.37839 35.659328 curveto
727.71551 37.336012 727.01364 42.989946 727.01364 46.73324 curveto
727.01364 50.983439 727.91047 56.169462 729.19723 59.561823 curveto
729.66514 60.731602 729.8991 62.681235 729.93809 65.917625 curveto
730.01608 69.037037 730.28903 71.649544 730.79593 73.716155 curveto
732.27765 79.643038 732.47261 81.904612 732.04369 89.157245 curveto
731.80974 93.095502 731.30283 97.267716 730.87391 99.100371 curveto
730.445 100.85504 730.34735 101.86525 730.62914 102.89478 curveto
730.96336 103.93185 731.57578 104.63733 732.78455 105.69013 curveto
732.78455 105.69013 733.95409 106.43099 734.50974 107.67875 curveto
735.06538 108.92652 735.00714 110.68119 735.00714 110.68119 curveto
735.12411 113.83959 735.67001 115.24333 737.19072 116.02318 curveto
737.61964 116.25714 738.32151 117.23195 738.71144 118.16778 curveto
739.88122 120.89726 742.6497 122.10603 744.98925 120.93626 curveto
745.69112 120.58532 746.62695 120.31237 747.09486 120.31237 curveto
748.22564 120.31237 750.6042 117.69987 751.61801 115.36031 curveto
752.55383 113.13773 752.55383 112.98175 751.30606 110.29126 curveto
750.76017 109.0435 749.70737 106.78192 749.0055 105.3002 curveto
748.30363 103.77949 747.64075 102.1418 747.48478 101.5959 curveto
747.32881 101.05 746.50997 99.217349 745.65213 97.540665 curveto
744.17041 94.460245 lineto
744.52134 89.352208 lineto
744.7553 86.193803 745.2622 82.76245 745.92508 80.344906 curveto
747.71874 73.365221 749.66837 63.110154 750.44823 56.364425 curveto
751.07211 50.788476 750.0583 40.923335 748.22564 35.191416 curveto
747.32881 32.344952 747.28982 31.955026 747.67975 28.757628 curveto
747.9137 26.885981 748.10867 23.532613 748.14766 21.349025 curveto
748.14766 18.151627 748.26464 17.059833 748.84953 16.085017 curveto
749.62938 14.759267 751.73498 6.453832 752.1639 3.0224787 curveto
752.39786 1.306802 752.78778 0.52694902 754.3085 -1.3057056 curveto
755.32231 -2.5534704 756.57007 -4.3081397 757.03798 -5.282956 curveto
757.54489 -6.2187796 758.36373 -7.622515 758.87064 -8.4023681 curveto
759.88445 -9.9230815 760.89826 -15.34306 760.93725 -19.125347 curveto
760.93725 -20.217141 761.2102 -21.971811 761.52214 -23.063605 curveto
761.83408 -24.155399 762.53595 -27.352796 763.08184 -30.160267 curveto
763.58875 -32.967738 764.3686 -36.477077 764.79752 -37.919805 curveto
766.47421 -43.88568 767.99492 -50.94335 768.34585 -54.76463 curveto
768.81376 -59.092814 768.46283 -62.56316 766.98111 -68.996948 curveto
766.47421 -71.063558 766.35723 -73.052183 766.5132 -77.185404 curveto
766.70816 -83.775162 766.24025 -90.442906 765.34342 -93.367355 curveto
764.9145 -94.888068 764.71954 -97.149642 764.68054 -100.97092 curveto
764.64155 -106.85881 764.68054 -106.62486 761.63912 -112.66872 curveto
760.6643 -114.54036 757.66187 -117.77675 756.10216 -118.5956 curveto
755.47828 -118.90754 753.72361 -119.33646 752.2029 -119.53142 curveto
750.6042 -119.72639 749.08348 -120.15531 748.61557 -120.54523 curveto
746.66594 -122.14393 741.51891 -126.23816 740.34913 -127.13499 curveto
739.64726 -127.68089 738.55547 -128.85067 737.89259 -129.70851 curveto
736.13792 -132.16504 736.29389 -135.5574 738.3605 -140.00257 curveto
738.78942 -140.8604 739.10136 -141.75723 739.10136 -142.03018 curveto
739.10136 -142.26414 739.68625 -142.88802 740.38812 -143.43392 curveto
741.71387 -144.44773 742.80567 -146.98225 742.41574 -148.03505 curveto
742.29876 -148.34699 742.72768 -149.71174 743.39056 -151.11547 curveto
745.14523 -154.89776 745.02825 -155.83358 741.83085 -162.30636 curveto
739.14036 -167.64835 738.12655 -169.0131 736.68382 -169.0131 curveto
736.33289 -169.0131 735.35807 -169.71497 734.57822 -170.5728 curveto
733.79836 -171.43064 732.39463 -172.48344 731.4978 -172.91236 curveto
729.58716 -173.84819 726.27278 -173.92617 724.36214 -173.10733 curveto
closepath
751.30606 -67.242278 moveto
752.2029 -64.551786 752.28088 -63.927903 752.08592 -59.248785 curveto
751.96894 -56.402321 752.08592 -52.152122 752.31987 -49.695585 curveto
753.06073 -42.364967 751.96894 -28.483583 750.76017 -29.692356 curveto
750.5652 -29.887319 750.25326 -33.279679 750.0583 -37.25693 curveto
749.74636 -42.793886 749.47341 -44.977475 748.88852 -46.732144 curveto
748.18665 -48.642784 748.14766 -49.266666 748.49859 -50.475438 curveto
748.9665 -51.996152 748.65456 -56.519299 747.64075 -63.226035 curveto
747.17284 -66.267462 747.17284 -66.618396 748.03068 -69.191911 curveto
748.88852 -71.960389 lineto
749.62938 -71.063558 lineto
750.01931 -70.556654 750.76017 -68.840977 751.30606 -67.242278 curveto
closepath
stroke
gsave [2.1769087 0 0 2.1769087 592.06909 -183.68886] concat
0 0 0 setrgbcolor
[] 0 setdash
0.82913387 setlinewidth
0 setlinejoin
0 setlinecap
newpath
8.0392637 -16.406136 moveto
90.154605 -16.406136 lineto
90.154605 149.54723 lineto
8.0392637 149.54723 lineto
8.0392637 -16.406136 lineto
closepath
stroke
grestore
gsave [2.1769087 0 0 2.1769087 592.06909 -183.68886] concat
gsave [1 0 0 -1 13.506313 2.519505] concat
gsave
/newlatin1font {findfont dup length dict copy dup /Encoding ISOLatin1Encoding put definefont} def
/BitstreamVeraSans-Roman-ISOLatin1 /BitstreamVeraSans-Roman newlatin1font
10 scalefont
setfont
0 0 0 setrgbcolor
newpath
0 0 moveto
(a>0) show
grestore
grestore
grestore
0 0 0 setrgbcolor
[] 0 setdash
1.8085494 setlinewidth
0 setlinejoin
0 setlinecap
newpath
726.60556 -61.803463 moveto
726.60556 17.973501 lineto
stroke
gsave [-4.4295222e-17 -0.72341976 0.72341976 -4.4295222e-17 726.60556 10.739303] concat
gsave
0 0 0 setrgbcolor
newpath
0 0 moveto
5 -5 lineto
-12.5 0 lineto
5 5 lineto
0 0 lineto
closepath
eofill
grestore
0 0 0 setrgbcolor
[] 0 setdash
1.25 setlinewidth
0 setlinejoin
0 setlinecap
newpath
0 0 moveto
5 -5 lineto
-12.5 0 lineto
5 5 lineto
0 0 lineto
closepath
stroke
grestore
gsave [2.1769087 0 0 2.1769087 592.06909 -183.68886] concat
gsave
0 0 0 setrgbcolor
newpath
63.438746 54.293705 moveto
63.438746 55.1974 62.705312 55.930834 61.801617 55.930834 curveto
60.897921 55.930834 60.164488 55.1974 60.164488 54.293705 curveto
60.164488 53.39001 60.897921 52.656576 61.801617 52.656576 curveto
62.705312 52.656576 63.438746 53.39001 63.438746 54.293705 curveto
closepath
eofill
grestore
0 0 0 setrgbcolor
[] 0 setdash
1 setlinewidth
0 setlinejoin
0 setlinecap
newpath
63.438746 54.293705 moveto
63.438746 55.1974 62.705312 55.930834 61.801617 55.930834 curveto
60.897921 55.930834 60.164488 55.1974 60.164488 54.293705 curveto
60.164488 53.39001 60.897921 52.656576 61.801617 52.656576 curveto
62.705312 52.656576 63.438746 53.39001 63.438746 54.293705 curveto
closepath
stroke
grestore
0 0 0 setrgbcolor
[] 0 setdash
2.1769087 setlinewidth
0 setlinejoin
0 setlinecap
newpath
726.60557 -67.723842 moveto
726.60557 -188.89577 lineto
stroke
gsave [-5.3317125e-17 0.87076349 -0.87076349 -5.3317125e-17 726.60557 -180.18814] concat
gsave
0 0 0 setrgbcolor
newpath
0 0 moveto
5 -5 lineto
-12.5 0 lineto
5 5 lineto
0 0 lineto
closepath
eofill
grestore
0 0 0 setrgbcolor
[] 0 setdash
1.25 setlinewidth
0 setlinejoin
0 setlinecap
newpath
0 0 moveto
5 -5 lineto
-12.5 0 lineto
5 5 lineto
0 0 lineto
closepath
stroke
grestore
gsave [2.1769087 0 0 2.1769087 592.06909 -183.68886] concat
gsave [1 0 0 -1 70.191902 25.030027] concat
gsave
/BitstreamVeraSans-Roman-ISOLatin1 findfont
10 scalefont
setfont
0 0 0 setrgbcolor
newpath
0 0 moveto
(R) show
grestore
grestore
grestore
gsave [1 0 0 -1 640.62695 38.747078] concat
gsave
/BitstreamVeraSans-Roman-ISOLatin1 findfont
21.769087 scalefont
setfont
0 0 0 setrgbcolor
newpath
0 0 moveto
(mg) show
grestore
grestore
0 0 0 setrgbcolor
[] 0 setdash
1.3570791 setlinewidth
0 setlinejoin
0 setlinecap
newpath
717.25039 -62.289609 moveto
717.25039 -20.219355 lineto
stroke
gsave [-3.3237755e-17 -0.54283166 0.54283166 -3.3237755e-17 717.25039 -25.647672] concat
gsave
0 0 0 setrgbcolor
newpath
0 0 moveto
5 -5 lineto
-12.5 0 lineto
5 5 lineto
0 0 lineto
closepath
eofill
grestore
0 0 0 setrgbcolor
[] 0 setdash
1.25 setlinewidth
0 setlinejoin
0 setlinecap
newpath
0 0 moveto
5 -5 lineto
-12.5 0 lineto
5 5 lineto
0 0 lineto
closepath
stroke
grestore
gsave [1 0 0 -1 649.98212 -32.976013] concat
gsave
/BitstreamVeraSans-Roman-ISOLatin1 findfont
21.769087 scalefont
setfont
0 0 0 setrgbcolor
newpath
0 0 moveto
(Fin) show
grestore
grestore
grestore
grestore
showpage
%%EOF
