%!PS-Adobe-3.0 EPSF-3.0
%%Creator: inkscape 0.44.1
%%Pages: 1
%%Orientation: Portrait
%%BoundingBox: 22 3 166 68
%%HiResBoundingBox: 22.839065 3.3348678 165.19624 67.448549
%%DocumentMedia: plain 171 86 0 () ()
%%EndComments
%%Page: 1 1
0 86 translate
0.8 -0.8 scale
gsave [1 0 0 1 0 0] concat
0 0 0 setrgbcolor
[0.8 0.8] 0 setdash
0.1 setlinewidth
0 setlinejoin
0 setlinecap
newpath
195.28389 66.844193 moveto
98.440052 41.801115 lineto
stroke
gsave
0.2 0.2 1 setrgbcolor
newpath
112.50831 66.583055 moveto
112.64032 86.758082 91.453483 101.39466 69.017362 101.68051 curveto
47.661452 101.95259 28.861272 84.604972 28.727225 66.005336 curveto
28.587661 46.500561 46.941784 29.622139 70.103855 29.622139 curveto
81.677122 29.622139 112.33142 39.370749 112.50831 66.583055 curveto
closepath
eofill
grestore
gsave
1 1 1 setrgbcolor
newpath
105.40372 65.790184 moveto
105.36537 63.961786 lineto
105.23479 62.156398 lineto
105.01963 60.381886 lineto
104.71225 58.630384 lineto
104.32049 56.909562 lineto
103.85183 55.219419 lineto
103.29114 53.567627 lineto
102.66889 51.96972 lineto
101.96975 50.39502 lineto
101.18623 48.86634 lineto
100.33349 47.375813 lineto
99.411523 45.939271 lineto
98.428196 44.541176 lineto
97.375839 43.204442 lineto
96.25406 41.913727 lineto
95.078787 40.699908 lineto
93.857299 39.524635 lineto
92.574254 38.418392 lineto
91.237715 37.358169 lineto
89.839424 36.367172 lineto
88.40298 35.445402 lineto
86.912453 34.59266 lineto
85.383773 33.801279 lineto
83.808877 33.10233 lineto
82.21097 32.464544 lineto
80.559374 31.911521 lineto
78.876902 31.442867 lineto
77.15608 31.05111 lineto
75.404577 30.743722 lineto
73.629869 30.528767 lineto
71.824677 30.398181 lineto
69.996279 30.374974 lineto
50.283523 30.374974 34.296789 46.35394 34.296789 66.074563 curveto
34.296789 85.786926 50.275853 101.77386 69.996279 101.77386 curveto
89.708839 101.77386 105.70324 85.794792 105.70324 66.074563 curveto
eofill
grestore
1 1 1 setrgbcolor
[] 0 setdash
0 setlinewidth
0 setlinejoin
0 setlinecap
newpath
105.40372 65.790184 moveto
105.36537 63.961786 lineto
105.23479 62.156398 lineto
105.01963 60.381886 lineto
104.71225 58.630384 lineto
104.32049 56.909562 lineto
103.85183 55.219419 lineto
103.29114 53.567627 lineto
102.66889 51.96972 lineto
101.96975 50.39502 lineto
101.18623 48.86634 lineto
100.33349 47.375813 lineto
99.411523 45.939271 lineto
98.428196 44.541176 lineto
97.375839 43.204442 lineto
96.25406 41.913727 lineto
95.078787 40.699908 lineto
93.857299 39.524635 lineto
92.574254 38.418392 lineto
91.237715 37.358169 lineto
89.839424 36.367172 lineto
88.40298 35.445402 lineto
86.912453 34.59266 lineto
85.383773 33.801279 lineto
83.808877 33.10233 lineto
82.21097 32.464544 lineto
80.559374 31.911521 lineto
78.876902 31.442867 lineto
77.15608 31.05111 lineto
75.404577 30.743722 lineto
73.629869 30.528767 lineto
71.824677 30.398181 lineto
69.996279 30.374974 lineto
50.283523 30.374974 34.296789 46.35394 34.296789 66.074563 curveto
34.296789 85.786926 50.275853 101.77386 69.996279 101.77386 curveto
89.708839 101.77386 105.70324 85.794792 105.70324 66.074563 curveto
105.63421 66.005336 lineto
105.54198 65.92077 lineto
105.40372 65.790184 lineto
closepath
stroke
0 0 0 setrgbcolor
[] 0 setdash
0.71352965 setlinewidth
0 setlinejoin
0 setlinecap
newpath
69.996279 30.374974 moveto
50.283696 30.292272 34.296789 46.35394 34.296789 66.074563 curveto
34.296789 85.786926 50.275853 101.77386 69.996279 101.77386 curveto
89.708839 101.77386 105.70324 85.794792 105.70324 66.074563 curveto
105.63421 66.005336 lineto
105.09802 46.300438 89.56713 30.509021 69.996279 30.374974 curveto
closepath
stroke
0 0 0 setrgbcolor
[] 0 setdash
0.3567884 setlinewidth
0 setlinejoin
0 setlinecap
newpath
40.373553 56.302456 moveto
40.212091 56.894025 lineto
40.058495 57.477925 lineto
39.920239 58.069494 lineto
39.789654 58.661064 lineto
39.659068 59.252437 lineto
39.551492 59.859543 lineto
39.443916 60.450916 lineto
39.367216 61.057825 lineto
39.29032 61.664734 lineto
39.221094 62.271644 lineto
39.167404 62.87875 lineto
39.129054 63.485463 lineto
39.098178 64.100042 lineto
39.075168 64.706951 lineto
39.075168 65.329201 lineto
39.075168 65.93611 lineto
39.075168 84.143 53.487005 99.062037 71.694091 99.699626 curveto
stroke
0 0 0 setrgbcolor
[] 0 setdash
0.3567884 setlinewidth
0 setlinejoin
0 setlinecap
newpath
40.81133 60.020808 moveto
40.742301 60.627718 lineto
40.680744 61.249967 lineto
40.627055 61.856876 lineto
40.588705 62.479126 lineto
40.550159 63.101375 lineto
40.527149 63.723624 lineto
40.527149 64.345874 lineto
40.527149 64.96832 lineto
40.527149 81.50788 52.419309 95.666412 68.720904 98.516487 curveto
stroke
0 0 0 setrgbcolor
[] 0 setdash
0.3567884 setlinewidth
0 setlinejoin
0 setlinecap
newpath
41.717958 66.689142 moveto
42.440113 79.41064 50.375759 90.626861 62.152673 95.574176 curveto
stroke
0 0 0 setrgbcolor
[] 0 setdash
0.71352965 setlinewidth
0 setlinejoin
0 setlinecap
newpath
195.66095 57.018158 moveto
189.30302 57.029807 185.32972 62.188071 185.32972 66.678954 curveto
185.32972 71.169838 189.88567 76.407166 195.49339 76.407166 curveto
201.10111 76.407166 205.91119 71.885935 205.85675 66.611931 curveto
205.80231 61.337927 202.01888 57.00651 195.66095 57.018158 curveto
closepath
stroke
0 0 0 setrgbcolor
[] 0 setdash
0.3567884 setlinewidth
0 setlinejoin
0 setlinecap
newpath
186.74335 64.44578 moveto
186.72781 64.553356 lineto
186.7048 64.660735 lineto
186.69713 64.768311 lineto
186.68179 64.875887 lineto
186.68179 64.983463 lineto
186.65878 65.068029 lineto
186.65878 65.175605 lineto
186.65878 65.282984 lineto
186.65111 65.390757 lineto
186.65111 65.498136 lineto
186.65111 65.605712 lineto
186.65111 65.713288 lineto
186.65111 65.820864 lineto
186.65111 65.92844 lineto
186.65111 66.036016 lineto
186.65111 66.143396 lineto
186.65111 70.660603 190.31558 74.348079 194.8558 74.348079 curveto
195.02473 74.348079 195.21688 74.348079 195.40115 74.332739 curveto
stroke
0 0 0 setrgbcolor
[] 0 setdash
0.3567884 setlinewidth
0 setlinejoin
0 setlinecap
newpath
188.1261 66.227962 moveto
188.17979 69.930778 191.19133 72.949985 194.91716 73.011541 curveto
stroke
0 0 0 setrgbcolor
[] 0 setdash
0.3567884 setlinewidth
0 setlinejoin
0 setlinecap
newpath
73.161412 30.137009 moveto
73.046166 30.129142 lineto
72.91558 30.129142 lineto
72.661882 30.129142 lineto
72.531296 30.129142 lineto
72.41605 30.129142 lineto
72.285464 30.129142 lineto
72.170218 30.129142 lineto
52.480668 30.129142 36.501605 46.092866 36.501605 65.797854 curveto
36.501605 85.487404 52.465329 101.47414 72.170218 101.47414 curveto
72.508286 101.47414 72.869364 101.47414 73.222772 101.45113 curveto
stroke
0 0 0 setrgbcolor
[] 0 setdash
0.3567884 setlinewidth
0 setlinejoin
0 setlinecap
newpath
70.507491 101.84906 moveto
47.58399 101.91338 28.727225 85.24232 28.727225 66.005336 curveto
28.727225 66.005336 lineto
28.727225 46.500062 46.941784 29.622139 70.103855 29.622139 curveto
70.103855 29.622139 lineto
88.826841 29.622139 112.48211 45.420135 112.54818 66.139383 curveto
112.54818 86.380468 89.542154 102.11716 70.507491 101.84906 curveto
closepath
stroke
gsave
0 0 0 setrgbcolor
newpath
51.333714 49.383526 moveto
51.11887 49.412823 lineto
51.047249 49.022203 50.990283 48.761787 50.947971 48.631573 curveto
50.830778 48.276761 50.672901 48.099353 50.474339 48.099346 curveto
48.609104 48.099346 lineto
48.609104 53.773174 lineto
48.609101 54.062888 48.716522 54.256573 48.93137 54.354229 curveto
49.07134 54.412823 49.302459 54.440492 49.624729 54.437237 curveto
49.624729 54.691143 lineto
46.67551 54.691143 lineto
46.67551 54.500713 lineto
47.372123 54.507224 47.72043 54.264711 47.720432 53.773174 curveto
47.720432 48.099346 lineto
45.879612 48.099346 lineto
45.563856 48.099353 45.35064 48.548571 45.239964 49.447002 curveto
45.083714 49.447002 lineto
45.239964 47.547588 lineto
45.327854 47.547588 lineto
45.458062 47.69408 45.61594 47.767322 45.801487 47.767315 curveto
50.474339 47.767315 lineto
50.663135 47.767322 50.847054 47.69408 51.026096 47.547588 curveto
51.089573 47.547588 lineto
51.333714 49.383526 lineto
fill
grestore
gsave
0 0 0 setrgbcolor
newpath
55.562229 53.489971 moveto
55.15858 54.349347 54.518932 54.779034 53.643284 54.779034 curveto
53.080131 54.779034 52.604871 54.533266 52.217503 54.041729 curveto
51.856174 53.582746 51.67551 53.065168 51.67551 52.488995 curveto
51.67551 51.834701 51.861057 51.284571 52.232151 50.838604 curveto
52.629285 50.363348 53.148491 50.125718 53.789768 50.125713 curveto
54.300833 50.125718 54.714244 50.28034 55.030003 50.589581 curveto
55.349009 50.898829 55.508514 51.310613 55.508518 51.824932 curveto
52.354221 51.824932 lineto
52.337945 51.961654 52.329807 52.101627 52.329807 52.244854 curveto
52.329807 52.729882 52.477918 53.175845 52.774143 53.582745 curveto
53.099663 54.035219 53.496798 54.261456 53.965549 54.261456 curveto
54.577526 54.261456 55.04302 53.986391 55.362034 53.43626 curveto
55.401096 53.43626 lineto
55.472707 53.433006 55.526418 53.45091 55.562229 53.489971 curveto
54.761448 51.546612 moveto
54.748424 51.214584 54.632864 50.944402 54.414768 50.736065 curveto
54.196667 50.524481 53.919974 50.418686 53.58469 50.418682 curveto
53.307996 50.418686 53.062228 50.540757 52.847385 50.784893 curveto
52.658582 50.99974 52.530002 51.253646 52.461643 51.546612 curveto
54.761448 51.546612 lineto
fill
grestore
gsave
0 0 0 setrgbcolor
newpath
59.414768 50.330791 moveto
59.404999 50.516343 59.304088 50.766993 59.112034 51.082745 curveto
58.708385 50.874415 58.430065 50.770249 58.277073 50.770245 curveto
58.081758 50.770249 57.909232 50.864649 57.759495 51.053448 curveto
57.645561 51.225977 57.533256 51.398503 57.422581 51.571026 curveto
57.422581 53.992901 lineto
57.422579 54.344464 57.642306 54.520245 58.08176 54.520245 curveto
58.124076 54.520245 58.184297 54.518617 58.262424 54.515362 curveto
58.340547 54.512107 58.395886 54.510479 58.42844 54.510479 curveto
58.447971 54.691143 lineto
56.030979 54.691143 lineto
56.030979 54.549541 lineto
56.489963 54.536521 56.719455 54.350974 56.719456 53.992901 curveto
56.719456 51.131573 lineto
56.719455 50.939519 56.48508 50.793035 56.016331 50.69212 curveto
56.016331 50.511456 lineto
56.302789 50.478908 56.708062 50.312892 57.232151 50.013409 curveto
57.422581 50.052471 lineto
57.422581 51.204815 lineto
57.813204 50.475652 58.161511 50.111069 58.467503 50.111065 curveto
58.62375 50.111069 58.939505 50.184312 59.414768 50.330791 curveto
fill
grestore
gsave
0 0 0 setrgbcolor
newpath
63.145237 50.330791 moveto
63.135468 50.516343 63.034557 50.766993 62.842503 51.082745 curveto
62.438854 50.874415 62.160534 50.770249 62.007542 50.770245 curveto
61.812227 50.770249 61.639701 50.864649 61.489964 51.053448 curveto
61.37603 51.225977 61.263725 51.398503 61.153049 51.571026 curveto
61.153049 53.992901 lineto
61.153048 54.344464 61.372774 54.520245 61.812229 54.520245 curveto
61.854545 54.520245 61.914766 54.518617 61.992893 54.515362 curveto
62.071016 54.512107 62.126354 54.510479 62.158909 54.510479 curveto
62.17844 54.691143 lineto
59.761448 54.691143 lineto
59.761448 54.549541 lineto
60.220432 54.536521 60.449924 54.350974 60.449924 53.992901 curveto
60.449924 51.131573 lineto
60.449924 50.939519 60.215549 50.793035 59.746799 50.69212 curveto
59.746799 50.511456 lineto
60.033257 50.478908 60.43853 50.312892 60.96262 50.013409 curveto
61.153049 50.052471 lineto
61.153049 51.204815 lineto
61.543673 50.475652 61.89198 50.111069 62.197971 50.111065 curveto
62.354219 50.111069 62.669974 50.184312 63.145237 50.330791 curveto
fill
grestore
gsave
0 0 0 setrgbcolor
newpath
67.359104 53.489971 moveto
66.955455 54.349347 66.315807 54.779034 65.440159 54.779034 curveto
64.877006 54.779034 64.401746 54.533266 64.014378 54.041729 curveto
63.653049 53.582746 63.472385 53.065168 63.472385 52.488995 curveto
63.472385 51.834701 63.657932 51.284571 64.029026 50.838604 curveto
64.42616 50.363348 64.945366 50.125718 65.586643 50.125713 curveto
66.097708 50.125718 66.511119 50.28034 66.826878 50.589581 curveto
67.145884 50.898829 67.305389 51.310613 67.305393 51.824932 curveto
64.151096 51.824932 lineto
64.13482 51.961654 64.126682 52.101627 64.126682 52.244854 curveto
64.126682 52.729882 64.274793 53.175845 64.571018 53.582745 curveto
64.896538 54.035219 65.293673 54.261456 65.762424 54.261456 curveto
66.374401 54.261456 66.839895 53.986391 67.158909 53.43626 curveto
67.197971 53.43626 lineto
67.269582 53.433006 67.323293 53.45091 67.359104 53.489971 curveto
66.558323 51.546612 moveto
66.545299 51.214584 66.429739 50.944402 66.211643 50.736065 curveto
65.993542 50.524481 65.716849 50.418686 65.381565 50.418682 curveto
65.104871 50.418686 64.859103 50.540757 64.64426 50.784893 curveto
64.455457 50.99974 64.326877 51.253646 64.258518 51.546612 curveto
66.558323 51.546612 lineto
fill
grestore
gsave
0 0 0 setrgbcolor
newpath
191.23651 83.559509 moveto
190.85077 85.253845 lineto
185.35272 85.253845 lineto
185.35272 85.073181 lineto
186.13072 85.063416 186.51971 84.842062 186.51971 84.409119 curveto
186.51971 79.155212 lineto
186.51971 78.858995 186.41229 78.66531 186.19745 78.574158 curveto
186.07375 78.525336 185.83124 78.500922 185.46991 78.500916 curveto
185.46991 78.330017 lineto
188.5705 78.330017 lineto
188.5705 78.486267 lineto
188.49725 78.481384 lineto
188.2466 78.478136 188.01548 78.526964 187.80389 78.627869 curveto
187.53696 78.754828 187.4035 78.932237 187.4035 79.160095 curveto
187.4035 84.321228 lineto
187.4035 84.682557 187.54185 84.863221 187.81854 84.86322 curveto
189.88397 84.86322 lineto
190.20298 84.863221 190.46828 84.716736 190.67987 84.423767 curveto
190.85239 84.189393 190.97121 83.894797 191.03632 83.539978 curveto
191.23651 83.559509 lineto
fill
grestore
gsave
0 0 0 setrgbcolor
newpath
196.58807 84.653259 moveto
196.57831 84.853455 lineto
195.09882 85.273376 lineto
195.09882 84.39447 lineto
194.49009 84.999939 193.82765 85.302673 193.11151 85.302673 curveto
192.40187 85.302673 192.04706 84.819275 192.04706 83.852478 curveto
192.04706 81.694275 lineto
192.04706 81.495711 191.9787 81.339461 191.84198 81.225525 curveto
191.70526 81.111597 191.53599 81.054631 191.33417 81.054626 curveto
191.31464 80.854431 lineto
192.76971 80.595642 lineto
192.76971 83.774353 lineto
192.76971 84.054302 192.85923 84.291932 193.03827 84.487244 curveto
193.22056 84.692322 193.45005 84.794861 193.72675 84.794861 curveto
194.00344 84.794861 194.46079 84.563742 195.09882 84.101501 curveto
195.09882 81.415955 lineto
195.09881 81.171818 194.78468 81.031844 194.15643 80.996033 curveto
194.15643 80.8349 lineto
195.79706 80.532166 lineto
195.79706 84.345642 lineto
195.79705 84.589783 195.93377 84.711854 196.20721 84.711853 curveto
196.27882 84.711854 196.40578 84.692322 196.58807 84.653259 curveto
fill
grestore
gsave
0 0 0 setrgbcolor
newpath
202.4035 85.253845 moveto
200.20135 85.253845 lineto
200.20135 85.034119 lineto
200.65057 85.034119 200.87518 84.814393 200.87518 84.374939 curveto
200.87518 82.153259 lineto
200.87518 81.87006 200.81659 81.627547 200.6994 81.42572 curveto
200.55617 81.184839 200.35272 81.064396 200.08905 81.064392 curveto
199.66913 81.064396 199.1548 81.284123 198.54608 81.723572 curveto
198.54608 84.511658 lineto
198.54608 84.830669 198.79673 85.004822 199.29803 85.034119 curveto
199.26874 85.253845 lineto
197.15936 85.253845 lineto
197.13983 85.214783 lineto
197.16913 85.063416 lineto
197.37421 85.063416 197.54022 84.980408 197.66718 84.814392 curveto
197.78436 84.664653 197.84296 84.483989 197.84296 84.2724 curveto
197.84296 81.58197 lineto
197.84296 81.464787 197.74042 81.372013 197.53534 81.30365 curveto
197.5093 81.293888 197.35305 81.258081 197.06659 81.196228 curveto
197.06659 81.074158 lineto
197.21307 81.054631 197.44582 80.976506 197.76483 80.839783 curveto
198.06431 80.709579 198.2645 80.603785 198.36542 80.5224 curveto
198.54608 80.654236 lineto
198.54608 81.533142 lineto
199.50637 80.927678 200.1688 80.624944 200.53339 80.624939 curveto
200.8882 80.624944 201.16326 80.786076 201.35858 81.108337 curveto
201.52459 81.378524 201.6076 81.700789 201.6076 82.075134 curveto
201.6076 84.614197 lineto
201.6076 84.881124 201.86313 85.014588 202.37421 85.014587 curveto
202.4035 85.253845 lineto
fill
grestore
gsave
0 0 0 setrgbcolor
newpath
206.4953 84.052673 moveto
206.09165 84.912049 205.452 85.341736 204.57635 85.341736 curveto
204.0132 85.341736 203.53794 85.095968 203.15057 84.604431 curveto
202.78925 84.145448 202.60858 83.62787 202.60858 83.051697 curveto
202.60858 82.397403 202.79413 81.847273 203.16522 81.401306 curveto
203.56236 80.92605 204.08156 80.68842 204.72284 80.688416 curveto
205.2339 80.68842 205.64732 80.843042 205.96307 81.152283 curveto
206.28208 81.461531 206.44159 81.873315 206.44159 82.387634 curveto
203.28729 82.387634 lineto
203.27102 82.524356 203.26288 82.66433 203.26288 82.807556 curveto
203.26288 83.292584 203.41099 83.738547 203.70721 84.145447 curveto
204.03273 84.597921 204.42987 84.824158 204.89862 84.824158 curveto
205.5106 84.824158 205.97609 84.549093 206.2951 83.998962 curveto
206.33417 83.998962 lineto
206.40578 83.995708 206.45949 84.013612 206.4953 84.052673 curveto
205.69452 82.109314 moveto
205.6815 81.777286 205.56594 81.507104 205.34784 81.298767 curveto
205.12974 81.087183 204.85305 80.981389 204.51776 80.981384 curveto
204.24107 80.981389 203.9953 81.103459 203.78046 81.347595 curveto
203.59165 81.562443 203.46307 81.816349 203.39471 82.109314 curveto
205.69452 82.109314 lineto
fill
grestore
0 0 0 setrgbcolor
[1.6 1.6] 0 setdash
0.2 setlinewidth
0 setlinejoin
0 setlinecap
newpath
69.972493 66.755368 moveto
195.44041 66.755368 lineto
stroke
gsave [0.16 0 0 0.16 71.156493 66.915368] concat
gsave
0 0 0 setrgbcolor
newpath
-2.5 -1 moveto
-2.5 1.76 -4.74 4 -7.5 4 curveto
-10.26 4 -12.5 1.76 -12.5 -1 curveto
-12.5 -3.76 -10.26 -6 -7.5 -6 curveto
-4.74 -6 -2.5 -3.76 -2.5 -1 curveto
closepath
eofill
grestore
0 0 0 setrgbcolor
[] 0 setdash
1.25 setlinewidth
0 setlinejoin
0 setlinecap
newpath
-2.5 -1 moveto
-2.5 1.76 -4.74 4 -7.5 4 curveto
-10.26 4 -12.5 1.76 -12.5 -1 curveto
-12.5 -3.76 -10.26 -6 -7.5 -6 curveto
-4.74 -6 -2.5 -3.76 -2.5 -1 curveto
closepath
stroke
grestore
gsave [0.080000001 0 0 0.080000001 196.03241 66.835368] concat
gsave
0 0 0 setrgbcolor
newpath
-2.5 -1 moveto
-2.5 1.76 -4.74 4 -7.5 4 curveto
-10.26 4 -12.5 1.76 -12.5 -1 curveto
-12.5 -3.76 -10.26 -6 -7.5 -6 curveto
-4.74 -6 -2.5 -3.76 -2.5 -1 curveto
closepath
eofill
grestore
0 0 0 setrgbcolor
[] 0 setdash
1.25 setlinewidth
0 setlinejoin
0 setlinecap
newpath
-2.5 -1 moveto
-2.5 1.76 -4.74 4 -7.5 4 curveto
-10.26 4 -12.5 1.76 -12.5 -1 curveto
-12.5 -3.76 -10.26 -6 -7.5 -6 curveto
-4.74 -6 -2.5 -3.76 -2.5 -1 curveto
closepath
stroke
grestore
0 0 0 setrgbcolor
[] 0 setdash
0.30000001 setlinewidth
0 setlinejoin
0 setlinecap
newpath
93.162611 85.655984 moveto
93.162611 22.385836 lineto
stroke
gsave [-1.1021458e-17 0.18000001 -0.18000001 -1.1021458e-17 93.162611 22.385836] concat
gsave
0 0 0 setrgbcolor
newpath
8.7185878 4.0337352 moveto
-2.2072895 0.016013256 lineto
8.7185884 -4.0017078 lineto
6.97309 -1.6296469 6.9831476 1.6157441 8.7185878 4.0337352 curveto
closepath
eofill
grestore
grestore
gsave
0 0 0 setrgbcolor
newpath
91.996544 63.820435 moveto
91.781694 64.44218 91.470822 64.954875 91.063927 65.358521 curveto
90.067828 65.518026 89.428181 65.597778 89.144981 65.597778 curveto
88.194458 65.597778 87.388795 65.298299 86.727989 64.699341 curveto
86.04765 64.080853 85.707481 63.301231 85.707481 62.360474 curveto
85.707481 61.318811 86.044395 60.435023 86.718224 59.709106 curveto
87.411581 58.966926 88.277466 58.595832 89.31588 58.595825 curveto
89.996214 58.595832 90.606565 58.721158 91.146935 58.971802 curveto
91.319455 59.049933 91.430132 59.088996 91.478966 59.088989 curveto
91.544064 59.088996 91.592892 59.064582 91.62545 59.015747 curveto
91.776817 59.025513 lineto
91.845177 60.500122 lineto
91.664513 60.500122 lineto
91.524533 59.979294 91.231564 59.569138 90.785606 59.269653 curveto
90.362424 58.983202 89.872516 58.839973 89.31588 58.839966 curveto
88.495564 58.839973 87.831503 59.175259 87.323692 59.845825 curveto
86.861451 60.457809 86.630332 61.186975 86.630333 62.033325 curveto
86.630332 62.915489 86.879355 63.677207 87.377403 64.318481 curveto
87.917765 65.015097 88.617635 65.363404 89.477013 65.363403 curveto
89.955524 65.363404 90.417763 65.207154 90.863731 64.894653 curveto
91.299924 64.588665 91.610796 64.211061 91.796349 63.761841 curveto
91.996544 63.820435 lineto
fill
grestore
gsave
0 0 0 setrgbcolor
newpath
68.744339 66.554062 moveto
68.744332 67.625028 68.420439 68.512071 67.772659 69.215195 curveto
67.105336 69.937851 66.241079 70.299179 65.179886 70.299179 curveto
64.138217 70.299179 63.285353 70.007838 62.621292 69.425156 curveto
61.921422 68.813178 61.571487 67.996121 61.571487 66.973984 curveto
61.571487 65.903025 61.892125 65.015981 62.533401 64.312851 curveto
63.197462 63.590201 64.060092 63.228874 65.121292 63.228867 curveto
66.162954 63.228874 67.019073 63.520214 67.689651 64.10289 curveto
68.39277 64.714875 68.744332 65.531931 68.744339 66.554062 curveto
67.758011 66.91539 moveto
67.758005 66.036488 67.536651 65.271515 67.093948 64.620468 curveto
66.589386 63.878287 65.917186 63.507194 65.077347 63.507187 curveto
64.2375 63.507194 63.59948 63.835969 63.163284 64.493515 curveto
62.792189 65.056671 62.606643 65.780954 62.606644 66.666367 curveto
62.606643 67.538765 62.823114 68.292345 63.256058 68.927109 curveto
63.750847 69.649766 64.414909 70.011093 65.248245 70.011093 curveto
66.094595 70.011093 66.739125 69.696966 67.181839 69.06871 curveto
67.565948 68.518582 67.758005 67.800809 67.758011 66.91539 curveto
fill
grestore
gsave [0.950494 0 0 0.517399 58.17176 14.84929] concat
gsave
1 1 1 setrgbcolor
newpath
41.017197 17.230203 moveto
43.310517 19.499308 43.13048 23.020067 40.615328 25.08904 curveto
38.100176 27.158014 34.197647 26.995589 31.904327 24.726484 curveto
30.356334 23.194837 29.884669 21.190079 30.609552 19.223193 curveto
eofill
grestore
0 0 0 setrgbcolor
[] 0 setdash
0.2 setlinewidth
0 setlinejoin
1 setlinecap
newpath
41.017197 17.230203 moveto
43.310517 19.499308 43.13048 23.020067 40.615328 25.08904 curveto
38.100176 27.158014 34.197647 26.995589 31.904327 24.726484 curveto
30.356334 23.194837 29.884669 21.190079 30.609552 19.223193 curveto
stroke
gsave [0.056867988 0.056267505 -0.056267505 0.056867988 41.585877 17.792879] concat
gsave
0 0 0 setrgbcolor
newpath
0 0 moveto
5 -5 lineto
-12.5 0 lineto
5 5 lineto
0 0 lineto
closepath
eofill
grestore
0 0 0 setrgbcolor
[] 0 setdash
1.25 setlinewidth
0 setlinejoin
0 setlinecap
newpath
0 0 moveto
5 -5 lineto
-12.5 0 lineto
5 5 lineto
0 0 lineto
closepath
stroke
grestore
grestore
gsave
0 0 0 setrgbcolor
newpath
87.184219 30.026506 moveto
79.889297 30.026506 lineto
79.982071 29.855608 lineto
80.317357 29.832822 80.545221 29.757952 80.665665 29.630999 curveto
80.730768 29.559384 80.836562 29.342913 80.983047 28.981585 curveto
83.380508 22.96596 lineto
83.756485 22.96596 lineto
86.217422 29.010881 lineto
86.331348 29.287575 86.442025 29.474749 86.549454 29.572405 curveto
86.673145 29.686337 86.874968 29.769345 87.154922 29.821428 curveto
87.184219 30.026506 lineto
85.392227 29.406389 moveto
85.392222 29.328265 85.32549 29.124815 85.192032 28.796038 curveto
83.321915 24.274553 lineto
81.603165 28.512835 lineto
81.437148 28.922992 81.35414 29.198057 81.354141 29.33803 curveto
81.35414 29.56915 81.492486 29.68471 81.76918 29.68471 curveto
85.148087 29.68471 lineto
85.310842 29.68471 85.392222 29.591937 85.392227 29.406389 curveto
fill
grestore
gsave [0.279641 0 0 0.595419 77.67177 7.530941] concat
gsave
0 0.95686275 1 setrgbcolor
newpath
71.267681 58.846415 moveto
69.850868 58.185 69.97984 57.165535 71.555564 56.570824 curveto
73.131288 55.976112 75.560013 56.030248 76.976826 56.691663 curveto
78.393639 57.353078 78.264667 58.372543 76.688943 58.967255 curveto
75.134892 59.553786 72.75437 59.511544 71.323797 58.87205 curveto
eofill
grestore
0 0.95686275 1 setrgbcolor
[] 0 setdash
0.20299999 setlinewidth
0 setlinejoin
1 setlinecap
newpath
71.267681 58.846415 moveto
69.850868 58.185 69.97984 57.165535 71.555564 56.570824 curveto
73.131288 55.976112 75.560013 56.030248 76.976826 56.691663 curveto
78.393639 57.353078 78.264667 58.372543 76.688943 58.967255 curveto
75.134892 59.553786 72.75437 59.511544 71.323797 58.87205 curveto
stroke
grestore
gsave
0 0 0 setrgbcolor
newpath
104.25645 34.207382 moveto
104.25645 34.835642 103.97813 35.364613 103.42149 35.794296 curveto
102.91042 36.18818 102.331 36.385119 101.68321 36.385117 curveto
101.46186 36.385119 101.16563 36.336291 100.79454 36.238632 curveto
100.78966 38.264999 lineto
100.78966 38.561224 100.90522 38.785833 101.13634 38.938828 curveto
101.33816 39.072291 101.59206 39.130885 101.89806 39.114609 curveto
101.93224 39.251328 lineto
101.92735 39.300156 lineto
98.958603 39.300156 lineto
98.9879 39.085312 lineto
99.041611 39.085312 lineto
99.373641 39.088567 99.604761 39.025091 99.73497 38.894882 curveto
99.868433 38.761419 99.935164 38.528672 99.935165 38.19664 curveto
99.935165 33.172226 lineto
99.935164 32.73929 99.619409 32.524446 98.9879 32.527695 curveto
98.9879 32.347031 lineto
99.440373 32.285189 100.10606 32.254264 100.98497 32.254257 curveto
101.96478 32.254264 102.68744 32.347038 103.15294 32.532578 curveto
103.88861 32.825553 104.25645 33.38382 104.25645 34.207382 curveto
103.23106 34.207382 moveto
103.23106 33.735383 103.08783 33.334992 102.80138 33.00621 curveto
102.50189 32.661165 102.11941 32.488639 101.65392 32.488632 curveto
101.54324 32.488639 101.40001 32.50166 101.22423 32.527695 curveto
101.00613 32.556998 100.8629 32.574902 100.79454 32.581406 curveto
100.79454 35.97496 lineto
101.01589 36.036813 101.34304 36.067737 101.77599 36.067734 curveto
102.28705 36.067737 102.66791 35.878935 102.91856 35.501328 curveto
103.12689 35.182321 103.23106 34.751007 103.23106 34.207382 curveto
fill
grestore
0 0 0 setrgbcolor
[0.8 0.8] 0 setdash
0.1 setlinewidth
0 setlinejoin
0 setlinecap
newpath
69.815965 66.710145 moveto
98.440054 41.801115 lineto
stroke
0 0 0 setrgbcolor
[0.8 0.8] 0 setdash
0.1 setlinewidth
0 setlinejoin
0 setlinecap
newpath
98.367958 41.911465 moveto
154.88265 66.694581 lineto
stroke
gsave [0.073264979 0.032128539 -0.032128539 0.073264979 155.39268 67.005597] concat
gsave
0 0 0 setrgbcolor
newpath
-2.5 -1 moveto
-2.5 1.76 -4.74 4 -7.5 4 curveto
-10.26 4 -12.5 1.76 -12.5 -1 curveto
-12.5 -3.76 -10.26 -6 -7.5 -6 curveto
-4.74 -6 -2.5 -3.76 -2.5 -1 curveto
closepath
eofill
grestore
0 0 0 setrgbcolor
[] 0 setdash
1.25 setlinewidth
0 setlinejoin
0 setlinecap
newpath
-2.5 -1 moveto
-2.5 1.76 -4.74 4 -7.5 4 curveto
-10.26 4 -12.5 1.76 -12.5 -1 curveto
-12.5 -3.76 -10.26 -6 -7.5 -6 curveto
-4.74 -6 -2.5 -3.76 -2.5 -1 curveto
closepath
stroke
grestore
0 0 0 setrgbcolor
[] 0 setdash
0.40000001 setlinewidth
0 setlinejoin
0 setlinecap
newpath
98.390448 41.82264 moveto
122.61942 48.055822 lineto
stroke
gsave [-0.15495444 -0.039863813 0.039863813 -0.15495444 121.06988 47.657184] concat
gsave
0 0 0 setrgbcolor
newpath
0 0 moveto
5 -5 lineto
-12.5 0 lineto
5 5 lineto
0 0 lineto
closepath
eofill
grestore
0 0 0 setrgbcolor
[] 0 setdash
1.25 setlinewidth
0 setlinejoin
0 setlinecap
newpath
0 0 moveto
5 -5 lineto
-12.5 0 lineto
5 5 lineto
0 0 lineto
closepath
stroke
grestore
0 0 0 setrgbcolor
[] 0 setdash
0.39582378 setlinewidth
0 setlinejoin
0 setlinecap
newpath
98.392528 41.855822 moveto
88.863898 41.990269 lineto
stroke
gsave [-0.079156876 0.0011168872 -0.0011168872 -0.079156876 97.80565 41.78493] concat
gsave
0 0 0 setrgbcolor
newpath
-2.5 -1 moveto
-2.5 1.76 -4.74 4 -7.5 4 curveto
-10.26 4 -12.5 1.76 -12.5 -1 curveto
-12.5 -3.76 -10.26 -6 -7.5 -6 curveto
-4.74 -6 -2.5 -3.76 -2.5 -1 curveto
closepath
eofill
grestore
0 0 0 setrgbcolor
[] 0 setdash
1.25 setlinewidth
0 setlinejoin
0 setlinecap
newpath
-2.5 -1 moveto
-2.5 1.76 -4.74 4 -7.5 4 curveto
-10.26 4 -12.5 1.76 -12.5 -1 curveto
-12.5 -3.76 -10.26 -6 -7.5 -6 curveto
-4.74 -6 -2.5 -3.76 -2.5 -1 curveto
closepath
stroke
grestore
gsave [0.15831375 -0.0022337743 0.0022337743 0.15831375 90.447036 41.967931] concat
gsave
0 0 0 setrgbcolor
newpath
0 0 moveto
5 -5 lineto
-12.5 0 lineto
5 5 lineto
0 0 lineto
closepath
eofill
grestore
0 0 0 setrgbcolor
[] 0 setdash
1.25 setlinewidth
0 setlinejoin
0 setlinecap
newpath
0 0 moveto
5 -5 lineto
-12.5 0 lineto
5 5 lineto
0 0 lineto
closepath
stroke
grestore
0 0 0 setrgbcolor
[0.90512257 0.90512257] 0 setdash
0.11314034 setlinewidth
0 setlinejoin
0 setlinecap
newpath
98.334451 66.763052 moveto
98.402335 42.013218 lineto
stroke
gsave [0.00012412834 -0.045255965 0.045255965 0.00012412834 98.380626 66.428282] concat
gsave
0 0 0 setrgbcolor
newpath
-2.5 -1 moveto
-2.5 1.76 -4.74 4 -7.5 4 curveto
-10.26 4 -12.5 1.76 -12.5 -1 curveto
-12.5 -3.76 -10.26 -6 -7.5 -6 curveto
-4.74 -6 -2.5 -3.76 -2.5 -1 curveto
closepath
eofill
grestore
0 0 0 setrgbcolor
[] 0 setdash
1.25 setlinewidth
0 setlinejoin
0 setlinecap
newpath
-2.5 -1 moveto
-2.5 1.76 -4.74 4 -7.5 4 curveto
-10.26 4 -12.5 1.76 -12.5 -1 curveto
-12.5 -3.76 -10.26 -6 -7.5 -6 curveto
-4.74 -6 -2.5 -3.76 -2.5 -1 curveto
closepath
stroke
grestore
0 0 0 setrgbcolor
[0.4 0.8] 0 setdash
0.1 setlinewidth
0 setlinejoin
0 setlinecap
newpath
122.88752 48.089334 moveto
112.43185 48.089334 lineto
88.437457 41.990199 lineto
stroke
0 0 0 setrgbcolor
[] 0 setdash
0.39582378 setlinewidth
0 setlinejoin
0 setlinecap
newpath
98.392532 41.855822 moveto
111.93031 47.849072 lineto
stroke
gsave [0.072388307 0.032046708 -0.032046708 0.072388307 98.896159 42.165356] concat
gsave
0 0 0 setrgbcolor
newpath
-2.5 -1 moveto
-2.5 1.76 -4.74 4 -7.5 4 curveto
-10.26 4 -12.5 1.76 -12.5 -1 curveto
-12.5 -3.76 -10.26 -6 -7.5 -6 curveto
-4.74 -6 -2.5 -3.76 -2.5 -1 curveto
closepath
eofill
grestore
0 0 0 setrgbcolor
[] 0 setdash
1.25 setlinewidth
0 setlinejoin
0 setlinecap
newpath
-2.5 -1 moveto
-2.5 1.76 -4.74 4 -7.5 4 curveto
-10.26 4 -12.5 1.76 -12.5 -1 curveto
-12.5 -3.76 -10.26 -6 -7.5 -6 curveto
-4.74 -6 -2.5 -3.76 -2.5 -1 curveto
closepath
stroke
grestore
gsave [-0.14477661 -0.064093416 0.064093416 -0.14477661 110.48254 47.208138] concat
gsave
0 0 0 setrgbcolor
newpath
0 0 moveto
5 -5 lineto
-12.5 0 lineto
5 5 lineto
0 0 lineto
closepath
eofill
grestore
0 0 0 setrgbcolor
[] 0 setdash
1.25 setlinewidth
0 setlinejoin
0 setlinecap
newpath
0 0 moveto
5 -5 lineto
-12.5 0 lineto
5 5 lineto
0 0 lineto
closepath
stroke
grestore
gsave [1 0 0 1 -2.278798 0.938328] concat
gsave
0 0 0 setrgbcolor
newpath
121.89597 39.080399 moveto
121.18699 39.004227 lineto
121.29441 39.166338 121.34812 39.348955 121.34812 39.552078 curveto
121.34812 39.815752 121.22214 40.026689 120.97019 40.184891 curveto
120.75535 40.319657 120.5073 40.38704 120.22605 40.387039 curveto
120.10105 40.38704 119.96921 40.373368 119.83054 40.346024 curveto
119.56882 40.484696 119.43796 40.60872 119.43797 40.718094 curveto
119.43796 40.843094 119.64793 40.919266 120.06785 40.946609 curveto
120.67332 40.987625 121.06296 41.032547 121.23679 41.081375 curveto
121.65671 41.198563 121.86667 41.430008 121.86668 41.775711 curveto
121.86667 42.074538 121.65378 42.323562 121.228 42.522781 curveto
120.87644 42.688796 120.53074 42.771803 120.1909 42.771805 curveto
119.92722 42.771803 119.6948 42.737624 119.49363 42.669266 curveto
119.20652 42.569655 119.06297 42.415358 119.06297 42.206375 curveto
119.06297 41.911453 119.27586 41.611648 119.70164 41.306961 curveto
119.69382 41.289383 119.63523 41.265945 119.52586 41.236649 curveto
119.395 41.203446 119.29929 41.166336 119.23875 41.12532 curveto
119.13718 41.056961 119.0864 40.964188 119.0864 40.847 curveto
119.0864 40.72786 119.12351 40.63704 119.19773 40.574539 curveto
119.23875 40.539384 119.32273 40.498368 119.44968 40.451492 curveto
119.56882 40.406571 119.65476 40.359696 119.7075 40.310867 curveto
119.31882 40.183915 119.12449 39.919267 119.12449 39.516922 curveto
119.12449 39.235674 119.23191 38.999346 119.44675 38.807938 curveto
119.65379 38.624347 119.89988 38.53255 120.18504 38.532547 curveto
120.52488 38.53255 120.79246 38.622393 120.98777 38.802078 curveto
121.8784 38.743484 lineto
121.88035 38.809893 121.8862 38.922198 121.89597 39.080399 curveto
120.90867 39.540359 moveto
120.90867 39.327471 120.84226 39.136065 120.70945 38.966141 curveto
120.56492 38.78255 120.38914 38.690753 120.18211 38.69075 curveto
119.97117 38.690753 119.81003 38.786456 119.69871 38.977859 curveto
119.60691 39.136065 119.56101 39.328447 119.56101 39.555008 curveto
119.56101 40.006181 119.7866 40.231767 120.23777 40.231766 curveto
120.68503 40.231767 120.90867 40.001298 120.90867 39.540359 curveto
121.47117 41.837234 moveto
121.47117 41.634109 121.33738 41.492508 121.0698 41.41243 curveto
120.92917 41.371414 120.71238 41.34407 120.41941 41.330399 curveto
120.2905 41.31868 120.09617 41.306961 119.8364 41.295242 curveto
119.56101 41.513992 119.42332 41.779617 119.42332 42.092117 curveto
119.42332 42.383132 119.76121 42.52864 120.43699 42.528641 curveto
120.64011 42.52864 120.85593 42.464186 121.08445 42.335281 curveto
121.34226 42.188796 121.47117 42.022781 121.47117 41.837234 curveto
fill
grestore
gsave
0 0 0 setrgbcolor
newpath
119.71487 34.676968 moveto
119.53909 34.676968 lineto
119.53909 34.029187 119.25263 33.705294 118.67972 33.705288 curveto
116.47757 33.705288 lineto
116.47757 36.327358 lineto
118.29886 36.327358 lineto
118.49417 36.327362 118.64879 36.250865 118.76273 36.097866 curveto
118.86038 35.964407 118.90921 35.793508 118.90921 35.585171 curveto
119.04593 35.585171 lineto
119.04593 37.489468 lineto
118.90921 37.489468 lineto
118.90921 36.955617 118.70576 36.68869 118.29886 36.688686 curveto
116.47757 36.688686 lineto
116.47757 39.340054 lineto
116.47757 39.776252 116.77216 39.994351 117.36136 39.99435 curveto
117.36136 40.214077 lineto
114.80765 40.214077 lineto
114.80765 39.99435 lineto
115.34801 39.994351 115.61819 39.756721 115.61819 39.28146 curveto
115.61819 34.017788 lineto
115.61819 33.662977 115.34801 33.487196 114.80765 33.490444 curveto
114.80765 33.280483 lineto
119.59769 33.280483 lineto
119.71487 34.676968 lineto
fill
grestore
0 0 0 setrgbcolor
[] 0 setdash
0.30000001 setlinewidth
0 setlinejoin
0 setlinecap
newpath
114.34202 31.098886 moveto
119.972 31.098886 lineto
stroke
gsave [-0.12 0 0 -0.12 118.772 31.098886] concat
gsave
0 0 0 setrgbcolor
newpath
0 0 moveto
5 -5 lineto
-12.5 0 lineto
5 5 lineto
0 0 lineto
closepath
eofill
grestore
0 0 0 setrgbcolor
[] 0 setdash
1.25 setlinewidth
0 setlinejoin
0 setlinecap
newpath
0 0 moveto
5 -5 lineto
-12.5 0 lineto
5 5 lineto
0 0 lineto
closepath
stroke
grestore
grestore
gsave
0 0 0 setrgbcolor
newpath
121.91553 60.589211 moveto
120.61768 60.589211 lineto
120.61768 60.457375 lineto
120.8833 60.457375 121.01612 60.325539 121.01612 60.061867 curveto
121.01612 58.728859 lineto
121.01612 58.562845 120.97608 58.417338 120.896 58.292336 curveto
120.80225 58.147807 120.67627 58.075541 120.51807 58.075539 curveto
120.27588 58.075541 119.9878 58.197611 119.65382 58.44175 curveto
119.65382 60.205421 lineto
119.65381 60.365578 119.81006 60.445656 120.12257 60.445656 curveto
120.13721 60.589211 lineto
118.84229 60.589211 lineto
118.84229 60.457375 lineto
119.10596 60.457375 119.2378 60.325539 119.2378 60.061867 curveto
119.2378 58.728859 lineto
119.2378 58.560892 119.20362 58.416361 119.13526 58.295265 curveto
119.05128 58.148783 118.93116 58.075541 118.77491 58.075539 curveto
118.52881 58.075541 118.22706 58.207377 117.86964 58.471046 curveto
117.86964 60.143898 lineto
117.86964 60.335305 118.0171 60.439797 118.31202 60.457375 curveto
118.29444 60.589211 lineto
117.05518 60.589211 lineto
117.04346 60.565773 lineto
117.06104 60.474953 lineto
117.18214 60.474953 117.27979 60.425148 117.35401 60.325539 curveto
117.42237 60.233742 117.45655 60.125344 117.45655 60.000343 curveto
117.45655 58.386086 lineto
117.45655 58.315775 117.396 58.260111 117.27491 58.219093 curveto
117.25928 58.213236 117.16749 58.191752 116.99952 58.15464 curveto
116.99952 58.081398 lineto
117.01905 58.059916 117.04346 58.044291 117.07276 58.034523 curveto
117.22706 57.981791 117.45753 57.887065 117.76417 57.750343 curveto
117.86964 57.829445 lineto
117.86964 58.356789 lineto
118.43409 57.99351 118.82374 57.81187 119.03858 57.811867 curveto
119.16944 57.81187 119.29151 57.872416 119.40479 57.993507 curveto
119.50049 58.097026 119.56983 58.218119 119.6128 58.356789 curveto
120.17725 57.99351 120.5669 57.81187 120.78175 57.811867 curveto
120.99073 57.81187 121.15772 57.908549 121.28272 58.101906 curveto
121.39209 58.269877 121.44678 58.463236 121.44678 58.681984 curveto
121.44678 60.205421 lineto
121.44678 60.365578 121.59717 60.445656 121.89796 60.445656 curveto
121.91553 60.589211 lineto
fill
grestore
gsave
0 0 0 setrgbcolor
newpath
124.72218 60.296242 moveto
124.52686 60.43882 124.42725 60.512062 124.42335 60.515968 curveto
124.29639 60.594093 124.1792 60.633156 124.07178 60.633156 curveto
123.90381 60.633156 123.78858 60.505226 123.72608 60.249367 curveto
123.48975 60.421242 123.35889 60.514015 123.3335 60.527687 curveto
123.2046 60.599953 123.05616 60.636085 122.88819 60.636086 curveto
122.72217 60.636085 122.58155 60.579445 122.46632 60.466164 curveto
122.35303 60.350929 122.29639 60.211281 122.29639 60.047218 curveto
122.29639 59.842141 122.37745 59.674172 122.53956 59.543312 curveto
122.63526 59.467141 122.80616 59.378274 123.05225 59.276711 curveto
123.71436 59.00425 lineto
123.71436 58.567726 lineto
123.71436 58.413431 123.6587 58.283549 123.54737 58.178078 curveto
123.43799 58.072611 123.30518 58.019877 123.14893 58.019875 curveto
122.90089 58.019877 122.77686 58.151713 122.77686 58.415382 curveto
122.77686 58.432963 122.78077 58.4564 122.78858 58.485695 curveto
122.79639 58.514994 122.8003 58.537455 122.8003 58.553078 curveto
122.8003 58.625345 122.74561 58.689798 122.63624 58.746437 curveto
122.54053 58.79722 122.45264 58.822611 122.37257 58.822609 curveto
122.33936 58.822611 122.32276 58.795267 122.32276 58.740578 curveto
122.32276 58.480814 122.43214 58.267924 122.65089 58.101906 curveto
122.8501 57.949565 123.08448 57.873393 123.35401 57.87339 curveto
123.62354 57.873393 123.82081 57.923198 123.94581 58.022804 curveto
124.08448 58.132182 124.15381 58.317728 124.15382 58.579445 curveto
124.15382 60.088234 lineto
124.15381 60.256203 124.21143 60.340187 124.32667 60.340187 curveto
124.39893 60.340187 124.52881 60.2855 124.71632 60.176125 curveto
124.72218 60.296242 lineto
123.71729 60.053078 moveto
123.71436 59.174171 lineto
123.11964 59.434914 lineto
122.85206 59.552102 122.71827 59.740579 122.71827 60.000343 curveto
122.71827 60.111672 122.7544 60.200539 122.82667 60.266945 curveto
122.89893 60.333351 122.99073 60.366554 123.10206 60.366554 curveto
123.21729 60.366554 123.32862 60.334328 123.43604 60.269875 curveto
123.48292 60.240578 123.57667 60.168312 123.71729 60.053078 curveto
fill
grestore
gsave
0 0 0 setrgbcolor
newpath
126.78468 57.973 moveto
126.77881 58.08433 126.71827 58.234721 126.60303 58.424171 curveto
126.36085 58.299174 126.19385 58.236674 126.10206 58.236671 curveto
125.98487 58.236674 125.88135 58.293314 125.79151 58.406593 curveto
125.72315 58.510111 125.65577 58.613627 125.58936 58.71714 curveto
125.58936 60.170265 lineto
125.58936 60.381203 125.7212 60.486672 125.98487 60.486671 curveto
126.01026 60.486672 126.04639 60.485695 126.09327 60.483742 curveto
126.14014 60.481789 126.17335 60.480812 126.19288 60.480812 curveto
126.2046 60.589211 lineto
124.7544 60.589211 lineto
124.7544 60.50425 lineto
125.02979 60.496437 125.16749 60.385109 125.16749 60.170265 curveto
125.16749 58.453468 lineto
125.16749 58.338236 125.02686 58.250346 124.74561 58.189796 curveto
124.74561 58.081398 lineto
124.91749 58.061869 125.16065 57.96226 125.47511 57.78257 curveto
125.58936 57.806007 lineto
125.58936 58.497414 lineto
125.82374 58.059916 126.03272 57.841166 126.21632 57.841164 curveto
126.31006 57.841166 126.49952 57.885112 126.78468 57.973 curveto
fill
grestore
gsave
0 0 0 setrgbcolor
newpath
129.313 59.868507 moveto
129.07081 60.384133 128.68702 60.641945 128.16163 60.641945 curveto
127.82374 60.641945 127.53858 60.494484 127.30616 60.199562 curveto
127.08936 59.924172 126.98096 59.613626 126.98096 59.267921 curveto
126.98096 58.875345 127.09229 58.545267 127.31495 58.277687 curveto
127.55323 57.992533 127.86475 57.849955 128.24952 57.849953 curveto
128.55616 57.849955 128.8042 57.942729 128.99366 58.128273 curveto
129.18506 58.313822 129.28077 58.560892 129.28077 58.869484 curveto
127.38819 58.869484 lineto
127.37843 58.951517 127.37354 59.035501 127.37354 59.121437 curveto
127.37354 59.412454 127.46241 59.680032 127.64014 59.924171 curveto
127.83546 60.195656 128.07374 60.331398 128.35499 60.331398 curveto
128.72217 60.331398 129.00147 60.166359 129.19288 59.836281 curveto
129.21632 59.836281 lineto
129.25928 59.834328 129.29151 59.845071 129.313 59.868507 curveto
128.83253 58.702492 moveto
128.82471 58.503275 128.75538 58.341166 128.62452 58.216164 curveto
128.49366 58.089213 128.32764 58.025737 128.12647 58.025734 curveto
127.96046 58.025737 127.813 58.098979 127.68409 58.245461 curveto
127.57081 58.374369 127.49366 58.526713 127.45264 58.702492 curveto
128.83253 58.702492 lineto
128.91749 56.537453 moveto
128.02686 57.627296 lineto
127.95655 57.539406 lineto
128.40772 56.364601 lineto
128.91749 56.537453 lineto
fill
grestore
gsave
0 0 0 setrgbcolor
newpath
131.80909 59.868507 moveto
131.5669 60.384133 131.18311 60.641945 130.65772 60.641945 curveto
130.31983 60.641945 130.03467 60.494484 129.80225 60.199562 curveto
129.58546 59.924172 129.47706 59.613626 129.47706 59.267921 curveto
129.47706 58.875345 129.58839 58.545267 129.81104 58.277687 curveto
130.04932 57.992533 130.36085 57.849955 130.74561 57.849953 curveto
131.05225 57.849955 131.3003 57.942729 131.48975 58.128273 curveto
131.68116 58.313822 131.77686 58.560892 131.77686 58.869484 curveto
129.88428 58.869484 lineto
129.87452 58.951517 129.86964 59.035501 129.86964 59.121437 curveto
129.86964 59.412454 129.9585 59.680032 130.13624 59.924171 curveto
130.33155 60.195656 130.56983 60.331398 130.85108 60.331398 curveto
131.21827 60.331398 131.49756 60.166359 131.68897 59.836281 curveto
131.71241 59.836281 lineto
131.75538 59.834328 131.7876 59.845071 131.80909 59.868507 curveto
131.32862 58.702492 moveto
131.32081 58.503275 131.25147 58.341166 131.12061 58.216164 curveto
130.98975 58.089213 130.82374 58.025737 130.62257 58.025734 curveto
130.45655 58.025737 130.30909 58.098979 130.18018 58.245461 curveto
130.0669 58.374369 129.98975 58.526713 129.94874 58.702492 curveto
131.32862 58.702492 lineto
fill
grestore
gsave [1 0 0 1 -1.474516 19.16871] concat
gsave
0 0 0 setrgbcolor
newpath
119.71487 34.676968 moveto
119.53909 34.676968 lineto
119.53909 34.029187 119.25263 33.705294 118.67972 33.705288 curveto
116.47757 33.705288 lineto
116.47757 36.327358 lineto
118.29886 36.327358 lineto
118.49417 36.327362 118.64879 36.250865 118.76273 36.097866 curveto
118.86038 35.964407 118.90921 35.793508 118.90921 35.585171 curveto
119.04593 35.585171 lineto
119.04593 37.489468 lineto
118.90921 37.489468 lineto
118.90921 36.955617 118.70576 36.68869 118.29886 36.688686 curveto
116.47757 36.688686 lineto
116.47757 39.340054 lineto
116.47757 39.776252 116.77216 39.994351 117.36136 39.99435 curveto
117.36136 40.214077 lineto
114.80765 40.214077 lineto
114.80765 39.99435 lineto
115.34801 39.994351 115.61819 39.756721 115.61819 39.28146 curveto
115.61819 34.017788 lineto
115.61819 33.662977 115.34801 33.487196 114.80765 33.490444 curveto
114.80765 33.280483 lineto
119.59769 33.280483 lineto
119.71487 34.676968 lineto
fill
grestore
0 0 0 setrgbcolor
[] 0 setdash
0.30000001 setlinewidth
0 setlinejoin
0 setlinecap
newpath
114.34202 31.098886 moveto
119.972 31.098886 lineto
stroke
gsave [-0.12 0 0 -0.12 118.772 31.098886] concat
gsave
0 0 0 setrgbcolor
newpath
0 0 moveto
5 -5 lineto
-12.5 0 lineto
5 5 lineto
0 0 lineto
closepath
eofill
grestore
0 0 0 setrgbcolor
[] 0 setdash
1.25 setlinewidth
0 setlinejoin
0 setlinecap
newpath
0 0 moveto
5 -5 lineto
-12.5 0 lineto
5 5 lineto
0 0 lineto
closepath
stroke
grestore
grestore
gsave
0 0 0 setrgbcolor
newpath
80.558388 45.575954 moveto
79.213661 45.575954 lineto
79.201942 45.552517 lineto
79.219521 45.461697 lineto
79.358192 45.461697 79.456825 45.442166 79.515419 45.403103 curveto
79.587684 45.354275 79.623817 45.260525 79.623817 45.121853 curveto
79.623817 43.372829 lineto
79.623817 43.230254 79.553504 43.158965 79.41288 43.158962 curveto
79.360145 43.158965 79.298622 43.167754 79.22831 43.185329 curveto
79.155067 43.068142 lineto
79.526161 42.964629 79.804481 42.854277 79.990028 42.737087 curveto
80.098427 42.816189 lineto
80.098427 45.130642 lineto
80.098426 45.322048 80.24784 45.426541 80.546669 45.444118 curveto
80.558388 45.575954 lineto
80.133583 41.825954 moveto
80.133582 41.909942 80.104285 41.982208 80.045692 42.042751 curveto
79.987098 42.101349 79.915809 42.130645 79.831825 42.130642 curveto
79.74784 42.130645 79.676551 42.101349 79.617958 42.042751 curveto
79.559364 41.982208 79.530067 41.909942 79.530067 41.825954 curveto
79.530067 41.741974 79.559364 41.670685 79.617958 41.612087 curveto
79.676551 41.553498 79.74784 41.524201 79.831825 41.524197 curveto
79.915809 41.524201 79.987098 41.553498 80.045692 41.612087 curveto
80.104285 41.670685 80.133582 41.741974 80.133583 41.825954 curveto
fill
grestore
gsave
0 0 0 setrgbcolor
newpath
83.918739 45.575954 moveto
82.59745 45.575954 lineto
82.59745 45.444118 lineto
82.866979 45.444119 83.001745 45.312283 83.001747 45.048611 curveto
83.001747 43.715603 lineto
83.001745 43.545683 82.966589 43.400175 82.896278 43.279079 curveto
82.810339 43.134551 82.688269 43.062285 82.530067 43.062283 curveto
82.278113 43.062285 81.969519 43.194121 81.604286 43.45779 curveto
81.604286 45.130642 lineto
81.604285 45.322048 81.754676 45.426541 82.055458 45.444118 curveto
82.03788 45.575954 lineto
80.772255 45.575954 lineto
80.760536 45.552517 lineto
80.778114 45.461697 lineto
80.901161 45.461697 81.00077 45.411892 81.076942 45.312283 curveto
81.147255 45.222439 81.182411 45.114041 81.182411 44.987087 curveto
81.182411 43.372829 lineto
81.182411 43.302519 81.120887 43.246855 80.997841 43.205837 curveto
80.982216 43.19998 80.888466 43.178496 80.716591 43.141384 curveto
80.716591 43.068142 lineto
80.804481 43.056426 80.94413 43.009551 81.135536 42.927517 curveto
81.315223 42.849395 81.43534 42.785918 81.495888 42.737087 curveto
81.604286 42.816189 lineto
81.604286 43.343533 lineto
82.180457 42.980254 82.577917 42.798613 82.796669 42.798611 curveto
83.009557 42.798613 83.174596 42.895293 83.291786 43.08865 curveto
83.391393 43.250761 83.441198 43.444121 83.4412 43.668728 curveto
83.4412 45.192165 lineto
83.441198 45.352322 83.594518 45.4324 83.901161 45.4324 curveto
83.918739 45.575954 lineto
fill
grestore
gsave [1 0 0 1 -39.54384 3.619267] concat
gsave
0 0 0 setrgbcolor
newpath
119.71487 34.676968 moveto
119.53909 34.676968 lineto
119.53909 34.029187 119.25263 33.705294 118.67972 33.705288 curveto
116.47757 33.705288 lineto
116.47757 36.327358 lineto
118.29886 36.327358 lineto
118.49417 36.327362 118.64879 36.250865 118.76273 36.097866 curveto
118.86038 35.964407 118.90921 35.793508 118.90921 35.585171 curveto
119.04593 35.585171 lineto
119.04593 37.489468 lineto
118.90921 37.489468 lineto
118.90921 36.955617 118.70576 36.68869 118.29886 36.688686 curveto
116.47757 36.688686 lineto
116.47757 39.340054 lineto
116.47757 39.776252 116.77216 39.994351 117.36136 39.99435 curveto
117.36136 40.214077 lineto
114.80765 40.214077 lineto
114.80765 39.99435 lineto
115.34801 39.994351 115.61819 39.756721 115.61819 39.28146 curveto
115.61819 34.017788 lineto
115.61819 33.662977 115.34801 33.487196 114.80765 33.490444 curveto
114.80765 33.280483 lineto
119.59769 33.280483 lineto
119.71487 34.676968 lineto
fill
grestore
0 0 0 setrgbcolor
[] 0 setdash
0.30000001 setlinewidth
0 setlinejoin
0 setlinecap
newpath
114.34202 31.098886 moveto
119.972 31.098886 lineto
stroke
gsave [-0.12 0 0 -0.12 118.772 31.098886] concat
gsave
0 0 0 setrgbcolor
newpath
0 0 moveto
5 -5 lineto
-12.5 0 lineto
5 5 lineto
0 0 lineto
closepath
eofill
grestore
0 0 0 setrgbcolor
[] 0 setdash
1.25 setlinewidth
0 setlinejoin
0 setlinecap
newpath
0 0 moveto
5 -5 lineto
-12.5 0 lineto
5 5 lineto
0 0 lineto
closepath
stroke
grestore
grestore
0 0 0 setrgbcolor
[] 0 setdash
0.079388492 setlinewidth
0 setlinejoin
0 setlinecap
newpath
98.339923 70.022491 moveto
70.006748 70.022491 lineto
stroke
gsave [-0.079388492 9.7219651e-18 -9.7219651e-18 -0.079388492 98.339923 70.022491] concat
1 1 1 setrgbcolor
[] 0 setdash
1.15 setlinewidth
0 setlinejoin
2 setlinecap
newpath
0 0 moveto
2 0 lineto
stroke
gsave
0 0 0 setrgbcolor
newpath
0 0 moveto
13 4 lineto
9 0 lineto
13 -4 lineto
0 0 lineto
closepath
eofill
grestore
0 0 0 setrgbcolor
[] 0 setdash
1 setlinewidth
0 setlinejoin
2 setlinecap
newpath
0 -4 moveto
0 40 lineto
stroke
grestore
gsave [-0.079388492 9.7219651e-18 -9.7219651e-18 -0.079388492 70.006748 70.022491] concat
1 1 1 setrgbcolor
[] 0 setdash
1.15 setlinewidth
0 setlinejoin
2 setlinecap
newpath
0 0 moveto
-2 0 lineto
stroke
gsave
0 0 0 setrgbcolor
newpath
0 0 moveto
-13 4 lineto
-9 0 lineto
-13 -4 lineto
0 0 lineto
closepath
eofill
grestore
0 0 0 setrgbcolor
[] 0 setdash
1 setlinewidth
0 setlinejoin
2 setlinecap
newpath
0 -4 moveto
0 40 lineto
stroke
grestore
0 0 0 setrgbcolor
[] 0 setdash
0.079388492 setlinewidth
0 setlinejoin
0 setlinecap
newpath
126.67696 70.003578 moveto
98.343787 70.003578 lineto
stroke
gsave [-0.079388492 9.7219651e-18 -9.7219651e-18 -0.079388492 126.67696 70.003578] concat
1 1 1 setrgbcolor
[] 0 setdash
1.15 setlinewidth
0 setlinejoin
2 setlinecap
newpath
0 0 moveto
2 0 lineto
stroke
gsave
0 0 0 setrgbcolor
newpath
0 0 moveto
13 4 lineto
9 0 lineto
13 -4 lineto
0 0 lineto
closepath
eofill
grestore
0 0 0 setrgbcolor
[] 0 setdash
1 setlinewidth
0 setlinejoin
2 setlinecap
newpath
0 -4 moveto
0 40 lineto
stroke
grestore
gsave [-0.079388492 9.7219651e-18 -9.7219651e-18 -0.079388492 98.343787 70.003578] concat
1 1 1 setrgbcolor
[] 0 setdash
1.15 setlinewidth
0 setlinejoin
2 setlinecap
newpath
0 0 moveto
-2 0 lineto
stroke
gsave
0 0 0 setrgbcolor
newpath
0 0 moveto
-13 4 lineto
-9 0 lineto
-13 -4 lineto
0 0 lineto
closepath
eofill
grestore
0 0 0 setrgbcolor
[] 0 setdash
1 setlinewidth
0 setlinejoin
2 setlinecap
newpath
0 -4 moveto
0 40 lineto
stroke
grestore
0 0 0 setrgbcolor
[] 0 setdash
0.079388492 setlinewidth
0 setlinejoin
0 setlinecap
newpath
155.01782 70.003578 moveto
126.68465 70.003578 lineto
stroke
gsave [-0.079388492 9.7219651e-18 -9.7219651e-18 -0.079388492 155.01782 70.003578] concat
1 1 1 setrgbcolor
[] 0 setdash
1.15 setlinewidth
0 setlinejoin
2 setlinecap
newpath
0 0 moveto
2 0 lineto
stroke
gsave
0 0 0 setrgbcolor
newpath
0 0 moveto
13 4 lineto
9 0 lineto
13 -4 lineto
0 0 lineto
closepath
eofill
grestore
0 0 0 setrgbcolor
[] 0 setdash
1 setlinewidth
0 setlinejoin
2 setlinecap
newpath
0 -4 moveto
0 40 lineto
stroke
grestore
gsave [-0.079388492 9.7219651e-18 -9.7219651e-18 -0.079388492 126.68465 70.003578] concat
1 1 1 setrgbcolor
[] 0 setdash
1.15 setlinewidth
0 setlinejoin
2 setlinecap
newpath
0 0 moveto
-2 0 lineto
stroke
gsave
0 0 0 setrgbcolor
newpath
0 0 moveto
-13 4 lineto
-9 0 lineto
-13 -4 lineto
0 0 lineto
closepath
eofill
grestore
0 0 0 setrgbcolor
[] 0 setdash
1 setlinewidth
0 setlinejoin
2 setlinecap
newpath
0 -4 moveto
0 40 lineto
stroke
grestore
gsave
0 0 0 setrgbcolor
newpath
86.377182 75.505432 moveto
86.377179 74.989809 86.29645 74.55882 86.134995 74.212463 curveto
85.918846 73.748925 85.582909 73.517154 85.127182 73.517151 curveto
84.718326 73.517154 84.435775 73.681217 84.279526 74.009338 curveto
84.17015 74.238508 84.115463 74.583559 84.115463 75.044495 curveto
84.115463 75.468975 84.218327 75.849183 84.424057 76.18512 curveto
84.663639 76.578349 84.981347 76.774964 85.377182 76.774963 curveto
86.043846 76.774964 86.377179 76.351787 86.377182 75.505432 curveto
87.084213 75.161682 moveto
87.08421 75.70335 86.911033 76.143454 86.564682 76.481995 curveto
86.218325 76.820536 85.774315 76.989807 85.232651 76.989807 curveto
84.743066 76.989807 84.318587 76.815328 83.959213 76.46637 curveto
83.599838 76.117412 83.420151 75.699444 83.420151 75.212463 curveto
83.420151 74.665591 83.577703 74.218977 83.892807 73.87262 curveto
84.218327 73.513248 84.65192 73.328352 85.193588 73.317932 curveto
84.969628 73.179915 84.744368 73.043196 84.517807 72.907776 curveto
84.233952 72.704655 84.092025 72.508041 84.092026 72.317932 curveto
84.092025 72.047104 84.250879 71.812729 84.568588 71.614807 curveto
84.849837 71.442938 85.134993 71.357 85.424057 71.356995 curveto
86.442283 71.357 86.951397 71.635646 86.951401 72.192932 curveto
86.951397 72.304916 86.917543 72.399968 86.849838 72.478088 curveto
86.782127 72.553614 86.693585 72.591374 86.584213 72.59137 curveto
86.511293 72.591374 86.438377 72.567937 86.365463 72.521057 curveto
86.279523 72.468978 86.236554 72.409082 86.236557 72.34137 curveto
86.236554 72.30752 86.241762 72.258041 86.252182 72.192932 curveto
86.262596 72.127833 86.267804 72.078354 86.267807 72.044495 curveto
86.267804 71.929916 86.190981 71.821843 86.037338 71.720276 curveto
85.896711 71.626531 85.766503 71.579656 85.646713 71.579651 curveto
85.443586 71.579656 85.253482 71.63825 85.076401 71.755432 curveto
84.881087 71.88825 84.783431 72.05101 84.783432 72.243713 curveto
84.783431 72.551009 84.981347 72.829655 85.377182 73.079651 curveto
86.080304 73.519758 86.450096 73.756737 86.486557 73.790588 curveto
86.884991 74.144758 87.08421 74.601789 87.084213 75.161682 curveto
fill
grestore
gsave
0 0 0 setrgbcolor
newpath
109.16516 75.505432 moveto
109.16516 74.989809 109.08443 74.55882 108.92297 74.212463 curveto
108.70683 73.748925 108.37089 73.517154 107.91516 73.517151 curveto
107.50631 73.517154 107.22375 73.681217 107.0675 74.009338 curveto
106.95813 74.238508 106.90344 74.583559 106.90344 75.044495 curveto
106.90344 75.468975 107.00631 75.849183 107.21204 76.18512 curveto
107.45162 76.578349 107.76933 76.774964 108.16516 76.774963 curveto
108.83183 76.774964 109.16516 76.351787 109.16516 75.505432 curveto
109.87219 75.161682 moveto
109.87219 75.70335 109.69901 76.143454 109.35266 76.481995 curveto
109.0063 76.820536 108.56229 76.989807 108.02063 76.989807 curveto
107.53105 76.989807 107.10657 76.815328 106.74719 76.46637 curveto
106.38782 76.117412 106.20813 75.699444 106.20813 75.212463 curveto
106.20813 74.665591 106.36568 74.218977 106.68079 73.87262 curveto
107.00631 73.513248 107.4399 73.328352 107.98157 73.317932 curveto
107.75761 73.179915 107.53235 73.043196 107.30579 72.907776 curveto
107.02193 72.704655 106.88 72.508041 106.88 72.317932 curveto
106.88 72.047104 107.03886 71.812729 107.35657 71.614807 curveto
107.63782 71.442938 107.92297 71.357 108.21204 71.356995 curveto
109.23026 71.357 109.73938 71.635646 109.73938 72.192932 curveto
109.73938 72.304916 109.70552 72.399968 109.63782 72.478088 curveto
109.57011 72.553614 109.48156 72.591374 109.37219 72.59137 curveto
109.29927 72.591374 109.22636 72.567937 109.15344 72.521057 curveto
109.0675 72.468978 109.02453 72.409082 109.02454 72.34137 curveto
109.02453 72.30752 109.02974 72.258041 109.04016 72.192932 curveto
109.05057 72.127833 109.05578 72.078354 109.05579 72.044495 curveto
109.05578 71.929916 108.97896 71.821843 108.82532 71.720276 curveto
108.68469 71.626531 108.55448 71.579656 108.43469 71.579651 curveto
108.23157 71.579656 108.04146 71.63825 107.86438 71.755432 curveto
107.66907 71.88825 107.57141 72.05101 107.57141 72.243713 curveto
107.57141 72.551009 107.76933 72.829655 108.16516 73.079651 curveto
108.86828 73.519758 109.23807 73.756737 109.27454 73.790588 curveto
109.67297 74.144758 109.87219 74.601789 109.87219 75.161682 curveto
fill
grestore
gsave
0 0 0 setrgbcolor
newpath
141.47047 75.505432 moveto
141.47047 74.989809 141.38974 74.55882 141.22829 74.212463 curveto
141.01214 73.748925 140.6762 73.517154 140.22047 73.517151 curveto
139.81162 73.517154 139.52907 73.681217 139.37282 74.009338 curveto
139.26344 74.238508 139.20875 74.583559 139.20876 75.044495 curveto
139.20875 75.468975 139.31162 75.849183 139.51735 76.18512 curveto
139.75693 76.578349 140.07464 76.774964 140.47047 76.774963 curveto
141.13714 76.774964 141.47047 76.351787 141.47047 75.505432 curveto
142.17751 75.161682 moveto
142.1775 75.70335 142.00432 76.143454 141.65797 76.481995 curveto
141.31162 76.820536 140.86761 76.989807 140.32594 76.989807 curveto
139.83636 76.989807 139.41188 76.815328 139.05251 76.46637 curveto
138.69313 76.117412 138.51344 75.699444 138.51344 75.212463 curveto
138.51344 74.665591 138.67099 74.218977 138.9861 73.87262 curveto
139.31162 73.513248 139.74521 73.328352 140.28688 73.317932 curveto
140.06292 73.179915 139.83766 73.043196 139.6111 72.907776 curveto
139.32724 72.704655 139.18532 72.508041 139.18532 72.317932 curveto
139.18532 72.047104 139.34417 71.812729 139.66188 71.614807 curveto
139.94313 71.442938 140.22828 71.357 140.51735 71.356995 curveto
141.53558 71.357 142.04469 71.635646 142.04469 72.192932 curveto
142.04469 72.304916 142.01084 72.399968 141.94313 72.478088 curveto
141.87542 72.553614 141.78688 72.591374 141.67751 72.59137 curveto
141.60459 72.591374 141.53167 72.567937 141.45876 72.521057 curveto
141.37282 72.468978 141.32985 72.409082 141.32985 72.34137 curveto
141.32985 72.30752 141.33505 72.258041 141.34547 72.192932 curveto
141.35589 72.127833 141.3611 72.078354 141.3611 72.044495 curveto
141.3611 71.929916 141.28427 71.821843 141.13063 71.720276 curveto
140.99 71.626531 140.85979 71.579656 140.74001 71.579651 curveto
140.53688 71.579656 140.34677 71.63825 140.16969 71.755432 curveto
139.97438 71.88825 139.87672 72.05101 139.87672 72.243713 curveto
139.87672 72.551009 140.07464 72.829655 140.47047 73.079651 curveto
141.1736 73.519758 141.54339 73.756737 141.57985 73.790588 curveto
141.97828 74.144758 142.1775 74.601789 142.17751 75.161682 curveto
fill
grestore
gsave
0 0 0 setrgbcolor
newpath
102.19638 60.44672 moveto
102.19638 59.931097 102.11565 59.500108 101.95419 59.153751 curveto
101.73804 58.690213 101.40211 58.458442 100.94638 58.458439 curveto
100.53753 58.458442 100.25497 58.622505 100.09872 58.950626 curveto
99.989349 59.179796 99.934661 59.524847 99.934662 59.985783 curveto
99.934661 60.410263 100.03753 60.790471 100.24326 61.126408 curveto
100.48284 61.519637 100.80055 61.716252 101.19638 61.716251 curveto
101.86304 61.716252 102.19638 61.293075 102.19638 60.44672 curveto
102.90341 60.10297 moveto
102.90341 60.644638 102.73023 61.084742 102.38388 61.423283 curveto
102.03752 61.761824 101.59351 61.931095 101.05185 61.931095 curveto
100.56226 61.931095 100.13779 61.756616 99.778412 61.407658 curveto
99.419037 61.0587 99.239349 60.640732 99.239349 60.153751 curveto
99.239349 59.606879 99.396901 59.160265 99.712006 58.813908 curveto
100.03753 58.454536 100.47112 58.26964 101.01279 58.25922 curveto
100.78883 58.121203 100.56357 57.984484 100.33701 57.849064 curveto
100.05315 57.645943 99.911224 57.449329 99.911224 57.25922 curveto
99.911224 56.988392 100.07008 56.754017 100.38779 56.556095 curveto
100.66904 56.384226 100.95419 56.298288 101.24326 56.298283 curveto
102.26148 56.298288 102.7706 56.576934 102.7706 57.13422 curveto
102.7706 57.246204 102.73674 57.341256 102.66904 57.419376 curveto
102.60133 57.494902 102.51278 57.532662 102.40341 57.532658 curveto
102.33049 57.532662 102.25758 57.509224 102.18466 57.462345 curveto
102.09872 57.410266 102.05575 57.35037 102.05576 57.282658 curveto
102.05575 57.248808 102.06096 57.199329 102.07138 57.13422 curveto
102.08179 57.069121 102.087 57.019642 102.08701 56.985783 curveto
102.087 56.871204 102.01018 56.763131 101.85654 56.661564 curveto
101.71591 56.567819 101.5857 56.520944 101.46591 56.520939 curveto
101.26278 56.520944 101.07268 56.579538 100.8956 56.69672 curveto
100.70029 56.829538 100.60263 56.992298 100.60263 57.185001 curveto
100.60263 57.492297 100.80055 57.770943 101.19638 58.020939 curveto
101.8995 58.461046 102.26929 58.698025 102.30576 58.731876 curveto
102.70419 59.086046 102.90341 59.543077 102.90341 60.10297 curveto
fill
grestore
gsave
0 0 0 setrgbcolor
newpath
163.79161 67.932945 moveto
163.7916 67.988291 163.78672 68.048512 163.77696 68.113609 curveto
163.42214 68.155934 163.22845 68.183603 163.19591 68.196617 curveto
163.02337 68.264983 162.93711 68.424488 162.93712 68.675133 curveto
162.93712 74.79818 lineto
162.72227 74.79818 lineto
157.47813 68.919273 lineto
157.47813 73.977867 lineto
157.47813 74.401045 157.75645 74.612633 158.3131 74.612633 curveto
158.38796 74.612633 158.4612 74.60775 158.53282 74.597984 curveto
158.53282 74.79818 lineto
156.33067 74.79818 lineto
156.27208 74.597984 lineto
156.80919 74.597985 157.07774 74.462894 157.07774 74.192711 curveto
157.07774 68.640953 lineto
157.07774 68.478199 156.98009 68.344736 156.78477 68.240562 curveto
156.63503 68.159189 156.46414 68.107106 156.27208 68.084312 curveto
156.30138 67.874352 lineto
157.85411 67.874352 lineto
162.50743 73.32357 lineto
162.50743 68.675133 lineto
162.50742 68.476571 162.40651 68.326832 162.2047 68.225914 curveto
162.04193 68.14454 161.85313 68.107106 161.63829 68.113609 curveto
161.63829 67.874352 lineto
163.77696 67.874352 lineto
163.78672 67.913421 163.7916 67.932952 163.79161 67.932945 curveto
fill
grestore
grestore
showpage
%%EOF
