%!PS-Adobe-3.0 EPSF-3.0
%%Creator: inkscape 0.46
%%Pages: 1
%%Orientation: Portrait
%%BoundingBox: -32 731 156 836
%%HiResBoundingBox: -32.689905 731.73655 155.75345 835.45766
%%EndComments
%%Page: 1 1
0 842 translate
0.8 -0.8 scale
0 0 0 setrgbcolor
[] 0 setdash
1 setlinewidth
0 setlinejoin
0 setlinecap
gsave [1 0 0 1 0 0] concat
0 0 0 setrgbcolor
[] 0 setdash
0.70866144 setlinewidth
0 setlinejoin
0 setlinecap
newpath
14.274298 136.09701 moveto
193.80599 136.09701 lineto
stroke
gsave [-0.28346457 0 0 -0.28346457 190.97134 136.09701] concat
gsave
0 0 0 setrgbcolor
newpath
0 0 moveto
5 -5 lineto
-12.5 0 lineto
5 5 lineto
0 0 lineto
closepath
eofill
grestore
0 0 0 setrgbcolor
[] 0 setdash
1.25 setlinewidth
0 setlinejoin
0 setlinecap
newpath
0 0 moveto
5 -5 lineto
-12.5 0 lineto
5 5 lineto
0 0 lineto
closepath
stroke
grestore
0 0 0 setrgbcolor
[] 0 setdash
0.70866144 setlinewidth
0 setlinejoin
0 setlinecap
newpath
14.274298 136.09701 moveto
14.226229 12.744893 lineto
stroke
gsave [0.0001104631 0.28346455 -0.28346455 0.0001104631 14.227334 15.579539] concat
gsave
0 0 0 setrgbcolor
newpath
0 0 moveto
5 -5 lineto
-12.5 0 lineto
5 5 lineto
0 0 lineto
closepath
eofill
grestore
0 0 0 setrgbcolor
[] 0 setdash
1.25 setlinewidth
0 setlinejoin
0 setlinecap
newpath
0 0 moveto
5 -5 lineto
-12.5 0 lineto
5 5 lineto
0 0 lineto
closepath
stroke
grestore
0 0 0 setrgbcolor
[] 0 setdash
0.70866144 setlinewidth
0 setlinejoin
0 setlinecap
newpath
14.165879 135.93877 moveto
89.354007 60.750638 lineto
92.281991 57.822653 93.276866 65.981116 96.110042 65.981116 curveto
180.45151 66.199053 lineto
stroke
0 0 0 setrgbcolor
[5.6692913 2.8346457] 0 setdash
0.70866144 setlinewidth
0 setlinejoin
0 setlinecap
newpath
90.661627 43.533647 moveto
90.661627 135.72083 lineto
90.225754 135.72083 lineto
90.225754 135.72083 lineto
stroke
0 0 0 setrgbcolor
[5.6366841 2.818342] 0 setdash
0.70458555 setlinewidth
0 setlinejoin
0 setlinecap
newpath
93.279514 65.983765 moveto
14.599105 65.983765 lineto
14.599105 65.760532 lineto
14.599105 65.760532 lineto
stroke
0 0 0 setrgbcolor
[5.5146948 2.7573474] 0 setdash
0.68933684 setlinewidth
0 setlinejoin
0 setlinecap
newpath
86.103683 60.096829 moveto
13.929213 60.096829 lineto
stroke
gsave [1 0 0 -1 -41.843826 56.827782] concat
gsave
/newlatin1font {findfont dup length dict copy dup /Encoding ISOLatin1Encoding put definefont} def
/BitstreamVeraSans-Roman-ISOLatin1 /BitstreamVeraSans-Roman newlatin1font
10 scalefont
setfont
0 0 0 setrgbcolor
newpath
0 0 moveto
(Fstat.max.) show
grestore
grestore
gsave [1 0 0 -1 -12.640324 72.737144] concat
gsave
/BitstreamVeraSans-Roman-ISOLatin1 findfont
10 scalefont
setfont
0 0 0 setrgbcolor
newpath
0 0 moveto
(Fcin.) show
grestore
grestore
gsave [1 0 0 -1 25.277065 35.034122] concat
gsave
/BitstreamVeraSans-Roman-ISOLatin1 findfont
10 scalefont
setfont
0 0 0 setrgbcolor
newpath
0 0 moveto
(Domaine) show
grestore
grestore
gsave [1 0 0 -1 107.8848 35.034122] concat
gsave
/BitstreamVeraSans-Roman-ISOLatin1 findfont
10 scalefont
setfont
0 0 0 setrgbcolor
newpath
0 0 moveto
(Domaine) show
grestore
grestore
gsave [1 0 0 -1 18.960485 15.637761] concat
gsave
/BitstreamVeraSans-Roman-ISOLatin1 findfont
10 scalefont
setfont
0 0 0 setrgbcolor
newpath
0 0 moveto
(Force de frottement) show
grestore
grestore
gsave [1 0 0 -1 102.86607 128.52893] concat
gsave
/BitstreamVeraSans-Roman-ISOLatin1 findfont
10 scalefont
setfont
0 0 0 setrgbcolor
newpath
0 0 moveto
(Force de traction) show
grestore
grestore
0 0 0 setrgbcolor
[] 0 setdash
0.32862726 setlinewidth
0 setlinejoin
0 setlinecap
newpath
13.976021 52.115455 moveto
90.633548 52.115455 lineto
stroke
gsave [0.32862726 0 0 0.32862726 13.976021 52.115455] concat
1 1 1 setrgbcolor
[] 0 setdash
1.15 setlinewidth
0 setlinejoin
2 setlinecap
newpath
0 0 moveto
2 0 lineto
stroke
gsave
0 0 0 setrgbcolor
newpath
0 0 moveto
13 4 lineto
9 0 lineto
13 -4 lineto
0 0 lineto
closepath
eofill
grestore
0 0 0 setrgbcolor
[] 0 setdash
1 setlinewidth
0 setlinejoin
2 setlinecap
newpath
0 -4 moveto
0 40 lineto
stroke
grestore
gsave [0.32862726 0 0 0.32862726 90.633548 52.115455] concat
1 1 1 setrgbcolor
[] 0 setdash
1.15 setlinewidth
0 setlinejoin
2 setlinecap
newpath
0 0 moveto
-2 0 lineto
stroke
gsave
0 0 0 setrgbcolor
newpath
0 0 moveto
-13 4 lineto
-9 0 lineto
-13 -4 lineto
0 0 lineto
closepath
eofill
grestore
0 0 0 setrgbcolor
[] 0 setdash
1 setlinewidth
0 setlinejoin
2 setlinecap
newpath
0 -4 moveto
0 40 lineto
stroke
grestore
0 0 0 setrgbcolor
[] 0 setdash
0.32862726 setlinewidth
0 setlinejoin
0 setlinecap
newpath
90.689705 52.220108 moveto
167.34723 52.220108 lineto
stroke
gsave [0.32862726 0 0 0.32862726 90.689705 52.220108] concat
1 1 1 setrgbcolor
[] 0 setdash
1.15 setlinewidth
0 setlinejoin
2 setlinecap
newpath
0 0 moveto
2 0 lineto
stroke
gsave
0 0 0 setrgbcolor
newpath
0 0 moveto
13 4 lineto
9 0 lineto
13 -4 lineto
0 0 lineto
closepath
eofill
grestore
0 0 0 setrgbcolor
[] 0 setdash
1 setlinewidth
0 setlinejoin
2 setlinecap
newpath
0 -4 moveto
0 40 lineto
stroke
grestore
gsave [1 0 0 -1 25.716518 46.148884] concat
gsave
/BitstreamVeraSans-Roman-ISOLatin1 findfont
10 scalefont
setfont
0 0 0 setrgbcolor
newpath
0 0 moveto
(statique) show
grestore
grestore
gsave [1 0 0 -1 108.31449 46.148884] concat
gsave
/BitstreamVeraSans-Roman-ISOLatin1 findfont
10 scalefont
setfont
0 0 0 setrgbcolor
newpath
0 0 moveto
(dynamique) show
grestore
grestore
0 0 0 setrgbcolor
[] 0 setdash
0.70866144 setlinewidth
0 setlinejoin
0 setlinecap
newpath
27.024139 123.08051 moveto
30.293188 126.34956 32.254617 130.49035 32.472554 135.93877 curveto
stroke
gsave [1 0 0 -1 36.61335 129.61861] concat
gsave
/BitstreamVeraSans-Roman-ISOLatin1 findfont
10 scalefont
setfont
0 0 0 setrgbcolor
newpath
0 0 moveto
(45) show
grestore
grestore
grestore
showpage
%%EOF
