%!PS-Adobe-2.0 EPSF-2.0
%%Title: Gravitation2.eps
%%Creator: fig2dev Version 3.2 Patchlevel 3d
%%CreationDate: Fri Nov 22 00:30:23 2002
%%For: prof@linux (Vincent Guyot)
%%BoundingBox: 0 0 197 98
%%Magnification: 1.0000
%%EndComments
/$F2psDict 200 dict def
$F2psDict begin
$F2psDict /mtrx matrix put
/col-1 {0 setgray} bind def
/col0 {0.000 0.000 0.000 srgb} bind def
/col1 {0.000 0.000 1.000 srgb} bind def
/col2 {0.000 1.000 0.000 srgb} bind def
/col3 {0.000 1.000 1.000 srgb} bind def
/col4 {1.000 0.000 0.000 srgb} bind def
/col5 {1.000 0.000 1.000 srgb} bind def
/col6 {1.000 1.000 0.000 srgb} bind def
/col7 {1.000 1.000 1.000 srgb} bind def
/col8 {0.000 0.000 0.560 srgb} bind def
/col9 {0.000 0.000 0.690 srgb} bind def
/col10 {0.000 0.000 0.820 srgb} bind def
/col11 {0.530 0.810 1.000 srgb} bind def
/col12 {0.000 0.560 0.000 srgb} bind def
/col13 {0.000 0.690 0.000 srgb} bind def
/col14 {0.000 0.820 0.000 srgb} bind def
/col15 {0.000 0.560 0.560 srgb} bind def
/col16 {0.000 0.690 0.690 srgb} bind def
/col17 {0.000 0.820 0.820 srgb} bind def
/col18 {0.560 0.000 0.000 srgb} bind def
/col19 {0.690 0.000 0.000 srgb} bind def
/col20 {0.820 0.000 0.000 srgb} bind def
/col21 {0.560 0.000 0.560 srgb} bind def
/col22 {0.690 0.000 0.690 srgb} bind def
/col23 {0.820 0.000 0.820 srgb} bind def
/col24 {0.500 0.190 0.000 srgb} bind def
/col25 {0.630 0.250 0.000 srgb} bind def
/col26 {0.750 0.380 0.000 srgb} bind def
/col27 {1.000 0.500 0.500 srgb} bind def
/col28 {1.000 0.630 0.630 srgb} bind def
/col29 {1.000 0.750 0.750 srgb} bind def
/col30 {1.000 0.880 0.880 srgb} bind def
/col31 {1.000 0.840 0.000 srgb} bind def
/col32 {0.557 0.573 0.557 srgb} bind def
/col33 {0.906 0.906 0.812 srgb} bind def
/col34 {0.620 0.604 0.620 srgb} bind def
/col35 {0.812 0.573 0.000 srgb} bind def
/col36 {0.969 0.380 0.682 srgb} bind def
/col37 {0.443 0.443 1.000 srgb} bind def
/col38 {0.349 0.365 0.349 srgb} bind def
/col39 {0.557 0.573 0.557 srgb} bind def
/col40 {0.906 0.906 0.812 srgb} bind def
/col41 {0.620 0.604 0.620 srgb} bind def
/col42 {0.812 0.573 0.000 srgb} bind def
/col43 {0.969 0.380 0.682 srgb} bind def
/col44 {0.443 0.443 1.000 srgb} bind def
/col45 {0.349 0.365 0.349 srgb} bind def
/col46 {0.875 0.890 0.937 srgb} bind def
/col47 {0.588 0.588 0.620 srgb} bind def
/col48 {0.843 0.859 0.843 srgb} bind def
/col49 {0.620 0.635 0.714 srgb} bind def
/col50 {0.620 0.000 0.000 srgb} bind def
/col51 {0.937 0.937 0.937 srgb} bind def
/col52 {0.875 0.890 0.875 srgb} bind def
/col53 {0.525 0.682 1.000 srgb} bind def
/col54 {0.443 0.443 1.000 srgb} bind def
/col55 {0.780 0.714 0.588 srgb} bind def
/col56 {0.937 0.984 1.000 srgb} bind def
/col57 {0.875 0.796 0.651 srgb} bind def
/col58 {0.255 0.255 0.255 srgb} bind def
/col59 {0.525 0.510 0.525 srgb} bind def
/col60 {0.745 0.765 0.745 srgb} bind def
/col61 {0.875 0.890 0.875 srgb} bind def
/col62 {0.557 0.557 0.557 srgb} bind def
/col63 {0.682 0.667 0.682 srgb} bind def
/col64 {0.349 0.333 0.349 srgb} bind def
/col65 {0.255 0.255 0.255 srgb} bind def
/col66 {0.525 0.510 0.525 srgb} bind def
/col67 {0.745 0.765 0.745 srgb} bind def
/col68 {0.525 0.510 0.525 srgb} bind def
/col69 {0.745 0.765 0.745 srgb} bind def
/col70 {0.875 0.890 0.875 srgb} bind def
/col71 {0.557 0.557 0.557 srgb} bind def
/col72 {0.557 0.557 0.557 srgb} bind def
/col73 {0.255 0.255 0.255 srgb} bind def
/col74 {0.525 0.510 0.525 srgb} bind def
/col75 {0.745 0.765 0.745 srgb} bind def
/col76 {0.875 0.890 0.875 srgb} bind def
/col77 {0.255 0.255 0.255 srgb} bind def
/col78 {0.525 0.510 0.525 srgb} bind def
/col79 {0.745 0.765 0.745 srgb} bind def
/col80 {0.875 0.890 0.875 srgb} bind def
/col81 {0.525 0.510 0.525 srgb} bind def
/col82 {0.745 0.765 0.745 srgb} bind def
/col83 {0.875 0.890 0.875 srgb} bind def
/col84 {0.780 0.714 0.588 srgb} bind def
/col85 {0.937 0.984 1.000 srgb} bind def
/col86 {0.875 0.796 0.651 srgb} bind def
/col87 {0.780 0.714 0.588 srgb} bind def
/col88 {0.937 0.984 1.000 srgb} bind def
/col89 {0.875 0.796 0.651 srgb} bind def
/col90 {0.682 0.667 0.682 srgb} bind def
/col91 {0.349 0.333 0.349 srgb} bind def
/col92 {0.557 0.557 0.557 srgb} bind def
/col93 {0.255 0.255 0.255 srgb} bind def
/col94 {0.525 0.510 0.525 srgb} bind def
/col95 {0.745 0.765 0.745 srgb} bind def
/col96 {0.875 0.890 0.875 srgb} bind def
/col97 {0.255 0.255 0.255 srgb} bind def
/col98 {0.525 0.510 0.525 srgb} bind def
/col99 {0.745 0.765 0.745 srgb} bind def
/col100 {0.875 0.890 0.875 srgb} bind def
/col101 {0.525 0.510 0.525 srgb} bind def
/col102 {0.745 0.765 0.745 srgb} bind def
/col103 {0.875 0.890 0.875 srgb} bind def
/col104 {0.255 0.255 0.255 srgb} bind def
/col105 {0.525 0.510 0.525 srgb} bind def
/col106 {0.745 0.765 0.745 srgb} bind def
/col107 {0.255 0.255 0.255 srgb} bind def
/col108 {0.745 0.765 0.745 srgb} bind def
/col109 {0.875 0.890 0.875 srgb} bind def
/col110 {0.255 0.255 0.255 srgb} bind def
/col111 {0.525 0.510 0.525 srgb} bind def
/col112 {0.745 0.765 0.745 srgb} bind def
/col113 {0.557 0.557 0.557 srgb} bind def
/col114 {0.255 0.255 0.255 srgb} bind def
/col115 {0.525 0.510 0.525 srgb} bind def
/col116 {0.745 0.765 0.745 srgb} bind def
/col117 {0.875 0.890 0.875 srgb} bind def
/col118 {0.255 0.255 0.255 srgb} bind def
/col119 {0.525 0.510 0.525 srgb} bind def
/col120 {0.745 0.765 0.745 srgb} bind def
/col121 {0.875 0.890 0.875 srgb} bind def
/col122 {0.745 0.745 0.745 srgb} bind def
/col123 {0.318 0.318 0.318 srgb} bind def
/col124 {0.906 0.890 0.906 srgb} bind def
/col125 {0.000 0.000 0.286 srgb} bind def
/col126 {0.475 0.475 0.475 srgb} bind def
/col127 {0.188 0.204 0.188 srgb} bind def
/col128 {0.255 0.271 0.255 srgb} bind def
/col129 {0.255 0.255 0.255 srgb} bind def
/col130 {0.525 0.510 0.525 srgb} bind def
/col131 {0.745 0.765 0.745 srgb} bind def
/col132 {0.875 0.890 0.875 srgb} bind def
/col133 {0.000 0.000 0.475 srgb} bind def
/col134 {1.000 0.510 0.000 srgb} bind def
/col135 {0.000 0.490 0.000 srgb} bind def
/col136 {0.000 0.000 0.745 srgb} bind def
/col137 {0.255 0.255 0.255 srgb} bind def
/col138 {0.525 0.510 0.525 srgb} bind def
/col139 {0.745 0.765 0.745 srgb} bind def
/col140 {0.875 0.890 0.875 srgb} bind def
/col141 {0.525 0.510 0.525 srgb} bind def
/col142 {0.745 0.765 0.745 srgb} bind def
/col143 {0.875 0.890 0.875 srgb} bind def
/col144 {0.286 0.271 0.286 srgb} bind def
/col145 {0.286 0.271 0.286 srgb} bind def
/col146 {0.557 0.557 0.557 srgb} bind def
/col147 {0.812 0.812 0.812 srgb} bind def
/col148 {0.875 0.890 0.937 srgb} bind def
/col149 {0.588 0.588 0.620 srgb} bind def
/col150 {0.843 0.859 0.843 srgb} bind def
/col151 {0.620 0.635 0.714 srgb} bind def
/col152 {0.620 0.000 0.000 srgb} bind def
/col153 {0.937 0.937 0.937 srgb} bind def
/col154 {0.875 0.890 0.875 srgb} bind def
/col155 {0.525 0.682 1.000 srgb} bind def
/col156 {0.443 0.443 1.000 srgb} bind def
/col157 {0.780 0.714 0.588 srgb} bind def
/col158 {0.937 0.984 1.000 srgb} bind def
/col159 {0.875 0.796 0.651 srgb} bind def
/col160 {0.255 0.255 0.255 srgb} bind def
/col161 {0.525 0.510 0.525 srgb} bind def
/col162 {0.745 0.765 0.745 srgb} bind def
/col163 {0.875 0.890 0.875 srgb} bind def
/col164 {0.557 0.557 0.557 srgb} bind def
/col165 {0.682 0.667 0.682 srgb} bind def
/col166 {0.349 0.333 0.349 srgb} bind def
/col167 {0.255 0.255 0.255 srgb} bind def
/col168 {0.525 0.510 0.525 srgb} bind def
/col169 {0.745 0.765 0.745 srgb} bind def
/col170 {0.525 0.510 0.525 srgb} bind def
/col171 {0.745 0.765 0.745 srgb} bind def
/col172 {0.875 0.890 0.875 srgb} bind def
/col173 {0.557 0.557 0.557 srgb} bind def
/col174 {0.557 0.557 0.557 srgb} bind def
/col175 {0.255 0.255 0.255 srgb} bind def
/col176 {0.525 0.510 0.525 srgb} bind def
/col177 {0.745 0.765 0.745 srgb} bind def
/col178 {0.875 0.890 0.875 srgb} bind def
/col179 {0.255 0.255 0.255 srgb} bind def
/col180 {0.525 0.510 0.525 srgb} bind def
/col181 {0.745 0.765 0.745 srgb} bind def
/col182 {0.875 0.890 0.875 srgb} bind def
/col183 {0.525 0.510 0.525 srgb} bind def
/col184 {0.745 0.765 0.745 srgb} bind def
/col185 {0.875 0.890 0.875 srgb} bind def
/col186 {0.780 0.714 0.588 srgb} bind def
/col187 {0.937 0.984 1.000 srgb} bind def
/col188 {0.875 0.796 0.651 srgb} bind def
/col189 {0.780 0.714 0.588 srgb} bind def
/col190 {0.937 0.984 1.000 srgb} bind def
/col191 {0.875 0.796 0.651 srgb} bind def
/col192 {0.682 0.667 0.682 srgb} bind def
/col193 {0.349 0.333 0.349 srgb} bind def
/col194 {0.557 0.557 0.557 srgb} bind def
/col195 {0.255 0.255 0.255 srgb} bind def
/col196 {0.525 0.510 0.525 srgb} bind def
/col197 {0.745 0.765 0.745 srgb} bind def
/col198 {0.875 0.890 0.875 srgb} bind def
/col199 {0.255 0.255 0.255 srgb} bind def
/col200 {0.525 0.510 0.525 srgb} bind def
/col201 {0.745 0.765 0.745 srgb} bind def
/col202 {0.875 0.890 0.875 srgb} bind def
/col203 {0.525 0.510 0.525 srgb} bind def
/col204 {0.745 0.765 0.745 srgb} bind def
/col205 {0.875 0.890 0.875 srgb} bind def
/col206 {0.255 0.255 0.255 srgb} bind def
/col207 {0.525 0.510 0.525 srgb} bind def
/col208 {0.745 0.765 0.745 srgb} bind def
/col209 {0.255 0.255 0.255 srgb} bind def
/col210 {0.745 0.765 0.745 srgb} bind def
/col211 {0.875 0.890 0.875 srgb} bind def
/col212 {0.255 0.255 0.255 srgb} bind def
/col213 {0.525 0.510 0.525 srgb} bind def
/col214 {0.745 0.765 0.745 srgb} bind def
/col215 {0.557 0.557 0.557 srgb} bind def
/col216 {0.255 0.255 0.255 srgb} bind def
/col217 {0.525 0.510 0.525 srgb} bind def
/col218 {0.745 0.765 0.745 srgb} bind def
/col219 {0.875 0.890 0.875 srgb} bind def
/col220 {0.255 0.255 0.255 srgb} bind def
/col221 {0.525 0.510 0.525 srgb} bind def
/col222 {0.745 0.765 0.745 srgb} bind def
/col223 {0.875 0.890 0.875 srgb} bind def
/col224 {0.255 0.255 0.255 srgb} bind def
/col225 {0.525 0.510 0.525 srgb} bind def
/col226 {0.745 0.765 0.745 srgb} bind def
/col227 {0.875 0.890 0.875 srgb} bind def

end
save
newpath 0 98 moveto 0 0 lineto 197 0 lineto 197 98 lineto closepath clip newpath
-19.1 108.0 translate
1 -1 scale

/cp {closepath} bind def
/ef {eofill} bind def
/gr {grestore} bind def
/gs {gsave} bind def
/sa {save} bind def
/rs {restore} bind def
/l {lineto} bind def
/m {moveto} bind def
/rm {rmoveto} bind def
/n {newpath} bind def
/s {stroke} bind def
/sh {show} bind def
/slc {setlinecap} bind def
/slj {setlinejoin} bind def
/slw {setlinewidth} bind def
/srgb {setrgbcolor} bind def
/rot {rotate} bind def
/sc {scale} bind def
/sd {setdash} bind def
/ff {findfont} bind def
/sf {setfont} bind def
/scf {scalefont} bind def
/sw {stringwidth} bind def
/tr {translate} bind def
/tnt {dup dup currentrgbcolor
  4 -2 roll dup 1 exch sub 3 -1 roll mul add
  4 -2 roll dup 1 exch sub 3 -1 roll mul add
  4 -2 roll dup 1 exch sub 3 -1 roll mul add srgb}
  bind def
/shd {dup dup currentrgbcolor 4 -2 roll mul 4 -2 roll mul
  4 -2 roll mul srgb} bind def
 /DrawEllipse {
	/endangle exch def
	/startangle exch def
	/yrad exch def
	/xrad exch def
	/y exch def
	/x exch def
	/savematrix mtrx currentmatrix def
	x y tr xrad yrad sc 0 0 1 startangle endangle arc
	closepath
	savematrix setmatrix
	} def

/$F2psBegin {$F2psDict begin /$F2psEnteredState save def} def
/$F2psEnd {$F2psEnteredState restore end} def

$F2psBegin
10 setmiterlimit
 0.06299 0.06299 sc
%
% Fig objects follow
%
% Polyline
7.500 slw
gs  clippath
2160 440 m 2160 410 l 2077 410 l 2137 425 l 2077 440 l cp
eoclip
n 2010 425 m
 2145 425 l gs col0 s gr gr

% arrowhead
3.750 slw
n 2077 440 m 2137 425 l 2077 410 l  col0 s
/Times-Roman ff 180.00 scf sf
2025 600 m
gs 1 -1 sc (F) col0 sh gr
% Polyline
7.500 slw
gs  clippath
1355 360 m 1355 330 l 1272 330 l 1332 345 l 1272 360 l cp
eoclip
n 1205 345 m
 1340 345 l gs col0 s gr gr

% arrowhead
3.750 slw
n 1272 360 m 1332 345 l 1272 330 l  col0 s
/Times-Roman ff 180.00 scf sf
1220 520 m
gs 1 -1 sc (F) col0 sh gr
7.500 slw
% Ellipse
n 2835 855 587 587 0 360 DrawEllipse gs col61 1.00 shd ef gr gs col0 s gr

% Ellipse
n 675 540 363 363 0 360 DrawEllipse gs col70 1.00 shd ef gr gs col0 s gr

% Polyline
gs  clippath
1969 688 m 1960 747 l 2109 771 l 1996 723 l 2119 712 l cp
1969 688 m 1960 747 l 2109 771 l 1996 723 l 2119 712 l cp
eoclip
n 1980 720 m 2835 855 l
 cp gs col0 s gr 
% arrowhead
n 2119 712 m 1996 723 l 2109 771 l  col0 s
% arrowhead
n 2119 712 m 1996 723 l 2109 771 l  col0 s
% Polyline
gs  clippath
1384 667 m 1394 607 l 1245 583 l 1359 632 l 1235 642 l cp
eoclip
n 661 519 m
 1375 635 l gs col0 s gr gr

% arrowhead
n 1235 642 m 1359 632 l 1245 583 l  col0 s
% Polyline
 [15 30] 30 sd
n 675 450 m
 485 1350 l gs col0 s gr  [] 0 sd
% Polyline
 [15 30] 30 sd
n 2844 786 m
 2654 1686 l gs col0 s gr  [] 0 sd
% Polyline
n 1925 540 m
 2000 540 l gs col0 s gr 
% Polyline
gs  clippath
2670 1726 m 2679 1667 l 2530 1643 l 2644 1692 l 2520 1702 l cp
479 1318 m 470 1377 l 619 1401 l 506 1353 l 629 1342 l cp
eoclip
n 490 1350 m
 2660 1695 l gs col0 s gr gr

% arrowhead
n 629 1342 m 506 1353 l 619 1401 l  col0 s
% arrowhead
n 2520 1702 m 2644 1692 l 2530 1643 l  col0 s
/Times-Roman ff 180.00 scf sf
2790 1080 m
gs 1 -1 sc (M) col0 sh gr
/Times-Roman ff 180.00 scf sf
450 585 m
gs 1 -1 sc (m) col0 sh gr
/Times-Roman ff 180.00 scf sf
1490 1425 m
gs 1 -1 sc (r) col0 sh gr
$F2psEnd
rs
