%!PS-Adobe-3.0 EPSF-3.0
%%Creator: inkscape 0.46
%%Pages: 1
%%Orientation: Portrait
%%BoundingBox: 9 753 150 829
%%HiResBoundingBox: 9.4115743 753.68081 149.38556 828.11466
%%EndComments
%%Page: 1 1
0 842 translate
0.8 -0.8 scale
0 0 0 setrgbcolor
[] 0 setdash
1 setlinewidth
0 setlinejoin
0 setlinecap
gsave [1 0 0 1 0 0] concat
0 0 0 setrgbcolor
[] 0 setdash
0.35433072 setlinewidth
0 setlinejoin
0 setlinecap
newpath
71.649797 80.229927 moveto
71.649797 96.70938 58.275169 110.08401 41.795715 110.08401 curveto
25.316262 110.08401 11.941633 96.70938 11.941633 80.229927 curveto
11.941633 63.750474 25.316262 50.375845 41.795715 50.375845 curveto
58.275169 50.375845 71.649797 63.750474 71.649797 80.229927 curveto
closepath
stroke
gsave [1.4070261 0 0 1.3605144 85.741645 -51.141038] concat
0 0 0 setrgbcolor
[] 0 setdash
0.25609797 setlinewidth
0 setlinejoin
0 setlinecap
newpath
71.649797 80.229927 moveto
71.649797 96.70938 58.275169 110.08401 41.795715 110.08401 curveto
25.316262 110.08401 11.941633 96.70938 11.941633 80.229927 curveto
11.941633 63.750474 25.316262 50.375845 41.795715 50.375845 curveto
58.275169 50.375845 71.649797 63.750474 71.649797 80.229927 curveto
closepath
stroke
grestore
0 0 0 setrgbcolor
[2.1259843 2.1259843] 0 setdash
0.35433072 setlinewidth
0 setlinejoin
0 setlinecap
newpath
41.65686 80.646497 moveto
146.07672 56.207806 lineto
stroke
0 0 0 setrgbcolor
[] 0 setdash
1 setlinewidth
0 setlinejoin
0 setlinecap
newpath
41.101435 80.646497 moveto
80.814308 71.759701 lineto
stroke
gsave [-0.39034594 0.087350133 -0.087350133 -0.39034594 76.910849 72.633202] concat
gsave
0 0 0 setrgbcolor
newpath
0 0 moveto
5 -5 lineto
-12.5 0 lineto
5 5 lineto
0 0 lineto
closepath
eofill
grestore
0 0 0 setrgbcolor
[] 0 setdash
1.25 setlinewidth
0 setlinejoin
0 setlinecap
newpath
0 0 moveto
5 -5 lineto
-12.5 0 lineto
5 5 lineto
0 0 lineto
closepath
stroke
grestore
0 0 0 setrgbcolor
[] 0 setdash
1 setlinewidth
0 setlinejoin
0 setlinecap
newpath
145.46766 56.289783 moveto
105.75479 65.454285 lineto
stroke
gsave [0.38975649 -0.089943742 0.089943742 0.38975649 109.65235 64.554848] concat
gsave
0 0 0 setrgbcolor
newpath
0 0 moveto
5 -5 lineto
-12.5 0 lineto
5 5 lineto
0 0 lineto
closepath
eofill
grestore
0 0 0 setrgbcolor
[] 0 setdash
1.25 setlinewidth
0 setlinejoin
0 setlinecap
newpath
0 0 moveto
5 -5 lineto
-12.5 0 lineto
5 5 lineto
0 0 lineto
closepath
stroke
grestore
gsave [1 0 0 -1 47.211109 72.037415] concat
gsave
/newlatin1font {findfont dup length dict copy dup /Encoding ISOLatin1Encoding put definefont} def
/BitstreamVeraSans-Roman-ISOLatin1 /BitstreamVeraSans-Roman newlatin1font
10 scalefont
setfont
0 0 0 setrgbcolor
newpath
0 0 moveto
(F) show
grestore
grestore
gsave [1 0 0 -1 120.52718 55.096958] concat
gsave
/BitstreamVeraSans-Roman-ISOLatin1 findfont
10 scalefont
setfont
0 0 0 setrgbcolor
newpath
0 0 moveto
(-F) show
grestore
grestore
gsave [1 0 0 -1 156.07437 47.598724] concat
gsave
/BitstreamVeraSans-Roman-ISOLatin1 findfont
10 scalefont
setfont
0 0 0 setrgbcolor
newpath
0 0 moveto
(M) show
grestore
grestore
gsave [1 0 0 -1 20.82843 86.756172] concat
gsave
/BitstreamVeraSans-Roman-ISOLatin1 findfont
10 scalefont
setfont
0 0 0 setrgbcolor
newpath
0 0 moveto
(m) show
grestore
grestore
0 0 0 setrgbcolor
[] 0 setdash
0.35433072 setlinewidth
0 setlinejoin
0 setlinecap
newpath
149.2872 70.502322 moveto
44.311915 94.107872 lineto
stroke
gsave [-0.3456983 0.077736378 -0.077736378 -0.3456983 149.2872 70.502322] concat
1 1 1 setrgbcolor
[] 0 setdash
1.15 setlinewidth
0 setlinejoin
2 setlinecap
newpath
0 0 moveto
2 0 lineto
stroke
gsave
0 0 0 setrgbcolor
newpath
0 0 moveto
13 4 lineto
9 0 lineto
13 -4 lineto
0 0 lineto
closepath
eofill
grestore
0 0 0 setrgbcolor
[] 0 setdash
1 setlinewidth
0 setlinejoin
2 setlinecap
newpath
0 -4 moveto
0 40 lineto
stroke
grestore
gsave [-0.3456983 0.077736378 -0.077736378 -0.3456983 44.311915 94.107872] concat
1 1 1 setrgbcolor
[] 0 setdash
1.15 setlinewidth
0 setlinejoin
2 setlinecap
newpath
0 0 moveto
-2 0 lineto
stroke
gsave
0 0 0 setrgbcolor
newpath
0 0 moveto
-13 4 lineto
-9 0 lineto
-13 -4 lineto
0 0 lineto
closepath
eofill
grestore
0 0 0 setrgbcolor
[] 0 setdash
1 setlinewidth
0 setlinejoin
2 setlinecap
newpath
0 -4 moveto
0 40 lineto
stroke
grestore
gsave [1 0 0 -1 88.312546 95.920677] concat
gsave
/BitstreamVeraSans-Roman-ISOLatin1 findfont
10 scalefont
setfont
0 0 0 setrgbcolor
newpath
0 0 moveto
(r) show
grestore
grestore
grestore
showpage
%%EOF
