%!PS-Adobe-3.0 EPSF-3.0
%%Creator: inkscape 0.44.1
%%Pages: 1
%%Orientation: Portrait
%%BoundingBox: 5 3 165 62
%%HiResBoundingBox: 5.4183331 3.3348678 164.80996 61.484372
%%DocumentMedia: plain 171 86 0 () ()
%%EndComments
%%Page: 1 1
0 86 translate
0.8 -0.8 scale
gsave [1 0 0 1 0 0] concat
gsave
0.2 0.2 1 setrgbcolor
newpath
112.50834 66.583055 moveto
112.63485 86.758082 92.329356 101.39466 70.826543 101.68051 curveto
50.359005 101.95259 32.340883 84.604972 32.212412 66.005336 curveto
32.078654 46.500561 49.669274 29.622139 71.867839 29.622139 curveto
82.959677 29.622139 112.3388 39.370749 112.50834 66.583055 curveto
closepath
eofill
grestore
gsave
1 1 1 setrgbcolor
newpath
105.40372 65.790184 moveto
105.36537 63.961786 lineto
105.23479 62.156398 lineto
105.01963 60.381886 lineto
104.71225 58.630384 lineto
104.32049 56.909562 lineto
103.85183 55.219419 lineto
103.29114 53.567627 lineto
102.66889 51.96972 lineto
101.96975 50.39502 lineto
101.18623 48.86634 lineto
100.33349 47.375813 lineto
99.411523 45.939271 lineto
98.428196 44.541176 lineto
97.375839 43.204442 lineto
96.25406 41.913727 lineto
95.078787 40.699908 lineto
93.857299 39.524635 lineto
92.574254 38.418392 lineto
91.237715 37.358169 lineto
89.839424 36.367172 lineto
88.40298 35.445402 lineto
86.912453 34.59266 lineto
85.383773 33.801279 lineto
83.808877 33.10233 lineto
82.21097 32.464544 lineto
80.559374 31.911521 lineto
78.876902 31.442867 lineto
77.15608 31.05111 lineto
75.404577 30.743722 lineto
73.629869 30.528767 lineto
71.824677 30.398181 lineto
69.996279 30.374974 lineto
50.283523 30.374974 34.296789 46.35394 34.296789 66.074563 curveto
34.296789 85.786926 50.275853 101.77386 69.996279 101.77386 curveto
89.708839 101.77386 105.70324 85.794792 105.70324 66.074563 curveto
eofill
grestore
1 1 1 setrgbcolor
[] 0 setdash
0 setlinewidth
0 setlinejoin
0 setlinecap
newpath
105.40372 65.790184 moveto
105.36537 63.961786 lineto
105.23479 62.156398 lineto
105.01963 60.381886 lineto
104.71225 58.630384 lineto
104.32049 56.909562 lineto
103.85183 55.219419 lineto
103.29114 53.567627 lineto
102.66889 51.96972 lineto
101.96975 50.39502 lineto
101.18623 48.86634 lineto
100.33349 47.375813 lineto
99.411523 45.939271 lineto
98.428196 44.541176 lineto
97.375839 43.204442 lineto
96.25406 41.913727 lineto
95.078787 40.699908 lineto
93.857299 39.524635 lineto
92.574254 38.418392 lineto
91.237715 37.358169 lineto
89.839424 36.367172 lineto
88.40298 35.445402 lineto
86.912453 34.59266 lineto
85.383773 33.801279 lineto
83.808877 33.10233 lineto
82.21097 32.464544 lineto
80.559374 31.911521 lineto
78.876902 31.442867 lineto
77.15608 31.05111 lineto
75.404577 30.743722 lineto
73.629869 30.528767 lineto
71.824677 30.398181 lineto
69.996279 30.374974 lineto
50.283523 30.374974 34.296789 46.35394 34.296789 66.074563 curveto
34.296789 85.786926 50.275853 101.77386 69.996279 101.77386 curveto
89.708839 101.77386 105.70324 85.794792 105.70324 66.074563 curveto
105.63421 66.005336 lineto
105.54198 65.92077 lineto
105.40372 65.790184 lineto
closepath
stroke
0 0 0 setrgbcolor
[] 0 setdash
0.71352965 setlinewidth
0 setlinejoin
0 setlinecap
newpath
69.996279 30.374974 moveto
50.283696 30.292272 34.296789 46.35394 34.296789 66.074563 curveto
34.296789 85.786926 50.275853 101.77386 69.996279 101.77386 curveto
89.708839 101.77386 105.70324 85.794792 105.70324 66.074563 curveto
105.63421 66.005336 lineto
105.09802 46.300438 89.56713 30.509021 69.996279 30.374974 curveto
closepath
stroke
0 0 0 setrgbcolor
[] 0 setdash
0.71352965 setlinewidth
0 setlinejoin
0 setlinecap
newpath
205.37248 65.951647 moveto
205.37248 65.429107 lineto
205.34888 64.921907 lineto
205.28005 64.422573 lineto
205.20335 63.93091 lineto
205.09518 63.446916 lineto
204.96538 62.978459 lineto
204.81788 62.510002 lineto
204.64285 62.056492 lineto
204.45012 61.626385 lineto
204.23575 61.196081 lineto
204.00369 60.773643 lineto
203.75196 60.366349 lineto
203.47466 59.982459 lineto
203.18163 59.605844 lineto
202.87483 59.244963 lineto
202.54443 58.906895 lineto
202.20617 58.576694 lineto
201.84627 58.26911 lineto
201.46081 57.977258 lineto
201.08517 57.700747 lineto
200.67808 57.447245 lineto
200.25721 57.216753 lineto
199.82652 57.001601 lineto
199.38048 56.809459 lineto
198.93503 56.632853 lineto
198.46638 56.479258 lineto
197.99772 56.364209 lineto
197.51373 56.256436 lineto
197.02207 56.1642 lineto
196.52273 56.11051 lineto
196.01573 56.07983 lineto
195.49339 56.07983 lineto
189.89295 56.07983 185.32972 60.620048 185.32972 66.243302 curveto
185.32972 71.843742 189.87761 76.407166 195.49339 76.407166 curveto
201.09304 76.407166 205.65568 71.866752 205.65568 66.243302 curveto
205.59471 66.174272 lineto
205.51015 66.082036 lineto
205.37248 65.951647 lineto
closepath
stroke
0 0 0 setrgbcolor
[] 0 setdash
0.3567884 setlinewidth
0 setlinejoin
0 setlinecap
newpath
40.373553 56.302456 moveto
40.212091 56.894025 lineto
40.058495 57.477925 lineto
39.920239 58.069494 lineto
39.789654 58.661064 lineto
39.659068 59.252437 lineto
39.551492 59.859543 lineto
39.443916 60.450916 lineto
39.367216 61.057825 lineto
39.29032 61.664734 lineto
39.221094 62.271644 lineto
39.167404 62.87875 lineto
39.129054 63.485463 lineto
39.098178 64.100042 lineto
39.075168 64.706951 lineto
39.075168 65.329201 lineto
39.075168 65.93611 lineto
39.075168 84.143 53.487005 99.062037 71.694091 99.699626 curveto
stroke
0 0 0 setrgbcolor
[] 0 setdash
0.3567884 setlinewidth
0 setlinejoin
0 setlinecap
newpath
40.81133 60.020808 moveto
40.742301 60.627718 lineto
40.680744 61.249967 lineto
40.627055 61.856876 lineto
40.588705 62.479126 lineto
40.550159 63.101375 lineto
40.527149 63.723624 lineto
40.527149 64.345874 lineto
40.527149 64.96832 lineto
40.527149 81.50788 52.419309 95.666412 68.720904 98.516487 curveto
stroke
0 0 0 setrgbcolor
[] 0 setdash
0.3567884 setlinewidth
0 setlinejoin
0 setlinecap
newpath
41.717958 66.689142 moveto
42.440113 79.41064 50.375759 90.626861 62.152673 95.574176 curveto
stroke
0 0 0 setrgbcolor
[] 0 setdash
0.3567884 setlinewidth
0 setlinejoin
0 setlinecap
newpath
186.74335 64.44578 moveto
186.72781 64.553356 lineto
186.7048 64.660735 lineto
186.69713 64.768311 lineto
186.68179 64.875887 lineto
186.68179 64.983463 lineto
186.65878 65.068029 lineto
186.65878 65.175605 lineto
186.65878 65.282984 lineto
186.65111 65.390757 lineto
186.65111 65.498136 lineto
186.65111 65.605712 lineto
186.65111 65.713288 lineto
186.65111 65.820864 lineto
186.65111 65.92844 lineto
186.65111 66.036016 lineto
186.65111 66.143396 lineto
186.65111 70.660603 190.31558 74.348079 194.8558 74.348079 curveto
195.02473 74.348079 195.21688 74.348079 195.40115 74.332739 curveto
stroke
0 0 0 setrgbcolor
[] 0 setdash
0.3567884 setlinewidth
0 setlinejoin
0 setlinecap
newpath
188.1261 66.227962 moveto
188.17979 69.930778 191.19133 72.949985 194.91716 73.011541 curveto
stroke
0 0 0 setrgbcolor
[] 0 setdash
0.3567884 setlinewidth
0 setlinejoin
0 setlinecap
newpath
73.161412 30.137009 moveto
73.046166 30.129142 lineto
72.91558 30.129142 lineto
72.661882 30.129142 lineto
72.531296 30.129142 lineto
72.41605 30.129142 lineto
72.285464 30.129142 lineto
72.170218 30.129142 lineto
52.480668 30.129142 36.501605 46.092866 36.501605 65.797854 curveto
36.501605 85.487404 52.465329 101.47414 72.170218 101.47414 curveto
72.508286 101.47414 72.869364 101.47414 73.222772 101.45113 curveto
stroke
0 0 0 setrgbcolor
[] 0 setdash
0.3493264 setlinewidth
0 setlinejoin
0 setlinecap
newpath
72.255504 101.85279 moveto
50.283106 101.91712 32.208714 85.244335 32.208714 66.005364 curveto
32.208714 66.005364 lineto
32.208714 46.498075 49.667545 29.618408 71.868614 29.618408 curveto
71.868614 29.618408 lineto
89.814778 29.618408 112.48858 45.418036 112.55191 66.139425 curveto
112.55191 86.382601 90.500412 102.12092 72.255504 101.85279 curveto
closepath
stroke
gsave
0 0 0 setrgbcolor
newpath
65.542686 63.592499 moveto
65.327843 63.621796 lineto
65.256222 63.231176 65.199256 62.97076 65.156944 62.840546 curveto
65.039751 62.485734 64.881874 62.308326 64.683311 62.308319 curveto
62.818077 62.308319 lineto
62.818077 67.982147 lineto
62.818074 68.271861 62.925495 68.465546 63.140343 68.563202 curveto
63.280313 68.621796 63.511432 68.649465 63.833702 68.64621 curveto
63.833702 68.900116 lineto
60.884483 68.900116 lineto
60.884483 68.709686 lineto
61.581096 68.716197 61.929403 68.473684 61.929405 67.982147 curveto
61.929405 62.308319 lineto
60.088585 62.308319 lineto
59.772829 62.308326 59.559613 62.757544 59.448936 63.655975 curveto
59.292686 63.655975 lineto
59.448936 61.756561 lineto
59.536827 61.756561 lineto
59.667035 61.903053 59.824912 61.976295 60.01046 61.976288 curveto
64.683311 61.976288 lineto
64.872108 61.976295 65.056027 61.903053 65.235069 61.756561 curveto
65.298546 61.756561 lineto
65.542686 63.592499 lineto
fill
grestore
gsave
0 0 0 setrgbcolor
newpath
69.771202 67.698944 moveto
69.367553 68.558319 68.727905 68.988007 67.852257 68.988007 curveto
67.289104 68.988007 66.813844 68.742239 66.426476 68.250702 curveto
66.065147 67.791719 65.884483 67.274141 65.884483 66.697968 curveto
65.884483 66.043674 66.07003 65.493544 66.441124 65.047577 curveto
66.838258 64.572321 67.357464 64.334691 67.998741 64.334686 curveto
68.509806 64.334691 68.923217 64.489313 69.238976 64.798553 curveto
69.557982 65.107802 69.717487 65.519585 69.717491 66.033905 curveto
66.563194 66.033905 lineto
66.546917 66.170627 66.538779 66.3106 66.53878 66.453827 curveto
66.538779 66.938855 66.686891 67.384818 66.983116 67.791718 curveto
67.308635 68.244192 67.705771 68.470429 68.174522 68.470428 curveto
68.786499 68.470429 69.251993 68.195364 69.571007 67.645233 curveto
69.610069 67.645233 lineto
69.68168 67.641979 69.735391 67.659883 69.771202 67.698944 curveto
68.970421 65.755585 moveto
68.957397 65.423557 68.841837 65.153375 68.623741 64.945038 curveto
68.40564 64.733453 68.128947 64.627659 67.793663 64.627655 curveto
67.516969 64.627659 67.271201 64.749729 67.056358 64.993866 curveto
66.867555 65.208713 66.738975 65.462619 66.670616 65.755585 curveto
68.970421 65.755585 lineto
fill
grestore
gsave
0 0 0 setrgbcolor
newpath
73.623741 64.539764 moveto
73.613972 64.725315 73.513061 64.975966 73.321007 65.291718 curveto
72.917358 65.083388 72.639038 64.979221 72.486046 64.979218 curveto
72.290731 64.979221 72.118205 65.073622 71.968468 65.262421 curveto
71.854534 65.43495 71.742229 65.607476 71.631554 65.779999 curveto
71.631554 68.201874 lineto
71.631552 68.553437 71.851279 68.729218 72.290733 68.729218 curveto
72.333049 68.729218 72.39327 68.72759 72.471397 68.724335 curveto
72.54952 68.72108 72.604858 68.719452 72.637413 68.719452 curveto
72.656944 68.900116 lineto
70.239952 68.900116 lineto
70.239952 68.758514 lineto
70.698936 68.745494 70.928428 68.559947 70.928429 68.201874 curveto
70.928429 65.340546 lineto
70.928428 65.148492 70.694053 65.002008 70.225304 64.901093 curveto
70.225304 64.720428 lineto
70.511762 64.687881 70.917035 64.521865 71.441124 64.222382 curveto
71.631554 64.261444 lineto
71.631554 65.413788 lineto
72.022177 64.684625 72.370484 64.320042 72.676476 64.320038 curveto
72.832723 64.320042 73.148478 64.393285 73.623741 64.539764 curveto
fill
grestore
gsave
0 0 0 setrgbcolor
newpath
77.35421 64.539764 moveto
77.344441 64.725315 77.243529 64.975966 77.051476 65.291718 curveto
76.647827 65.083388 76.369507 64.979221 76.216515 64.979218 curveto
76.0212 64.979221 75.848674 65.073622 75.698936 65.262421 curveto
75.585002 65.43495 75.472698 65.607476 75.362022 65.779999 curveto
75.362022 68.201874 lineto
75.362021 68.553437 75.581747 68.729218 76.021202 68.729218 curveto
76.063518 68.729218 76.123739 68.72759 76.201866 68.724335 curveto
76.279989 68.72108 76.335327 68.719452 76.367882 68.719452 curveto
76.387413 68.900116 lineto
73.970421 68.900116 lineto
73.970421 68.758514 lineto
74.429405 68.745494 74.658897 68.559947 74.658897 68.201874 curveto
74.658897 65.340546 lineto
74.658897 65.148492 74.424522 65.002008 73.955772 64.901093 curveto
73.955772 64.720428 lineto
74.24223 64.687881 74.647503 64.521865 75.171593 64.222382 curveto
75.362022 64.261444 lineto
75.362022 65.413788 lineto
75.752646 64.684625 76.100952 64.320042 76.406944 64.320038 curveto
76.563192 64.320042 76.878946 64.393285 77.35421 64.539764 curveto
fill
grestore
gsave
0 0 0 setrgbcolor
newpath
81.568077 67.698944 moveto
81.164428 68.558319 80.52478 68.988007 79.649132 68.988007 curveto
79.085979 68.988007 78.610719 68.742239 78.223351 68.250702 curveto
77.862022 67.791719 77.681358 67.274141 77.681358 66.697968 curveto
77.681358 66.043674 77.866905 65.493544 78.237999 65.047577 curveto
78.635133 64.572321 79.154339 64.334691 79.795616 64.334686 curveto
80.306681 64.334691 80.720092 64.489313 81.035851 64.798553 curveto
81.354857 65.107802 81.514362 65.519585 81.514366 66.033905 curveto
78.360069 66.033905 lineto
78.343792 66.170627 78.335654 66.3106 78.335655 66.453827 curveto
78.335654 66.938855 78.483766 67.384818 78.779991 67.791718 curveto
79.10551 68.244192 79.502646 68.470429 79.971397 68.470428 curveto
80.583374 68.470429 81.048868 68.195364 81.367882 67.645233 curveto
81.406944 67.645233 lineto
81.478555 67.641979 81.532266 67.659883 81.568077 67.698944 curveto
80.767296 65.755585 moveto
80.754272 65.423557 80.638712 65.153375 80.420616 64.945038 curveto
80.202515 64.733453 79.925822 64.627659 79.590538 64.627655 curveto
79.313844 64.627659 79.068076 64.749729 78.853233 64.993866 curveto
78.66443 65.208713 78.53585 65.462619 78.467491 65.755585 curveto
80.767296 65.755585 lineto
fill
grestore
gsave
0 0 0 setrgbcolor
newpath
119.67184 56.727272 moveto
119.67184 57.355532 119.39352 57.884503 118.83688 58.314186 curveto
118.32581 58.708069 117.74639 58.905009 117.0986 58.905006 curveto
116.87725 58.905009 116.58102 58.856181 116.20993 58.758522 curveto
116.20505 60.784889 lineto
116.20505 61.081114 116.32061 61.305723 116.55173 61.458717 curveto
116.75355 61.592181 117.00745 61.650775 117.31345 61.634499 curveto
117.34763 61.771217 lineto
117.34274 61.820045 lineto
114.37399 61.820045 lineto
114.40329 61.605202 lineto
114.457 61.605202 lineto
114.78903 61.608457 115.02015 61.544981 115.15036 61.414772 curveto
115.28382 61.281309 115.35055 61.048562 115.35056 60.71653 curveto
115.35056 55.692116 lineto
115.35055 55.25918 115.0348 55.044336 114.40329 55.047585 curveto
114.40329 54.86692 lineto
114.85576 54.805079 115.52145 54.774154 116.40036 54.774147 curveto
117.38017 54.774154 118.10283 54.866927 118.56833 55.052467 curveto
119.304 55.345443 119.67184 55.90371 119.67184 56.727272 curveto
118.64645 56.727272 moveto
118.64645 56.255272 118.50322 55.854882 118.21677 55.5261 curveto
117.91728 55.181055 117.5348 55.008529 117.06931 55.008522 curveto
116.95863 55.008529 116.8154 55.02155 116.63962 55.047585 curveto
116.42152 55.076888 116.27829 55.094792 116.20993 55.101295 curveto
116.20993 58.49485 lineto
116.43128 58.556702 116.75843 58.587627 117.19138 58.587624 curveto
117.70244 58.587627 118.0833 58.398825 118.33395 58.021217 curveto
118.54228 57.702211 118.64645 57.270896 118.64645 56.727272 curveto
fill
grestore
gsave
0 0 0 setrgbcolor
newpath
122.43063 61.575905 moveto
122.40134 61.795631 lineto
120.29196 61.795631 lineto
120.27243 61.756569 lineto
120.30173 61.605202 lineto
120.5068 61.605202 120.67119 61.522194 120.79489 61.356178 curveto
120.90882 61.206439 120.96579 61.025775 120.96579 60.814186 curveto
120.96579 55.604225 lineto
120.96579 55.487044 120.90394 55.389388 120.78024 55.311256 curveto
120.67608 55.246159 120.56052 55.213607 120.43356 55.2136 curveto
120.43356 55.213607 120.35218 55.229883 120.18942 55.262428 curveto
120.18942 55.246159 120.19105 55.221745 120.19431 55.189186 curveto
120.19756 55.156641 120.19919 55.130599 120.19919 55.111061 curveto
120.19919 55.065495 120.24639 55.026432 120.34079 54.993874 curveto
120.5947 54.915755 120.96904 54.769271 121.46384 54.55442 curveto
121.67868 54.55442 lineto
121.67868 61.053444 lineto
121.67868 61.372455 121.92933 61.546608 122.43063 61.575905 curveto
fill
grestore
gsave
0 0 0 setrgbcolor
newpath
126.62497 60.59446 moveto
126.22132 61.453835 125.58167 61.883522 124.70602 61.883522 curveto
124.14287 61.883522 123.66761 61.637754 123.28024 61.146217 curveto
122.91891 60.687234 122.73825 60.169656 122.73825 59.593483 curveto
122.73825 58.939189 122.9238 58.389059 123.29489 57.943092 curveto
123.69203 57.467836 124.21123 57.230206 124.85251 57.230202 curveto
125.36357 57.230206 125.77698 57.384829 126.09274 57.694069 curveto
126.41175 58.003317 126.57125 58.415101 126.57126 58.92942 curveto
123.41696 58.92942 lineto
123.40068 59.066142 123.39255 59.206116 123.39255 59.349342 curveto
123.39255 59.83437 123.54066 60.280333 123.83688 60.687233 curveto
124.1624 61.139708 124.55954 61.365944 125.02829 61.365944 curveto
125.64027 61.365944 126.10576 61.09088 126.42477 60.540749 curveto
126.46384 60.540749 lineto
126.53545 60.537495 126.58916 60.555398 126.62497 60.59446 curveto
125.82419 58.6511 moveto
125.81116 58.319072 125.6956 58.04889 125.47751 57.840553 curveto
125.25941 57.628969 124.98271 57.523175 124.64743 57.52317 curveto
124.37074 57.523175 124.12497 57.645245 123.91013 57.889381 curveto
123.72132 58.104229 123.59274 58.358135 123.52438 58.6511 curveto
125.82419 58.6511 lineto
fill
grestore
gsave
0 0 0 setrgbcolor
newpath
129.45212 61.795631 moveto
127.21091 61.795631 lineto
127.19138 61.756569 lineto
127.22067 61.605202 lineto
127.45179 61.605202 127.61618 61.57265 127.71384 61.507545 curveto
127.83428 61.426166 127.8945 61.269916 127.8945 61.038795 curveto
127.8945 58.123756 lineto
127.8945 57.88613 127.77731 57.767315 127.54294 57.767311 curveto
127.45505 57.767315 127.35251 57.781964 127.23532 57.811256 curveto
127.11325 57.615944 lineto
127.73174 57.443422 128.19561 57.259503 128.50485 57.064186 curveto
128.68552 57.196022 lineto
128.68552 61.053444 lineto
128.68551 61.372455 128.93454 61.546608 129.43259 61.575905 curveto
129.45212 61.795631 lineto
128.74411 55.545631 moveto
128.74411 55.685611 128.69528 55.806054 128.59763 55.90696 curveto
128.49997 56.004622 128.38115 56.05345 128.24118 56.053444 curveto
128.10121 56.05345 127.98239 56.004622 127.88474 55.90696 curveto
127.78708 55.806054 127.73825 55.685611 127.73825 55.545631 curveto
127.73825 55.405664 127.78708 55.286849 127.88474 55.189186 curveto
127.98239 55.091537 128.10121 55.042708 128.24118 55.042702 curveto
128.38115 55.042708 128.49997 55.091537 128.59763 55.189186 curveto
128.69528 55.286849 128.74411 55.405664 128.74411 55.545631 curveto
fill
grestore
gsave
0 0 0 setrgbcolor
newpath
135.0527 61.795631 moveto
132.85056 61.795631 lineto
132.85056 61.575905 lineto
133.29977 61.575905 133.52438 61.356179 133.52438 60.916725 curveto
133.52438 58.695045 lineto
133.52438 58.411846 133.46579 58.169333 133.3486 57.967506 curveto
133.20537 57.726625 133.00192 57.606182 132.73825 57.606178 curveto
132.31833 57.606182 131.804 57.825909 131.19528 58.265358 curveto
131.19528 61.053444 lineto
131.19528 61.372455 131.44593 61.546608 131.94724 61.575905 curveto
131.91794 61.795631 lineto
129.80856 61.795631 lineto
129.78903 61.756569 lineto
129.81833 61.605202 lineto
130.02341 61.605202 130.18942 61.522194 130.31638 61.356178 curveto
130.43356 61.206439 130.49216 61.025775 130.49216 60.814186 curveto
130.49216 58.123756 lineto
130.49216 58.006573 130.38962 57.913799 130.18454 57.845436 curveto
130.1585 57.835674 130.00225 57.799867 129.71579 57.738014 curveto
129.71579 57.615944 lineto
129.86227 57.596417 130.09502 57.518292 130.41403 57.381569 curveto
130.71351 57.251365 130.91371 57.145571 131.01462 57.064186 curveto
131.19528 57.196022 lineto
131.19528 58.074928 lineto
132.15557 57.469464 132.818 57.16673 133.18259 57.166725 curveto
133.5374 57.16673 133.81247 57.327862 134.00778 57.650124 curveto
134.17379 57.92031 134.2568 58.242575 134.25681 58.61692 curveto
134.25681 61.155983 lineto
134.2568 61.42291 134.51233 61.556374 135.02341 61.556374 curveto
135.0527 61.795631 lineto
fill
grestore
gsave
0 0 0 setrgbcolor
newpath
139.1445 60.59446 moveto
138.74085 61.453835 138.1012 61.883522 137.22556 61.883522 curveto
136.6624 61.883522 136.18714 61.637754 135.79977 61.146217 curveto
135.43845 60.687234 135.25778 60.169656 135.25778 59.593483 curveto
135.25778 58.939189 135.44333 58.389059 135.81442 57.943092 curveto
136.21156 57.467836 136.73076 57.230206 137.37204 57.230202 curveto
137.8831 57.230206 138.29652 57.384829 138.61227 57.694069 curveto
138.93128 58.003317 139.09079 58.415101 139.09079 58.92942 curveto
135.93649 58.92942 lineto
135.92022 59.066142 135.91208 59.206116 135.91208 59.349342 curveto
135.91208 59.83437 136.06019 60.280333 136.35641 60.687233 curveto
136.68193 61.139708 137.07907 61.365944 137.54782 61.365944 curveto
138.1598 61.365944 138.62529 61.09088 138.94431 60.540749 curveto
138.98337 60.540749 lineto
139.05498 60.537495 139.10869 60.555398 139.1445 60.59446 curveto
138.34372 58.6511 moveto
138.3307 58.319072 138.21514 58.04889 137.99704 57.840553 curveto
137.77894 57.628969 137.50225 57.523175 137.16696 57.52317 curveto
136.89027 57.523175 136.6445 57.645245 136.42966 57.889381 curveto
136.24085 58.104229 136.11227 58.358135 136.04391 58.6511 curveto
138.34372 58.6511 lineto
fill
grestore
gsave
0 0 0 setrgbcolor
newpath
122.36227 71.795631 moveto
120.19919 71.795631 lineto
120.19919 71.575905 lineto
120.64189 71.575905 120.86324 71.356179 120.86325 70.916725 curveto
120.86325 68.695045 lineto
120.86324 68.418356 120.79651 68.175843 120.66306 67.967506 curveto
120.5068 67.726625 120.29684 67.606182 120.03317 67.606178 curveto
119.62952 67.606182 119.14938 67.809633 118.59274 68.21653 curveto
118.59274 71.155983 lineto
118.59274 71.42291 118.85315 71.556374 119.37399 71.556374 curveto
119.39841 71.795631 lineto
117.2402 71.795631 lineto
117.2402 71.575905 lineto
117.67965 71.575905 117.89938 71.356179 117.89938 70.916725 curveto
117.89938 68.695045 lineto
117.89938 68.415101 117.84241 68.174216 117.72849 67.972389 curveto
117.58851 67.728253 117.38831 67.606182 117.1279 67.606178 curveto
116.71774 67.606182 116.21481 67.825909 115.61911 68.265358 curveto
115.61911 71.053444 lineto
115.61911 71.372455 115.86488 71.546608 116.35641 71.575905 curveto
116.32712 71.795631 lineto
114.26169 71.795631 lineto
114.24216 71.756569 lineto
114.27145 71.605202 lineto
114.47328 71.605202 114.63604 71.522194 114.75974 71.356178 curveto
114.87367 71.203184 114.93063 71.02252 114.93063 70.814186 curveto
114.93063 68.123756 lineto
114.93063 68.006573 114.82972 67.913799 114.6279 67.845436 curveto
114.60186 67.835674 114.44886 67.799867 114.16891 67.738014 curveto
114.16891 67.615944 lineto
114.20147 67.580141 114.24216 67.554099 114.29099 67.537819 curveto
114.54815 67.449933 114.93226 67.292055 115.44333 67.064186 curveto
115.61911 67.196022 lineto
115.61911 68.074928 lineto
116.55986 67.469464 117.20928 67.16673 117.56735 67.166725 curveto
117.78545 67.16673 117.9889 67.267641 118.1777 67.46946 curveto
118.3372 67.64199 118.45276 67.843812 118.52438 68.074928 curveto
119.46513 67.469464 120.11455 67.16673 120.47263 67.166725 curveto
120.82093 67.16673 121.09925 67.327862 121.30759 67.650124 curveto
121.48987 67.930075 121.58102 68.252341 121.58102 68.61692 curveto
121.58102 71.155983 lineto
121.58102 71.42291 121.83167 71.556374 122.33298 71.556374 curveto
122.36227 71.795631 lineto
fill
grestore
gsave
0 0 0 setrgbcolor
newpath
126.54684 70.59446 moveto
126.1432 71.453835 125.50355 71.883522 124.6279 71.883522 curveto
124.06475 71.883522 123.58949 71.637754 123.20212 71.146217 curveto
122.84079 70.687234 122.66013 70.169656 122.66013 69.593483 curveto
122.66013 68.939189 122.84567 68.389059 123.21677 67.943092 curveto
123.6139 67.467836 124.13311 67.230206 124.77438 67.230202 curveto
125.28545 67.230206 125.69886 67.384829 126.01462 67.694069 curveto
126.33362 68.003317 126.49313 68.415101 126.49313 68.92942 curveto
123.33884 68.92942 lineto
123.32256 69.066142 123.31442 69.206116 123.31442 69.349342 curveto
123.31442 69.83437 123.46253 70.280333 123.75876 70.687233 curveto
124.08428 71.139708 124.48141 71.365944 124.95016 71.365944 curveto
125.56214 71.365944 126.02764 71.09088 126.34665 70.540749 curveto
126.38571 70.540749 lineto
126.45732 70.537495 126.51103 70.555398 126.54684 70.59446 curveto
125.74606 68.6511 moveto
125.73304 68.319072 125.61748 68.04889 125.39938 67.840553 curveto
125.18128 67.628969 124.90459 67.523175 124.56931 67.52317 curveto
124.29261 67.523175 124.04684 67.645245 123.832 67.889381 curveto
123.6432 68.104229 123.51462 68.358135 123.44626 68.6511 curveto
125.74606 68.6511 lineto
fill
grestore
gsave
0 0 0 setrgbcolor
newpath
130.39938 67.43528 moveto
130.38961 67.620831 130.2887 67.871482 130.09665 68.187233 curveto
129.693 67.978903 129.41468 67.874737 129.26169 67.874733 curveto
129.06637 67.874737 128.89385 67.969138 128.74411 68.157936 curveto
128.63018 68.330466 128.51787 68.502991 128.4072 68.675514 curveto
128.4072 71.097389 lineto
128.40719 71.448952 128.62692 71.624733 129.06638 71.624733 curveto
129.10869 71.624733 129.16891 71.623106 129.24704 71.61985 curveto
129.32516 71.616595 129.3805 71.614968 129.41306 71.614967 curveto
129.43259 71.795631 lineto
127.01559 71.795631 lineto
127.01559 71.65403 lineto
127.47458 71.641009 127.70407 71.455462 127.70407 71.097389 curveto
127.70407 68.236061 lineto
127.70407 68.044008 127.4697 67.897523 127.00095 67.796608 curveto
127.00095 67.615944 lineto
127.2874 67.583396 127.69268 67.417381 128.21677 67.117897 curveto
128.4072 67.15696 lineto
128.4072 68.309303 lineto
128.79782 67.580141 129.14613 67.215558 129.45212 67.215553 curveto
129.60837 67.215558 129.92412 67.2888 130.39938 67.43528 curveto
fill
grestore
gsave
0 0 0 setrgbcolor
newpath
189.62794 52.728714 moveto
189.2422 54.42305 lineto
183.74416 54.42305 lineto
183.74416 54.242386 lineto
184.52215 54.23262 184.91115 54.011266 184.91115 53.578323 curveto
184.91115 48.324417 lineto
184.91115 48.0282 184.80373 47.834515 184.58888 47.743362 curveto
184.46518 47.694541 184.22267 47.670127 183.86134 47.67012 curveto
183.86134 47.499222 lineto
186.96193 47.499222 lineto
186.96193 47.655472 lineto
186.88869 47.650589 lineto
186.63803 47.647341 186.40691 47.696169 186.19533 47.797073 curveto
185.9284 47.924033 185.79494 48.101442 185.79494 48.3293 curveto
185.79494 53.490433 lineto
185.79494 53.851761 185.93328 54.032425 186.20998 54.032425 curveto
188.27541 54.032425 lineto
188.59441 54.032425 188.85971 53.885941 189.0713 53.592972 curveto
189.24382 53.358598 189.36264 53.064002 189.42775 52.709183 curveto
189.62794 52.728714 lineto
fill
grestore
gsave
0 0 0 setrgbcolor
newpath
194.97951 53.822464 moveto
194.96974 54.022659 lineto
193.49025 54.442581 lineto
193.49025 53.563675 lineto
192.88152 54.169144 192.21909 54.471878 191.50294 54.471878 curveto
190.79331 54.471878 190.43849 53.98848 190.43849 53.021683 curveto
190.43849 50.86348 lineto
190.43849 50.664916 190.37013 50.508666 190.23341 50.39473 curveto
190.09669 50.280801 189.92742 50.223835 189.7256 50.223831 curveto
189.70607 50.023636 lineto
191.16115 49.764847 lineto
191.16115 52.943558 lineto
191.16115 53.223507 191.25066 53.461137 191.4297 53.656448 curveto
191.61199 53.861527 191.84148 53.964066 192.11818 53.964066 curveto
192.39487 53.964066 192.85223 53.732946 193.49025 53.270706 curveto
193.49025 50.585159 lineto
193.49025 50.341023 193.17612 50.201049 192.54787 50.165237 curveto
192.54787 50.004105 lineto
194.18849 49.70137 lineto
194.18849 53.514847 lineto
194.18849 53.758988 194.32521 53.881058 194.59865 53.881058 curveto
194.67026 53.881058 194.79721 53.861527 194.97951 53.822464 curveto
fill
grestore
gsave
0 0 0 setrgbcolor
newpath
200.79494 54.42305 moveto
198.59279 54.42305 lineto
198.59279 54.203323 lineto
199.042 54.203324 199.26661 53.983597 199.26662 53.544144 curveto
199.26662 51.322464 lineto
199.26661 51.039264 199.20802 50.796751 199.09084 50.594925 curveto
198.9476 50.354044 198.74415 50.233601 198.48048 50.233597 curveto
198.06056 50.233601 197.54624 50.453327 196.93752 50.892776 curveto
196.93752 53.680862 lineto
196.93751 53.999873 197.18816 54.174027 197.68947 54.203323 curveto
197.66017 54.42305 lineto
195.5508 54.42305 lineto
195.53127 54.383987 lineto
195.56056 54.23262 lineto
195.76564 54.23262 195.93166 54.149613 196.05861 53.983597 curveto
196.1758 53.833858 196.23439 53.653194 196.23439 53.441605 curveto
196.23439 50.751175 lineto
196.23439 50.633991 196.13185 50.541218 195.92677 50.472855 curveto
195.90073 50.463093 195.74448 50.427286 195.45802 50.365433 curveto
195.45802 50.243362 lineto
195.60451 50.223835 195.83725 50.14571 196.15627 50.008987 curveto
196.45574 49.878784 196.65594 49.772989 196.75685 49.691605 curveto
196.93752 49.823441 lineto
196.93752 50.702347 lineto
197.8978 50.096882 198.56023 49.794148 198.92482 49.794144 curveto
199.27963 49.794148 199.5547 49.955281 199.75002 50.277542 curveto
199.91603 50.547728 199.99903 50.869994 199.99904 51.244339 curveto
199.99904 53.783401 lineto
199.99903 54.050329 200.25457 54.183792 200.76564 54.183792 curveto
200.79494 54.42305 lineto
fill
grestore
gsave
0 0 0 setrgbcolor
newpath
204.88673 53.221878 moveto
204.48308 54.081253 203.84344 54.51094 202.96779 54.510941 curveto
202.40464 54.51094 201.92938 54.265172 201.54201 53.773636 curveto
201.18068 53.314653 201.00002 52.797075 201.00002 52.220901 curveto
201.00002 51.566607 201.18556 51.016478 201.55666 50.570511 curveto
201.95379 50.095255 202.473 49.857625 203.11427 49.85762 curveto
203.62534 49.857625 204.03875 50.012247 204.35451 50.321487 curveto
204.67351 50.630736 204.83302 51.042519 204.83302 51.556839 curveto
201.67873 51.556839 lineto
201.66245 51.69356 201.65431 51.833534 201.65431 51.976761 curveto
201.65431 52.461789 201.80242 52.907752 202.09865 53.314651 curveto
202.42417 53.767126 202.8213 53.993363 203.29005 53.993362 curveto
203.90203 53.993363 204.36752 53.718298 204.68654 53.168167 curveto
204.7256 53.168167 lineto
204.79721 53.164913 204.85092 53.182817 204.88673 53.221878 curveto
204.08595 51.278519 moveto
204.07293 50.946491 203.95737 50.676309 203.73927 50.467972 curveto
203.52117 50.256387 203.24448 50.150593 202.90919 50.150589 curveto
202.6325 50.150593 202.38673 50.272663 202.17189 50.5168 curveto
201.98309 50.731647 201.85451 50.985553 201.78615 51.278519 curveto
204.08595 51.278519 lineto
fill
grestore
gsave
0 0 0 setrgbcolor
newpath
12.886198 60.605515 moveto
12.886192 61.269578 12.593223 61.762742 12.007291 62.085007 curveto
11.541792 62.338913 10.944462 62.465866 10.215299 62.465866 curveto
6.7729163 62.465866 lineto
6.8217444 62.285202 lineto
7.2677076 62.278692 7.5574208 62.24614 7.6908851 62.187546 curveto
7.9447902 62.076869 8.0717432 61.827846 8.0717444 61.440475 curveto
8.0717444 56.46489 lineto
8.0717432 56.018932 7.6908842 55.795951 6.9291663 55.795944 curveto
6.9291663 55.571335 lineto
7.7429675 55.516003 8.7537087 55.488334 9.9613929 55.488327 curveto
10.573368 55.488334 11.123498 55.600639 11.611784 55.825241 curveto
12.227012 56.111706 12.534629 56.515351 12.534635 57.036179 curveto
12.534629 57.908579 12.039838 58.418019 11.05026 58.564499 curveto
11.681766 58.701221 12.135867 58.91281 12.412565 59.199265 curveto
12.728314 59.518278 12.886192 59.987027 12.886198 60.605515 curveto
11.611784 57.255905 moveto
11.611779 56.253307 11.11536 55.752006 10.122526 55.751999 curveto
8.9115882 55.751999 lineto
8.9115882 58.515671 lineto
9.8246741 58.515671 lineto
10.397587 58.515675 10.809371 58.452198 11.060026 58.325241 curveto
11.42786 58.139699 11.611779 57.783254 11.611784 57.255905 curveto
11.934049 60.566452 moveto
11.934044 60.006559 11.803836 59.567106 11.543424 59.248093 curveto
11.256961 58.903044 10.840295 58.730518 10.293424 58.730515 curveto
8.9115882 58.730515 lineto
8.9115882 61.489304 lineto
8.9115861 61.990606 9.2973279 62.241257 10.068815 62.241257 curveto
10.586389 62.241257 11.020959 62.093145 11.372526 61.796921 curveto
11.74687 61.484422 11.934044 61.074266 11.934049 60.566452 curveto
fill
grestore
gsave
0 0 0 setrgbcolor
newpath
17.754362 61.977585 moveto
17.428837 62.215215 17.262821 62.337285 17.256315 62.343796 curveto
17.044722 62.474004 16.84941 62.539108 16.670377 62.539108 curveto
16.390426 62.539108 16.198369 62.325892 16.094205 61.89946 curveto
15.700323 62.185918 15.482224 62.340541 15.439909 62.363327 curveto
15.225063 62.48377 14.977667 62.543991 14.697721 62.543991 curveto
14.421027 62.543991 14.186652 62.44959 13.994596 62.260788 curveto
13.805793 62.068731 13.711392 61.835984 13.711393 61.562546 curveto
13.711392 61.22075 13.846483 60.940803 14.116666 60.722702 curveto
14.276171 60.595751 14.561001 60.447639 14.971159 60.278366 curveto
16.074674 59.824265 lineto
16.074674 59.096725 lineto
16.074671 58.839568 15.981898 58.623096 15.796354 58.447311 curveto
15.61406 58.271534 15.392706 58.183644 15.132291 58.18364 curveto
14.718878 58.183644 14.512173 58.40337 14.512174 58.842819 curveto
14.512173 58.87212 14.518683 58.911182 14.531705 58.960007 curveto
14.544725 59.008838 14.551235 59.046273 14.551237 59.072311 curveto
14.551235 59.192757 14.46009 59.300179 14.277799 59.394577 curveto
14.118293 59.479215 13.971809 59.521533 13.838346 59.52153 curveto
13.783007 59.521533 13.755338 59.47596 13.755338 59.384811 curveto
13.755338 58.951872 13.937629 58.597055 14.302213 58.320358 curveto
14.634243 58.066456 15.024868 57.939503 15.474088 57.939499 curveto
15.923304 57.939503 16.25208 58.022511 16.460416 58.188522 curveto
16.691533 58.370818 16.807092 58.680063 16.807096 59.116257 curveto
16.807096 61.630905 lineto
16.807092 61.910854 16.903121 62.050827 17.095182 62.050827 curveto
17.215621 62.050827 17.432092 61.959682 17.744596 61.77739 curveto
17.754362 61.977585 lineto
16.079557 61.572311 moveto
16.074674 60.107468 lineto
15.083463 60.542038 lineto
14.637498 60.737352 14.414517 61.051479 14.414518 61.484421 curveto
14.414517 61.669968 14.474738 61.81808 14.595182 61.928757 curveto
14.715623 62.039434 14.868618 62.094773 15.054166 62.094772 curveto
15.246222 62.094773 15.431768 62.041062 15.610807 61.93364 curveto
15.68893 61.884812 15.845179 61.764369 16.079557 61.572311 curveto
fill
grestore
gsave
0 0 0 setrgbcolor
newpath
21.133268 61.250046 moveto
21.133264 61.591844 20.977015 61.883184 20.664518 62.124069 curveto
20.378057 62.351934 20.059047 62.465866 19.707487 62.465866 curveto
19.590297 62.465866 19.416144 62.444707 19.185026 62.40239 curveto
18.953905 62.356817 18.779751 62.33403 18.662565 62.33403 curveto
18.538866 62.33403 18.455858 62.397507 18.413541 62.52446 curveto
18.223112 62.485397 lineto
18.174284 61.225632 lineto
18.286588 61.2061 lineto
18.576301 61.905971 18.992967 62.255905 19.536588 62.255905 curveto
20.168096 62.255905 20.483851 61.971075 20.483854 61.401413 curveto
20.483851 61.072638 20.286911 60.817105 19.893034 60.634811 curveto
19.528448 60.478563 19.162238 60.322314 18.794401 60.166061 curveto
18.40052 59.925179 18.20358 59.570361 18.20358 59.101608 curveto
18.20358 58.76307 18.369595 58.479867 18.701627 58.251999 curveto
18.994595 58.046925 19.31686 57.944386 19.668424 57.944382 curveto
20.205531 57.944386 20.610804 58.025766 20.884244 58.188522 curveto
20.947721 59.287155 lineto
20.835416 59.306686 lineto
20.62708 58.863982 20.488734 58.601938 20.420377 58.520554 curveto
20.238083 58.299204 19.974411 58.188527 19.629362 58.188522 curveto
19.408006 58.188527 19.211066 58.256886 19.038541 58.3936 curveto
18.849738 58.536834 18.755337 58.71587 18.755338 58.93071 curveto
18.755337 59.194385 18.960415 59.422249 19.370573 59.614304 curveto
20.119268 59.962613 20.500127 60.14165 20.513151 60.151413 curveto
20.926559 60.424853 21.133264 60.791063 21.133268 61.250046 curveto
fill
grestore
gsave
0 0 0 setrgbcolor
newpath
25.254362 61.250046 moveto
25.254358 61.591844 25.098108 61.883184 24.785612 62.124069 curveto
24.499151 62.351934 24.180141 62.465866 23.82858 62.465866 curveto
23.711391 62.465866 23.537238 62.444707 23.306119 62.40239 curveto
23.074998 62.356817 22.900845 62.33403 22.783659 62.33403 curveto
22.65996 62.33403 22.576952 62.397507 22.534635 62.52446 curveto
22.344205 62.485397 lineto
22.295377 61.225632 lineto
22.407682 61.2061 lineto
22.697395 61.905971 23.114061 62.255905 23.657682 62.255905 curveto
24.28919 62.255905 24.604945 61.971075 24.604948 61.401413 curveto
24.604945 61.072638 24.408005 60.817105 24.014127 60.634811 curveto
23.649542 60.478563 23.283332 60.322314 22.915494 60.166061 curveto
22.521614 59.925179 22.324674 59.570361 22.324674 59.101608 curveto
22.324674 58.76307 22.490689 58.479867 22.822721 58.251999 curveto
23.115688 58.046925 23.437954 57.944386 23.789518 57.944382 curveto
24.326625 57.944386 24.731898 58.025766 25.005338 58.188522 curveto
25.068815 59.287155 lineto
24.95651 59.306686 lineto
24.748174 58.863982 24.609828 58.601938 24.541471 58.520554 curveto
24.359177 58.299204 24.095505 58.188527 23.750455 58.188522 curveto
23.5291 58.188527 23.33216 58.256886 23.159635 58.3936 curveto
22.970832 58.536834 22.876431 58.71587 22.876432 58.93071 curveto
22.876431 59.194385 23.081509 59.422249 23.491666 59.614304 curveto
24.240362 59.962613 24.621221 60.14165 24.634244 60.151413 curveto
25.047653 60.424853 25.254358 60.791063 25.254362 61.250046 curveto
fill
grestore
gsave
0 0 0 setrgbcolor
newpath
29.917448 61.264694 moveto
29.513798 62.12407 28.87415 62.553757 27.998502 62.553757 curveto
27.43535 62.553757 26.96009 62.307989 26.572721 61.816452 curveto
26.211393 61.357469 26.030729 60.839891 26.030729 60.263718 curveto
26.030729 59.609424 26.216275 59.059294 26.587369 58.613327 curveto
26.984504 58.138071 27.503709 57.900441 28.144987 57.900436 curveto
28.656052 57.900441 29.069463 58.055063 29.385221 58.364304 curveto
29.704228 58.673552 29.863733 59.085336 29.863737 59.599655 curveto
26.70944 59.599655 lineto
26.693163 59.736377 26.685025 59.87635 26.685026 60.019577 curveto
26.685025 60.504605 26.833137 60.950568 27.129362 61.357468 curveto
27.454881 61.809942 27.852016 62.036179 28.320768 62.036179 curveto
28.932744 62.036179 29.398238 61.761114 29.717252 61.210983 curveto
29.756315 61.210983 lineto
29.827925 61.207729 29.881636 61.225633 29.917448 61.264694 curveto
29.116666 59.321335 moveto
29.103642 58.989307 28.988083 58.719125 28.769987 58.510788 curveto
28.551885 58.299204 28.275193 58.193409 27.939909 58.193405 curveto
27.663214 58.193409 27.417446 58.31548 27.202604 58.559616 curveto
27.013801 58.774464 26.88522 59.02837 26.816862 59.321335 curveto
29.116666 59.321335 lineto
fill
grestore
gsave
0 0 0 setrgbcolor
newpath
14.99069 72.465866 moveto
12.827604 72.465866 lineto
12.827604 72.24614 lineto
13.270306 72.24614 13.49166 72.026413 13.491666 71.58696 curveto
13.491666 69.36528 lineto
13.49166 69.088591 13.424928 68.846078 13.291471 68.637741 curveto
13.135215 68.39686 12.925254 68.276417 12.661588 68.276413 curveto
12.257937 68.276417 11.777794 68.479867 11.221159 68.886765 curveto
11.221159 71.826218 lineto
11.221154 72.093145 11.481571 72.226609 12.002409 72.226608 curveto
12.026823 72.465866 lineto
9.8686194 72.465866 lineto
9.8686194 72.24614 lineto
10.308069 72.24614 10.527795 72.026413 10.527799 71.58696 curveto
10.527799 69.36528 lineto
10.527795 69.085336 10.470829 68.84445 10.356901 68.642624 curveto
10.216923 68.398487 10.016728 68.276417 9.7563148 68.276413 curveto
9.346156 68.276417 8.8432268 68.496143 8.2475257 68.935593 curveto
8.2475257 71.723679 lineto
8.2475243 72.042689 8.4932923 72.216843 8.9848304 72.24614 curveto
8.9555335 72.465866 lineto
6.8901038 72.465866 lineto
6.8705726 72.426804 lineto
6.8998694 72.275436 lineto
7.1016921 72.275437 7.2644523 72.192429 7.3881507 72.026413 curveto
7.5020823 71.873419 7.5590484 71.692755 7.5590491 71.484421 curveto
7.5590491 68.793991 lineto
7.5590484 68.676807 7.458137 68.584034 7.2563148 68.515671 curveto
7.2302727 68.505909 7.0772781 68.470102 6.7973304 68.408249 curveto
6.7973304 68.286179 lineto
6.8298825 68.250376 6.8705725 68.224334 6.9194007 68.208054 curveto
7.1765618 68.120167 7.560676 67.96229 8.0717444 67.734421 curveto
8.2475257 67.866257 lineto
8.2475257 68.745163 lineto
9.1882785 68.139699 9.837692 67.836964 10.195768 67.83696 curveto
10.413863 67.836964 10.617314 67.937876 10.806119 68.139694 curveto
10.965621 68.312224 11.08118 68.514047 11.152799 68.745163 curveto
12.093549 68.139699 12.742962 67.836964 13.101041 67.83696 curveto
13.449342 67.836964 13.727662 67.998097 13.936002 68.320358 curveto
14.118287 68.60031 14.209432 68.922575 14.20944 69.287155 curveto
14.20944 71.826218 lineto
14.209432 72.093145 14.460083 72.226609 14.961393 72.226608 curveto
14.99069 72.465866 lineto
fill
grestore
gsave
0 0 0 setrgbcolor
newpath
19.17526 71.264694 moveto
18.771611 72.12407 18.131963 72.553757 17.256315 72.553757 curveto
16.693162 72.553757 16.217902 72.307989 15.830534 71.816452 curveto
15.469205 71.357469 15.288541 70.839891 15.288541 70.263718 curveto
15.288541 69.609424 15.474088 69.059294 15.845182 68.613327 curveto
16.242316 68.138071 16.761522 67.900441 17.402799 67.900436 curveto
17.913864 67.900441 18.327275 68.055063 18.643034 68.364304 curveto
18.96204 68.673552 19.121545 69.085336 19.121549 69.599655 curveto
15.967252 69.599655 lineto
15.950975 69.736377 15.942837 69.87635 15.942838 70.019577 curveto
15.942837 70.504605 16.090949 70.950568 16.387174 71.357468 curveto
16.712693 71.809942 17.109828 72.036179 17.57858 72.036179 curveto
18.190557 72.036179 18.656051 71.761114 18.975065 71.210983 curveto
19.014127 71.210983 lineto
19.085738 71.207729 19.139449 71.225633 19.17526 71.264694 curveto
18.374479 69.321335 moveto
18.361455 68.989307 18.245895 68.719125 18.027799 68.510788 curveto
17.809698 68.299204 17.533005 68.193409 17.197721 68.193405 curveto
16.921027 68.193409 16.675259 68.31548 16.460416 68.559616 curveto
16.271613 68.774464 16.143033 69.02837 16.074674 69.321335 curveto
18.374479 69.321335 lineto
fill
grestore
gsave
0 0 0 setrgbcolor
newpath
23.027799 68.105515 moveto
23.01803 68.291066 22.917119 68.541716 22.725065 68.857468 curveto
22.321416 68.649138 22.043096 68.544972 21.890104 68.544968 curveto
21.694789 68.544972 21.522263 68.639373 21.372526 68.828171 curveto
21.258592 69.0007 21.146287 69.173226 21.035612 69.345749 curveto
21.035612 71.767624 lineto
21.03561 72.119187 21.255336 72.294968 21.694791 72.294968 curveto
21.737107 72.294968 21.797328 72.29334 21.875455 72.290085 curveto
21.953578 72.28683 22.008916 72.285202 22.041471 72.285202 curveto
22.061002 72.465866 lineto
19.64401 72.465866 lineto
19.64401 72.324265 lineto
20.102994 72.311244 20.332486 72.125697 20.332487 71.767624 curveto
20.332487 68.906296 lineto
20.332486 68.714242 20.098111 68.567758 19.629362 68.466843 curveto
19.629362 68.286179 lineto
19.91582 68.253631 20.321093 68.087615 20.845182 67.788132 curveto
21.035612 67.827194 lineto
21.035612 68.979538 lineto
21.426235 68.250376 21.774542 67.885793 22.080534 67.885788 curveto
22.236781 67.885793 22.552536 67.959035 23.027799 68.105515 curveto
fill
grestore
grestore
showpage
%%EOF
