%!PS-Adobe-3.0 EPSF-3.0
%%Creator: inkscape 0.44.1
%%Pages: 1
%%Orientation: Portrait
%%BoundingBox: 22 3 166 68
%%HiResBoundingBox: 22.839065 3.3348678 165.19624 67.448549
%%DocumentMedia: plain 171 86 0 () ()
%%EndComments
%%Page: 1 1
0 86 translate
0.8 -0.8 scale
gsave [1 0 0 1 0 0] concat
gsave
0.2 0.2 1 setrgbcolor
newpath
112.50831 66.583055 moveto
112.64032 86.758082 91.453483 101.39466 69.017362 101.68051 curveto
47.661452 101.95259 28.861272 84.604972 28.727225 66.005336 curveto
28.587661 46.500561 46.941784 29.622139 70.103855 29.622139 curveto
81.677122 29.622139 112.33142 39.370749 112.50831 66.583055 curveto
closepath
eofill
grestore
gsave
1 1 1 setrgbcolor
newpath
105.40372 65.790184 moveto
105.36537 63.961786 lineto
105.23479 62.156398 lineto
105.01963 60.381886 lineto
104.71225 58.630384 lineto
104.32049 56.909562 lineto
103.85183 55.219419 lineto
103.29114 53.567627 lineto
102.66889 51.96972 lineto
101.96975 50.39502 lineto
101.18623 48.86634 lineto
100.33349 47.375813 lineto
99.411523 45.939271 lineto
98.428196 44.541176 lineto
97.375839 43.204442 lineto
96.25406 41.913727 lineto
95.078787 40.699908 lineto
93.857299 39.524635 lineto
92.574254 38.418392 lineto
91.237715 37.358169 lineto
89.839424 36.367172 lineto
88.40298 35.445402 lineto
86.912453 34.59266 lineto
85.383773 33.801279 lineto
83.808877 33.10233 lineto
82.21097 32.464544 lineto
80.559374 31.911521 lineto
78.876902 31.442867 lineto
77.15608 31.05111 lineto
75.404577 30.743722 lineto
73.629869 30.528767 lineto
71.824677 30.398181 lineto
69.996279 30.374974 lineto
50.283523 30.374974 34.296789 46.35394 34.296789 66.074563 curveto
34.296789 85.786926 50.275853 101.77386 69.996279 101.77386 curveto
89.708839 101.77386 105.70324 85.794792 105.70324 66.074563 curveto
eofill
grestore
1 1 1 setrgbcolor
[] 0 setdash
0 setlinewidth
0 setlinejoin
0 setlinecap
newpath
105.40372 65.790184 moveto
105.36537 63.961786 lineto
105.23479 62.156398 lineto
105.01963 60.381886 lineto
104.71225 58.630384 lineto
104.32049 56.909562 lineto
103.85183 55.219419 lineto
103.29114 53.567627 lineto
102.66889 51.96972 lineto
101.96975 50.39502 lineto
101.18623 48.86634 lineto
100.33349 47.375813 lineto
99.411523 45.939271 lineto
98.428196 44.541176 lineto
97.375839 43.204442 lineto
96.25406 41.913727 lineto
95.078787 40.699908 lineto
93.857299 39.524635 lineto
92.574254 38.418392 lineto
91.237715 37.358169 lineto
89.839424 36.367172 lineto
88.40298 35.445402 lineto
86.912453 34.59266 lineto
85.383773 33.801279 lineto
83.808877 33.10233 lineto
82.21097 32.464544 lineto
80.559374 31.911521 lineto
78.876902 31.442867 lineto
77.15608 31.05111 lineto
75.404577 30.743722 lineto
73.629869 30.528767 lineto
71.824677 30.398181 lineto
69.996279 30.374974 lineto
50.283523 30.374974 34.296789 46.35394 34.296789 66.074563 curveto
34.296789 85.786926 50.275853 101.77386 69.996279 101.77386 curveto
89.708839 101.77386 105.70324 85.794792 105.70324 66.074563 curveto
105.63421 66.005336 lineto
105.54198 65.92077 lineto
105.40372 65.790184 lineto
closepath
stroke
0 0 0 setrgbcolor
[] 0 setdash
0.71352965 setlinewidth
0 setlinejoin
0 setlinecap
newpath
69.996279 30.374974 moveto
50.283696 30.292272 34.296789 46.35394 34.296789 66.074563 curveto
34.296789 85.786926 50.275853 101.77386 69.996279 101.77386 curveto
89.708839 101.77386 105.70324 85.794792 105.70324 66.074563 curveto
105.63421 66.005336 lineto
105.09802 46.300438 89.56713 30.509021 69.996279 30.374974 curveto
closepath
stroke
0 0 0 setrgbcolor
[] 0 setdash
0.3567884 setlinewidth
0 setlinejoin
0 setlinecap
newpath
40.373553 56.302456 moveto
40.212091 56.894025 lineto
40.058495 57.477925 lineto
39.920239 58.069494 lineto
39.789654 58.661064 lineto
39.659068 59.252437 lineto
39.551492 59.859543 lineto
39.443916 60.450916 lineto
39.367216 61.057825 lineto
39.29032 61.664734 lineto
39.221094 62.271644 lineto
39.167404 62.87875 lineto
39.129054 63.485463 lineto
39.098178 64.100042 lineto
39.075168 64.706951 lineto
39.075168 65.329201 lineto
39.075168 65.93611 lineto
39.075168 84.143 53.487005 99.062037 71.694091 99.699626 curveto
stroke
0 0 0 setrgbcolor
[] 0 setdash
0.3567884 setlinewidth
0 setlinejoin
0 setlinecap
newpath
40.81133 60.020808 moveto
40.742301 60.627718 lineto
40.680744 61.249967 lineto
40.627055 61.856876 lineto
40.588705 62.479126 lineto
40.550159 63.101375 lineto
40.527149 63.723624 lineto
40.527149 64.345874 lineto
40.527149 64.96832 lineto
40.527149 81.50788 52.419309 95.666412 68.720904 98.516487 curveto
stroke
0 0 0 setrgbcolor
[] 0 setdash
0.3567884 setlinewidth
0 setlinejoin
0 setlinecap
newpath
41.717958 66.689142 moveto
42.440113 79.41064 50.375759 90.626861 62.152673 95.574176 curveto
stroke
0 0 0 setrgbcolor
[] 0 setdash
0.71352965 setlinewidth
0 setlinejoin
0 setlinecap
newpath
195.66095 57.018158 moveto
189.30302 57.029807 185.32972 62.188071 185.32972 66.678954 curveto
185.32972 71.169838 189.88567 76.407166 195.49339 76.407166 curveto
201.10111 76.407166 205.91119 71.885935 205.85675 66.611931 curveto
205.80231 61.337927 202.01888 57.00651 195.66095 57.018158 curveto
closepath
stroke
0 0 0 setrgbcolor
[] 0 setdash
0.3567884 setlinewidth
0 setlinejoin
0 setlinecap
newpath
186.74335 64.44578 moveto
186.72781 64.553356 lineto
186.7048 64.660735 lineto
186.69713 64.768311 lineto
186.68179 64.875887 lineto
186.68179 64.983463 lineto
186.65878 65.068029 lineto
186.65878 65.175605 lineto
186.65878 65.282984 lineto
186.65111 65.390757 lineto
186.65111 65.498136 lineto
186.65111 65.605712 lineto
186.65111 65.713288 lineto
186.65111 65.820864 lineto
186.65111 65.92844 lineto
186.65111 66.036016 lineto
186.65111 66.143396 lineto
186.65111 70.660603 190.31558 74.348079 194.8558 74.348079 curveto
195.02473 74.348079 195.21688 74.348079 195.40115 74.332739 curveto
stroke
0 0 0 setrgbcolor
[] 0 setdash
0.3567884 setlinewidth
0 setlinejoin
0 setlinecap
newpath
188.1261 66.227962 moveto
188.17979 69.930778 191.19133 72.949985 194.91716 73.011541 curveto
stroke
0 0 0 setrgbcolor
[] 0 setdash
0.3567884 setlinewidth
0 setlinejoin
0 setlinecap
newpath
73.161412 30.137009 moveto
73.046166 30.129142 lineto
72.91558 30.129142 lineto
72.661882 30.129142 lineto
72.531296 30.129142 lineto
72.41605 30.129142 lineto
72.285464 30.129142 lineto
72.170218 30.129142 lineto
52.480668 30.129142 36.501605 46.092866 36.501605 65.797854 curveto
36.501605 85.487404 52.465329 101.47414 72.170218 101.47414 curveto
72.508286 101.47414 72.869364 101.47414 73.222772 101.45113 curveto
stroke
0 0 0 setrgbcolor
[] 0 setdash
0.3567884 setlinewidth
0 setlinejoin
0 setlinecap
newpath
70.507491 101.84906 moveto
47.58399 101.91338 28.727225 85.24232 28.727225 66.005336 curveto
28.727225 66.005336 lineto
28.727225 46.500062 46.941784 29.622139 70.103855 29.622139 curveto
70.103855 29.622139 lineto
88.826841 29.622139 112.48211 45.420135 112.54818 66.139383 curveto
112.54818 86.380468 89.542154 102.11716 70.507491 101.84906 curveto
closepath
stroke
gsave
0 0 0 setrgbcolor
newpath
51.333714 49.383526 moveto
51.11887 49.412823 lineto
51.047249 49.022203 50.990283 48.761787 50.947971 48.631573 curveto
50.830778 48.276761 50.672901 48.099353 50.474339 48.099346 curveto
48.609104 48.099346 lineto
48.609104 53.773174 lineto
48.609101 54.062888 48.716522 54.256573 48.93137 54.354229 curveto
49.07134 54.412823 49.302459 54.440492 49.624729 54.437237 curveto
49.624729 54.691143 lineto
46.67551 54.691143 lineto
46.67551 54.500713 lineto
47.372123 54.507224 47.72043 54.264711 47.720432 53.773174 curveto
47.720432 48.099346 lineto
45.879612 48.099346 lineto
45.563856 48.099353 45.35064 48.548571 45.239964 49.447002 curveto
45.083714 49.447002 lineto
45.239964 47.547588 lineto
45.327854 47.547588 lineto
45.458062 47.69408 45.61594 47.767322 45.801487 47.767315 curveto
50.474339 47.767315 lineto
50.663135 47.767322 50.847054 47.69408 51.026096 47.547588 curveto
51.089573 47.547588 lineto
51.333714 49.383526 lineto
fill
grestore
gsave
0 0 0 setrgbcolor
newpath
55.562229 53.489971 moveto
55.15858 54.349347 54.518932 54.779034 53.643284 54.779034 curveto
53.080131 54.779034 52.604871 54.533266 52.217503 54.041729 curveto
51.856174 53.582746 51.67551 53.065168 51.67551 52.488995 curveto
51.67551 51.834701 51.861057 51.284571 52.232151 50.838604 curveto
52.629285 50.363348 53.148491 50.125718 53.789768 50.125713 curveto
54.300833 50.125718 54.714244 50.28034 55.030003 50.589581 curveto
55.349009 50.898829 55.508514 51.310613 55.508518 51.824932 curveto
52.354221 51.824932 lineto
52.337945 51.961654 52.329807 52.101627 52.329807 52.244854 curveto
52.329807 52.729882 52.477918 53.175845 52.774143 53.582745 curveto
53.099663 54.035219 53.496798 54.261456 53.965549 54.261456 curveto
54.577526 54.261456 55.04302 53.986391 55.362034 53.43626 curveto
55.401096 53.43626 lineto
55.472707 53.433006 55.526418 53.45091 55.562229 53.489971 curveto
54.761448 51.546612 moveto
54.748424 51.214584 54.632864 50.944402 54.414768 50.736065 curveto
54.196667 50.524481 53.919974 50.418686 53.58469 50.418682 curveto
53.307996 50.418686 53.062228 50.540757 52.847385 50.784893 curveto
52.658582 50.99974 52.530002 51.253646 52.461643 51.546612 curveto
54.761448 51.546612 lineto
fill
grestore
gsave
0 0 0 setrgbcolor
newpath
59.414768 50.330791 moveto
59.404999 50.516343 59.304088 50.766993 59.112034 51.082745 curveto
58.708385 50.874415 58.430065 50.770249 58.277073 50.770245 curveto
58.081758 50.770249 57.909232 50.864649 57.759495 51.053448 curveto
57.645561 51.225977 57.533256 51.398503 57.422581 51.571026 curveto
57.422581 53.992901 lineto
57.422579 54.344464 57.642306 54.520245 58.08176 54.520245 curveto
58.124076 54.520245 58.184297 54.518617 58.262424 54.515362 curveto
58.340547 54.512107 58.395886 54.510479 58.42844 54.510479 curveto
58.447971 54.691143 lineto
56.030979 54.691143 lineto
56.030979 54.549541 lineto
56.489963 54.536521 56.719455 54.350974 56.719456 53.992901 curveto
56.719456 51.131573 lineto
56.719455 50.939519 56.48508 50.793035 56.016331 50.69212 curveto
56.016331 50.511456 lineto
56.302789 50.478908 56.708062 50.312892 57.232151 50.013409 curveto
57.422581 50.052471 lineto
57.422581 51.204815 lineto
57.813204 50.475652 58.161511 50.111069 58.467503 50.111065 curveto
58.62375 50.111069 58.939505 50.184312 59.414768 50.330791 curveto
fill
grestore
gsave
0 0 0 setrgbcolor
newpath
63.145237 50.330791 moveto
63.135468 50.516343 63.034557 50.766993 62.842503 51.082745 curveto
62.438854 50.874415 62.160534 50.770249 62.007542 50.770245 curveto
61.812227 50.770249 61.639701 50.864649 61.489964 51.053448 curveto
61.37603 51.225977 61.263725 51.398503 61.153049 51.571026 curveto
61.153049 53.992901 lineto
61.153048 54.344464 61.372774 54.520245 61.812229 54.520245 curveto
61.854545 54.520245 61.914766 54.518617 61.992893 54.515362 curveto
62.071016 54.512107 62.126354 54.510479 62.158909 54.510479 curveto
62.17844 54.691143 lineto
59.761448 54.691143 lineto
59.761448 54.549541 lineto
60.220432 54.536521 60.449924 54.350974 60.449924 53.992901 curveto
60.449924 51.131573 lineto
60.449924 50.939519 60.215549 50.793035 59.746799 50.69212 curveto
59.746799 50.511456 lineto
60.033257 50.478908 60.43853 50.312892 60.96262 50.013409 curveto
61.153049 50.052471 lineto
61.153049 51.204815 lineto
61.543673 50.475652 61.89198 50.111069 62.197971 50.111065 curveto
62.354219 50.111069 62.669974 50.184312 63.145237 50.330791 curveto
fill
grestore
gsave
0 0 0 setrgbcolor
newpath
67.359104 53.489971 moveto
66.955455 54.349347 66.315807 54.779034 65.440159 54.779034 curveto
64.877006 54.779034 64.401746 54.533266 64.014378 54.041729 curveto
63.653049 53.582746 63.472385 53.065168 63.472385 52.488995 curveto
63.472385 51.834701 63.657932 51.284571 64.029026 50.838604 curveto
64.42616 50.363348 64.945366 50.125718 65.586643 50.125713 curveto
66.097708 50.125718 66.511119 50.28034 66.826878 50.589581 curveto
67.145884 50.898829 67.305389 51.310613 67.305393 51.824932 curveto
64.151096 51.824932 lineto
64.13482 51.961654 64.126682 52.101627 64.126682 52.244854 curveto
64.126682 52.729882 64.274793 53.175845 64.571018 53.582745 curveto
64.896538 54.035219 65.293673 54.261456 65.762424 54.261456 curveto
66.374401 54.261456 66.839895 53.986391 67.158909 53.43626 curveto
67.197971 53.43626 lineto
67.269582 53.433006 67.323293 53.45091 67.359104 53.489971 curveto
66.558323 51.546612 moveto
66.545299 51.214584 66.429739 50.944402 66.211643 50.736065 curveto
65.993542 50.524481 65.716849 50.418686 65.381565 50.418682 curveto
65.104871 50.418686 64.859103 50.540757 64.64426 50.784893 curveto
64.455457 50.99974 64.326877 51.253646 64.258518 51.546612 curveto
66.558323 51.546612 lineto
fill
grestore
gsave
0 0 0 setrgbcolor
newpath
191.23651 83.559509 moveto
190.85077 85.253845 lineto
185.35272 85.253845 lineto
185.35272 85.073181 lineto
186.13072 85.063416 186.51971 84.842062 186.51971 84.409119 curveto
186.51971 79.155212 lineto
186.51971 78.858995 186.41229 78.66531 186.19745 78.574158 curveto
186.07375 78.525336 185.83124 78.500922 185.46991 78.500916 curveto
185.46991 78.330017 lineto
188.5705 78.330017 lineto
188.5705 78.486267 lineto
188.49725 78.481384 lineto
188.2466 78.478136 188.01548 78.526964 187.80389 78.627869 curveto
187.53696 78.754828 187.4035 78.932237 187.4035 79.160095 curveto
187.4035 84.321228 lineto
187.4035 84.682557 187.54185 84.863221 187.81854 84.86322 curveto
189.88397 84.86322 lineto
190.20298 84.863221 190.46828 84.716736 190.67987 84.423767 curveto
190.85239 84.189393 190.97121 83.894797 191.03632 83.539978 curveto
191.23651 83.559509 lineto
fill
grestore
gsave
0 0 0 setrgbcolor
newpath
196.58807 84.653259 moveto
196.57831 84.853455 lineto
195.09882 85.273376 lineto
195.09882 84.39447 lineto
194.49009 84.999939 193.82765 85.302673 193.11151 85.302673 curveto
192.40187 85.302673 192.04706 84.819275 192.04706 83.852478 curveto
192.04706 81.694275 lineto
192.04706 81.495711 191.9787 81.339461 191.84198 81.225525 curveto
191.70526 81.111597 191.53599 81.054631 191.33417 81.054626 curveto
191.31464 80.854431 lineto
192.76971 80.595642 lineto
192.76971 83.774353 lineto
192.76971 84.054302 192.85923 84.291932 193.03827 84.487244 curveto
193.22056 84.692322 193.45005 84.794861 193.72675 84.794861 curveto
194.00344 84.794861 194.46079 84.563742 195.09882 84.101501 curveto
195.09882 81.415955 lineto
195.09881 81.171818 194.78468 81.031844 194.15643 80.996033 curveto
194.15643 80.8349 lineto
195.79706 80.532166 lineto
195.79706 84.345642 lineto
195.79705 84.589783 195.93377 84.711854 196.20721 84.711853 curveto
196.27882 84.711854 196.40578 84.692322 196.58807 84.653259 curveto
fill
grestore
gsave
0 0 0 setrgbcolor
newpath
202.4035 85.253845 moveto
200.20135 85.253845 lineto
200.20135 85.034119 lineto
200.65057 85.034119 200.87518 84.814393 200.87518 84.374939 curveto
200.87518 82.153259 lineto
200.87518 81.87006 200.81659 81.627547 200.6994 81.42572 curveto
200.55617 81.184839 200.35272 81.064396 200.08905 81.064392 curveto
199.66913 81.064396 199.1548 81.284123 198.54608 81.723572 curveto
198.54608 84.511658 lineto
198.54608 84.830669 198.79673 85.004822 199.29803 85.034119 curveto
199.26874 85.253845 lineto
197.15936 85.253845 lineto
197.13983 85.214783 lineto
197.16913 85.063416 lineto
197.37421 85.063416 197.54022 84.980408 197.66718 84.814392 curveto
197.78436 84.664653 197.84296 84.483989 197.84296 84.2724 curveto
197.84296 81.58197 lineto
197.84296 81.464787 197.74042 81.372013 197.53534 81.30365 curveto
197.5093 81.293888 197.35305 81.258081 197.06659 81.196228 curveto
197.06659 81.074158 lineto
197.21307 81.054631 197.44582 80.976506 197.76483 80.839783 curveto
198.06431 80.709579 198.2645 80.603785 198.36542 80.5224 curveto
198.54608 80.654236 lineto
198.54608 81.533142 lineto
199.50637 80.927678 200.1688 80.624944 200.53339 80.624939 curveto
200.8882 80.624944 201.16326 80.786076 201.35858 81.108337 curveto
201.52459 81.378524 201.6076 81.700789 201.6076 82.075134 curveto
201.6076 84.614197 lineto
201.6076 84.881124 201.86313 85.014588 202.37421 85.014587 curveto
202.4035 85.253845 lineto
fill
grestore
gsave
0 0 0 setrgbcolor
newpath
206.4953 84.052673 moveto
206.09165 84.912049 205.452 85.341736 204.57635 85.341736 curveto
204.0132 85.341736 203.53794 85.095968 203.15057 84.604431 curveto
202.78925 84.145448 202.60858 83.62787 202.60858 83.051697 curveto
202.60858 82.397403 202.79413 81.847273 203.16522 81.401306 curveto
203.56236 80.92605 204.08156 80.68842 204.72284 80.688416 curveto
205.2339 80.68842 205.64732 80.843042 205.96307 81.152283 curveto
206.28208 81.461531 206.44159 81.873315 206.44159 82.387634 curveto
203.28729 82.387634 lineto
203.27102 82.524356 203.26288 82.66433 203.26288 82.807556 curveto
203.26288 83.292584 203.41099 83.738547 203.70721 84.145447 curveto
204.03273 84.597921 204.42987 84.824158 204.89862 84.824158 curveto
205.5106 84.824158 205.97609 84.549093 206.2951 83.998962 curveto
206.33417 83.998962 lineto
206.40578 83.995708 206.45949 84.013612 206.4953 84.052673 curveto
205.69452 82.109314 moveto
205.6815 81.777286 205.56594 81.507104 205.34784 81.298767 curveto
205.12974 81.087183 204.85305 80.981389 204.51776 80.981384 curveto
204.24107 80.981389 203.9953 81.103459 203.78046 81.347595 curveto
203.59165 81.562443 203.46307 81.816349 203.39471 82.109314 curveto
205.69452 82.109314 lineto
fill
grestore
0 0 0 setrgbcolor
[1.6 1.6] 0 setdash
0.2 setlinewidth
0 setlinejoin
0 setlinecap
newpath
69.972493 66.755368 moveto
195.44041 66.755368 lineto
stroke
gsave [0.16 0 0 0.16 71.156493 66.915368] concat
gsave
0 0 0 setrgbcolor
newpath
-2.5 -1 moveto
-2.5 1.76 -4.74 4 -7.5 4 curveto
-10.26 4 -12.5 1.76 -12.5 -1 curveto
-12.5 -3.76 -10.26 -6 -7.5 -6 curveto
-4.74 -6 -2.5 -3.76 -2.5 -1 curveto
closepath
eofill
grestore
0 0 0 setrgbcolor
[] 0 setdash
1.25 setlinewidth
0 setlinejoin
0 setlinecap
newpath
-2.5 -1 moveto
-2.5 1.76 -4.74 4 -7.5 4 curveto
-10.26 4 -12.5 1.76 -12.5 -1 curveto
-12.5 -3.76 -10.26 -6 -7.5 -6 curveto
-4.74 -6 -2.5 -3.76 -2.5 -1 curveto
closepath
stroke
grestore
gsave [0.080000001 0 0 0.080000001 196.03241 66.835368] concat
gsave
0 0 0 setrgbcolor
newpath
-2.5 -1 moveto
-2.5 1.76 -4.74 4 -7.5 4 curveto
-10.26 4 -12.5 1.76 -12.5 -1 curveto
-12.5 -3.76 -10.26 -6 -7.5 -6 curveto
-4.74 -6 -2.5 -3.76 -2.5 -1 curveto
closepath
eofill
grestore
0 0 0 setrgbcolor
[] 0 setdash
1.25 setlinewidth
0 setlinejoin
0 setlinecap
newpath
-2.5 -1 moveto
-2.5 1.76 -4.74 4 -7.5 4 curveto
-10.26 4 -12.5 1.76 -12.5 -1 curveto
-12.5 -3.76 -10.26 -6 -7.5 -6 curveto
-4.74 -6 -2.5 -3.76 -2.5 -1 curveto
closepath
stroke
grestore
0 0 0 setrgbcolor
[] 0 setdash
0.30000001 setlinewidth
0 setlinejoin
0 setlinecap
newpath
93.162611 85.655984 moveto
93.162611 22.385836 lineto
stroke
gsave [-1.1021458e-17 0.18000001 -0.18000001 -1.1021458e-17 93.162611 22.385836] concat
gsave
0 0 0 setrgbcolor
newpath
8.7185878 4.0337352 moveto
-2.2072895 0.016013256 lineto
8.7185884 -4.0017078 lineto
6.97309 -1.6296469 6.9831476 1.6157441 8.7185878 4.0337352 curveto
closepath
eofill
grestore
grestore
gsave
0 0 0 setrgbcolor
newpath
91.996544 63.820435 moveto
91.781694 64.44218 91.470822 64.954875 91.063927 65.358521 curveto
90.067828 65.518026 89.428181 65.597778 89.144981 65.597778 curveto
88.194458 65.597778 87.388795 65.298299 86.727989 64.699341 curveto
86.04765 64.080853 85.707481 63.301231 85.707481 62.360474 curveto
85.707481 61.318811 86.044395 60.435023 86.718224 59.709106 curveto
87.411581 58.966926 88.277466 58.595832 89.31588 58.595825 curveto
89.996214 58.595832 90.606565 58.721158 91.146935 58.971802 curveto
91.319455 59.049933 91.430132 59.088996 91.478966 59.088989 curveto
91.544064 59.088996 91.592892 59.064582 91.62545 59.015747 curveto
91.776817 59.025513 lineto
91.845177 60.500122 lineto
91.664513 60.500122 lineto
91.524533 59.979294 91.231564 59.569138 90.785606 59.269653 curveto
90.362424 58.983202 89.872516 58.839973 89.31588 58.839966 curveto
88.495564 58.839973 87.831503 59.175259 87.323692 59.845825 curveto
86.861451 60.457809 86.630332 61.186975 86.630333 62.033325 curveto
86.630332 62.915489 86.879355 63.677207 87.377403 64.318481 curveto
87.917765 65.015097 88.617635 65.363404 89.477013 65.363403 curveto
89.955524 65.363404 90.417763 65.207154 90.863731 64.894653 curveto
91.299924 64.588665 91.610796 64.211061 91.796349 63.761841 curveto
91.996544 63.820435 lineto
fill
grestore
gsave
0 0 0 setrgbcolor
newpath
68.744339 66.554062 moveto
68.744332 67.625028 68.420439 68.512071 67.772659 69.215195 curveto
67.105336 69.937851 66.241079 70.299179 65.179886 70.299179 curveto
64.138217 70.299179 63.285353 70.007838 62.621292 69.425156 curveto
61.921422 68.813178 61.571487 67.996121 61.571487 66.973984 curveto
61.571487 65.903025 61.892125 65.015981 62.533401 64.312851 curveto
63.197462 63.590201 64.060092 63.228874 65.121292 63.228867 curveto
66.162954 63.228874 67.019073 63.520214 67.689651 64.10289 curveto
68.39277 64.714875 68.744332 65.531931 68.744339 66.554062 curveto
67.758011 66.91539 moveto
67.758005 66.036488 67.536651 65.271515 67.093948 64.620468 curveto
66.589386 63.878287 65.917186 63.507194 65.077347 63.507187 curveto
64.2375 63.507194 63.59948 63.835969 63.163284 64.493515 curveto
62.792189 65.056671 62.606643 65.780954 62.606644 66.666367 curveto
62.606643 67.538765 62.823114 68.292345 63.256058 68.927109 curveto
63.750847 69.649766 64.414909 70.011093 65.248245 70.011093 curveto
66.094595 70.011093 66.739125 69.696966 67.181839 69.06871 curveto
67.565948 68.518582 67.758005 67.800809 67.758011 66.91539 curveto
fill
grestore
0 0 0 setrgbcolor
[1.5410047 1.5410047] 0 setdash
0.1926256 setlinewidth
0 setlinejoin
0 setlinecap
newpath
71.258495 74.2385 moveto
185.30732 35.411883 lineto
stroke
gsave [0.14587862 -0.049662707 0.049662707 0.14587862 72.38766 74.016875] concat
gsave
0 0 0 setrgbcolor
newpath
-2.5 -1 moveto
-2.5 1.76 -4.74 4 -7.5 4 curveto
-10.26 4 -12.5 1.76 -12.5 -1 curveto
-12.5 -3.76 -10.26 -6 -7.5 -6 curveto
-4.74 -6 -2.5 -3.76 -2.5 -1 curveto
closepath
eofill
grestore
0 0 0 setrgbcolor
[] 0 setdash
1.25 setlinewidth
0 setlinejoin
0 setlinecap
newpath
-2.5 -1 moveto
-2.5 1.76 -4.74 4 -7.5 4 curveto
-10.26 4 -12.5 1.76 -12.5 -1 curveto
-12.5 -3.76 -10.26 -6 -7.5 -6 curveto
-4.74 -6 -2.5 -3.76 -2.5 -1 curveto
closepath
stroke
grestore
gsave [0.072939312 -0.024831354 0.024831354 0.072939312 185.8719 35.30107] concat
gsave
0 0 0 setrgbcolor
newpath
-2.5 -1 moveto
-2.5 1.76 -4.74 4 -7.5 4 curveto
-10.26 4 -12.5 1.76 -12.5 -1 curveto
-12.5 -3.76 -10.26 -6 -7.5 -6 curveto
-4.74 -6 -2.5 -3.76 -2.5 -1 curveto
closepath
eofill
grestore
0 0 0 setrgbcolor
[] 0 setdash
1.25 setlinewidth
0 setlinejoin
0 setlinecap
newpath
-2.5 -1 moveto
-2.5 1.76 -4.74 4 -7.5 4 curveto
-10.26 4 -12.5 1.76 -12.5 -1 curveto
-12.5 -3.76 -10.26 -6 -7.5 -6 curveto
-4.74 -6 -2.5 -3.76 -2.5 -1 curveto
closepath
stroke
grestore
gsave
0 0 0 setrgbcolor
newpath
73.167885 79.422562 moveto
73.167878 80.493528 72.843985 81.380571 72.196205 82.083694 curveto
71.528882 82.806351 70.664625 83.167679 69.603432 83.167679 curveto
68.561762 83.167679 67.708899 82.876338 67.044838 82.293655 curveto
66.344968 81.681678 65.995033 80.864621 65.995033 79.842484 curveto
65.995033 78.771524 66.315671 77.884481 66.956947 77.181351 curveto
67.621008 76.458701 68.483638 76.097373 69.544838 76.097366 curveto
70.5865 76.097373 71.442619 76.388714 72.113197 76.97139 curveto
72.816315 77.583374 73.167878 78.400431 73.167885 79.422562 curveto
72.181557 79.78389 moveto
72.18155 78.904988 71.960197 78.140015 71.517494 77.488968 curveto
71.012932 76.746787 70.340732 76.375693 69.500893 76.375687 curveto
68.661046 76.375693 68.023026 76.704469 67.58683 77.362015 curveto
67.215735 77.925171 67.030188 78.649454 67.03019 79.534866 curveto
67.030188 80.407265 67.24666 81.160845 67.679604 81.795609 curveto
68.174393 82.518265 68.838455 82.879593 69.671791 82.879593 curveto
70.518141 82.879593 71.162671 82.565466 71.605385 81.93721 curveto
71.989493 81.387082 72.18155 80.669309 72.181557 79.78389 curveto
fill
grestore
gsave
0 0 0 setrgbcolor
newpath
74.925697 76.575882 moveto
74.925696 76.904664 74.87524 77.326213 74.77433 77.84053 curveto
74.647376 78.46228 74.574134 78.878946 74.554604 79.09053 curveto
74.42765 79.09053 lineto
74.408118 78.878946 74.336504 78.46228 74.212807 77.84053 curveto
74.10864 77.326213 74.056556 76.904664 74.056557 76.575882 curveto
74.056556 76.504274 74.110267 76.416383 74.21769 76.31221 curveto
74.328366 76.204795 74.419512 76.151084 74.491127 76.151077 curveto
74.562741 76.151084 74.652259 76.204795 74.759682 76.31221 curveto
74.870358 76.416383 74.925696 76.504274 74.925697 76.575882 curveto
fill
grestore
gsave [1 0 0 1 -9.402285 -30.92212] concat
0 0 0 setrgbcolor
[] 0 setdash
0.71352965 setlinewidth
0 setlinejoin
0 setlinecap
newpath
195.66095 57.018158 moveto
189.30302 57.029807 185.32972 62.188071 185.32972 66.678954 curveto
185.32972 71.169838 189.88567 76.407166 195.49339 76.407166 curveto
201.10111 76.407166 205.91119 71.885935 205.85675 66.611931 curveto
205.80231 61.337927 202.01888 57.00651 195.66095 57.018158 curveto
closepath
stroke
0 0 0 setrgbcolor
[] 0 setdash
0.3567884 setlinewidth
0 setlinejoin
0 setlinecap
newpath
186.74335 64.44578 moveto
186.72781 64.553356 lineto
186.7048 64.660735 lineto
186.69713 64.768311 lineto
186.68179 64.875887 lineto
186.68179 64.983463 lineto
186.65878 65.068029 lineto
186.65878 65.175605 lineto
186.65878 65.282984 lineto
186.65111 65.390757 lineto
186.65111 65.498136 lineto
186.65111 65.605712 lineto
186.65111 65.713288 lineto
186.65111 65.820864 lineto
186.65111 65.92844 lineto
186.65111 66.036016 lineto
186.65111 66.143396 lineto
186.65111 70.660603 190.31558 74.348079 194.8558 74.348079 curveto
195.02473 74.348079 195.21688 74.348079 195.40115 74.332739 curveto
stroke
0 0 0 setrgbcolor
[] 0 setdash
0.3567884 setlinewidth
0 setlinejoin
0 setlinecap
newpath
188.1261 66.227962 moveto
188.17979 69.930778 191.19133 72.949985 194.91716 73.011541 curveto
stroke
grestore
0 0 0 setrgbcolor
[0.95920667 0.95920667] 0 setdash
0.15986778 setlinewidth
0 setlinejoin
0 setlinecap
newpath
194.52215 56.990009 moveto
192.61028 46.306257 185.36683 35.368322 185.36683 35.368322 curveto
185.36683 35.368322 185.36683 35.368322 185.36683 35.368322 curveto
stroke
gsave [0.070615234 0.10663218 -0.10663218 0.070615234 186.24952 36.701224] concat
gsave
0 0 0 setrgbcolor
newpath
0 0 moveto
5 -5 lineto
-12.5 0 lineto
5 5 lineto
0 0 lineto
closepath
eofill
grestore
0 0 0 setrgbcolor
[] 0 setdash
1.25 setlinewidth
0 setlinejoin
0 setlinecap
newpath
0 0 moveto
5 -5 lineto
-12.5 0 lineto
5 5 lineto
0 0 lineto
closepath
stroke
grestore
gsave [0.950494 0 0 0.517399 58.17176 14.84929] concat
gsave
1 1 1 setrgbcolor
newpath
41.017197 17.230203 moveto
43.310517 19.499308 43.13048 23.020067 40.615328 25.08904 curveto
38.100176 27.158014 34.197647 26.995589 31.904327 24.726484 curveto
30.356334 23.194837 29.884669 21.190079 30.609552 19.223193 curveto
eofill
grestore
0 0 0 setrgbcolor
[] 0 setdash
0.2 setlinewidth
0 setlinejoin
1 setlinecap
newpath
41.017197 17.230203 moveto
43.310517 19.499308 43.13048 23.020067 40.615328 25.08904 curveto
38.100176 27.158014 34.197647 26.995589 31.904327 24.726484 curveto
30.356334 23.194837 29.884669 21.190079 30.609552 19.223193 curveto
stroke
gsave [0.056867988 0.056267505 -0.056267505 0.056867988 41.585877 17.792879] concat
gsave
0 0 0 setrgbcolor
newpath
0 0 moveto
5 -5 lineto
-12.5 0 lineto
5 5 lineto
0 0 lineto
closepath
eofill
grestore
0 0 0 setrgbcolor
[] 0 setdash
1.25 setlinewidth
0 setlinejoin
0 setlinecap
newpath
0 0 moveto
5 -5 lineto
-12.5 0 lineto
5 5 lineto
0 0 lineto
closepath
stroke
grestore
grestore
gsave
0 0 0 setrgbcolor
newpath
104.87841 35.254337 moveto
97.583488 35.254337 lineto
97.676262 35.083439 lineto
98.011548 35.060653 98.239412 34.985783 98.359856 34.858829 curveto
98.424959 34.787215 98.530753 34.570744 98.677238 34.209415 curveto
101.0747 28.19379 lineto
101.45068 28.19379 lineto
103.91161 34.238712 lineto
104.02554 34.515406 104.13622 34.70258 104.24364 34.800236 curveto
104.36734 34.914168 104.56916 34.997176 104.84911 35.049259 curveto
104.87841 35.254337 lineto
103.08642 34.63422 moveto
103.08641 34.556096 103.01968 34.352646 102.88622 34.023869 curveto
101.01611 29.502384 lineto
99.297356 33.740665 lineto
99.131339 34.150823 99.048331 34.425888 99.048332 34.565861 curveto
99.048331 34.796981 99.186677 34.912541 99.463371 34.91254 curveto
102.84228 34.91254 lineto
103.00503 34.912541 103.08641 34.819767 103.08642 34.63422 curveto
fill
grestore
gsave [0.675773 0 0 1.522155 21.97363 -19.24759] concat
gsave
1 1 1 setrgbcolor
newpath
71.873144 60.395585 moveto
70.944225 59.344029 70.664193 57.9778 71.102533 56.635903 curveto
eofill
grestore
0 0 0 setrgbcolor
[0.6 0.6] 0 setdash
0.2 setlinewidth
0 setlinejoin
1 setlinecap
newpath
71.873144 60.395585 moveto
70.944225 59.344029 70.664193 57.9778 71.102533 56.635903 curveto
stroke
gsave [-0.052964202 -0.059956597 0.044967448 -0.039723151 72.177949 61.193766] concat
gsave
0 0 0 setrgbcolor
newpath
10 0 moveto
0 5 lineto
10 10 lineto
10 0 lineto
closepath
fill
grestore
grestore
grestore
gsave [-0.611219 0.07832277 -0.160221 -1.250337 162.4341 131.7969] concat
0 0.94509804 1 setrgbcolor
[0.60046464 0.60046464] 0 setdash
0.20015489 setlinewidth
0 setlinejoin
1 setlinecap
newpath
71.873144 60.395585 moveto
70.944225 59.344029 70.664193 57.9778 71.102533 56.635903 curveto
stroke
grestore
gsave [0.279641 0 0 0.595419 89.19981 32.32962] concat
gsave
0 0.95686275 1 setrgbcolor
newpath
71.267681 58.846415 moveto
69.850868 58.185 69.97984 57.165535 71.555564 56.570824 curveto
73.131288 55.976112 75.560013 56.030248 76.976826 56.691663 curveto
78.393639 57.353078 78.264667 58.372543 76.688943 58.967255 curveto
75.134892 59.553786 72.75437 59.511544 71.323797 58.87205 curveto
eofill
grestore
0 0.95686275 1 setrgbcolor
[] 0 setdash
0.20299999 setlinewidth
0 setlinejoin
1 setlinecap
newpath
71.267681 58.846415 moveto
69.850868 58.185 69.97984 57.165535 71.555564 56.570824 curveto
73.131288 55.976112 75.560013 56.030248 76.976826 56.691663 curveto
78.393639 57.353078 78.264667 58.372543 76.688943 58.967255 curveto
75.134892 59.553786 72.75437 59.511544 71.323797 58.87205 curveto
stroke
grestore
gsave [0.279641 0 0 0.595419 87.99133 27.16347] concat
gsave
0 0.95686275 1 setrgbcolor
newpath
71.267681 58.846415 moveto
69.850868 58.185 69.97984 57.165535 71.555564 56.570824 curveto
73.131288 55.976112 75.560013 56.030248 76.976826 56.691663 curveto
78.393639 57.353078 78.264667 58.372543 76.688943 58.967255 curveto
75.134892 59.553786 72.75437 59.511544 71.323797 58.87205 curveto
eofill
grestore
0 0.95686275 1 setrgbcolor
[] 0 setdash
0.20299999 setlinewidth
0 setlinejoin
1 setlinecap
newpath
71.267681 58.846415 moveto
69.850868 58.185 69.97984 57.165535 71.555564 56.570824 curveto
73.131288 55.976112 75.560013 56.030248 76.976826 56.691663 curveto
78.393639 57.353078 78.264667 58.372543 76.688943 58.967255 curveto
75.134892 59.553786 72.75437 59.511544 71.323797 58.87205 curveto
stroke
grestore
gsave
0 0 0 setrgbcolor
newpath
118.73352 69.99791 moveto
118.73352 70.626169 118.4552 71.15514 117.89856 71.584824 curveto
117.38749 71.978707 116.80806 72.175647 116.16028 72.175644 curveto
115.93892 72.175647 115.6427 72.126819 115.27161 72.02916 curveto
115.26672 74.055527 lineto
115.26672 74.351751 115.38228 74.576361 115.6134 74.729355 curveto
115.81522 74.862819 116.06913 74.921412 116.37512 74.905136 curveto
116.4093 75.041855 lineto
116.40442 75.090683 lineto
113.43567 75.090683 lineto
113.46497 74.875839 lineto
113.51868 74.875839 lineto
113.85071 74.879095 114.08183 74.815618 114.21204 74.68541 curveto
114.3455 74.551947 114.41223 74.319199 114.41223 73.987167 curveto
114.41223 68.962753 lineto
114.41223 68.529817 114.09648 68.314974 113.46497 68.318222 curveto
113.46497 68.137558 lineto
113.91744 68.075716 114.58313 68.044792 115.46204 68.044785 curveto
116.44185 68.044792 117.16451 68.137565 117.63 68.323105 curveto
118.36568 68.61608 118.73352 69.174348 118.73352 69.99791 curveto
117.70813 69.99791 moveto
117.70813 69.52591 117.5649 69.12552 117.27844 68.796738 curveto
116.97896 68.451692 116.59647 68.279166 116.13098 68.27916 curveto
116.0203 68.279166 115.87707 68.292187 115.70129 68.318222 curveto
115.48319 68.347526 115.33996 68.365429 115.27161 68.371933 curveto
115.27161 71.765488 lineto
115.49296 71.82734 115.82011 71.858264 116.25305 71.858261 curveto
116.76412 71.858264 117.14497 71.669462 117.39563 71.291855 curveto
117.60396 70.972849 117.70813 70.541534 117.70813 69.99791 curveto
fill
grestore
gsave
0 0 0 setrgbcolor
newpath
117.52708 53.644192 moveto
117.52708 54.272451 117.24876 54.801422 116.69212 55.231106 curveto
116.18105 55.624989 115.60163 55.821929 114.95384 55.821926 curveto
114.73249 55.821929 114.43626 55.773101 114.06517 55.675442 curveto
114.06029 57.701809 lineto
114.06029 57.998034 114.17585 58.222643 114.40697 58.375637 curveto
114.60879 58.509101 114.86269 58.567694 115.16869 58.551418 curveto
115.20287 58.688137 lineto
115.19798 58.736965 lineto
112.22923 58.736965 lineto
112.25853 58.522121 lineto
112.31224 58.522121 lineto
112.64427 58.525377 112.87539 58.4619 113.0056 58.331692 curveto
113.13906 58.198229 113.20579 57.965482 113.2058 57.63345 curveto
113.2058 52.609035 lineto
113.20579 52.176099 112.89004 51.961256 112.25853 51.964504 curveto
112.25853 51.78384 lineto
112.711 51.721998 113.37669 51.691074 114.2556 51.691067 curveto
115.23541 51.691074 115.95807 51.783847 116.42357 51.969387 curveto
117.15924 52.262362 117.52708 52.82063 117.52708 53.644192 curveto
116.50169 53.644192 moveto
116.50169 53.172192 116.35846 52.771802 116.07201 52.44302 curveto
115.77252 52.097974 115.39004 51.925449 114.92455 51.925442 curveto
114.81387 51.925449 114.67064 51.938469 114.49486 51.964504 curveto
114.27676 51.993808 114.13353 52.011711 114.06517 52.018215 curveto
114.06517 55.41177 lineto
114.28652 55.473622 114.61367 55.504547 115.04662 55.504543 curveto
115.55768 55.504547 115.93854 55.315745 116.18919 54.938137 curveto
116.39752 54.619131 116.50169 54.187816 116.50169 53.644192 curveto
fill
grestore
gsave
0 0 0 setrgbcolor
newpath
119.18236 52.179348 moveto
119.18236 52.50813 119.1319 52.929679 119.03099 53.443996 curveto
118.90404 54.065746 118.83079 54.482412 118.81126 54.693996 curveto
118.68431 54.693996 lineto
118.66478 54.482412 118.59316 54.065746 118.46947 53.443996 curveto
118.3653 52.929679 118.31322 52.50813 118.31322 52.179348 curveto
118.31322 52.10774 118.36693 52.019849 118.47435 51.915676 curveto
118.58503 51.808261 118.67617 51.75455 118.74779 51.754543 curveto
118.8194 51.75455 118.90892 51.808261 119.01634 51.915676 curveto
119.12702 52.019849 119.18236 52.10774 119.18236 52.179348 curveto
fill
grestore
grestore
showpage
%%EOF
