%!PS-Adobe-3.0 EPSF-3.0
%%Creator: inkscape 0.44.1
%%Pages: 1
%%Orientation: Portrait
%%BoundingBox: 2 3 165 62
%%HiResBoundingBox: 2.0203699 3.3348678 164.80996 61.484372
%%DocumentMedia: plain 171 86 0 () ()
%%EndComments
%%Page: 1 1
0 86 translate
0.8 -0.8 scale
gsave [1 0 0 1 0 0] concat
gsave
0.2 0.2 1 setrgbcolor
newpath
112.50831 66.583055 moveto
112.64032 86.758082 91.453483 101.39466 69.017362 101.68051 curveto
47.661452 101.95259 28.861272 84.604972 28.727225 66.005336 curveto
28.587661 46.500561 46.941784 29.622139 70.103855 29.622139 curveto
81.677122 29.622139 112.33142 39.370749 112.50831 66.583055 curveto
closepath
eofill
grestore
gsave
1 1 1 setrgbcolor
newpath
105.40372 65.790184 moveto
105.36537 63.961786 lineto
105.23479 62.156398 lineto
105.01963 60.381886 lineto
104.71225 58.630384 lineto
104.32049 56.909562 lineto
103.85183 55.219419 lineto
103.29114 53.567627 lineto
102.66889 51.96972 lineto
101.96975 50.39502 lineto
101.18623 48.86634 lineto
100.33349 47.375813 lineto
99.411523 45.939271 lineto
98.428196 44.541176 lineto
97.375839 43.204442 lineto
96.25406 41.913727 lineto
95.078787 40.699908 lineto
93.857299 39.524635 lineto
92.574254 38.418392 lineto
91.237715 37.358169 lineto
89.839424 36.367172 lineto
88.40298 35.445402 lineto
86.912453 34.59266 lineto
85.383773 33.801279 lineto
83.808877 33.10233 lineto
82.21097 32.464544 lineto
80.559374 31.911521 lineto
78.876902 31.442867 lineto
77.15608 31.05111 lineto
75.404577 30.743722 lineto
73.629869 30.528767 lineto
71.824677 30.398181 lineto
69.996279 30.374974 lineto
50.283523 30.374974 34.296789 46.35394 34.296789 66.074563 curveto
34.296789 85.786926 50.275853 101.77386 69.996279 101.77386 curveto
89.708839 101.77386 105.70324 85.794792 105.70324 66.074563 curveto
eofill
grestore
1 1 1 setrgbcolor
[] 0 setdash
0 setlinewidth
0 setlinejoin
0 setlinecap
newpath
105.40372 65.790184 moveto
105.36537 63.961786 lineto
105.23479 62.156398 lineto
105.01963 60.381886 lineto
104.71225 58.630384 lineto
104.32049 56.909562 lineto
103.85183 55.219419 lineto
103.29114 53.567627 lineto
102.66889 51.96972 lineto
101.96975 50.39502 lineto
101.18623 48.86634 lineto
100.33349 47.375813 lineto
99.411523 45.939271 lineto
98.428196 44.541176 lineto
97.375839 43.204442 lineto
96.25406 41.913727 lineto
95.078787 40.699908 lineto
93.857299 39.524635 lineto
92.574254 38.418392 lineto
91.237715 37.358169 lineto
89.839424 36.367172 lineto
88.40298 35.445402 lineto
86.912453 34.59266 lineto
85.383773 33.801279 lineto
83.808877 33.10233 lineto
82.21097 32.464544 lineto
80.559374 31.911521 lineto
78.876902 31.442867 lineto
77.15608 31.05111 lineto
75.404577 30.743722 lineto
73.629869 30.528767 lineto
71.824677 30.398181 lineto
69.996279 30.374974 lineto
50.283523 30.374974 34.296789 46.35394 34.296789 66.074563 curveto
34.296789 85.786926 50.275853 101.77386 69.996279 101.77386 curveto
89.708839 101.77386 105.70324 85.794792 105.70324 66.074563 curveto
105.63421 66.005336 lineto
105.54198 65.92077 lineto
105.40372 65.790184 lineto
closepath
stroke
0 0 0 setrgbcolor
[] 0 setdash
0.71352965 setlinewidth
0 setlinejoin
0 setlinecap
newpath
69.996279 30.374974 moveto
50.283696 30.292272 34.296789 46.35394 34.296789 66.074563 curveto
34.296789 85.786926 50.275853 101.77386 69.996279 101.77386 curveto
89.708839 101.77386 105.70324 85.794792 105.70324 66.074563 curveto
105.63421 66.005336 lineto
105.09802 46.300438 89.56713 30.509021 69.996279 30.374974 curveto
closepath
stroke
0 0 0 setrgbcolor
[] 0 setdash
0.71352965 setlinewidth
0 setlinejoin
0 setlinecap
newpath
205.37248 65.951647 moveto
205.37248 65.429107 lineto
205.34888 64.921907 lineto
205.28005 64.422573 lineto
205.20335 63.93091 lineto
205.09518 63.446916 lineto
204.96538 62.978459 lineto
204.81788 62.510002 lineto
204.64285 62.056492 lineto
204.45012 61.626385 lineto
204.23575 61.196081 lineto
204.00369 60.773643 lineto
203.75196 60.366349 lineto
203.47466 59.982459 lineto
203.18163 59.605844 lineto
202.87483 59.244963 lineto
202.54443 58.906895 lineto
202.20617 58.576694 lineto
201.84627 58.26911 lineto
201.46081 57.977258 lineto
201.08517 57.700747 lineto
200.67808 57.447245 lineto
200.25721 57.216753 lineto
199.82652 57.001601 lineto
199.38048 56.809459 lineto
198.93503 56.632853 lineto
198.46638 56.479258 lineto
197.99772 56.364209 lineto
197.51373 56.256436 lineto
197.02207 56.1642 lineto
196.52273 56.11051 lineto
196.01573 56.07983 lineto
195.49339 56.07983 lineto
189.89295 56.07983 185.32972 60.620048 185.32972 66.243302 curveto
185.32972 71.843742 189.87761 76.407166 195.49339 76.407166 curveto
201.09304 76.407166 205.65568 71.866752 205.65568 66.243302 curveto
205.59471 66.174272 lineto
205.51015 66.082036 lineto
205.37248 65.951647 lineto
closepath
stroke
0 0 0 setrgbcolor
[] 0 setdash
0.3567884 setlinewidth
0 setlinejoin
0 setlinecap
newpath
40.373553 56.302456 moveto
40.212091 56.894025 lineto
40.058495 57.477925 lineto
39.920239 58.069494 lineto
39.789654 58.661064 lineto
39.659068 59.252437 lineto
39.551492 59.859543 lineto
39.443916 60.450916 lineto
39.367216 61.057825 lineto
39.29032 61.664734 lineto
39.221094 62.271644 lineto
39.167404 62.87875 lineto
39.129054 63.485463 lineto
39.098178 64.100042 lineto
39.075168 64.706951 lineto
39.075168 65.329201 lineto
39.075168 65.93611 lineto
39.075168 84.143 53.487005 99.062037 71.694091 99.699626 curveto
stroke
0 0 0 setrgbcolor
[] 0 setdash
0.3567884 setlinewidth
0 setlinejoin
0 setlinecap
newpath
40.81133 60.020808 moveto
40.742301 60.627718 lineto
40.680744 61.249967 lineto
40.627055 61.856876 lineto
40.588705 62.479126 lineto
40.550159 63.101375 lineto
40.527149 63.723624 lineto
40.527149 64.345874 lineto
40.527149 64.96832 lineto
40.527149 81.50788 52.419309 95.666412 68.720904 98.516487 curveto
stroke
0 0 0 setrgbcolor
[] 0 setdash
0.3567884 setlinewidth
0 setlinejoin
0 setlinecap
newpath
41.717958 66.689142 moveto
42.440113 79.41064 50.375759 90.626861 62.152673 95.574176 curveto
stroke
0 0 0 setrgbcolor
[] 0 setdash
0.3567884 setlinewidth
0 setlinejoin
0 setlinecap
newpath
186.74335 64.44578 moveto
186.72781 64.553356 lineto
186.7048 64.660735 lineto
186.69713 64.768311 lineto
186.68179 64.875887 lineto
186.68179 64.983463 lineto
186.65878 65.068029 lineto
186.65878 65.175605 lineto
186.65878 65.282984 lineto
186.65111 65.390757 lineto
186.65111 65.498136 lineto
186.65111 65.605712 lineto
186.65111 65.713288 lineto
186.65111 65.820864 lineto
186.65111 65.92844 lineto
186.65111 66.036016 lineto
186.65111 66.143396 lineto
186.65111 70.660603 190.31558 74.348079 194.8558 74.348079 curveto
195.02473 74.348079 195.21688 74.348079 195.40115 74.332739 curveto
stroke
0 0 0 setrgbcolor
[] 0 setdash
0.3567884 setlinewidth
0 setlinejoin
0 setlinecap
newpath
188.1261 66.227962 moveto
188.17979 69.930778 191.19133 72.949985 194.91716 73.011541 curveto
stroke
0 0 0 setrgbcolor
[] 0 setdash
0.3567884 setlinewidth
0 setlinejoin
0 setlinecap
newpath
73.161412 30.137009 moveto
73.046166 30.129142 lineto
72.91558 30.129142 lineto
72.661882 30.129142 lineto
72.531296 30.129142 lineto
72.41605 30.129142 lineto
72.285464 30.129142 lineto
72.170218 30.129142 lineto
52.480668 30.129142 36.501605 46.092866 36.501605 65.797854 curveto
36.501605 85.487404 52.465329 101.47414 72.170218 101.47414 curveto
72.508286 101.47414 72.869364 101.47414 73.222772 101.45113 curveto
stroke
0 0 0 setrgbcolor
[] 0 setdash
0.3567884 setlinewidth
0 setlinejoin
0 setlinecap
newpath
70.507491 101.84906 moveto
47.58399 101.91338 28.727225 85.24232 28.727225 66.005336 curveto
28.727225 66.005336 lineto
28.727225 46.500062 46.941784 29.622139 70.103855 29.622139 curveto
70.103855 29.622139 lineto
88.826841 29.622139 112.48211 45.420135 112.54818 66.139383 curveto
112.54818 86.380468 89.542154 102.11716 70.507491 101.84906 curveto
closepath
stroke
gsave
0 0 0 setrgbcolor
newpath
65.542686 63.592499 moveto
65.327843 63.621796 lineto
65.256222 63.231176 65.199256 62.97076 65.156944 62.840546 curveto
65.039751 62.485734 64.881874 62.308326 64.683311 62.308319 curveto
62.818077 62.308319 lineto
62.818077 67.982147 lineto
62.818074 68.271861 62.925495 68.465546 63.140343 68.563202 curveto
63.280313 68.621796 63.511432 68.649465 63.833702 68.64621 curveto
63.833702 68.900116 lineto
60.884483 68.900116 lineto
60.884483 68.709686 lineto
61.581096 68.716197 61.929403 68.473684 61.929405 67.982147 curveto
61.929405 62.308319 lineto
60.088585 62.308319 lineto
59.772829 62.308326 59.559613 62.757544 59.448936 63.655975 curveto
59.292686 63.655975 lineto
59.448936 61.756561 lineto
59.536827 61.756561 lineto
59.667035 61.903053 59.824912 61.976295 60.01046 61.976288 curveto
64.683311 61.976288 lineto
64.872108 61.976295 65.056027 61.903053 65.235069 61.756561 curveto
65.298546 61.756561 lineto
65.542686 63.592499 lineto
fill
grestore
gsave
0 0 0 setrgbcolor
newpath
69.771202 67.698944 moveto
69.367553 68.558319 68.727905 68.988007 67.852257 68.988007 curveto
67.289104 68.988007 66.813844 68.742239 66.426476 68.250702 curveto
66.065147 67.791719 65.884483 67.274141 65.884483 66.697968 curveto
65.884483 66.043674 66.07003 65.493544 66.441124 65.047577 curveto
66.838258 64.572321 67.357464 64.334691 67.998741 64.334686 curveto
68.509806 64.334691 68.923217 64.489313 69.238976 64.798553 curveto
69.557982 65.107802 69.717487 65.519585 69.717491 66.033905 curveto
66.563194 66.033905 lineto
66.546917 66.170627 66.538779 66.3106 66.53878 66.453827 curveto
66.538779 66.938855 66.686891 67.384818 66.983116 67.791718 curveto
67.308635 68.244192 67.705771 68.470429 68.174522 68.470428 curveto
68.786499 68.470429 69.251993 68.195364 69.571007 67.645233 curveto
69.610069 67.645233 lineto
69.68168 67.641979 69.735391 67.659883 69.771202 67.698944 curveto
68.970421 65.755585 moveto
68.957397 65.423557 68.841837 65.153375 68.623741 64.945038 curveto
68.40564 64.733453 68.128947 64.627659 67.793663 64.627655 curveto
67.516969 64.627659 67.271201 64.749729 67.056358 64.993866 curveto
66.867555 65.208713 66.738975 65.462619 66.670616 65.755585 curveto
68.970421 65.755585 lineto
fill
grestore
gsave
0 0 0 setrgbcolor
newpath
73.623741 64.539764 moveto
73.613972 64.725315 73.513061 64.975966 73.321007 65.291718 curveto
72.917358 65.083388 72.639038 64.979221 72.486046 64.979218 curveto
72.290731 64.979221 72.118205 65.073622 71.968468 65.262421 curveto
71.854534 65.43495 71.742229 65.607476 71.631554 65.779999 curveto
71.631554 68.201874 lineto
71.631552 68.553437 71.851279 68.729218 72.290733 68.729218 curveto
72.333049 68.729218 72.39327 68.72759 72.471397 68.724335 curveto
72.54952 68.72108 72.604858 68.719452 72.637413 68.719452 curveto
72.656944 68.900116 lineto
70.239952 68.900116 lineto
70.239952 68.758514 lineto
70.698936 68.745494 70.928428 68.559947 70.928429 68.201874 curveto
70.928429 65.340546 lineto
70.928428 65.148492 70.694053 65.002008 70.225304 64.901093 curveto
70.225304 64.720428 lineto
70.511762 64.687881 70.917035 64.521865 71.441124 64.222382 curveto
71.631554 64.261444 lineto
71.631554 65.413788 lineto
72.022177 64.684625 72.370484 64.320042 72.676476 64.320038 curveto
72.832723 64.320042 73.148478 64.393285 73.623741 64.539764 curveto
fill
grestore
gsave
0 0 0 setrgbcolor
newpath
77.35421 64.539764 moveto
77.344441 64.725315 77.243529 64.975966 77.051476 65.291718 curveto
76.647827 65.083388 76.369507 64.979221 76.216515 64.979218 curveto
76.0212 64.979221 75.848674 65.073622 75.698936 65.262421 curveto
75.585002 65.43495 75.472698 65.607476 75.362022 65.779999 curveto
75.362022 68.201874 lineto
75.362021 68.553437 75.581747 68.729218 76.021202 68.729218 curveto
76.063518 68.729218 76.123739 68.72759 76.201866 68.724335 curveto
76.279989 68.72108 76.335327 68.719452 76.367882 68.719452 curveto
76.387413 68.900116 lineto
73.970421 68.900116 lineto
73.970421 68.758514 lineto
74.429405 68.745494 74.658897 68.559947 74.658897 68.201874 curveto
74.658897 65.340546 lineto
74.658897 65.148492 74.424522 65.002008 73.955772 64.901093 curveto
73.955772 64.720428 lineto
74.24223 64.687881 74.647503 64.521865 75.171593 64.222382 curveto
75.362022 64.261444 lineto
75.362022 65.413788 lineto
75.752646 64.684625 76.100952 64.320042 76.406944 64.320038 curveto
76.563192 64.320042 76.878946 64.393285 77.35421 64.539764 curveto
fill
grestore
gsave
0 0 0 setrgbcolor
newpath
81.568077 67.698944 moveto
81.164428 68.558319 80.52478 68.988007 79.649132 68.988007 curveto
79.085979 68.988007 78.610719 68.742239 78.223351 68.250702 curveto
77.862022 67.791719 77.681358 67.274141 77.681358 66.697968 curveto
77.681358 66.043674 77.866905 65.493544 78.237999 65.047577 curveto
78.635133 64.572321 79.154339 64.334691 79.795616 64.334686 curveto
80.306681 64.334691 80.720092 64.489313 81.035851 64.798553 curveto
81.354857 65.107802 81.514362 65.519585 81.514366 66.033905 curveto
78.360069 66.033905 lineto
78.343792 66.170627 78.335654 66.3106 78.335655 66.453827 curveto
78.335654 66.938855 78.483766 67.384818 78.779991 67.791718 curveto
79.10551 68.244192 79.502646 68.470429 79.971397 68.470428 curveto
80.583374 68.470429 81.048868 68.195364 81.367882 67.645233 curveto
81.406944 67.645233 lineto
81.478555 67.641979 81.532266 67.659883 81.568077 67.698944 curveto
80.767296 65.755585 moveto
80.754272 65.423557 80.638712 65.153375 80.420616 64.945038 curveto
80.202515 64.733453 79.925822 64.627659 79.590538 64.627655 curveto
79.313844 64.627659 79.068076 64.749729 78.853233 64.993866 curveto
78.66443 65.208713 78.53585 65.462619 78.467491 65.755585 curveto
80.767296 65.755585 lineto
fill
grestore
gsave
0 0 0 setrgbcolor
newpath
119.67184 56.727272 moveto
119.67184 57.355532 119.39352 57.884503 118.83688 58.314186 curveto
118.32581 58.708069 117.74639 58.905009 117.0986 58.905006 curveto
116.87725 58.905009 116.58102 58.856181 116.20993 58.758522 curveto
116.20505 60.784889 lineto
116.20505 61.081114 116.32061 61.305723 116.55173 61.458717 curveto
116.75355 61.592181 117.00745 61.650775 117.31345 61.634499 curveto
117.34763 61.771217 lineto
117.34274 61.820045 lineto
114.37399 61.820045 lineto
114.40329 61.605202 lineto
114.457 61.605202 lineto
114.78903 61.608457 115.02015 61.544981 115.15036 61.414772 curveto
115.28382 61.281309 115.35055 61.048562 115.35056 60.71653 curveto
115.35056 55.692116 lineto
115.35055 55.25918 115.0348 55.044336 114.40329 55.047585 curveto
114.40329 54.86692 lineto
114.85576 54.805079 115.52145 54.774154 116.40036 54.774147 curveto
117.38017 54.774154 118.10283 54.866927 118.56833 55.052467 curveto
119.304 55.345443 119.67184 55.90371 119.67184 56.727272 curveto
118.64645 56.727272 moveto
118.64645 56.255272 118.50322 55.854882 118.21677 55.5261 curveto
117.91728 55.181055 117.5348 55.008529 117.06931 55.008522 curveto
116.95863 55.008529 116.8154 55.02155 116.63962 55.047585 curveto
116.42152 55.076888 116.27829 55.094792 116.20993 55.101295 curveto
116.20993 58.49485 lineto
116.43128 58.556702 116.75843 58.587627 117.19138 58.587624 curveto
117.70244 58.587627 118.0833 58.398825 118.33395 58.021217 curveto
118.54228 57.702211 118.64645 57.270896 118.64645 56.727272 curveto
fill
grestore
gsave
0 0 0 setrgbcolor
newpath
122.43063 61.575905 moveto
122.40134 61.795631 lineto
120.29196 61.795631 lineto
120.27243 61.756569 lineto
120.30173 61.605202 lineto
120.5068 61.605202 120.67119 61.522194 120.79489 61.356178 curveto
120.90882 61.206439 120.96579 61.025775 120.96579 60.814186 curveto
120.96579 55.604225 lineto
120.96579 55.487044 120.90394 55.389388 120.78024 55.311256 curveto
120.67608 55.246159 120.56052 55.213607 120.43356 55.2136 curveto
120.43356 55.213607 120.35218 55.229883 120.18942 55.262428 curveto
120.18942 55.246159 120.19105 55.221745 120.19431 55.189186 curveto
120.19756 55.156641 120.19919 55.130599 120.19919 55.111061 curveto
120.19919 55.065495 120.24639 55.026432 120.34079 54.993874 curveto
120.5947 54.915755 120.96904 54.769271 121.46384 54.55442 curveto
121.67868 54.55442 lineto
121.67868 61.053444 lineto
121.67868 61.372455 121.92933 61.546608 122.43063 61.575905 curveto
fill
grestore
gsave
0 0 0 setrgbcolor
newpath
126.62497 60.59446 moveto
126.22132 61.453835 125.58167 61.883522 124.70602 61.883522 curveto
124.14287 61.883522 123.66761 61.637754 123.28024 61.146217 curveto
122.91891 60.687234 122.73825 60.169656 122.73825 59.593483 curveto
122.73825 58.939189 122.9238 58.389059 123.29489 57.943092 curveto
123.69203 57.467836 124.21123 57.230206 124.85251 57.230202 curveto
125.36357 57.230206 125.77698 57.384829 126.09274 57.694069 curveto
126.41175 58.003317 126.57125 58.415101 126.57126 58.92942 curveto
123.41696 58.92942 lineto
123.40068 59.066142 123.39255 59.206116 123.39255 59.349342 curveto
123.39255 59.83437 123.54066 60.280333 123.83688 60.687233 curveto
124.1624 61.139708 124.55954 61.365944 125.02829 61.365944 curveto
125.64027 61.365944 126.10576 61.09088 126.42477 60.540749 curveto
126.46384 60.540749 lineto
126.53545 60.537495 126.58916 60.555398 126.62497 60.59446 curveto
125.82419 58.6511 moveto
125.81116 58.319072 125.6956 58.04889 125.47751 57.840553 curveto
125.25941 57.628969 124.98271 57.523175 124.64743 57.52317 curveto
124.37074 57.523175 124.12497 57.645245 123.91013 57.889381 curveto
123.72132 58.104229 123.59274 58.358135 123.52438 58.6511 curveto
125.82419 58.6511 lineto
fill
grestore
gsave
0 0 0 setrgbcolor
newpath
129.45212 61.795631 moveto
127.21091 61.795631 lineto
127.19138 61.756569 lineto
127.22067 61.605202 lineto
127.45179 61.605202 127.61618 61.57265 127.71384 61.507545 curveto
127.83428 61.426166 127.8945 61.269916 127.8945 61.038795 curveto
127.8945 58.123756 lineto
127.8945 57.88613 127.77731 57.767315 127.54294 57.767311 curveto
127.45505 57.767315 127.35251 57.781964 127.23532 57.811256 curveto
127.11325 57.615944 lineto
127.73174 57.443422 128.19561 57.259503 128.50485 57.064186 curveto
128.68552 57.196022 lineto
128.68552 61.053444 lineto
128.68551 61.372455 128.93454 61.546608 129.43259 61.575905 curveto
129.45212 61.795631 lineto
128.74411 55.545631 moveto
128.74411 55.685611 128.69528 55.806054 128.59763 55.90696 curveto
128.49997 56.004622 128.38115 56.05345 128.24118 56.053444 curveto
128.10121 56.05345 127.98239 56.004622 127.88474 55.90696 curveto
127.78708 55.806054 127.73825 55.685611 127.73825 55.545631 curveto
127.73825 55.405664 127.78708 55.286849 127.88474 55.189186 curveto
127.98239 55.091537 128.10121 55.042708 128.24118 55.042702 curveto
128.38115 55.042708 128.49997 55.091537 128.59763 55.189186 curveto
128.69528 55.286849 128.74411 55.405664 128.74411 55.545631 curveto
fill
grestore
gsave
0 0 0 setrgbcolor
newpath
135.0527 61.795631 moveto
132.85056 61.795631 lineto
132.85056 61.575905 lineto
133.29977 61.575905 133.52438 61.356179 133.52438 60.916725 curveto
133.52438 58.695045 lineto
133.52438 58.411846 133.46579 58.169333 133.3486 57.967506 curveto
133.20537 57.726625 133.00192 57.606182 132.73825 57.606178 curveto
132.31833 57.606182 131.804 57.825909 131.19528 58.265358 curveto
131.19528 61.053444 lineto
131.19528 61.372455 131.44593 61.546608 131.94724 61.575905 curveto
131.91794 61.795631 lineto
129.80856 61.795631 lineto
129.78903 61.756569 lineto
129.81833 61.605202 lineto
130.02341 61.605202 130.18942 61.522194 130.31638 61.356178 curveto
130.43356 61.206439 130.49216 61.025775 130.49216 60.814186 curveto
130.49216 58.123756 lineto
130.49216 58.006573 130.38962 57.913799 130.18454 57.845436 curveto
130.1585 57.835674 130.00225 57.799867 129.71579 57.738014 curveto
129.71579 57.615944 lineto
129.86227 57.596417 130.09502 57.518292 130.41403 57.381569 curveto
130.71351 57.251365 130.91371 57.145571 131.01462 57.064186 curveto
131.19528 57.196022 lineto
131.19528 58.074928 lineto
132.15557 57.469464 132.818 57.16673 133.18259 57.166725 curveto
133.5374 57.16673 133.81247 57.327862 134.00778 57.650124 curveto
134.17379 57.92031 134.2568 58.242575 134.25681 58.61692 curveto
134.25681 61.155983 lineto
134.2568 61.42291 134.51233 61.556374 135.02341 61.556374 curveto
135.0527 61.795631 lineto
fill
grestore
gsave
0 0 0 setrgbcolor
newpath
139.1445 60.59446 moveto
138.74085 61.453835 138.1012 61.883522 137.22556 61.883522 curveto
136.6624 61.883522 136.18714 61.637754 135.79977 61.146217 curveto
135.43845 60.687234 135.25778 60.169656 135.25778 59.593483 curveto
135.25778 58.939189 135.44333 58.389059 135.81442 57.943092 curveto
136.21156 57.467836 136.73076 57.230206 137.37204 57.230202 curveto
137.8831 57.230206 138.29652 57.384829 138.61227 57.694069 curveto
138.93128 58.003317 139.09079 58.415101 139.09079 58.92942 curveto
135.93649 58.92942 lineto
135.92022 59.066142 135.91208 59.206116 135.91208 59.349342 curveto
135.91208 59.83437 136.06019 60.280333 136.35641 60.687233 curveto
136.68193 61.139708 137.07907 61.365944 137.54782 61.365944 curveto
138.1598 61.365944 138.62529 61.09088 138.94431 60.540749 curveto
138.98337 60.540749 lineto
139.05498 60.537495 139.10869 60.555398 139.1445 60.59446 curveto
138.34372 58.6511 moveto
138.3307 58.319072 138.21514 58.04889 137.99704 57.840553 curveto
137.77894 57.628969 137.50225 57.523175 137.16696 57.52317 curveto
136.89027 57.523175 136.6445 57.645245 136.42966 57.889381 curveto
136.24085 58.104229 136.11227 58.358135 136.04391 58.6511 curveto
138.34372 58.6511 lineto
fill
grestore
gsave
0 0 0 setrgbcolor
newpath
122.36227 71.795631 moveto
120.19919 71.795631 lineto
120.19919 71.575905 lineto
120.64189 71.575905 120.86324 71.356179 120.86325 70.916725 curveto
120.86325 68.695045 lineto
120.86324 68.418356 120.79651 68.175843 120.66306 67.967506 curveto
120.5068 67.726625 120.29684 67.606182 120.03317 67.606178 curveto
119.62952 67.606182 119.14938 67.809633 118.59274 68.21653 curveto
118.59274 71.155983 lineto
118.59274 71.42291 118.85315 71.556374 119.37399 71.556374 curveto
119.39841 71.795631 lineto
117.2402 71.795631 lineto
117.2402 71.575905 lineto
117.67965 71.575905 117.89938 71.356179 117.89938 70.916725 curveto
117.89938 68.695045 lineto
117.89938 68.415101 117.84241 68.174216 117.72849 67.972389 curveto
117.58851 67.728253 117.38831 67.606182 117.1279 67.606178 curveto
116.71774 67.606182 116.21481 67.825909 115.61911 68.265358 curveto
115.61911 71.053444 lineto
115.61911 71.372455 115.86488 71.546608 116.35641 71.575905 curveto
116.32712 71.795631 lineto
114.26169 71.795631 lineto
114.24216 71.756569 lineto
114.27145 71.605202 lineto
114.47328 71.605202 114.63604 71.522194 114.75974 71.356178 curveto
114.87367 71.203184 114.93063 71.02252 114.93063 70.814186 curveto
114.93063 68.123756 lineto
114.93063 68.006573 114.82972 67.913799 114.6279 67.845436 curveto
114.60186 67.835674 114.44886 67.799867 114.16891 67.738014 curveto
114.16891 67.615944 lineto
114.20147 67.580141 114.24216 67.554099 114.29099 67.537819 curveto
114.54815 67.449933 114.93226 67.292055 115.44333 67.064186 curveto
115.61911 67.196022 lineto
115.61911 68.074928 lineto
116.55986 67.469464 117.20928 67.16673 117.56735 67.166725 curveto
117.78545 67.16673 117.9889 67.267641 118.1777 67.46946 curveto
118.3372 67.64199 118.45276 67.843812 118.52438 68.074928 curveto
119.46513 67.469464 120.11455 67.16673 120.47263 67.166725 curveto
120.82093 67.16673 121.09925 67.327862 121.30759 67.650124 curveto
121.48987 67.930075 121.58102 68.252341 121.58102 68.61692 curveto
121.58102 71.155983 lineto
121.58102 71.42291 121.83167 71.556374 122.33298 71.556374 curveto
122.36227 71.795631 lineto
fill
grestore
gsave
0 0 0 setrgbcolor
newpath
126.54684 70.59446 moveto
126.1432 71.453835 125.50355 71.883522 124.6279 71.883522 curveto
124.06475 71.883522 123.58949 71.637754 123.20212 71.146217 curveto
122.84079 70.687234 122.66013 70.169656 122.66013 69.593483 curveto
122.66013 68.939189 122.84567 68.389059 123.21677 67.943092 curveto
123.6139 67.467836 124.13311 67.230206 124.77438 67.230202 curveto
125.28545 67.230206 125.69886 67.384829 126.01462 67.694069 curveto
126.33362 68.003317 126.49313 68.415101 126.49313 68.92942 curveto
123.33884 68.92942 lineto
123.32256 69.066142 123.31442 69.206116 123.31442 69.349342 curveto
123.31442 69.83437 123.46253 70.280333 123.75876 70.687233 curveto
124.08428 71.139708 124.48141 71.365944 124.95016 71.365944 curveto
125.56214 71.365944 126.02764 71.09088 126.34665 70.540749 curveto
126.38571 70.540749 lineto
126.45732 70.537495 126.51103 70.555398 126.54684 70.59446 curveto
125.74606 68.6511 moveto
125.73304 68.319072 125.61748 68.04889 125.39938 67.840553 curveto
125.18128 67.628969 124.90459 67.523175 124.56931 67.52317 curveto
124.29261 67.523175 124.04684 67.645245 123.832 67.889381 curveto
123.6432 68.104229 123.51462 68.358135 123.44626 68.6511 curveto
125.74606 68.6511 lineto
fill
grestore
gsave
0 0 0 setrgbcolor
newpath
130.39938 67.43528 moveto
130.38961 67.620831 130.2887 67.871482 130.09665 68.187233 curveto
129.693 67.978903 129.41468 67.874737 129.26169 67.874733 curveto
129.06637 67.874737 128.89385 67.969138 128.74411 68.157936 curveto
128.63018 68.330466 128.51787 68.502991 128.4072 68.675514 curveto
128.4072 71.097389 lineto
128.40719 71.448952 128.62692 71.624733 129.06638 71.624733 curveto
129.10869 71.624733 129.16891 71.623106 129.24704 71.61985 curveto
129.32516 71.616595 129.3805 71.614968 129.41306 71.614967 curveto
129.43259 71.795631 lineto
127.01559 71.795631 lineto
127.01559 71.65403 lineto
127.47458 71.641009 127.70407 71.455462 127.70407 71.097389 curveto
127.70407 68.236061 lineto
127.70407 68.044008 127.4697 67.897523 127.00095 67.796608 curveto
127.00095 67.615944 lineto
127.2874 67.583396 127.69268 67.417381 128.21677 67.117897 curveto
128.4072 67.15696 lineto
128.4072 68.309303 lineto
128.79782 67.580141 129.14613 67.215558 129.45212 67.215553 curveto
129.60837 67.215558 129.92412 67.2888 130.39938 67.43528 curveto
fill
grestore
gsave
0 0 0 setrgbcolor
newpath
8.0283921 57.314636 moveto
8.0283866 57.942896 7.7500666 58.471867 7.1934311 58.90155 curveto
6.6823593 59.295434 6.1029328 59.492373 5.4551499 59.492371 curveto
5.2337931 59.492373 4.9375694 59.443545 4.566478 59.345886 curveto
4.5615952 61.372253 lineto
4.5615932 61.668478 4.677153 61.893087 4.9082749 62.046082 curveto
5.1100953 62.179545 5.3640013 62.238139 5.6699936 62.221863 curveto
5.7041733 62.358582 lineto
5.6992905 62.40741 lineto
2.7305405 62.40741 lineto
2.7598374 62.192566 lineto
2.8135483 62.192566 lineto
3.145579 62.195821 3.3766986 62.132345 3.5069077 62.002136 curveto
3.6403702 61.868673 3.7071019 61.635926 3.707103 61.303894 curveto
3.707103 56.27948 lineto
3.7071019 55.846544 3.391347 55.6317 2.7598374 55.634949 curveto
2.7598374 55.454285 lineto
3.2123107 55.392443 3.8780001 55.361518 4.7569077 55.361511 curveto
5.7367222 55.361518 6.4593778 55.454292 6.9248765 55.639832 curveto
7.6605484 55.932807 8.0283866 56.491074 8.0283921 57.314636 curveto
7.0030015 57.314636 moveto
7.002997 56.842637 6.859768 56.442246 6.573314 56.113464 curveto
6.2738311 55.768419 5.8913445 55.595893 5.425853 55.595886 curveto
5.3151732 55.595893 5.1719442 55.608914 4.9961655 55.634949 curveto
4.7780643 55.664252 4.6348353 55.682156 4.566478 55.68866 curveto
4.566478 59.082214 lineto
4.78783 59.144067 5.1149781 59.174991 5.5479233 59.174988 curveto
6.0589875 59.174991 6.4398465 58.986189 6.6905015 58.608582 curveto
6.8988305 58.289575 7.002997 57.858261 7.0030015 57.314636 curveto
fill
grestore
gsave
0 0 0 setrgbcolor
newpath
10.787181 62.163269 moveto
10.757884 62.382996 lineto
8.6485093 62.382996 lineto
8.628978 62.343933 lineto
8.6582749 62.192566 lineto
8.8633525 62.192566 9.0277404 62.109558 9.151439 61.943542 curveto
9.2653704 61.793803 9.3223365 61.61314 9.3223374 61.40155 curveto
9.3223374 56.191589 lineto
9.3223365 56.074408 9.2604876 55.976752 9.1367905 55.898621 curveto
9.0326232 55.833523 8.9170634 55.800971 8.7901108 55.800964 curveto
8.7901104 55.800971 8.7087303 55.817247 8.5459702 55.849792 curveto
8.54597 55.833523 8.5475976 55.809109 8.550853 55.77655 curveto
8.5541081 55.744005 8.5557357 55.717963 8.5557358 55.698425 curveto
8.5557357 55.652859 8.6029361 55.613797 8.6973374 55.581238 curveto
8.9512431 55.50312 9.3255917 55.356635 9.8203843 55.141785 curveto
10.035228 55.141785 lineto
10.035228 61.640808 lineto
10.035226 61.959819 10.285877 62.133972 10.787181 62.163269 curveto
fill
grestore
gsave
0 0 0 setrgbcolor
newpath
14.981517 61.181824 moveto
14.577868 62.041199 13.93822 62.470886 13.062572 62.470886 curveto
12.499419 62.470886 12.024159 62.225118 11.636791 61.733582 curveto
11.275462 61.274598 11.094798 60.757021 11.094798 60.180847 curveto
11.094798 59.526553 11.280345 58.976423 11.651439 58.530457 curveto
12.048573 58.0552 12.567779 57.81757 13.209056 57.817566 curveto
13.720121 57.81757 14.133532 57.972193 14.449291 58.281433 curveto
14.768297 58.590682 14.927802 59.002465 14.927806 59.516785 curveto
11.773509 59.516785 lineto
11.757232 59.653506 11.749094 59.79348 11.749095 59.936707 curveto
11.749094 60.421735 11.897206 60.867698 12.193431 61.274597 curveto
12.51895 61.727072 12.916085 61.953309 13.384837 61.953308 curveto
13.996814 61.953309 14.462308 61.678244 14.781322 61.128113 curveto
14.820384 61.128113 lineto
14.891995 61.124859 14.945706 61.142762 14.981517 61.181824 curveto
14.180736 59.238464 moveto
14.167712 58.906437 14.052152 58.636255 13.834056 58.427917 curveto
13.615955 58.216333 13.339262 58.110539 13.003978 58.110535 curveto
12.727284 58.110539 12.481516 58.232609 12.266673 58.476746 curveto
12.07787 58.691593 11.94929 58.945499 11.880931 59.238464 curveto
14.180736 59.238464 lineto
fill
grestore
gsave
0 0 0 setrgbcolor
newpath
17.808666 62.382996 moveto
15.567455 62.382996 lineto
15.547923 62.343933 lineto
15.57722 62.192566 lineto
15.80834 62.192566 15.972727 62.160014 16.070384 62.09491 curveto
16.190826 62.01353 16.251047 61.85728 16.251048 61.62616 curveto
16.251048 58.711121 lineto
16.251047 58.473494 16.13386 58.354679 15.899486 58.354675 curveto
15.811595 58.354679 15.709056 58.369328 15.591869 58.398621 curveto
15.469798 58.203308 lineto
16.088287 58.030786 16.552154 57.846867 16.8614 57.65155 curveto
17.042064 57.783386 lineto
17.042064 61.640808 lineto
17.042062 61.959819 17.291085 62.133972 17.789134 62.163269 curveto
17.808666 62.382996 lineto
17.100658 56.132996 moveto
17.100656 56.272976 17.051828 56.393418 16.954173 56.494324 curveto
16.856516 56.591986 16.737701 56.640814 16.597728 56.640808 curveto
16.457753 56.640814 16.338938 56.591986 16.241283 56.494324 curveto
16.143626 56.393418 16.094798 56.272976 16.094798 56.132996 curveto
16.094798 55.993028 16.143626 55.874213 16.241283 55.77655 curveto
16.338938 55.678901 16.457753 55.630073 16.597728 55.630066 curveto
16.737701 55.630073 16.856516 55.678901 16.954173 55.77655 curveto
17.051828 55.874213 17.100656 55.993028 17.100658 56.132996 curveto
fill
grestore
gsave
0 0 0 setrgbcolor
newpath
23.409251 62.382996 moveto
21.207103 62.382996 lineto
21.207103 62.163269 lineto
21.656318 62.163269 21.880927 61.943543 21.880931 61.504089 curveto
21.880931 59.28241 lineto
21.880927 58.99921 21.822334 58.756697 21.70515 58.554871 curveto
21.561917 58.313989 21.358467 58.193547 21.094798 58.193542 curveto
20.674874 58.193547 20.160551 58.413273 19.55183 58.852722 curveto
19.55183 61.640808 lineto
19.551828 61.959819 19.802479 62.133972 20.303783 62.163269 curveto
20.274486 62.382996 lineto
18.165111 62.382996 lineto
18.14558 62.343933 lineto
18.174876 62.192566 lineto
18.379954 62.192566 18.54597 62.109558 18.672923 61.943542 curveto
18.79011 61.793803 18.848704 61.61314 18.848705 61.40155 curveto
18.848705 58.711121 lineto
18.848704 58.593937 18.746165 58.501164 18.541087 58.4328 curveto
18.515045 58.423039 18.358795 58.387231 18.072337 58.325378 curveto
18.072337 58.203308 lineto
18.218822 58.183781 18.451569 58.105656 18.77058 57.968933 curveto
19.070058 57.838729 19.270253 57.732935 19.371166 57.65155 curveto
19.55183 57.783386 lineto
19.55183 58.662292 lineto
20.512114 58.056828 21.174548 57.754094 21.539134 57.754089 curveto
21.893948 57.754094 22.169013 57.915227 22.36433 58.237488 curveto
22.530341 58.507674 22.613348 58.829939 22.613353 59.204285 curveto
22.613353 61.743347 lineto
22.613348 62.010275 22.868882 62.143738 23.379955 62.143738 curveto
23.409251 62.382996 lineto
fill
grestore
gsave
0 0 0 setrgbcolor
newpath
27.501048 61.181824 moveto
27.097399 62.041199 26.457751 62.470886 25.582103 62.470886 curveto
25.01895 62.470886 24.543691 62.225118 24.156322 61.733582 curveto
23.794993 61.274598 23.61433 60.757021 23.61433 60.180847 curveto
23.61433 59.526553 23.799876 58.976423 24.17097 58.530457 curveto
24.568105 58.0552 25.08731 57.81757 25.728587 57.817566 curveto
26.239652 57.81757 26.653063 57.972193 26.968822 58.281433 curveto
27.287828 58.590682 27.447333 59.002465 27.447337 59.516785 curveto
24.293041 59.516785 lineto
24.276764 59.653506 24.268626 59.79348 24.268626 59.936707 curveto
24.268626 60.421735 24.416738 60.867698 24.712962 61.274597 curveto
25.038482 61.727072 25.435617 61.953309 25.904369 61.953308 curveto
26.516345 61.953309 26.981839 61.678244 27.300853 61.128113 curveto
27.339916 61.128113 lineto
27.411526 61.124859 27.465237 61.142762 27.501048 61.181824 curveto
26.700267 59.238464 moveto
26.687243 58.906437 26.571683 58.636255 26.353587 58.427917 curveto
26.135486 58.216333 25.858793 58.110539 25.523509 58.110535 curveto
25.246815 58.110539 25.001047 58.232609 24.786205 58.476746 curveto
24.597401 58.691593 24.468821 58.945499 24.400462 59.238464 curveto
26.700267 59.238464 lineto
fill
grestore
gsave
0 0 0 setrgbcolor
newpath
10.718822 72.382996 moveto
8.5557358 72.382996 lineto
8.5557358 72.163269 lineto
8.9984377 72.163269 9.2197917 71.943543 9.2197983 71.504089 curveto
9.2197983 69.28241 lineto
9.2197917 69.00572 9.15306 68.763208 9.019603 68.554871 curveto
8.8633467 68.313989 8.653386 68.193547 8.3897202 68.193542 curveto
7.9860689 68.193547 7.5059262 68.396997 6.9492905 68.803894 curveto
6.9492905 71.743347 lineto
6.9492861 72.010275 7.2097025 72.143738 7.7305405 72.143738 curveto
7.7549546 72.382996 lineto
5.5967515 72.382996 lineto
5.5967515 72.163269 lineto
6.0362011 72.163269 6.2559274 71.943543 6.2559311 71.504089 curveto
6.2559311 69.28241 lineto
6.2559274 69.002465 6.1989614 68.76158 6.0850327 68.559753 curveto
5.9450554 68.315617 5.7448603 68.193547 5.4844468 68.193542 curveto
5.074288 68.193547 4.5713588 68.413273 3.9756577 68.852722 curveto
3.9756577 71.640808 lineto
3.9756563 71.959819 4.2214243 72.133972 4.7129624 72.163269 curveto
4.6836655 72.382996 lineto
2.6182358 72.382996 lineto
2.5987046 72.343933 lineto
2.6280015 72.192566 lineto
2.8298241 72.192566 2.9925844 72.109558 3.1162827 71.943542 curveto
3.2302143 71.790548 3.2871804 71.609884 3.2871811 71.40155 curveto
3.2871811 68.711121 lineto
3.2871804 68.593937 3.1862691 68.501164 2.9844468 68.4328 curveto
2.9584047 68.423039 2.8054101 68.387231 2.5254624 68.325378 curveto
2.5254624 68.203308 lineto
2.5580145 68.167505 2.5987045 68.141463 2.6475327 68.125183 curveto
2.9046938 68.037297 3.288808 67.879419 3.7998765 67.65155 curveto
3.9756577 67.783386 lineto
3.9756577 68.662292 lineto
4.9164106 68.056828 5.565824 67.754094 5.9238999 67.754089 curveto
6.1419953 67.754094 6.3454456 67.855005 6.5342515 68.056824 curveto
6.6937525 68.229354 6.8093123 68.431177 6.8809311 68.662292 curveto
7.8216811 68.056828 8.4710945 67.754094 8.8291733 67.754089 curveto
9.177474 67.754094 9.455794 67.915227 9.6641343 68.237488 curveto
9.8464186 68.51744 9.9375644 68.839705 9.9375718 69.204285 curveto
9.9375718 71.743347 lineto
9.9375644 72.010275 10.188215 72.143738 10.689525 72.143738 curveto
10.718822 72.382996 lineto
fill
grestore
gsave
0 0 0 setrgbcolor
newpath
14.903392 71.181824 moveto
14.499743 72.041199 13.860095 72.470886 12.984447 72.470886 curveto
12.421294 72.470886 11.946034 72.225118 11.558666 71.733582 curveto
11.197337 71.274598 11.016673 70.757021 11.016673 70.180847 curveto
11.016673 69.526553 11.20222 68.976423 11.573314 68.530457 curveto
11.970448 68.0552 12.489654 67.81757 13.130931 67.817566 curveto
13.641996 67.81757 14.055407 67.972193 14.371166 68.281433 curveto
14.690172 68.590682 14.849677 69.002465 14.849681 69.516785 curveto
11.695384 69.516785 lineto
11.679107 69.653506 11.670969 69.79348 11.67097 69.936707 curveto
11.670969 70.421735 11.819081 70.867698 12.115306 71.274597 curveto
12.440825 71.727072 12.83796 71.953309 13.306712 71.953308 curveto
13.918689 71.953309 14.384183 71.678244 14.703197 71.128113 curveto
14.742259 71.128113 lineto
14.81387 71.124859 14.867581 71.142762 14.903392 71.181824 curveto
14.102611 69.238464 moveto
14.089587 68.906437 13.974027 68.636255 13.755931 68.427917 curveto
13.53783 68.216333 13.261137 68.110539 12.925853 68.110535 curveto
12.649159 68.110539 12.403391 68.232609 12.188548 68.476746 curveto
11.999745 68.691593 11.871165 68.945499 11.802806 69.238464 curveto
14.102611 69.238464 lineto
fill
grestore
gsave
0 0 0 setrgbcolor
newpath
18.755931 68.022644 moveto
18.746162 68.208195 18.645251 68.458846 18.453197 68.774597 curveto
18.049548 68.566268 17.771228 68.462101 17.618236 68.462097 curveto
17.422921 68.462101 17.250395 68.556502 17.100658 68.7453 curveto
16.986724 68.91783 16.874419 69.090356 16.763744 69.262878 curveto
16.763744 71.684753 lineto
16.763742 72.036316 16.983468 72.212097 17.422923 72.212097 curveto
17.465239 72.212097 17.52546 72.21047 17.603587 72.207214 curveto
17.68171 72.203959 17.737048 72.202332 17.769603 72.202332 curveto
17.789134 72.382996 lineto
15.372142 72.382996 lineto
15.372142 72.241394 lineto
15.831126 72.228373 16.060618 72.042827 16.060619 71.684753 curveto
16.060619 68.823425 lineto
16.060618 68.631372 15.826243 68.484888 15.357494 68.383972 curveto
15.357494 68.203308 lineto
15.643952 68.17076 16.049225 68.004745 16.573314 67.705261 curveto
16.763744 67.744324 lineto
16.763744 68.896667 lineto
17.154367 68.167505 17.502674 67.802922 17.808666 67.802917 curveto
17.964913 67.802922 18.280668 67.876164 18.755931 68.022644 curveto
fill
grestore
gsave
0 0 0 setrgbcolor
newpath
189.62794 52.728714 moveto
189.2422 54.42305 lineto
183.74416 54.42305 lineto
183.74416 54.242386 lineto
184.52215 54.23262 184.91115 54.011266 184.91115 53.578323 curveto
184.91115 48.324417 lineto
184.91115 48.0282 184.80373 47.834515 184.58888 47.743362 curveto
184.46518 47.694541 184.22267 47.670127 183.86134 47.67012 curveto
183.86134 47.499222 lineto
186.96193 47.499222 lineto
186.96193 47.655472 lineto
186.88869 47.650589 lineto
186.63803 47.647341 186.40691 47.696169 186.19533 47.797073 curveto
185.9284 47.924033 185.79494 48.101442 185.79494 48.3293 curveto
185.79494 53.490433 lineto
185.79494 53.851761 185.93328 54.032425 186.20998 54.032425 curveto
188.27541 54.032425 lineto
188.59441 54.032425 188.85971 53.885941 189.0713 53.592972 curveto
189.24382 53.358598 189.36264 53.064002 189.42775 52.709183 curveto
189.62794 52.728714 lineto
fill
grestore
gsave
0 0 0 setrgbcolor
newpath
194.97951 53.822464 moveto
194.96974 54.022659 lineto
193.49025 54.442581 lineto
193.49025 53.563675 lineto
192.88152 54.169144 192.21909 54.471878 191.50294 54.471878 curveto
190.79331 54.471878 190.43849 53.98848 190.43849 53.021683 curveto
190.43849 50.86348 lineto
190.43849 50.664916 190.37013 50.508666 190.23341 50.39473 curveto
190.09669 50.280801 189.92742 50.223835 189.7256 50.223831 curveto
189.70607 50.023636 lineto
191.16115 49.764847 lineto
191.16115 52.943558 lineto
191.16115 53.223507 191.25066 53.461137 191.4297 53.656448 curveto
191.61199 53.861527 191.84148 53.964066 192.11818 53.964066 curveto
192.39487 53.964066 192.85223 53.732946 193.49025 53.270706 curveto
193.49025 50.585159 lineto
193.49025 50.341023 193.17612 50.201049 192.54787 50.165237 curveto
192.54787 50.004105 lineto
194.18849 49.70137 lineto
194.18849 53.514847 lineto
194.18849 53.758988 194.32521 53.881058 194.59865 53.881058 curveto
194.67026 53.881058 194.79721 53.861527 194.97951 53.822464 curveto
fill
grestore
gsave
0 0 0 setrgbcolor
newpath
200.79494 54.42305 moveto
198.59279 54.42305 lineto
198.59279 54.203323 lineto
199.042 54.203324 199.26661 53.983597 199.26662 53.544144 curveto
199.26662 51.322464 lineto
199.26661 51.039264 199.20802 50.796751 199.09084 50.594925 curveto
198.9476 50.354044 198.74415 50.233601 198.48048 50.233597 curveto
198.06056 50.233601 197.54624 50.453327 196.93752 50.892776 curveto
196.93752 53.680862 lineto
196.93751 53.999873 197.18816 54.174027 197.68947 54.203323 curveto
197.66017 54.42305 lineto
195.5508 54.42305 lineto
195.53127 54.383987 lineto
195.56056 54.23262 lineto
195.76564 54.23262 195.93166 54.149613 196.05861 53.983597 curveto
196.1758 53.833858 196.23439 53.653194 196.23439 53.441605 curveto
196.23439 50.751175 lineto
196.23439 50.633991 196.13185 50.541218 195.92677 50.472855 curveto
195.90073 50.463093 195.74448 50.427286 195.45802 50.365433 curveto
195.45802 50.243362 lineto
195.60451 50.223835 195.83725 50.14571 196.15627 50.008987 curveto
196.45574 49.878784 196.65594 49.772989 196.75685 49.691605 curveto
196.93752 49.823441 lineto
196.93752 50.702347 lineto
197.8978 50.096882 198.56023 49.794148 198.92482 49.794144 curveto
199.27963 49.794148 199.5547 49.955281 199.75002 50.277542 curveto
199.91603 50.547728 199.99903 50.869994 199.99904 51.244339 curveto
199.99904 53.783401 lineto
199.99903 54.050329 200.25457 54.183792 200.76564 54.183792 curveto
200.79494 54.42305 lineto
fill
grestore
gsave
0 0 0 setrgbcolor
newpath
204.88673 53.221878 moveto
204.48308 54.081253 203.84344 54.51094 202.96779 54.510941 curveto
202.40464 54.51094 201.92938 54.265172 201.54201 53.773636 curveto
201.18068 53.314653 201.00002 52.797075 201.00002 52.220901 curveto
201.00002 51.566607 201.18556 51.016478 201.55666 50.570511 curveto
201.95379 50.095255 202.473 49.857625 203.11427 49.85762 curveto
203.62534 49.857625 204.03875 50.012247 204.35451 50.321487 curveto
204.67351 50.630736 204.83302 51.042519 204.83302 51.556839 curveto
201.67873 51.556839 lineto
201.66245 51.69356 201.65431 51.833534 201.65431 51.976761 curveto
201.65431 52.461789 201.80242 52.907752 202.09865 53.314651 curveto
202.42417 53.767126 202.8213 53.993363 203.29005 53.993362 curveto
203.90203 53.993363 204.36752 53.718298 204.68654 53.168167 curveto
204.7256 53.168167 lineto
204.79721 53.164913 204.85092 53.182817 204.88673 53.221878 curveto
204.08595 51.278519 moveto
204.07293 50.946491 203.95737 50.676309 203.73927 50.467972 curveto
203.52117 50.256387 203.24448 50.150593 202.90919 50.150589 curveto
202.6325 50.150593 202.38673 50.272663 202.17189 50.5168 curveto
201.98309 50.731647 201.85451 50.985553 201.78615 51.278519 curveto
204.08595 51.278519 lineto
fill
grestore
grestore
showpage
%%EOF
