%!PS-Adobe-3.0 EPSF-3.0
%%Creator: inkscape 0.46
%%Pages: 1
%%Orientation: Portrait
%%BoundingBox: 7 751 156 843
%%HiResBoundingBox: 7.0140247 751.89578 155.02858 842.21943
%%EndComments
%%Page: 1 1
0 842 translate
0.8 -0.8 scale
0 0 0 setrgbcolor
[] 0 setdash
1 setlinewidth
0 setlinejoin
0 setlinecap
gsave [1 0 0 1 0 0] concat
0 0 0 setrgbcolor
[] 0 setdash
0.70866144 setlinewidth
1 setlinejoin
1 setlinecap
newpath
11.172573 26.642963 moveto
18.877794 26.642963 lineto
26.304096 13.780231 lineto
33.308689 39.921727 lineto
40.261269 13.974344 lineto
47.193575 39.846058 lineto
54.067027 14.19398 lineto
60.889514 39.655848 lineto
67.734591 14.10967 lineto
74.37361 38.88682 lineto
81.165052 13.540808 lineto
88.047208 39.225365 lineto
91.8921 24.876033 lineto
102.86472 24.79371 lineto
stroke
0 0 0 setrgbcolor
[] 0 setdash
0.70866144 setlinewidth
0 setlinejoin
0 setlinecap
newpath
10.787312 52.191415 moveto
190.319 52.191415 lineto
stroke
gsave [-0.28346457 0 0 -0.28346457 187.48435 52.191415] concat
gsave
0 0 0 setrgbcolor
newpath
0 0 moveto
5 -5 lineto
-12.5 0 lineto
5 5 lineto
0 0 lineto
closepath
eofill
grestore
0 0 0 setrgbcolor
[] 0 setdash
1.25 setlinewidth
0 setlinejoin
0 setlinecap
newpath
0 0 moveto
5 -5 lineto
-12.5 0 lineto
5 5 lineto
0 0 lineto
closepath
stroke
grestore
0 0 0 setrgbcolor
[5.6692913 2.8346457] 0 setdash
0.70866144 setlinewidth
0 setlinejoin
0 setlinecap
newpath
103.09588 17.550801 moveto
103.09588 96.760488 lineto
stroke
0 0 0 setrgbcolor
[5.6692913 2.8346457] 0 setdash
0.70866144 setlinewidth
0 setlinejoin
0 setlinecap
newpath
177.37422 17.550801 moveto
177.37422 96.760488 lineto
stroke
0 0 0 setrgbcolor
[] 0 setdash
0.27537519 setlinewidth
0 setlinejoin
0 setlinecap
newpath
103.18747 11.237389 moveto
177.28262 11.237389 lineto
stroke
gsave [0.27537519 0 0 0.27537519 103.18747 11.237389] concat
1 1 1 setrgbcolor
[] 0 setdash
1.15 setlinewidth
0 setlinejoin
2 setlinecap
newpath
0 0 moveto
2 0 lineto
stroke
gsave
0 0 0 setrgbcolor
newpath
0 0 moveto
13 4 lineto
9 0 lineto
13 -4 lineto
0 0 lineto
closepath
eofill
grestore
0 0 0 setrgbcolor
[] 0 setdash
1 setlinewidth
0 setlinejoin
2 setlinecap
newpath
0 -4 moveto
0 40 lineto
stroke
grestore
gsave [0.27537519 0 0 0.27537519 177.28262 11.237389] concat
1 1 1 setrgbcolor
[] 0 setdash
1.15 setlinewidth
0 setlinejoin
2 setlinecap
newpath
0 0 moveto
-2 0 lineto
stroke
gsave
0 0 0 setrgbcolor
newpath
0 0 moveto
-13 4 lineto
-9 0 lineto
-13 -4 lineto
0 0 lineto
closepath
eofill
grestore
0 0 0 setrgbcolor
[] 0 setdash
1 setlinewidth
0 setlinejoin
2 setlinecap
newpath
0 -4 moveto
0 40 lineto
stroke
grestore
gsave [1 0 0 -1 134.9955 21.865725] concat
gsave
/newlatin1font {findfont dup length dict copy dup /Encoding ISOLatin1Encoding put definefont} def
/BitstreamVeraSans-Roman-ISOLatin1 /BitstreamVeraSans-Roman newlatin1font
10 scalefont
setfont
0 0 0 setrgbcolor
newpath
0 0 moveto
(x) show
grestore
grestore
gsave [1 0 0 -1 7.8593278 6.6093855] concat
gsave
/BitstreamVeraSans-Roman-ISOLatin1 findfont
10 scalefont
setfont
0 0 0 setrgbcolor
newpath
0 0 moveto
(ressort au repos) show
grestore
grestore
gsave [1 0 0 -1 7.8593278 103.93999] concat
gsave
/BitstreamVeraSans-Roman-ISOLatin1 findfont
10 scalefont
setfont
0 0 0 setrgbcolor
newpath
0 0 moveto
(ressort \351tir\351) show
grestore
grestore
0 0 0 setrgbcolor
[] 0 setdash
1.0629921 setlinewidth
0 setlinejoin
0 setlinecap
newpath
177.49682 75.802283 moveto
126.75948 75.802283 lineto
stroke
gsave [0.42519684 -5.2069875e-17 5.2069875e-17 0.42519684 131.01145 75.802283] concat
gsave
0 0 0 setrgbcolor
newpath
0 0 moveto
5 -5 lineto
-12.5 0 lineto
5 5 lineto
0 0 lineto
closepath
eofill
grestore
0 0 0 setrgbcolor
[] 0 setdash
1.25 setlinewidth
0 setlinejoin
0 setlinecap
newpath
0 0 moveto
5 -5 lineto
-12.5 0 lineto
5 5 lineto
0 0 lineto
closepath
stroke
grestore
gsave [1 0 0 -1 92.770882 110.41238] concat
gsave
/BitstreamVeraSans-Roman-ISOLatin1 findfont
10 scalefont
setfont
0 0 0 setrgbcolor
newpath
0 0 moveto
(F : force de rappel) show
grestore
grestore
gsave [1 0 0 -1 186.46638 46.368332] concat
gsave
/BitstreamVeraSans-Roman-ISOLatin1 findfont
10 scalefont
setfont
0 0 0 setrgbcolor
newpath
0 0 moveto
(+) show
grestore
grestore
gsave [1 0 0 -1 151.63878 68.405273] concat
gsave
/BitstreamVeraSans-Roman-ISOLatin1 findfont
10 scalefont
setfont
0 0 0 setrgbcolor
newpath
0 0 moveto
(F) show
grestore
grestore
0 0 0 setrgbcolor
[] 0 setdash
0.70866144 setlinewidth
1 setlinejoin
1 setlinecap
newpath
20.253199 77.718291 moveto
35.017466 64.994585 lineto
48.94333 90.853531 lineto
62.765788 65.1866 lineto
76.547939 90.77868 lineto
90.213082 65.403862 lineto
103.7769 90.590526 lineto
117.38564 65.320463 lineto
130.5847 89.82981 lineto
144.08679 64.75775 lineto
157.76924 90.164696 lineto
165.71967 76.122897 lineto
stroke
0 0 0 setrgbcolor
[] 0 setdash
0.70866144 setlinewidth
1 setlinejoin
1 setlinecap
newpath
12.405409 77.717336 moveto
20.11063 77.717336 lineto
stroke
grestore
showpage
%%EOF
