%!PS-Adobe-3.0 EPSF-3.0
%%Creator: inkscape 0.46
%%Pages: 1
%%Orientation: Portrait
%%BoundingBox: 32 737 183 800
%%HiResBoundingBox: 32.292231 737.86436 182.56491 799.7134
%%EndComments
%%Page: 1 1
0 842 translate
0.8 -0.8 scale
0 0 0 setrgbcolor
[] 0 setdash
1 setlinewidth
0 setlinejoin
0 setlinecap
gsave [1 0 0 1 0 0] concat
0 0 0 setrgbcolor
[] 0 setdash
1.0334654 setlinewidth
0 setlinejoin
0 setlinecap
newpath
67.792787 93.085601 moveto
67.806997 93.046846 lineto
67.850917 92.930582 lineto
67.928427 92.723891 lineto
68.043397 92.452608 lineto
68.199707 92.129652 lineto
68.401237 91.742106 lineto
68.650557 91.289968 lineto
68.952847 90.811993 lineto
69.310677 90.282346 lineto
69.727937 89.726863 lineto
70.208497 89.132624 lineto
70.754937 88.525468 lineto
71.373717 87.905393 lineto
72.064847 87.259482 lineto
72.834767 86.626489 lineto
73.686077 85.980578 lineto
74.622657 85.347585 lineto
75.648357 84.740428 lineto
76.767077 84.133271 lineto
77.981387 83.56487 lineto
78.626007 83.293587 lineto
79.295177 83.022304 lineto
79.991467 82.76394 lineto
80.713597 82.518493 lineto
81.461557 82.285965 lineto
82.237947 82.053437 lineto
83.041457 81.846746 lineto
83.874687 81.640054 lineto
84.735037 81.459199 lineto
85.625107 81.291262 lineto
86.543587 81.136243 lineto
87.493077 80.994143 lineto
88.473567 80.864961 lineto
89.483777 80.761615 lineto
90.526277 80.671187 lineto
91.599787 80.606596 lineto
92.706877 80.554923 lineto
93.846257 80.529087 lineto
95.017947 80.516169 lineto
96.224507 80.529087 lineto
97.464657 80.567842 lineto
98.739687 80.632433 lineto
100.0496 80.709942 lineto
101.39568 80.826206 lineto
130.48106 83.422769 227.68941 121.6478 227.68941 121.6478 curveto
227.68941 121.6478 133.87726 99.454285 111.17994 103.7173 curveto
88.477447 107.99323 66.975067 103.44602 67.792787 93.085601 curveto
closepath
stroke
gsave
0 0 0 setrgbcolor
newpath
106.49191 93.576493 moveto
113.56206 56.242825 113.56206 56.242825 113.56206 56.242825 curveto
fill
grestore
0 0 0 setrgbcolor
[] 0 setdash
0.36617631 setlinewidth
0 setlinejoin
0 setlinecap
newpath
106.49191 93.576493 moveto
113.56206 56.242825 113.56206 56.242825 113.56206 56.242825 curveto
stroke
gsave
0 0 0 setrgbcolor
newpath
112.53764 56.888736 moveto
113.84884 54.692638 lineto
114.27256 57.211692 lineto
113.82947 56.733718 113.13317 56.604536 112.53764 56.888736 curveto
closepath
fill
grestore
0 0 0 setrgbcolor
[] 0 setdash
0 setlinewidth
0 setlinejoin
0 setlinecap
newpath
112.53764 56.888736 moveto
113.84884 54.692638 lineto
114.27256 57.211692 lineto
113.82947 56.733718 113.13317 56.604536 112.53764 56.888736 curveto
closepath
stroke
gsave
0 0 0 setrgbcolor
newpath
106.49191 93.369802 moveto
151.11533 102.64509 151.11533 102.64509 151.11533 102.64509 curveto
fill
grestore
0 0 0 setrgbcolor
[] 0 setdash
0.36617631 setlinewidth
0 setlinejoin
0 setlinecap
newpath
106.49191 93.369802 moveto
151.11533 102.64509 151.11533 102.64509 151.11533 102.64509 curveto
stroke
gsave
0 0 0 setrgbcolor
newpath
150.49397 101.61163 moveto
152.66423 102.95512 lineto
150.13614 103.32975 lineto
150.62057 102.90345 150.76138 102.20587 150.49397 101.61163 curveto
closepath
fill
grestore
0 0 0 setrgbcolor
[] 0 setdash
0 setlinewidth
0 setlinejoin
0 setlinecap
newpath
150.49397 101.61163 moveto
152.66423 102.95512 lineto
150.13614 103.32975 lineto
150.62057 102.90345 150.76138 102.20587 150.49397 101.61163 curveto
closepath
stroke
gsave
0 0 0 setrgbcolor
newpath
106.68827 93.279374 moveto
159.09363 64.277961 159.09363 64.277961 159.09363 64.277961 curveto
fill
grestore
0 0 0 setrgbcolor
[] 0 setdash
1.0985514 setlinewidth
0 setlinejoin
0 setlinecap
newpath
106.68827 93.279374 moveto
159.09363 64.277961 159.09363 64.277961 159.09363 64.277961 curveto
stroke
gsave
0 0 0 setrgbcolor
newpath
155.66126 63.141157 moveto
163.24684 61.978517 lineto
158.22553 67.7788 lineto
158.47226 65.853984 157.43364 63.980842 155.66126 63.141157 curveto
closepath
fill
grestore
0 0 0 setrgbcolor
[] 0 setdash
0 setlinewidth
0 setlinejoin
0 setlinecap
newpath
155.66126 63.141157 moveto
163.24684 61.978517 lineto
158.22553 67.7788 lineto
158.47226 65.853984 157.43364 63.980842 155.66126 63.141157 curveto
closepath
stroke
gsave
0 0 0 setrgbcolor
newpath
40.548377 70.8275 moveto
62.863197 70.8275 62.863197 70.8275 62.863197 70.8275 curveto
fill
grestore
0 0 0 setrgbcolor
[] 0 setdash
0.36617631 setlinewidth
0 setlinejoin
0 setlinecap
newpath
40.548377 70.8275 moveto
62.863197 70.8275 62.863197 70.8275 62.863197 70.8275 curveto
stroke
gsave
0 0 0 setrgbcolor
newpath
62.045467 69.949061 moveto
64.441797 70.8275 lineto
62.045467 71.70594 lineto
62.429137 71.189211 62.423977 70.478708 62.045467 69.949061 curveto
closepath
fill
grestore
0 0 0 setrgbcolor
[] 0 setdash
0 setlinewidth
0 setlinejoin
0 setlinecap
newpath
62.045467 69.949061 moveto
64.441797 70.8275 lineto
62.045467 71.70594 lineto
62.429137 71.189211 62.423977 70.478708 62.045467 69.949061 curveto
closepath
stroke
gsave
0 0 0 setrgbcolor
newpath
40.548377 79.159755 moveto
62.863197 79.159755 62.863197 79.159755 62.863197 79.159755 curveto
fill
grestore
0 0 0 setrgbcolor
[] 0 setdash
0.36617631 setlinewidth
0 setlinejoin
0 setlinecap
newpath
40.548377 79.159755 moveto
62.863197 79.159755 62.863197 79.159755 62.863197 79.159755 curveto
stroke
gsave
0 0 0 setrgbcolor
newpath
62.045467 78.281316 moveto
64.441797 79.159755 lineto
62.045467 80.038194 lineto
62.429137 79.521465 62.423977 78.810963 62.045467 78.281316 curveto
closepath
fill
grestore
0 0 0 setrgbcolor
[] 0 setdash
0 setlinewidth
0 setlinejoin
0 setlinecap
newpath
62.045467 78.281316 moveto
64.441797 79.159755 lineto
62.045467 80.038194 lineto
62.429137 79.521465 62.423977 78.810963 62.045467 78.281316 curveto
closepath
stroke
gsave
0 0 0 setrgbcolor
newpath
40.548377 87.49201 moveto
62.863197 87.49201 62.863197 87.49201 62.863197 87.49201 curveto
fill
grestore
0 0 0 setrgbcolor
[] 0 setdash
0.36617631 setlinewidth
0 setlinejoin
0 setlinecap
newpath
40.548377 87.49201 moveto
62.863197 87.49201 62.863197 87.49201 62.863197 87.49201 curveto
stroke
gsave
0 0 0 setrgbcolor
newpath
62.045467 86.600652 moveto
64.441797 87.49201 lineto
62.045467 88.370449 lineto
62.429137 87.85372 62.423977 87.143218 62.045467 86.600652 curveto
closepath
fill
grestore
0 0 0 setrgbcolor
[] 0 setdash
0 setlinewidth
0 setlinejoin
0 setlinecap
newpath
62.045467 86.600652 moveto
64.441797 87.49201 lineto
62.045467 88.370449 lineto
62.429137 87.85372 62.423977 87.143218 62.045467 86.600652 curveto
closepath
stroke
gsave
0 0 0 setrgbcolor
newpath
40.548377 95.824264 moveto
62.863197 95.824264 62.863197 95.824264 62.863197 95.824264 curveto
fill
grestore
0 0 0 setrgbcolor
[] 0 setdash
0.36617631 setlinewidth
0 setlinejoin
0 setlinecap
newpath
40.548377 95.824264 moveto
62.863197 95.824264 62.863197 95.824264 62.863197 95.824264 curveto
stroke
gsave
0 0 0 setrgbcolor
newpath
62.045467 94.932907 moveto
64.441797 95.824264 lineto
62.045467 96.702704 lineto
62.429137 96.185975 62.423977 95.475472 62.045467 94.932907 curveto
closepath
fill
grestore
0 0 0 setrgbcolor
[] 0 setdash
0 setlinewidth
0 setlinejoin
0 setlinecap
newpath
62.045467 94.932907 moveto
64.441797 95.824264 lineto
62.045467 96.702704 lineto
62.429137 96.185975 62.423977 95.475472 62.045467 94.932907 curveto
closepath
stroke
gsave
0 0 0 setrgbcolor
newpath
40.548377 104.15652 moveto
62.863197 104.15652 62.863197 104.15652 62.863197 104.15652 curveto
fill
grestore
0 0 0 setrgbcolor
[] 0 setdash
0.36617631 setlinewidth
0 setlinejoin
0 setlinecap
newpath
40.548377 104.15652 moveto
62.863197 104.15652 62.863197 104.15652 62.863197 104.15652 curveto
stroke
gsave
0 0 0 setrgbcolor
newpath
62.045467 103.26516 moveto
64.441797 104.15652 lineto
62.045467 105.03496 lineto
62.429137 104.51823 62.423977 103.79481 62.045467 103.26516 curveto
closepath
fill
grestore
0 0 0 setrgbcolor
[] 0 setdash
0 setlinewidth
0 setlinejoin
0 setlinecap
newpath
62.045467 103.26516 moveto
64.441797 104.15652 lineto
62.045467 105.03496 lineto
62.429137 104.51823 62.423977 103.79481 62.045467 103.26516 curveto
closepath
stroke
gsave
0 0 0 setrgbcolor
newpath
40.548377 112.48878 moveto
62.863197 112.48878 62.863197 112.48878 62.863197 112.48878 curveto
fill
grestore
0 0 0 setrgbcolor
[] 0 setdash
0.36617631 setlinewidth
0 setlinejoin
0 setlinecap
newpath
40.548377 112.48878 moveto
62.863197 112.48878 62.863197 112.48878 62.863197 112.48878 curveto
stroke
gsave
0 0 0 setrgbcolor
newpath
62.045467 111.59742 moveto
64.441797 112.48878 lineto
62.045467 113.36722 lineto
62.429137 112.83756 62.423977 112.12706 62.045467 111.59742 curveto
closepath
fill
grestore
0 0 0 setrgbcolor
[] 0 setdash
0 setlinewidth
0 setlinejoin
0 setlinecap
newpath
62.045467 111.59742 moveto
64.441797 112.48878 lineto
62.045467 113.36722 lineto
62.429137 112.83756 62.423977 112.12706 62.045467 111.59742 curveto
closepath
stroke
gsave
0 0 0 setrgbcolor
newpath
40.548377 120.82103 moveto
62.863197 120.82103 62.863197 120.82103 62.863197 120.82103 curveto
fill
grestore
0 0 0 setrgbcolor
[] 0 setdash
0.36617631 setlinewidth
0 setlinejoin
0 setlinecap
newpath
40.548377 120.82103 moveto
62.863197 120.82103 62.863197 120.82103 62.863197 120.82103 curveto
stroke
gsave
0 0 0 setrgbcolor
newpath
62.045467 119.92967 moveto
64.441797 120.82103 lineto
62.045467 121.69947 lineto
62.429137 121.18274 62.423977 120.45932 62.045467 119.92967 curveto
closepath
fill
grestore
0 0 0 setrgbcolor
[] 0 setdash
0 setlinewidth
0 setlinejoin
0 setlinecap
newpath
62.045467 119.92967 moveto
64.441797 120.82103 lineto
62.045467 121.69947 lineto
62.429137 121.18274 62.423977 120.45932 62.045467 119.92967 curveto
closepath
stroke
gsave
0 0 0 setrgbcolor
newpath
40.548377 129.15329 moveto
62.863197 129.15329 62.863197 129.15329 62.863197 129.15329 curveto
fill
grestore
0 0 0 setrgbcolor
[] 0 setdash
0.36617631 setlinewidth
0 setlinejoin
0 setlinecap
newpath
40.548377 129.15329 moveto
62.863197 129.15329 62.863197 129.15329 62.863197 129.15329 curveto
stroke
gsave
0 0 0 setrgbcolor
newpath
62.045467 128.26193 moveto
64.441797 129.15329 lineto
62.045467 130.03173 lineto
62.429137 129.515 62.423977 128.79157 62.045467 128.26193 curveto
closepath
fill
grestore
0 0 0 setrgbcolor
[] 0 setdash
0 setlinewidth
0 setlinejoin
0 setlinecap
newpath
62.045467 128.26193 moveto
64.441797 129.15329 lineto
62.045467 130.03173 lineto
62.429137 129.515 62.423977 128.79157 62.045467 128.26193 curveto
closepath
stroke
gsave [1 0 0 -1 152.96359 90.55954] concat
gsave
/newlatin1font {findfont dup length dict copy dup /Encoding ISOLatin1Encoding put definefont} def
/CenturySchL-Roma-ISOLatin1 /CenturySchL-Roma newlatin1font
10 scalefont
setfont
0 0 0 setrgbcolor
newpath
0 0 moveto
(extrados) show
grestore
grestore
gsave [1 0 0 -1 165.76498 72.924965] concat
gsave
/CenturySchL-Roma-ISOLatin1 findfont
10 scalefont
setfont
0 0 0 setrgbcolor
newpath
0 0 moveto
(r\351sultante) show
grestore
grestore
gsave [1 0 0 -1 146.95477 120.60362] concat
gsave
/CenturySchL-Roma-ISOLatin1 findfont
10 scalefont
setfont
0 0 0 setrgbcolor
newpath
0 0 moveto
(train\351e) show
grestore
grestore
gsave [1 0 0 -1 91.961037 116.55421] concat
gsave
/CenturySchL-Roma-ISOLatin1 findfont
10 scalefont
setfont
0 0 0 setrgbcolor
newpath
0 0 moveto
(intrados) show
grestore
grestore
gsave [1 0 0 -1 66.227623 59.470436] concat
gsave
/CenturySchL-Roma-ISOLatin1 findfont
10 scalefont
setfont
0 0 0 setrgbcolor
newpath
0 0 moveto
(portance) show
grestore
grestore
gsave [1 0 0 -1 40.755455 65.740509] concat
gsave
/CenturySchL-Roma-ISOLatin1 findfont
10 scalefont
setfont
0 0 0 setrgbcolor
newpath
0 0 moveto
(vent) show
grestore
grestore
grestore
showpage
%%EOF
