%!PS-Adobe-3.0 EPSF-3.0
%%Creator: inkscape 0.46
%%Pages: 1
%%Orientation: Portrait
%%BoundingBox: 0 716 163 844
%%HiResBoundingBox: 0.64696655 716.34459 162.83112 843.93716
%%EndComments
%%Page: 1 1
0 842 translate
0.8 -0.8 scale
0 0 0 setrgbcolor
[] 0 setdash
1 setlinewidth
0 setlinejoin
0 setlinecap
gsave [1 0 0 1 0 0] concat
gsave
<<
/ShadingType 2
/ColorSpace /DeviceRGB
/Coords [113.38667 38.590343 113.38667 162.82506]
/Extend [true true]
/Domain [0 1]
/Function <<
/FunctionType 3
/Functions
[
<<
/FunctionType 2
/Domain [0 1]
/C0 [1 0 0]
/C1 [0.16862746 0.66666669 1]
/N 1
>>
<<
/FunctionType 2
/Domain [0 1]
/C0 [0.16862746 0.66666669 1]
/C1 [0 0 0]
/N 1
>>
]
/Domain [0 1]
/Bounds [ 0.5 ]
/Encode [ 0 1 0 1 ]
>>
>>
newpath
91.723817 56.429321 moveto
91.723817 109.86062 91.723817 119.40016 91.723817 119.40016 curveto
91.723817 119.40016 91.739045 127.64992 91.738447 127.67903 curveto
91.737849 127.70813 91.737596 127.73275 91.737596 127.76186 curveto
91.737596 133.504 103.76914 138.16429 118.59373 138.16429 curveto
133.41831 138.16429 145.44987 133.504 145.44987 127.76186 curveto
145.44987 122.01971 145.46358 117.45799 145.46358 117.45799 curveto
145.46358 65.655233 lineto
145.44133 56.559042 lineto
145.44133 50.168822 133.4136 44.982557 118.59373 44.982557 curveto
103.77386 44.982557 91.746132 50.168822 91.746132 56.559042 curveto
91.746132 56.591433 91.746385 56.618825 91.746983 56.651214 curveto
eoclip
gsave [1 0 0 1 5.207034 16.33115] concat
shfill
grestore
grestore
0 0 0 setrgbcolor
[] 0 setdash
1.0629921 setlinewidth
0 setlinejoin
0 setlinecap
newpath
91.723817 56.429321 moveto
91.723817 109.86062 91.723817 119.40016 91.723817 119.40016 curveto
91.723817 119.40016 91.739045 127.64992 91.738447 127.67903 curveto
91.737849 127.70813 91.737596 127.73275 91.737596 127.76186 curveto
91.737596 133.504 103.76914 138.16429 118.59373 138.16429 curveto
133.41831 138.16429 145.44987 133.504 145.44987 127.76186 curveto
145.44987 122.01971 145.46358 117.45799 145.46358 117.45799 curveto
145.46358 65.655233 lineto
145.44133 56.559042 lineto
145.44133 50.168822 133.4136 44.982557 118.59373 44.982557 curveto
103.77386 44.982557 91.746132 50.168822 91.746132 56.559042 curveto
91.746132 56.591433 91.746385 56.618825 91.746983 56.651214 curveto
stroke
gsave
0.86666667 0.86666667 0.86666667 setrgbcolor
newpath
59.264443 48.129625 moveto
12.905612 106.03632 lineto
12.905612 56.999726 lineto
38.511753 25.703331 lineto
59.264443 48.129625 lineto
closepath
eofill
grestore
0 0 0 setrgbcolor
[] 0 setdash
1 setlinewidth
0 setlinejoin
0 setlinecap
newpath
59.264443 48.129625 moveto
12.905612 106.03632 lineto
12.905612 56.999726 lineto
38.511753 25.703331 lineto
59.264443 48.129625 lineto
closepath
stroke
0.16862746 0.66666669 1 setrgbcolor
[] 0 setdash
2.1259842 setlinewidth
0 setlinejoin
0 setlinecap
newpath
142.81658 122.605 moveto
188.46667 122.605 lineto
188.42737 93.651652 lineto
stroke
0.16862746 0.66666669 1 setrgbcolor
[] 0 setdash
1.4173229 setlinewidth
0 setlinejoin
0 setlinecap
newpath
144.45088 118.08627 moveto
168.21606 118.08627 lineto
stroke
gsave [0.374242 0 0 0.374242 124.2975 89.76463] concat
gsave
0 0 0 setrgbcolor
newpath
42.172469 86.221471 moveto
43.367983 84.617642 45.763881 84.201886 47.520455 85.293443 curveto
49.277029 86.385 49.732382 88.572559 48.536867 90.176387 curveto
47.341352 91.780215 44.945454 92.195972 43.18888 91.104415 curveto
41.441557 90.018606 40.979938 87.849882 42.154662 86.245573 curveto
eofill
grestore
0 0 0 setrgbcolor
[] 0 setdash
2.1968503 setlinewidth
1 setlinejoin
1 setlinecap
newpath
42.172469 86.221471 moveto
43.367983 84.617642 45.763881 84.201886 47.520455 85.293443 curveto
49.277029 86.385 49.732382 88.572559 48.536867 90.176387 curveto
47.341352 91.780215 44.945454 92.195972 43.18888 91.104415 curveto
41.441557 90.018606 40.979938 87.849882 42.154662 86.245573 curveto
stroke
grestore
gsave
0.52156866 0.52156866 0.52156866 setrgbcolor
newpath
67.297742 47.794905 moveto
20.938911 105.7016 lineto
20.938911 56.665006 lineto
46.545052 25.36861 lineto
67.297742 47.794905 lineto
closepath
eofill
grestore
0 0 0 setrgbcolor
[] 0 setdash
1 setlinewidth
0 setlinejoin
0 setlinecap
newpath
67.297742 47.794905 moveto
20.938911 105.7016 lineto
20.938911 56.665006 lineto
46.545052 25.36861 lineto
67.297742 47.794905 lineto
closepath
stroke
gsave
0.33333334 0.33333334 0.33333334 setrgbcolor
newpath
72.987996 47.962265 moveto
26.629165 105.86896 lineto
26.629165 56.832366 lineto
52.235306 25.535971 lineto
72.987996 47.962265 lineto
closepath
eofill
grestore
0 0 0 setrgbcolor
[] 0 setdash
1 setlinewidth
0 setlinejoin
0 setlinecap
newpath
72.987996 47.962265 moveto
26.629165 105.86896 lineto
26.629165 56.832366 lineto
52.235306 25.535971 lineto
72.987996 47.962265 lineto
closepath
stroke
gsave [0.814304 0 0 -1.426206 57.26672 200.6539] concat
0 0 0 setrgbcolor
[2.8346457 1.4173228] 0 setdash
0.35433072 setlinewidth
1 setlinejoin
1 setlinecap
newpath
108.28218 51.63068 moveto
108.28218 56.111253 93.511618 59.74766 75.31218 59.74766 curveto
57.112741 59.74766 42.342182 56.111253 42.342182 51.63068 curveto
42.342182 51.607969 42.342493 51.588763 42.343227 51.566053 curveto
stroke
grestore
0 0 0 setrgbcolor
[] 0 setdash
1 setlinewidth
0 setlinejoin
0 setlinecap
newpath
59.431804 47.962265 moveto
13.072972 105.86896 lineto
13.072972 56.832366 lineto
38.679114 25.535971 lineto
59.431804 47.962265 lineto
closepath
stroke
0 0 0 setrgbcolor
[] 0 setdash
1 setlinewidth
0 setlinejoin
0 setlinecap
newpath
38.679114 25.20125 moveto
52.235306 25.20125 lineto
stroke
0 0 0 setrgbcolor
[] 0 setdash
1 setlinewidth
0 setlinejoin
0 setlinecap
newpath
59.264443 47.794904 moveto
72.820635 47.794904 lineto
stroke
0 0 0 setrgbcolor
[] 0 setdash
1.0283552 setlinewidth
0 setlinejoin
0 setlinecap
newpath
12.599453 106.87312 moveto
26.935324 106.87312 lineto
stroke
0 0 0 setrgbcolor
[] 0 setdash
0.99212599 setlinewidth
0 setlinejoin
0 setlinecap
newpath
13.240333 56.832366 moveto
26.629165 56.832366 lineto
stroke
gsave [1 0 0 1 20.43683 -11.95276] concat
0 0 0 setrgbcolor
[] 0 setdash
0.95669293 setlinewidth
1 setlinejoin
1 setlinecap
newpath
31.634579 105.92639 moveto
31.733994 103.34158 33.912497 101.32445 36.497308 101.42386 curveto
39.082119 101.52328 41.099252 103.70178 40.999836 106.28659 curveto
40.90042 108.8714 38.721918 110.88854 36.137106 110.78912 curveto
33.602452 110.69163 31.611069 108.60563 31.631265 106.06918 curveto
stroke
grestore
gsave [0.876569 0 0 0.931679 19.65938 6.208551] concat
0 0 0 setrgbcolor
[] 0 setdash
0.95669293 setlinewidth
1 setlinejoin
1 setlinecap
newpath
44.852588 98.575276 moveto
41.158054 96.524306 lineto
37.46352 94.473336 lineto
41.086979 92.299261 lineto
44.710438 90.125186 lineto
44.781513 94.350231 lineto
44.852588 98.575276 lineto
closepath
stroke
grestore
gsave [0.999597 0.02840037 -0.02840037 0.999597 7.338745 6.281291] concat
grestore
0.16862746 0.66666669 1 setrgbcolor
[] 0 setdash
2.187 setlinewidth
1 setlinejoin
0 setlinecap
newpath
61.630551 93.795954 moveto
61.630551 93.795954 83.585907 91.372102 93.550261 85.139339 curveto
stroke
gsave [0.374242 0 0 0.374242 76.51583 52.40182] concat
gsave
0 0 0 setrgbcolor
newpath
42.172469 86.221471 moveto
43.367983 84.617642 45.763881 84.201886 47.520455 85.293443 curveto
49.277029 86.385 49.732382 88.572559 48.536867 90.176387 curveto
47.341352 91.780215 44.945454 92.195972 43.18888 91.104415 curveto
41.441557 90.018606 40.979938 87.849882 42.154662 86.245573 curveto
eofill
grestore
0 0 0 setrgbcolor
[] 0 setdash
2.1968503 setlinewidth
1 setlinejoin
1 setlinecap
newpath
42.172469 86.221471 moveto
43.367983 84.617642 45.763881 84.201886 47.520455 85.293443 curveto
49.277029 86.385 49.732382 88.572559 48.536867 90.176387 curveto
47.341352 91.780215 44.945454 92.195972 43.18888 91.104415 curveto
41.441557 90.018606 40.979938 87.849882 42.154662 86.245573 curveto
stroke
grestore
gsave [0.374242 0 0 0.374242 76.26509 36.2093] concat
gsave
0 0 0 setrgbcolor
newpath
42.172469 86.221471 moveto
43.367983 84.617642 45.763881 84.201886 47.520455 85.293443 curveto
49.277029 86.385 49.732382 88.572559 48.536867 90.176387 curveto
47.341352 91.780215 44.945454 92.195972 43.18888 91.104415 curveto
41.441557 90.018606 40.979938 87.849882 42.154662 86.245573 curveto
eofill
grestore
0 0 0 setrgbcolor
[] 0 setdash
2.1968503 setlinewidth
1 setlinejoin
1 setlinecap
newpath
42.172469 86.221471 moveto
43.367983 84.617642 45.763881 84.201886 47.520455 85.293443 curveto
49.277029 86.385 49.732382 88.572559 48.536867 90.176387 curveto
47.341352 91.780215 44.945454 92.195972 43.18888 91.104415 curveto
41.441557 90.018606 40.979938 87.849882 42.154662 86.245573 curveto
stroke
grestore
0 0 0 setrgbcolor
[] 0 setdash
0.56460392 setlinewidth
1 setlinejoin
1 setlinecap
newpath
70.080635 27.147356 moveto
121.3788 27.147356 lineto
121.3788 38.48495 lineto
70.080635 38.48495 lineto
70.080635 27.147356 lineto
closepath
stroke
gsave [1 0 0 -1 71.816475 35.242878] concat
gsave
/newlatin1font {findfont dup length dict copy dup /Encoding ISOLatin1Encoding put definefont} def
/BitstreamVeraSans-Roman-ISOLatin1 /BitstreamVeraSans-Roman newlatin1font
10 scalefont
setfont
0 0 0 setrgbcolor
newpath
0 0 moveto
(r\351gulation) show
grestore
grestore
0 0 0 setrgbcolor
[] 0 setdash
2.1259842 setlinewidth
0 setlinejoin
0 setlinecap
newpath
81.188655 53.987241 moveto
77.674087 58.171251 lineto
stroke
gsave [1 0 0 -1 34.406921 108.13776] concat
gsave
/BitstreamVeraSans-Roman-ISOLatin1 findfont
10 scalefont
setfont
0 0 0 setrgbcolor
newpath
0 0 moveto
(circulation) show
grestore
grestore
0 0 0 setrgbcolor
[] 0 setdash
0.48975819 setlinewidth
0 setlinejoin
0 setlinecap
newpath
17.089622 95.494489 moveto
17.089622 144.86181 lineto
stroke
gsave [1.199522e-17 0.19590328 -0.19590328 1.199522e-17 17.089622 97.453522] concat
gsave
0 0 0 setrgbcolor
newpath
0 0 moveto
5 -5 lineto
-12.5 0 lineto
5 5 lineto
0 0 lineto
closepath
eofill
grestore
0 0 0 setrgbcolor
[] 0 setdash
1.25 setlinewidth
0 setlinejoin
0 setlinecap
newpath
0 0 moveto
5 -5 lineto
-12.5 0 lineto
5 5 lineto
0 0 lineto
closepath
stroke
grestore
gsave [1 0 0 -1 7.7847223 154.85136] concat
gsave
/BitstreamVeraSans-Roman-ISOLatin1 findfont
10 scalefont
setfont
0 0 0 setrgbcolor
newpath
0 0 moveto
(vitrage pour l'effet de serre) show
grestore
grestore
0 0 0 setrgbcolor
[] 0 setdash
0.33498144 setlinewidth
0 setlinejoin
0 setlinecap
newpath
23.951398 97.670282 moveto
23.951398 118.58325 lineto
stroke
gsave [8.204408e-18 0.13399258 -0.13399258 8.204408e-18 23.951398 99.010208] concat
gsave
0 0 0 setrgbcolor
newpath
0 0 moveto
5 -5 lineto
-12.5 0 lineto
5 5 lineto
0 0 lineto
closepath
eofill
grestore
0 0 0 setrgbcolor
[] 0 setdash
1.25 setlinewidth
0 setlinejoin
0 setlinecap
newpath
0 0 moveto
5 -5 lineto
-12.5 0 lineto
5 5 lineto
0 0 lineto
closepath
stroke
grestore
gsave [1 0 0 -1 26.012224 122.41096] concat
gsave
/BitstreamVeraSans-Roman-ISOLatin1 findfont
10 scalefont
setfont
0 0 0 setrgbcolor
newpath
0 0 moveto
(absorbant) show
grestore
grestore
0 0 0 setrgbcolor
[] 0 setdash
0.80022115 setlinewidth
0 setlinejoin
0 setlinecap
newpath
56.363869 27.273139 moveto
89.143777 16.159902 lineto
stroke
gsave [0.30314091 -0.10277261 0.10277261 0.30314091 59.395278 26.245413] concat
gsave
0 0 0 setrgbcolor
newpath
0 0 moveto
5 -5 lineto
-12.5 0 lineto
5 5 lineto
0 0 lineto
closepath
eofill
grestore
0 0 0 setrgbcolor
[] 0 setdash
1.25 setlinewidth
0 setlinejoin
0 setlinecap
newpath
0 0 moveto
5 -5 lineto
-12.5 0 lineto
5 5 lineto
0 0 lineto
closepath
stroke
grestore
gsave [1 0 0 -1 93.447769 17.165913] concat
gsave
/BitstreamVeraSans-Roman-ISOLatin1 findfont
10 scalefont
setfont
0 0 0 setrgbcolor
newpath
0 0 moveto
(isolant thermique) show
grestore
grestore
0 0 0 setrgbcolor
[] 0 setdash
0.5606128 setlinewidth
0 setlinejoin
0 setlinecap
newpath
100.7721 130.11079 moveto
82.578181 133.38939 lineto
stroke
gsave [-0.22069049 0.039769103 -0.039769103 -0.22069049 98.565195 130.50848] concat
gsave
0 0 0 setrgbcolor
newpath
0 0 moveto
5 -5 lineto
-12.5 0 lineto
5 5 lineto
0 0 lineto
closepath
eofill
grestore
0 0 0 setrgbcolor
[] 0 setdash
1.25 setlinewidth
0 setlinejoin
0 setlinecap
newpath
0 0 moveto
5 -5 lineto
-12.5 0 lineto
5 5 lineto
0 0 lineto
closepath
stroke
grestore
gsave [1 0 0 -1 45.288231 138.33197] concat
gsave
/BitstreamVeraSans-Roman-ISOLatin1 findfont
10 scalefont
setfont
0 0 0 setrgbcolor
newpath
0 0 moveto
(boiler) show
grestore
grestore
gsave [0.374242 0 0 0.374242 127.1426 70.0161] concat
gsave
0 0 0 setrgbcolor
newpath
42.172469 86.221471 moveto
43.367983 84.617642 45.763881 84.201886 47.520455 85.293443 curveto
49.277029 86.385 49.732382 88.572559 48.536867 90.176387 curveto
47.341352 91.780215 44.945454 92.195972 43.18888 91.104415 curveto
41.441557 90.018606 40.979938 87.849882 42.154662 86.245573 curveto
eofill
grestore
0 0 0 setrgbcolor
[] 0 setdash
2.1968503 setlinewidth
1 setlinejoin
1 setlinecap
newpath
42.172469 86.221471 moveto
43.367983 84.617642 45.763881 84.201886 47.520455 85.293443 curveto
49.277029 86.385 49.732382 88.572559 48.536867 90.176387 curveto
47.341352 91.780215 44.945454 92.195972 43.18888 91.104415 curveto
41.441557 90.018606 40.979938 87.849882 42.154662 86.245573 curveto
stroke
grestore
1 0 0 setrgbcolor
[] 0 setdash
1.4173229 setlinewidth
0 setlinejoin
0 setlinecap
newpath
146.10766 103.02384 moveto
169.87284 103.02384 lineto
stroke
gsave [0.374242 0 0 0.374242 126.9752 85.07854] concat
gsave
0 0 0 setrgbcolor
newpath
42.172469 86.221471 moveto
43.367983 84.617642 45.763881 84.201886 47.520455 85.293443 curveto
49.277029 86.385 49.732382 88.572559 48.536867 90.176387 curveto
47.341352 91.780215 44.945454 92.195972 43.18888 91.104415 curveto
41.441557 90.018606 40.979938 87.849882 42.154662 86.245573 curveto
eofill
grestore
0 0 0 setrgbcolor
[] 0 setdash
2.1968503 setlinewidth
1 setlinejoin
1 setlinecap
newpath
42.172469 86.221471 moveto
43.367983 84.617642 45.763881 84.201886 47.520455 85.293443 curveto
49.277029 86.385 49.732382 88.572559 48.536867 90.176387 curveto
47.341352 91.780215 44.945454 92.195972 43.18888 91.104415 curveto
41.441557 90.018606 40.979938 87.849882 42.154662 86.245573 curveto
stroke
grestore
gsave [1 0 0 -1 148.80225 112.56339] concat
gsave
/BitstreamVeraSans-Roman-ISOLatin1 findfont
10 scalefont
setfont
0 0 0 setrgbcolor
newpath
0 0 moveto
(appoint) show
grestore
grestore
1 0 0 setrgbcolor
[] 0 setdash
2.1259842 setlinewidth
0 setlinejoin
0 setlinecap
newpath
137.92383 55.158764 moveto
137.92383 28.04638 lineto
188.63403 28.04638 lineto
188.63403 40.59841 lineto
stroke
gsave [0.374242 0 0 0.374242 120.7829 17.46494] concat
gsave
0 0 0 setrgbcolor
newpath
42.172469 86.221471 moveto
43.367983 84.617642 45.763881 84.201886 47.520455 85.293443 curveto
49.277029 86.385 49.732382 88.572559 48.536867 90.176387 curveto
47.341352 91.780215 44.945454 92.195972 43.18888 91.104415 curveto
41.441557 90.018606 40.979938 87.849882 42.154662 86.245573 curveto
eofill
grestore
0 0 0 setrgbcolor
[] 0 setdash
2.1968503 setlinewidth
1 setlinejoin
1 setlinecap
newpath
42.172469 86.221471 moveto
43.367983 84.617642 45.763881 84.201886 47.520455 85.293443 curveto
49.277029 86.385 49.732382 88.572559 48.536867 90.176387 curveto
47.341352 91.780215 44.945454 92.195972 43.18888 91.104415 curveto
41.441557 90.018606 40.979938 87.849882 42.154662 86.245573 curveto
stroke
grestore
gsave [1 0 0 1 10.56257 10.80826] concat
gsave
1 1 1 setrgbcolor
newpath
176.27282 30.741697 moveto
176.94855 29.748851 178.30275 29.491477 179.2956 30.167203 curveto
180.28844 30.842929 180.54582 32.197132 179.87009 33.189978 curveto
179.19437 34.182824 177.84016 34.440197 176.84732 33.764472 curveto
175.8597 33.092305 175.59878 31.749761 176.26276 30.756617 curveto
eofill
grestore
0 0 0 setrgbcolor
[] 0 setdash
0.35433072 setlinewidth
1 setlinejoin
1 setlinecap
newpath
176.27282 30.741697 moveto
176.94855 29.748851 178.30275 29.491477 179.2956 30.167203 curveto
180.28844 30.842929 180.54582 32.197132 179.87009 33.189978 curveto
179.19437 34.182824 177.84016 34.440197 176.84732 33.764472 curveto
175.8597 33.092305 175.59878 31.749761 176.26276 30.756617 curveto
stroke
grestore
0 0 0 setrgbcolor
[0.70866142 0.35433071] 0 setdash
0.35433072 setlinewidth
0 setlinejoin
0 setlinecap
newpath
186.96042 43.945618 moveto
175.41255 91.643331 lineto
stroke
0 0 0 setrgbcolor
[0.70866142 0.35433071] 0 setdash
0.35433072 setlinewidth
0 setlinejoin
0 setlinecap
newpath
187.79722 44.78242 moveto
182.27433 91.643331 lineto
stroke
0 0 0 setrgbcolor
[0.70866142 0.35433071] 0 setdash
0.35433072 setlinewidth
0 setlinejoin
0 setlinecap
newpath
188.80138 45.117141 moveto
188.80138 91.475971 lineto
stroke
0 0 0 setrgbcolor
[0.70866142 0.35433071] 0 setdash
0.35433072 setlinewidth
0 setlinejoin
0 setlinecap
newpath
189.80555 44.61506 moveto
195.32844 91.475971 lineto
stroke
0 0 0 setrgbcolor
[0.70866142 0.35433071] 0 setdash
0.35433072 setlinewidth
0 setlinejoin
0 setlinecap
newpath
190.47499 43.945618 moveto
202.02286 91.643331 lineto
stroke
gsave
1 1 1 setrgbcolor
newpath
174.24103 91.475975 moveto
203.36174 91.475975 lineto
203.36174 93.4843 lineto
174.24103 93.4843 lineto
174.24103 91.475975 lineto
closepath
eofill
grestore
0 0 0 setrgbcolor
[0.70866142 0.35433071] 0 setdash
0.35433072 setlinewidth
1 setlinejoin
1 setlinecap
newpath
174.24103 91.475975 moveto
203.36174 91.475975 lineto
203.36174 93.4843 lineto
174.24103 93.4843 lineto
174.24103 91.475975 lineto
closepath
stroke
gsave [1 0 0 -1 156.5603 79.67495] concat
gsave
/BitstreamVeraSans-Roman-ISOLatin1 findfont
10 scalefont
setfont
0 0 0 setrgbcolor
newpath
0 0 moveto
(sanitaire) show
grestore
grestore
0.97254902 1 0 setrgbcolor
[] 0 setdash
3.9032354 setlinewidth
0 setlinejoin
0 setlinecap
newpath
5.889079 18.854162 moveto
28.624886 42.928851 lineto
stroke
1 0.98431373 0 setrgbcolor
[] 0 setdash
0.70866144 setlinewidth
0 setlinejoin
0 setlinecap
newpath
30.478454 42.941456 moveto
7.8848 49.301151 lineto
stroke
1 0.98431373 0 setrgbcolor
[] 0 setdash
0.70866144 setlinewidth
0 setlinejoin
0 setlinecap
newpath
33.993022 50.305314 moveto
6.211196 66.204551 lineto
stroke
1 0.87843138 0 setrgbcolor
[] 0 setdash
1 setlinewidth
0 setlinejoin
0 setlinecap
newpath
11.566729 46.288663 moveto
8.2195208 49.30115 lineto
12.905612 50.137952 lineto
stroke
1 0.93333334 0 setrgbcolor
[] 0 setdash
1 setlinewidth
0 setlinejoin
0 setlinecap
newpath
8.2195208 62.689982 moveto
6.3785564 66.371911 lineto
10.395206 66.03719 lineto
stroke
1 0.87450981 0 setrgbcolor
[] 0 setdash
1 setlinewidth
0 setlinejoin
0 setlinecap
newpath
16.754901 36.749121 moveto
24.286119 38.255364 lineto
22.445155 30.891507 lineto
stroke
1 0.87450981 0 setrgbcolor
[] 0 setdash
1 setlinewidth
0 setlinejoin
0 setlinecap
newpath
35.331904 47.125465 moveto
41.022158 45.619221 lineto
36.670788 41.769932 lineto
stroke
1 0.87450981 0 setrgbcolor
[] 0 setdash
1 setlinewidth
0 setlinejoin
0 setlinecap
newpath
40.185356 57.50181 moveto
45.87561 56.832368 lineto
42.193682 52.480997 lineto
stroke
gsave [1 0 0 -1 0.579216 5.0383835] concat
gsave
/BitstreamVeraSans-Roman-ISOLatin1 findfont
10 scalefont
setfont
0 0 0 setrgbcolor
newpath
0 0 moveto
(flux solaire) show
grestore
grestore
gsave [1 0 0 -1 1.4201002 15.452456] concat
gsave
/aakar-medium-ISOLatin1 /aakar-medium newlatin1font
10 scalefont
setfont
0 0 0 setrgbcolor
newpath
0 0 moveto
(incident) show
grestore
grestore
0 0 0 setrgbcolor
[] 0 setdash
1 setlinewidth
0 setlinejoin
0 setlinecap
newpath
81.021294 54.154602 moveto
94.075405 38.757446 lineto
94.075405 38.757446 87.039716 62.189093 80.351853 72.396885 curveto
73.992158 82.103788 60.770686 91.475971 60.770686 91.475971 curveto
stroke
0.95686275 1 0.30980393 setrgbcolor
[] 0 setdash
2.1259842 setlinewidth
2 setlinejoin
0 setlinecap
newpath
6.3785564 17.837395 moveto
28.63749 41.937293 lineto
41.52424 45.619222 lineto
33.825662 51.309475 lineto
45.038809 56.497648 lineto
stroke
gsave [0.814304 0 0 1.426206 57.26672 -16.84601] concat
0 0 0 setrgbcolor
[] 0 setdash
0.98638314 setlinewidth
1 setlinejoin
1 setlinecap
newpath
108.28218 51.63068 moveto
108.28218 56.111253 93.511618 59.74766 75.31218 59.74766 curveto
57.112741 59.74766 42.342182 56.111253 42.342182 51.63068 curveto
42.342182 51.607969 42.342493 51.588763 42.343227 51.566053 curveto
stroke
grestore
gsave [0.374242 0 0 0.374242 126.69328 70.01755] concat
gsave
0 0 0 setrgbcolor
newpath
42.172469 86.221471 moveto
43.367983 84.617642 45.763881 84.201886 47.520455 85.293443 curveto
49.277029 86.385 49.732382 88.572559 48.536867 90.176387 curveto
47.341352 91.780215 44.945454 92.195972 43.18888 91.104415 curveto
41.441557 90.018606 40.979938 87.849882 42.154662 86.245573 curveto
eofill
grestore
0 0 0 setrgbcolor
[] 0 setdash
2.1968503 setlinewidth
1 setlinejoin
1 setlinecap
newpath
42.172469 86.221471 moveto
43.367983 84.617642 45.763881 84.201886 47.520455 85.293443 curveto
49.277029 86.385 49.732382 88.572559 48.536867 90.176387 curveto
47.341352 91.780215 44.945454 92.195972 43.18888 91.104415 curveto
41.441557 90.018606 40.979938 87.849882 42.154662 86.245573 curveto
stroke
grestore
gsave [0.374242 0 0 0.374242 76.279724 52.502983] concat
gsave
0 0 0 setrgbcolor
newpath
42.172469 86.221471 moveto
43.367983 84.617642 45.763881 84.201886 47.520455 85.293443 curveto
49.277029 86.385 49.732382 88.572559 48.536867 90.176387 curveto
47.341352 91.780215 44.945454 92.195972 43.18888 91.104415 curveto
41.441557 90.018606 40.979938 87.849882 42.154662 86.245573 curveto
eofill
grestore
0 0 0 setrgbcolor
[] 0 setdash
2.1968503 setlinewidth
1 setlinejoin
1 setlinecap
newpath
42.172469 86.221471 moveto
43.367983 84.617642 45.763881 84.201886 47.520455 85.293443 curveto
49.277029 86.385 49.732382 88.572559 48.536867 90.176387 curveto
47.341352 91.780215 44.945454 92.195972 43.18888 91.104415 curveto
41.441557 90.018606 40.979938 87.849882 42.154662 86.245573 curveto
stroke
grestore
gsave [0.374242 0 0 0.374242 76.043044 36.408515] concat
gsave
0 0 0 setrgbcolor
newpath
42.172469 86.221471 moveto
43.367983 84.617642 45.763881 84.201886 47.520455 85.293443 curveto
49.277029 86.385 49.732382 88.572559 48.536867 90.176387 curveto
47.341352 91.780215 44.945454 92.195972 43.18888 91.104415 curveto
41.441557 90.018606 40.979938 87.849882 42.154662 86.245573 curveto
eofill
grestore
0 0 0 setrgbcolor
[] 0 setdash
2.1968503 setlinewidth
1 setlinejoin
1 setlinecap
newpath
42.172469 86.221471 moveto
43.367983 84.617642 45.763881 84.201886 47.520455 85.293443 curveto
49.277029 86.385 49.732382 88.572559 48.536867 90.176387 curveto
47.341352 91.780215 44.945454 92.195972 43.18888 91.104415 curveto
41.441557 90.018606 40.979938 87.849882 42.154662 86.245573 curveto
stroke
grestore
grestore
showpage
%%EOF
