\relax 
\catcode`:\active
\catcode`;\active
\catcode`!\active
\catcode`?\active
\select@language{french}
\@writefile{toc}{\select@language{french}}
\@writefile{lof}{\select@language{french}}
\@writefile{lot}{\select@language{french}}
\@writefile{lof}{\contentsline {figure}{\numberline {1}{\ignorespaces Fission de l'uranium}}{2}}
\newlabel{FissionUranium2}{{1}{2}}
\@writefile{lof}{\contentsline {figure}{\numberline {2}{\ignorespaces Cellules solaires thermiques}}{3}}
\@writefile{lof}{\contentsline {figure}{\numberline {3}{\ignorespaces Cellules solaires thermiques}}{3}}
