\relax 
\@writefile{toc}{\contentsline {chapter}{\numberline {10}Thermodynamique}{133}}
\@writefile{lof}{\addvspace {10\p@ }}
\@writefile{lot}{\addvspace {10\p@ }}
\newlabel{chapthermo}{{10}{133}}
\@writefile{toc}{\contentsline {section}{\numberline {10.1}Introduction}{133}}
\@writefile{toc}{\contentsline {section}{\numberline {10.2}Temp\IeC {\'e}rature}{133}}
\@writefile{toc}{\contentsline {subsection}{\numberline {10.2.1}Celsius}{133}}
\@writefile{toc}{\contentsline {subsection}{\numberline {10.2.2}Fahrenheit}{133}}
\@writefile{toc}{\contentsline {subsection}{\numberline {10.2.3}Kelvin}{134}}
\@writefile{toc}{\contentsline {subsection}{\numberline {10.2.4}Agitation mol\IeC {\'e}culaire}{134}}
\newlabel{vitair}{{10.1}{134}}
\newlabel{celsiusfahrenheit}{{10.1(a)}{134}}
\newlabel{sub@celsiusfahrenheit}{{(a)}{134}}
\newlabel{celsiuskelvin}{{10.1(b)}{134}}
\newlabel{sub@celsiuskelvin}{{(b)}{134}}
\@writefile{lof}{\contentsline {figure}{\numberline {10.1}{\ignorespaces Thermom\IeC {\`e}tres}}{134}}
\newlabel{thermometres}{{10.1}{134}}
\@writefile{lof}{\contentsline {subfigure}{\numberline{(a)}{\ignorespaces {Fahrenheit}}}{134}}
\@writefile{lof}{\contentsline {subfigure}{\numberline{(b)}{\ignorespaces {Kelvin}}}{134}}
\@writefile{toc}{\contentsline {section}{\numberline {10.3}Dilatation}{134}}
\@writefile{lot}{\contentsline {table}{\numberline {10.1}{\ignorespaces C\oe fficient de dilatation lin\IeC {\'e}aire\relax }}{135}}
\newlabel{coefdilat}{{10.1}{135}}
\@writefile{toc}{\contentsline {section}{\numberline {10.4}Chaleur}{135}}
\@writefile{toc}{\contentsline {subsection}{\numberline {10.4.1}Chaleur sp\IeC {\'e}cifique}{135}}
\newlabel{thermique}{{10.3}{135}}
\@writefile{lot}{\contentsline {table}{\numberline {10.2}{\ignorespaces Chaleur sp\IeC {\'e}cifique\relax }}{135}}
\newlabel{tabchalspe}{{10.2}{135}}
\@writefile{toc}{\contentsline {subsection}{\numberline {10.4.2}Chaleur latente}{135}}
\@writefile{lof}{\contentsline {figure}{\numberline {10.2}{\ignorespaces Changements d'\IeC {\'e}tats\relax }}{136}}
\newlabel{paliers}{{10.2}{136}}
\@writefile{lot}{\contentsline {table}{\numberline {10.3}{\ignorespaces Chaleur latente\relax }}{136}}
\newlabel{tabchaleurlat}{{10.3}{136}}
\@writefile{toc}{\contentsline {section}{\numberline {10.5}\IeC {\'E}nergie thermique}{136}}
\@writefile{toc}{\contentsline {subsection}{\numberline {10.5.1}Premier principe}{137}}
\newlabel{premierprincipe}{{10.5}{137}}
\newlabel{RF4}{138}
\@writefile{lof}{\contentsline {figure}{\numberline {10.3}{\ignorespaces R\IeC {\'e}sum\IeC {\'e} de thermodynamique\relax }}{138}}
\@setckpt{Thermodynamique/Thermodynamique}{
\setcounter{page}{139}
\setcounter{equation}{11}
\setcounter{enumi}{2}
\setcounter{enumii}{0}
\setcounter{enumiii}{0}
\setcounter{enumiv}{0}
\setcounter{footnote}{0}
\setcounter{mpfootnote}{0}
\setcounter{part}{0}
\setcounter{chapter}{10}
\setcounter{section}{5}
\setcounter{subsection}{1}
\setcounter{subsubsection}{0}
\setcounter{paragraph}{0}
\setcounter{subparagraph}{0}
\setcounter{figure}{3}
\setcounter{table}{3}
\setcounter{NAT@ctr}{0}
\setcounter{parentequation}{0}
\setcounter{FancyVerbLine}{0}
\setcounter{float@type}{8}
\setcounter{fignum}{1}
\setcounter{r@tfl@t}{4}
\setcounter{subfigure}{0}
\setcounter{lofdepth}{1}
\setcounter{subtable}{0}
\setcounter{lotdepth}{1}
\setcounter{ContinuedFloat}{0}
\setcounter{endnote}{88}
\setcounter{OptionTest}{0}
\setcounter{DefaultLines}{2}
\setcounter{DefaultDepth}{0}
\setcounter{L@lines}{3}
\setcounter{L@depth}{0}
\setcounter{lstnumber}{1}
\setcounter{Solution}{0}
\setcounter{exc}{0}
\setcounter{Solution OS}{0}
\setcounter{exosc}{0}
\setcounter{lstlisting}{0}
}
