\relax 
\@writefile{toc}{\contentsline {chapter}{\numberline {O}Impulsion et quantit\IeC {\'e} de mouvement}{189}}
\@writefile{lof}{\addvspace {10\p@ }}
\@writefile{lot}{\addvspace {10\p@ }}
\@writefile{toc}{\contentsline {section}{\numberline {O.1}Introduction}{189}}
\@writefile{toc}{\contentsline {section}{\numberline {O.2}Quantit\IeC {\'e} de mouvement}{189}}
\newlabel{3eloichoc}{{O.1}{189}}
\newlabel{2sur1}{{O.2}{189}}
\newlabel{1sur2}{{O.3}{189}}
\newlabel{achoc}{{O.4}{189}}
\newlabel{varqtitedemvt}{{O.5}{189}}
\newlabel{qtitedemvt}{{O.6}{189}}
\@writefile{toc}{\contentsline {subsection}{\numberline {O.2.1}Masse d'inertie}{189}}
\@writefile{toc}{\contentsline {section}{\numberline {O.3}\IeC {\'E}nergie cin\IeC {\'e}tique}{190}}
\@writefile{toc}{\contentsline {section}{\numberline {O.4}Choc parfaitement \IeC {\'e}lastique}{190}}
\newlabel{qtitemvt1dim}{{O.8}{190}}
\newlabel{encin1dim}{{O.9}{190}}
\newlabel{qtitemvtsuppr}{{O.10}{190}}
\newlabel{encincarre}{{O.11}{190}}
\newlabel{encinremarquable}{{O.12}{190}}
\newlabel{qtitemvtvitrelative}{{O.13}{190}}
\@writefile{toc}{\contentsline {subsection}{\numberline {O.4.1}Exemple}{190}}
\newlabel{chocsimplemvt}{{O.14}{191}}
\newlabel{chocsimpleen}{{O.15}{191}}
\newlabel{solv1'}{{O.16}{191}}
\@writefile{toc}{\contentsline {section}{\numberline {O.5}Choc parfaitement mou}{191}}
\@writefile{toc}{\contentsline {subsection}{\numberline {O.5.1}Exemple}{191}}
\@writefile{toc}{\contentsline {section}{\numberline {O.6}choc bidimentionnel}{192}}
\@writefile{toc}{\contentsline {subsection}{\numberline {O.6.1}Exemple}{192}}
\@writefile{toc}{\contentsline {section}{\numberline {O.7}Impulsion}{192}}
\newlabel{impuls}{{O.7}{192}}
\@writefile{toc}{\contentsline {section}{\numberline {O.8}Impulsion et quantit\IeC {\'e} de mouvement}{192}}
\newlabel{qtitemvtimpuls}{{O.8}{192}}
\@setckpt{Annexe-QtiteMvt/Annexe-QtiteMvt}{
\setcounter{page}{193}
\setcounter{equation}{17}
\setcounter{enumi}{2}
\setcounter{enumii}{0}
\setcounter{enumiii}{0}
\setcounter{enumiv}{0}
\setcounter{footnote}{1}
\setcounter{mpfootnote}{0}
\setcounter{part}{0}
\setcounter{chapter}{15}
\setcounter{section}{8}
\setcounter{subsection}{0}
\setcounter{subsubsection}{0}
\setcounter{paragraph}{0}
\setcounter{subparagraph}{0}
\setcounter{figure}{0}
\setcounter{table}{0}
\setcounter{FancyVerbLine}{0}
\setcounter{float@type}{8}
\setcounter{r@tfl@t}{4}
\setcounter{subfigure}{0}
\setcounter{lofdepth}{1}
\setcounter{subtable}{0}
\setcounter{lotdepth}{1}
\setcounter{parentequation}{0}
\setcounter{endnote}{65}
\setcounter{OptionTest}{0}
\setcounter{DefaultLines}{2}
\setcounter{L@lines}{3}
\setcounter{lstlisting}{0}
\setcounter{lstnumber}{1}
\setcounter{ex}{71}
}
