\relax 
\@writefile{toc}{\contentsline {chapter}{\numberline {K}\IeC {\'E}nergies}{207}}
\@writefile{lof}{\addvspace {10\p@ }}
\@writefile{lot}{\addvspace {10\p@ }}
\@writefile{toc}{\contentsline {section}{\numberline {K.1}Introduction}{207}}
\@writefile{toc}{\contentsline {section}{\numberline {K.2}\IeC {\'E}nergie hydraulique}{207}}
\newlabel{barrageduchatelot}{{K.2}{207}}
\@writefile{lof}{\contentsline {figure}{\numberline {K.1}{\ignorespaces Le barrage du Ch\IeC {\^a}telot}}{207}}
\newlabel{chatelot@ch\IeC {\^a}telot}{{K.1}{207}}
\newlabel{prodchatelot}{{K.1}{207}}
\@writefile{toc}{\contentsline {section}{\numberline {K.3}\IeC {\'E}nergie \IeC {\'e}olienne}{208}}
\@writefile{toc}{\contentsline {subsection}{\numberline {K.3.1}R\IeC {\`e}gle de Betz}{208}}
\newlabel{reglebetz}{{K.3.1}{208}}
\@writefile{toc}{\contentsline {subsection}{\numberline {K.3.2}\IeC {\'E}oliennes}{209}}
\@writefile{toc}{\contentsline {subsubsection}{\IeC {\'E}olienne de Collonges-Dor\IeC {\'e}naz}{209}}
\@writefile{toc}{\contentsline {subsubsection}{\IeC {\'E}oliennes du Mont Soleil (Jura suisse)}{209}}
\@writefile{toc}{\contentsline {section}{\numberline {K.4}G\IeC {\'e}othermie}{209}}
\newlabel{riehen}{{K.4}{209}}
\@writefile{toc}{\contentsline {section}{\numberline {K.5}\IeC {\'E}nergie de combustion des d\IeC {\'e}chets}{210}}
\@setckpt{Annexe-Energies/Annexe-Energies}{
\setcounter{page}{211}
\setcounter{equation}{3}
\setcounter{enumi}{2}
\setcounter{enumii}{0}
\setcounter{enumiii}{0}
\setcounter{enumiv}{0}
\setcounter{footnote}{1}
\setcounter{mpfootnote}{0}
\setcounter{part}{0}
\setcounter{chapter}{11}
\setcounter{section}{5}
\setcounter{subsection}{0}
\setcounter{subsubsection}{0}
\setcounter{paragraph}{0}
\setcounter{subparagraph}{0}
\setcounter{figure}{1}
\setcounter{table}{0}
\setcounter{NAT@ctr}{0}
\setcounter{parentequation}{0}
\setcounter{FancyVerbLine}{0}
\setcounter{float@type}{8}
\setcounter{fignum}{1}
\setcounter{r@tfl@t}{4}
\setcounter{subfigure}{0}
\setcounter{lofdepth}{1}
\setcounter{subtable}{0}
\setcounter{lotdepth}{1}
\setcounter{ContinuedFloat}{0}
\setcounter{endnote}{112}
\setcounter{OptionTest}{0}
\setcounter{DefaultLines}{2}
\setcounter{DefaultDepth}{0}
\setcounter{L@lines}{3}
\setcounter{L@depth}{0}
\setcounter{lstnumber}{1}
\setcounter{Solution}{0}
\setcounter{exc}{0}
\setcounter{Solution OS}{0}
\setcounter{exosc}{0}
\setcounter{lstlisting}{0}
}
