\relax 
\citation{SU03}
\citation{SU03}
\@writefile{toc}{\contentsline {chapter}{\numberline {9}Physique th\IeC {\'e}orique}{129}}
\@writefile{lof}{\addvspace {10\p@ }}
\@writefile{lot}{\addvspace {10\p@ }}
\newlabel{physiquetheorique}{{9}{129}}
\@writefile{toc}{\contentsline {section}{\numberline {9.1}Introduction}{129}}
\@writefile{toc}{\contentsline {section}{\numberline {9.2}\IeC {\'E}nergie potentielle}{129}}
\newlabel{thfderiveenpot}{{9.1}{129}}
\newlabel{thfintenpot}{{9.2}{129}}
\@writefile{toc}{\contentsline {section}{\numberline {9.3}\IeC {\'E}nergie cin\IeC {\'e}tique}{129}}
\@writefile{toc}{\contentsline {section}{\numberline {9.4}Quantit\IeC {\'e} de mouvement}{129}}
\newlabel{thconsqtitemvt}{{9.4}{129}}
\@writefile{toc}{\contentsline {section}{\numberline {9.5}Conservation de l'\IeC {\'e}nergie}{130}}
\newlabel{thconsenmec0}{{9.5}{130}}
\newlabel{thenmec}{{9.6}{130}}
\@writefile{toc}{\contentsline {section}{\numberline {9.6}Principe de moindre action}{130}}
\@writefile{toc}{\contentsline {subsection}{\numberline {9.6.1}Lagrangien}{130}}
\@writefile{toc}{\contentsline {subsection}{\numberline {9.6.2}Action}{130}}
\@writefile{toc}{\contentsline {subsection}{\numberline {9.6.3}Minimalisation}{131}}
\@writefile{toc}{\contentsline {section}{\numberline {9.7}Euler-Lagrange}{131}}
\@setckpt{PhysiqueTheorique/PhysiqueTheorique}{
\setcounter{page}{133}
\setcounter{equation}{10}
\setcounter{enumi}{2}
\setcounter{enumii}{0}
\setcounter{enumiii}{0}
\setcounter{enumiv}{0}
\setcounter{footnote}{1}
\setcounter{mpfootnote}{0}
\setcounter{part}{0}
\setcounter{chapter}{9}
\setcounter{section}{7}
\setcounter{subsection}{0}
\setcounter{subsubsection}{0}
\setcounter{paragraph}{0}
\setcounter{subparagraph}{0}
\setcounter{figure}{0}
\setcounter{table}{0}
\setcounter{NAT@ctr}{0}
\setcounter{parentequation}{0}
\setcounter{FancyVerbLine}{0}
\setcounter{float@type}{8}
\setcounter{fignum}{1}
\setcounter{r@tfl@t}{3}
\setcounter{subfigure}{0}
\setcounter{lofdepth}{1}
\setcounter{subtable}{0}
\setcounter{lotdepth}{1}
\setcounter{ContinuedFloat}{0}
\setcounter{endnote}{85}
\setcounter{OptionTest}{0}
\setcounter{DefaultLines}{2}
\setcounter{DefaultDepth}{0}
\setcounter{L@lines}{3}
\setcounter{L@depth}{0}
\setcounter{lstnumber}{1}
\setcounter{Solution}{0}
\setcounter{exc}{0}
\setcounter{Solution OS}{0}
\setcounter{exosc}{0}
\setcounter{lstlisting}{0}
}
