\relax 
\citation{JL96}
\@writefile{toc}{\contentsline {chapter}{\numberline {D}Travaux pratiques}{177}}
\@writefile{lof}{\addvspace {10\p@ }}
\@writefile{lot}{\addvspace {10\p@ }}
\@writefile{toc}{\contentsline {section}{\numberline {D.1}Le rapport de laboratoire}{177}}
\@writefile{toc}{\contentsline {subsection}{\numberline {D.1.1}Plan d'un rapport de travail pratique}{178}}
\@writefile{toc}{\contentsline {subsubsection}{Pr\IeC {\'e}liminaires}{178}}
\@writefile{toc}{\contentsline {subsubsection}{R\IeC {\'e}sum\IeC {\'e}}{178}}
\@writefile{toc}{\contentsline {subsubsection}{But}{178}}
\@writefile{lof}{\contentsline {figure}{\numberline {D.1}{\ignorespaces Rail horizontal}}{178}}
\newlabel{railhorizontal}{{D.1}{178}}
\@writefile{toc}{\contentsline {subsubsection}{Th\IeC {\'e}orie}{178}}
\@writefile{toc}{\contentsline {subsubsection}{Description de l'exp\IeC {\'e}rience}{178}}
\@writefile{toc}{\contentsline {subsubsection}{R\IeC {\'e}sultats}{178}}
\@writefile{lof}{\contentsline {figure}{\numberline {D.2}{\ignorespaces Chute libre\relax }}{179}}
\newlabel{explegraphe}{{D.2}{179}}
\@writefile{lot}{\contentsline {table}{\numberline {D.1}{\ignorespaces Tableau de mesures\relax }}{179}}
\newlabel{tableau}{{D.1}{179}}
\newlabel{defecart}{{D.1}{179}}
\@writefile{toc}{\contentsline {subsubsection}{Discussion}{180}}
\@writefile{toc}{\contentsline {subsubsection}{Conclusion}{180}}
\@writefile{toc}{\contentsline {subsubsection}{Annexes}{180}}
\@writefile{toc}{\contentsline {section}{\numberline {D.2}La n\IeC {\'e}buleuse du Crabe}{181}}
\@writefile{toc}{\contentsline {subsection}{\numberline {D.2.1}Introduction}{181}}
\@writefile{toc}{\contentsline {subsection}{\numberline {D.2.2}But du travail pratique}{181}}
\@writefile{toc}{\contentsline {subsection}{\numberline {D.2.3}Dispositif exp\IeC {\'e}rimental}{181}}
\@writefile{toc}{\contentsline {subsection}{\numberline {D.2.4}Mesures}{181}}
\@writefile{toc}{\contentsline {subsection}{\numberline {D.2.5}R\IeC {\'e}sultats}{181}}
\@writefile{toc}{\contentsline {subsection}{\numberline {D.2.6}Analyse}{181}}
\@writefile{toc}{\contentsline {section}{\numberline {D.3}Le pendule simple}{181}}
\@writefile{toc}{\contentsline {subsection}{\numberline {D.3.1}Les mesures}{181}}
\@writefile{toc}{\contentsline {subsection}{\numberline {D.3.2}Organisation des donn\IeC {\'e}es et graphiques}{182}}
\@writefile{toc}{\contentsline {section}{\numberline {D.4}Mouvement simple~: MRU}{182}}
\@writefile{toc}{\contentsline {subsection}{\numberline {D.4.1}Les mesures}{182}}
\@writefile{toc}{\contentsline {subsection}{\numberline {D.4.2}Organisation des donn\IeC {\'e}es et graphiques}{182}}
\@writefile{toc}{\contentsline {subsection}{\numberline {D.4.3}Analyse des r\IeC {\'e}sultats}{182}}
\@writefile{toc}{\contentsline {section}{\numberline {D.5}Mouvement simple~:\\MRUA}{182}}
\@writefile{toc}{\contentsline {subsection}{\numberline {D.5.1}But}{182}}
\@writefile{toc}{\contentsline {subsection}{\numberline {D.5.2}Th\IeC {\'e}orie}{183}}
\@writefile{toc}{\contentsline {subsection}{\numberline {D.5.3}Les mesures}{183}}
\@writefile{toc}{\contentsline {subsection}{\numberline {D.5.4}Organisation des donn\IeC {\'e}es et graphiques}{183}}
\@writefile{toc}{\contentsline {subsection}{\numberline {D.5.5}Galil\IeC {\'e}e et le plan inclin\IeC {\'e}}{183}}
\@writefile{toc}{\contentsline {section}{\numberline {D.6}La chute libre}{183}}
\@writefile{toc}{\contentsline {subsection}{\numberline {D.6.1}Cette exp\IeC {\'e}rience donnant lieu \IeC {\`a} un rapport not\IeC {\'e}, elle n'est pas d\IeC {\'e}crite.}{183}}
\@writefile{toc}{\contentsline {subsection}{\numberline {D.6.2}R\IeC {\'e}sultats}{183}}
\@writefile{toc}{\contentsline {section}{\numberline {D.7}Le canon horizontal}{183}}
\@writefile{toc}{\contentsline {section}{\numberline {D.8}Le chariot \IeC {\`a} masse pendante}{184}}
\@setckpt{Annexe-TravauxPratiques/Annexe-TravauxPratiques}{
\setcounter{page}{185}
\setcounter{equation}{1}
\setcounter{enumi}{2}
\setcounter{enumii}{0}
\setcounter{enumiii}{0}
\setcounter{enumiv}{0}
\setcounter{footnote}{0}
\setcounter{mpfootnote}{0}
\setcounter{part}{0}
\setcounter{chapter}{4}
\setcounter{section}{8}
\setcounter{subsection}{0}
\setcounter{subsubsection}{0}
\setcounter{paragraph}{0}
\setcounter{subparagraph}{0}
\setcounter{figure}{2}
\setcounter{table}{1}
\setcounter{NAT@ctr}{0}
\setcounter{parentequation}{0}
\setcounter{FancyVerbLine}{0}
\setcounter{float@type}{8}
\setcounter{fignum}{1}
\setcounter{r@tfl@t}{4}
\setcounter{subfigure}{0}
\setcounter{lofdepth}{1}
\setcounter{subtable}{0}
\setcounter{lotdepth}{1}
\setcounter{ContinuedFloat}{0}
\setcounter{endnote}{95}
\setcounter{OptionTest}{0}
\setcounter{DefaultLines}{2}
\setcounter{DefaultDepth}{0}
\setcounter{L@lines}{3}
\setcounter{L@depth}{0}
\setcounter{lstnumber}{1}
\setcounter{Solution}{0}
\setcounter{exc}{0}
\setcounter{Solution OS}{0}
\setcounter{exosc}{0}
\setcounter{lstlisting}{0}
}
