%!PS-Adobe-3.0 EPSF-3.0
%%Creator: inkscape 0.44.1
%%Pages: 1
%%Orientation: Portrait
%%BoundingBox: 14 3 166 69
%%HiResBoundingBox: 14.717107 3.3348678 165.19624 68.994574
%%DocumentMedia: plain 171 86 0 () ()
%%EndComments
%%Page: 1 1
0 86 translate
0.8 -0.8 scale
gsave [1 0 0 1 0 0] concat
gsave
0.2 0.2 1 setrgbcolor
newpath
112.50831 66.583055 moveto
112.64032 86.758082 91.453483 101.39466 69.017362 101.68051 curveto
47.661452 101.95259 28.861272 84.604972 28.727225 66.005336 curveto
28.587661 46.500561 46.941784 29.622139 70.103855 29.622139 curveto
81.677122 29.622139 112.33142 39.370749 112.50831 66.583055 curveto
closepath
eofill
grestore
gsave
1 1 1 setrgbcolor
newpath
105.40372 65.790184 moveto
105.36537 63.961786 lineto
105.23479 62.156398 lineto
105.01963 60.381886 lineto
104.71225 58.630384 lineto
104.32049 56.909562 lineto
103.85183 55.219419 lineto
103.29114 53.567627 lineto
102.66889 51.96972 lineto
101.96975 50.39502 lineto
101.18623 48.86634 lineto
100.33349 47.375813 lineto
99.411523 45.939271 lineto
98.428196 44.541176 lineto
97.375839 43.204442 lineto
96.25406 41.913727 lineto
95.078787 40.699908 lineto
93.857299 39.524635 lineto
92.574254 38.418392 lineto
91.237715 37.358169 lineto
89.839424 36.367172 lineto
88.40298 35.445402 lineto
86.912453 34.59266 lineto
85.383773 33.801279 lineto
83.808877 33.10233 lineto
82.21097 32.464544 lineto
80.559374 31.911521 lineto
78.876902 31.442867 lineto
77.15608 31.05111 lineto
75.404577 30.743722 lineto
73.629869 30.528767 lineto
71.824677 30.398181 lineto
69.996279 30.374974 lineto
50.283523 30.374974 34.296789 46.35394 34.296789 66.074563 curveto
34.296789 85.786926 50.275853 101.77386 69.996279 101.77386 curveto
89.708839 101.77386 105.70324 85.794792 105.70324 66.074563 curveto
eofill
grestore
1 1 1 setrgbcolor
[] 0 setdash
0 setlinewidth
0 setlinejoin
0 setlinecap
newpath
105.40372 65.790184 moveto
105.36537 63.961786 lineto
105.23479 62.156398 lineto
105.01963 60.381886 lineto
104.71225 58.630384 lineto
104.32049 56.909562 lineto
103.85183 55.219419 lineto
103.29114 53.567627 lineto
102.66889 51.96972 lineto
101.96975 50.39502 lineto
101.18623 48.86634 lineto
100.33349 47.375813 lineto
99.411523 45.939271 lineto
98.428196 44.541176 lineto
97.375839 43.204442 lineto
96.25406 41.913727 lineto
95.078787 40.699908 lineto
93.857299 39.524635 lineto
92.574254 38.418392 lineto
91.237715 37.358169 lineto
89.839424 36.367172 lineto
88.40298 35.445402 lineto
86.912453 34.59266 lineto
85.383773 33.801279 lineto
83.808877 33.10233 lineto
82.21097 32.464544 lineto
80.559374 31.911521 lineto
78.876902 31.442867 lineto
77.15608 31.05111 lineto
75.404577 30.743722 lineto
73.629869 30.528767 lineto
71.824677 30.398181 lineto
69.996279 30.374974 lineto
50.283523 30.374974 34.296789 46.35394 34.296789 66.074563 curveto
34.296789 85.786926 50.275853 101.77386 69.996279 101.77386 curveto
89.708839 101.77386 105.70324 85.794792 105.70324 66.074563 curveto
105.63421 66.005336 lineto
105.54198 65.92077 lineto
105.40372 65.790184 lineto
closepath
stroke
0 0 0 setrgbcolor
[] 0 setdash
0.71352965 setlinewidth
0 setlinejoin
0 setlinecap
newpath
69.996279 30.374974 moveto
50.283696 30.292272 34.296789 46.35394 34.296789 66.074563 curveto
34.296789 85.786926 50.275853 101.77386 69.996279 101.77386 curveto
89.708839 101.77386 105.70324 85.794792 105.70324 66.074563 curveto
105.63421 66.005336 lineto
105.09802 46.300438 89.56713 30.509021 69.996279 30.374974 curveto
closepath
stroke
0 0 0 setrgbcolor
[] 0 setdash
0.3567884 setlinewidth
0 setlinejoin
0 setlinecap
newpath
40.373553 56.302456 moveto
40.212091 56.894025 lineto
40.058495 57.477925 lineto
39.920239 58.069494 lineto
39.789654 58.661064 lineto
39.659068 59.252437 lineto
39.551492 59.859543 lineto
39.443916 60.450916 lineto
39.367216 61.057825 lineto
39.29032 61.664734 lineto
39.221094 62.271644 lineto
39.167404 62.87875 lineto
39.129054 63.485463 lineto
39.098178 64.100042 lineto
39.075168 64.706951 lineto
39.075168 65.329201 lineto
39.075168 65.93611 lineto
39.075168 84.143 53.487005 99.062037 71.694091 99.699626 curveto
stroke
0 0 0 setrgbcolor
[] 0 setdash
0.3567884 setlinewidth
0 setlinejoin
0 setlinecap
newpath
40.81133 60.020808 moveto
40.742301 60.627718 lineto
40.680744 61.249967 lineto
40.627055 61.856876 lineto
40.588705 62.479126 lineto
40.550159 63.101375 lineto
40.527149 63.723624 lineto
40.527149 64.345874 lineto
40.527149 64.96832 lineto
40.527149 81.50788 52.419309 95.666412 68.720904 98.516487 curveto
stroke
0 0 0 setrgbcolor
[] 0 setdash
0.3567884 setlinewidth
0 setlinejoin
0 setlinecap
newpath
41.717958 66.689142 moveto
42.440113 79.41064 50.375759 90.626861 62.152673 95.574176 curveto
stroke
0 0 0 setrgbcolor
[] 0 setdash
0.71352965 setlinewidth
0 setlinejoin
0 setlinecap
newpath
195.66095 57.018158 moveto
189.30302 57.029807 185.32972 62.188071 185.32972 66.678954 curveto
185.32972 71.169838 189.88567 76.407166 195.49339 76.407166 curveto
201.10111 76.407166 205.91119 71.885935 205.85675 66.611931 curveto
205.80231 61.337927 202.01888 57.00651 195.66095 57.018158 curveto
closepath
stroke
0 0 0 setrgbcolor
[] 0 setdash
0.3567884 setlinewidth
0 setlinejoin
0 setlinecap
newpath
186.74335 64.44578 moveto
186.72781 64.553356 lineto
186.7048 64.660735 lineto
186.69713 64.768311 lineto
186.68179 64.875887 lineto
186.68179 64.983463 lineto
186.65878 65.068029 lineto
186.65878 65.175605 lineto
186.65878 65.282984 lineto
186.65111 65.390757 lineto
186.65111 65.498136 lineto
186.65111 65.605712 lineto
186.65111 65.713288 lineto
186.65111 65.820864 lineto
186.65111 65.92844 lineto
186.65111 66.036016 lineto
186.65111 66.143396 lineto
186.65111 70.660603 190.31558 74.348079 194.8558 74.348079 curveto
195.02473 74.348079 195.21688 74.348079 195.40115 74.332739 curveto
stroke
0 0 0 setrgbcolor
[] 0 setdash
0.3567884 setlinewidth
0 setlinejoin
0 setlinecap
newpath
188.1261 66.227962 moveto
188.17979 69.930778 191.19133 72.949985 194.91716 73.011541 curveto
stroke
0 0 0 setrgbcolor
[] 0 setdash
0.3567884 setlinewidth
0 setlinejoin
0 setlinecap
newpath
73.161412 30.137009 moveto
73.046166 30.129142 lineto
72.91558 30.129142 lineto
72.661882 30.129142 lineto
72.531296 30.129142 lineto
72.41605 30.129142 lineto
72.285464 30.129142 lineto
72.170218 30.129142 lineto
52.480668 30.129142 36.501605 46.092866 36.501605 65.797854 curveto
36.501605 85.487404 52.465329 101.47414 72.170218 101.47414 curveto
72.508286 101.47414 72.869364 101.47414 73.222772 101.45113 curveto
stroke
0 0 0 setrgbcolor
[] 0 setdash
0.3567884 setlinewidth
0 setlinejoin
0 setlinecap
newpath
70.507491 101.84906 moveto
47.58399 101.91338 28.727225 85.24232 28.727225 66.005336 curveto
28.727225 66.005336 lineto
28.727225 46.500062 46.941784 29.622139 70.103855 29.622139 curveto
70.103855 29.622139 lineto
88.826841 29.622139 112.48211 45.420135 112.54818 66.139383 curveto
112.54818 86.380468 89.542154 102.11716 70.507491 101.84906 curveto
closepath
stroke
gsave
0 0 0 setrgbcolor
newpath
66.481014 79.81218 moveto
66.266171 79.841476 lineto
66.19455 79.450857 66.137584 79.190441 66.095272 79.060226 curveto
65.978079 78.705415 65.820201 78.528006 65.621639 78.528 curveto
63.756405 78.528 lineto
63.756405 84.201828 lineto
63.756401 84.491542 63.863823 84.685227 64.078671 84.782883 curveto
64.21864 84.841477 64.44976 84.869146 64.77203 84.865891 curveto
64.77203 85.119797 lineto
61.822811 85.119797 lineto
61.822811 84.929367 lineto
62.519423 84.935878 62.86773 84.693365 62.867733 84.201828 curveto
62.867733 78.528 lineto
61.026913 78.528 lineto
60.711157 78.528006 60.497941 78.977225 60.387264 79.875656 curveto
60.231014 79.875656 lineto
60.387264 77.976242 lineto
60.475155 77.976242 lineto
60.605363 78.122733 60.76324 78.195976 60.948788 78.195969 curveto
65.621639 78.195969 lineto
65.810436 78.195976 65.994355 78.122733 66.173397 77.976242 curveto
66.236874 77.976242 lineto
66.481014 79.81218 lineto
fill
grestore
gsave
0 0 0 setrgbcolor
newpath
70.70953 83.918625 moveto
70.30588 84.778 69.666233 85.207687 68.790585 85.207687 curveto
68.227432 85.207687 67.752172 84.961919 67.364803 84.470383 curveto
67.003475 84.011399 66.822811 83.493822 66.822811 82.917648 curveto
66.822811 82.263354 67.008358 81.713225 67.379452 81.267258 curveto
67.776586 80.792002 68.295791 80.554372 68.937069 80.554367 curveto
69.448134 80.554372 69.861545 80.708994 70.177303 81.018234 curveto
70.49631 81.327483 70.655815 81.739266 70.655819 82.253586 curveto
67.501522 82.253586 lineto
67.485245 82.390307 67.477107 82.530281 67.477108 82.673508 curveto
67.477107 83.158536 67.625219 83.604499 67.921444 84.011398 curveto
68.246963 84.463873 68.644098 84.69011 69.11285 84.690109 curveto
69.724826 84.69011 70.190321 84.415045 70.509335 83.864914 curveto
70.548397 83.864914 lineto
70.620008 83.86166 70.673719 83.879564 70.70953 83.918625 curveto
69.908749 81.975266 moveto
69.895725 81.643238 69.780165 81.373056 69.562069 81.164719 curveto
69.343967 80.953134 69.067275 80.84734 68.731991 80.847336 curveto
68.455296 80.84734 68.209528 80.96941 67.994686 81.213547 curveto
67.805883 81.428394 67.677302 81.6823 67.608944 81.975266 curveto
69.908749 81.975266 lineto
fill
grestore
gsave
0 0 0 setrgbcolor
newpath
74.562069 80.759445 moveto
74.5523 80.944996 74.451388 81.195647 74.259335 81.511398 curveto
73.855686 81.303069 73.577366 81.198902 73.424374 81.198898 curveto
73.229059 81.198902 73.056533 81.293303 72.906796 81.482101 curveto
72.792862 81.654631 72.680557 81.827157 72.569881 81.99968 curveto
72.569881 84.421555 lineto
72.56988 84.773117 72.789606 84.948898 73.229061 84.948898 curveto
73.271377 84.948898 73.331598 84.947271 73.409725 84.944016 curveto
73.487848 84.94076 73.543186 84.939133 73.575741 84.939133 curveto
73.595272 85.119797 lineto
71.17828 85.119797 lineto
71.17828 84.978195 lineto
71.637264 84.965175 71.866756 84.779628 71.866756 84.421555 curveto
71.866756 81.560226 lineto
71.866756 81.368173 71.632381 81.221689 71.163631 81.120773 curveto
71.163631 80.940109 lineto
71.450089 80.907561 71.855362 80.741546 72.379452 80.442062 curveto
72.569881 80.481125 lineto
72.569881 81.633469 lineto
72.960505 80.904306 73.308812 80.539723 73.614803 80.539719 curveto
73.771051 80.539723 74.086806 80.612965 74.562069 80.759445 curveto
fill
grestore
gsave
0 0 0 setrgbcolor
newpath
78.292538 80.759445 moveto
78.282769 80.944996 78.181857 81.195647 77.989803 81.511398 curveto
77.586155 81.303069 77.307835 81.198902 77.154842 81.198898 curveto
76.959528 81.198902 76.787002 81.293303 76.637264 81.482101 curveto
76.52333 81.654631 76.411026 81.827157 76.30035 81.99968 curveto
76.30035 84.421555 lineto
76.300349 84.773117 76.520075 84.948898 76.95953 84.948898 curveto
77.001845 84.948898 77.062067 84.947271 77.140194 84.944016 curveto
77.218317 84.94076 77.273655 84.939133 77.30621 84.939133 curveto
77.325741 85.119797 lineto
74.908749 85.119797 lineto
74.908749 84.978195 lineto
75.367732 84.965175 75.597224 84.779628 75.597225 84.421555 curveto
75.597225 81.560226 lineto
75.597224 81.368173 75.36285 81.221689 74.8941 81.120773 curveto
74.8941 80.940109 lineto
75.180558 80.907561 75.585831 80.741546 76.109921 80.442062 curveto
76.30035 80.481125 lineto
76.30035 81.633469 lineto
76.690973 80.904306 77.03928 80.539723 77.345272 80.539719 curveto
77.501519 80.539723 77.817274 80.612965 78.292538 80.759445 curveto
fill
grestore
gsave
0 0 0 setrgbcolor
newpath
82.506405 83.918625 moveto
82.102755 84.778 81.463108 85.207687 80.58746 85.207687 curveto
80.024307 85.207687 79.549047 84.961919 79.161678 84.470383 curveto
78.80035 84.011399 78.619686 83.493822 78.619686 82.917648 curveto
78.619686 82.263354 78.805233 81.713225 79.176327 81.267258 curveto
79.573461 80.792002 80.092666 80.554372 80.733944 80.554367 curveto
81.245009 80.554372 81.65842 80.708994 81.974178 81.018234 curveto
82.293185 81.327483 82.45269 81.739266 82.452694 82.253586 curveto
79.298397 82.253586 lineto
79.28212 82.390307 79.273982 82.530281 79.273983 82.673508 curveto
79.273982 83.158536 79.422094 83.604499 79.718319 84.011398 curveto
80.043838 84.463873 80.440973 84.69011 80.909725 84.690109 curveto
81.521701 84.69011 81.987196 84.415045 82.30621 83.864914 curveto
82.345272 83.864914 lineto
82.416883 83.86166 82.470594 83.879564 82.506405 83.918625 curveto
81.705624 81.975266 moveto
81.6926 81.643238 81.57704 81.373056 81.358944 81.164719 curveto
81.140842 80.953134 80.86415 80.84734 80.528866 80.847336 curveto
80.252171 80.84734 80.006403 80.96941 79.791561 81.213547 curveto
79.602758 81.428394 79.474177 81.6823 79.405819 81.975266 curveto
81.705624 81.975266 lineto
fill
grestore
gsave
0 0 0 setrgbcolor
newpath
191.23651 83.559509 moveto
190.85077 85.253845 lineto
185.35272 85.253845 lineto
185.35272 85.073181 lineto
186.13072 85.063416 186.51971 84.842062 186.51971 84.409119 curveto
186.51971 79.155212 lineto
186.51971 78.858995 186.41229 78.66531 186.19745 78.574158 curveto
186.07375 78.525336 185.83124 78.500922 185.46991 78.500916 curveto
185.46991 78.330017 lineto
188.5705 78.330017 lineto
188.5705 78.486267 lineto
188.49725 78.481384 lineto
188.2466 78.478136 188.01548 78.526964 187.80389 78.627869 curveto
187.53696 78.754828 187.4035 78.932237 187.4035 79.160095 curveto
187.4035 84.321228 lineto
187.4035 84.682557 187.54185 84.863221 187.81854 84.86322 curveto
189.88397 84.86322 lineto
190.20298 84.863221 190.46828 84.716736 190.67987 84.423767 curveto
190.85239 84.189393 190.97121 83.894797 191.03632 83.539978 curveto
191.23651 83.559509 lineto
fill
grestore
gsave
0 0 0 setrgbcolor
newpath
196.58807 84.653259 moveto
196.57831 84.853455 lineto
195.09882 85.273376 lineto
195.09882 84.39447 lineto
194.49009 84.999939 193.82765 85.302673 193.11151 85.302673 curveto
192.40187 85.302673 192.04706 84.819275 192.04706 83.852478 curveto
192.04706 81.694275 lineto
192.04706 81.495711 191.9787 81.339461 191.84198 81.225525 curveto
191.70526 81.111597 191.53599 81.054631 191.33417 81.054626 curveto
191.31464 80.854431 lineto
192.76971 80.595642 lineto
192.76971 83.774353 lineto
192.76971 84.054302 192.85923 84.291932 193.03827 84.487244 curveto
193.22056 84.692322 193.45005 84.794861 193.72675 84.794861 curveto
194.00344 84.794861 194.46079 84.563742 195.09882 84.101501 curveto
195.09882 81.415955 lineto
195.09881 81.171818 194.78468 81.031844 194.15643 80.996033 curveto
194.15643 80.8349 lineto
195.79706 80.532166 lineto
195.79706 84.345642 lineto
195.79705 84.589783 195.93377 84.711854 196.20721 84.711853 curveto
196.27882 84.711854 196.40578 84.692322 196.58807 84.653259 curveto
fill
grestore
gsave
0 0 0 setrgbcolor
newpath
202.4035 85.253845 moveto
200.20135 85.253845 lineto
200.20135 85.034119 lineto
200.65057 85.034119 200.87518 84.814393 200.87518 84.374939 curveto
200.87518 82.153259 lineto
200.87518 81.87006 200.81659 81.627547 200.6994 81.42572 curveto
200.55617 81.184839 200.35272 81.064396 200.08905 81.064392 curveto
199.66913 81.064396 199.1548 81.284123 198.54608 81.723572 curveto
198.54608 84.511658 lineto
198.54608 84.830669 198.79673 85.004822 199.29803 85.034119 curveto
199.26874 85.253845 lineto
197.15936 85.253845 lineto
197.13983 85.214783 lineto
197.16913 85.063416 lineto
197.37421 85.063416 197.54022 84.980408 197.66718 84.814392 curveto
197.78436 84.664653 197.84296 84.483989 197.84296 84.2724 curveto
197.84296 81.58197 lineto
197.84296 81.464787 197.74042 81.372013 197.53534 81.30365 curveto
197.5093 81.293888 197.35305 81.258081 197.06659 81.196228 curveto
197.06659 81.074158 lineto
197.21307 81.054631 197.44582 80.976506 197.76483 80.839783 curveto
198.06431 80.709579 198.2645 80.603785 198.36542 80.5224 curveto
198.54608 80.654236 lineto
198.54608 81.533142 lineto
199.50637 80.927678 200.1688 80.624944 200.53339 80.624939 curveto
200.8882 80.624944 201.16326 80.786076 201.35858 81.108337 curveto
201.52459 81.378524 201.6076 81.700789 201.6076 82.075134 curveto
201.6076 84.614197 lineto
201.6076 84.881124 201.86313 85.014588 202.37421 85.014587 curveto
202.4035 85.253845 lineto
fill
grestore
gsave
0 0 0 setrgbcolor
newpath
206.4953 84.052673 moveto
206.09165 84.912049 205.452 85.341736 204.57635 85.341736 curveto
204.0132 85.341736 203.53794 85.095968 203.15057 84.604431 curveto
202.78925 84.145448 202.60858 83.62787 202.60858 83.051697 curveto
202.60858 82.397403 202.79413 81.847273 203.16522 81.401306 curveto
203.56236 80.92605 204.08156 80.68842 204.72284 80.688416 curveto
205.2339 80.68842 205.64732 80.843042 205.96307 81.152283 curveto
206.28208 81.461531 206.44159 81.873315 206.44159 82.387634 curveto
203.28729 82.387634 lineto
203.27102 82.524356 203.26288 82.66433 203.26288 82.807556 curveto
203.26288 83.292584 203.41099 83.738547 203.70721 84.145447 curveto
204.03273 84.597921 204.42987 84.824158 204.89862 84.824158 curveto
205.5106 84.824158 205.97609 84.549093 206.2951 83.998962 curveto
206.33417 83.998962 lineto
206.40578 83.995708 206.45949 84.013612 206.4953 84.052673 curveto
205.69452 82.109314 moveto
205.6815 81.777286 205.56594 81.507104 205.34784 81.298767 curveto
205.12974 81.087183 204.85305 80.981389 204.51776 80.981384 curveto
204.24107 80.981389 203.9953 81.103459 203.78046 81.347595 curveto
203.59165 81.562443 203.46307 81.816349 203.39471 82.109314 curveto
205.69452 82.109314 lineto
fill
grestore
0 0 0 setrgbcolor
[1.6 1.6] 0 setdash
0.2 setlinewidth
0 setlinejoin
0 setlinecap
newpath
69.972493 66.755368 moveto
195.44041 66.755368 lineto
stroke
gsave [0.16 0 0 0.16 71.156493 66.915368] concat
gsave
0 0 0 setrgbcolor
newpath
-2.5 -1 moveto
-2.5 1.76 -4.74 4 -7.5 4 curveto
-10.26 4 -12.5 1.76 -12.5 -1 curveto
-12.5 -3.76 -10.26 -6 -7.5 -6 curveto
-4.74 -6 -2.5 -3.76 -2.5 -1 curveto
closepath
eofill
grestore
0 0 0 setrgbcolor
[] 0 setdash
1.25 setlinewidth
0 setlinejoin
0 setlinecap
newpath
-2.5 -1 moveto
-2.5 1.76 -4.74 4 -7.5 4 curveto
-10.26 4 -12.5 1.76 -12.5 -1 curveto
-12.5 -3.76 -10.26 -6 -7.5 -6 curveto
-4.74 -6 -2.5 -3.76 -2.5 -1 curveto
closepath
stroke
grestore
gsave [0.080000001 0 0 0.080000001 196.03241 66.835368] concat
gsave
0 0 0 setrgbcolor
newpath
-2.5 -1 moveto
-2.5 1.76 -4.74 4 -7.5 4 curveto
-10.26 4 -12.5 1.76 -12.5 -1 curveto
-12.5 -3.76 -10.26 -6 -7.5 -6 curveto
-4.74 -6 -2.5 -3.76 -2.5 -1 curveto
closepath
eofill
grestore
0 0 0 setrgbcolor
[] 0 setdash
1.25 setlinewidth
0 setlinejoin
0 setlinecap
newpath
-2.5 -1 moveto
-2.5 1.76 -4.74 4 -7.5 4 curveto
-10.26 4 -12.5 1.76 -12.5 -1 curveto
-12.5 -3.76 -10.26 -6 -7.5 -6 curveto
-4.74 -6 -2.5 -3.76 -2.5 -1 curveto
closepath
stroke
grestore
gsave
0 0 0 setrgbcolor
newpath
66.465542 66.285965 moveto
66.465535 67.356931 66.141642 68.243975 65.493862 68.947098 curveto
64.826539 69.669754 63.962282 70.031082 62.901089 70.031082 curveto
61.859419 70.031082 61.006556 69.739741 60.342495 69.157059 curveto
59.642625 68.545081 59.29269 67.728025 59.29269 66.705887 curveto
59.29269 65.634928 59.613328 64.747884 60.254604 64.044754 curveto
60.918665 63.322104 61.781295 62.960777 62.842495 62.96077 curveto
63.884157 62.960777 64.740276 63.252118 65.410854 63.834793 curveto
66.113972 64.446778 66.465535 65.263834 66.465542 66.285965 curveto
65.479214 66.647293 moveto
65.479207 65.768391 65.257854 65.003418 64.815151 64.352371 curveto
64.310589 63.61019 63.638389 63.239097 62.79855 63.23909 curveto
61.958703 63.239097 61.320683 63.567872 60.884487 64.225418 curveto
60.513392 64.788574 60.327845 65.512857 60.327847 66.39827 curveto
60.327845 67.270668 60.544317 68.024248 60.977261 68.659012 curveto
61.47205 69.381669 62.136112 69.742996 62.969448 69.742996 curveto
63.815798 69.742996 64.460328 69.428869 64.903042 68.800613 curveto
65.28715 68.250485 65.479207 67.532712 65.479214 66.647293 curveto
fill
grestore
gsave [0.279641 0 0 0.595419 85.04435 32.32962] concat
gsave
0 0.95686275 1 setrgbcolor
newpath
71.267681 58.846415 moveto
69.850868 58.185 69.97984 57.165535 71.555564 56.570824 curveto
73.131288 55.976112 75.560013 56.030248 76.976826 56.691663 curveto
78.393639 57.353078 78.264667 58.372543 76.688943 58.967255 curveto
75.134892 59.553786 72.75437 59.511544 71.323797 58.87205 curveto
eofill
grestore
0 0.95686275 1 setrgbcolor
[] 0 setdash
0.20299999 setlinewidth
0 setlinejoin
1 setlinecap
newpath
71.267681 58.846415 moveto
69.850868 58.185 69.97984 57.165535 71.555564 56.570824 curveto
73.131288 55.976112 75.560013 56.030248 76.976826 56.691663 curveto
78.393639 57.353078 78.264667 58.372543 76.688943 58.967255 curveto
75.134892 59.553786 72.75437 59.511544 71.323797 58.87205 curveto
stroke
grestore
gsave [0.279641 0 0 0.595419 48.98368 -4.337557] concat
gsave
0 0.95686275 1 setrgbcolor
newpath
71.267681 58.846415 moveto
69.850868 58.185 69.97984 57.165535 71.555564 56.570824 curveto
73.131288 55.976112 75.560013 56.030248 76.976826 56.691663 curveto
78.393639 57.353078 78.264667 58.372543 76.688943 58.967255 curveto
75.134892 59.553786 72.75437 59.511544 71.323797 58.87205 curveto
eofill
grestore
0 0.95686275 1 setrgbcolor
[] 0 setdash
0.20299999 setlinewidth
0 setlinejoin
1 setlinecap
newpath
71.267681 58.846415 moveto
69.850868 58.185 69.97984 57.165535 71.555564 56.570824 curveto
73.131288 55.976112 75.560013 56.030248 76.976826 56.691663 curveto
78.393639 57.353078 78.264667 58.372543 76.688943 58.967255 curveto
75.134892 59.553786 72.75437 59.511544 71.323797 58.87205 curveto
stroke
grestore
gsave
0 0 0 setrgbcolor
newpath
120.20804 60.614624 moveto
120.20803 61.242884 119.92971 61.771854 119.37308 62.201538 curveto
118.86201 62.595421 118.28258 62.792361 117.6348 62.792358 curveto
117.41344 62.792361 117.11722 62.743533 116.74612 62.645874 curveto
116.74124 64.672241 lineto
116.74124 64.968466 116.8568 65.193075 117.08792 65.346069 curveto
117.28974 65.479533 117.54365 65.538127 117.84964 65.521851 curveto
117.88382 65.658569 lineto
117.87894 65.707397 lineto
114.91019 65.707397 lineto
114.93948 65.492554 lineto
114.99319 65.492554 lineto
115.32523 65.495809 115.55634 65.432333 115.68655 65.302124 curveto
115.82002 65.168661 115.88675 64.935914 115.88675 64.603882 curveto
115.88675 59.579468 lineto
115.88675 59.146532 115.57099 58.931688 114.93948 58.934937 curveto
114.93948 58.754272 lineto
115.39196 58.69243 116.05765 58.661506 116.93655 58.661499 curveto
117.91637 58.661506 118.63902 58.754279 119.10452 58.939819 curveto
119.84019 59.232795 120.20803 59.791062 120.20804 60.614624 curveto
119.18265 60.614624 moveto
119.18264 60.142624 119.03941 59.742234 118.75296 59.413452 curveto
118.45348 59.068407 118.07099 58.895881 117.6055 58.895874 curveto
117.49482 58.895881 117.35159 58.908902 117.17581 58.934937 curveto
116.95771 58.96424 116.81448 58.982144 116.74612 58.988647 curveto
116.74612 62.382202 lineto
116.96748 62.444054 117.29462 62.474979 117.72757 62.474976 curveto
118.23863 62.474979 118.61949 62.286177 118.87015 61.908569 curveto
119.07848 61.589563 119.18264 61.158248 119.18265 60.614624 curveto
fill
grestore
gsave
0 0 0 setrgbcolor
newpath
72.085175 22.009117 moveto
72.085169 22.637377 71.806849 23.166348 71.250214 23.596031 curveto
70.739142 23.989914 70.159715 24.186854 69.511932 24.186852 curveto
69.290576 24.186854 68.994352 24.138026 68.62326 24.040367 curveto
68.618378 26.066734 lineto
68.618376 26.362959 68.733935 26.587568 68.965057 26.740562 curveto
69.166878 26.874026 69.420784 26.93262 69.726776 26.916344 curveto
69.760956 27.053062 lineto
69.756073 27.101891 lineto
66.787323 27.101891 lineto
66.81662 26.887047 lineto
66.870331 26.887047 lineto
67.202361 26.890302 67.433481 26.826826 67.56369 26.696617 curveto
67.697153 26.563154 67.763884 26.330407 67.763885 25.998375 curveto
67.763885 20.973961 lineto
67.763884 20.541025 67.448129 20.326181 66.81662 20.32943 curveto
66.81662 20.148766 lineto
67.269093 20.086924 67.934783 20.055999 68.81369 20.055992 curveto
69.793505 20.055999 70.51616 20.148772 70.981659 20.334312 curveto
71.717331 20.627288 72.085169 21.185555 72.085175 22.009117 curveto
71.059784 22.009117 moveto
71.059779 21.537117 70.91655 21.136727 70.630096 20.807945 curveto
70.330614 20.4629 69.948127 20.290374 69.482635 20.290367 curveto
69.371956 20.290374 69.228727 20.303395 69.052948 20.32943 curveto
68.834847 20.358733 68.691618 20.376637 68.62326 20.383141 curveto
68.62326 23.776695 lineto
68.844612 23.838547 69.171761 23.869472 69.604706 23.869469 curveto
70.11577 23.869472 70.496629 23.68067 70.747284 23.303062 curveto
70.955613 22.984056 71.059779 22.552741 71.059784 22.009117 curveto
fill
grestore
gsave
0 0 0 setrgbcolor
newpath
73.740448 20.544273 moveto
73.740447 20.873056 73.689991 21.294605 73.589081 21.808922 curveto
73.462127 22.430671 73.388885 22.847338 73.369354 23.058922 curveto
73.242401 23.058922 lineto
73.222869 22.847338 73.151255 22.430671 73.027557 21.808922 curveto
72.92339 21.294605 72.871307 20.873056 72.871307 20.544273 curveto
72.871307 20.472665 72.925018 20.384775 73.03244 20.280602 curveto
73.143117 20.173187 73.234262 20.119476 73.305878 20.119469 curveto
73.377491 20.119476 73.467009 20.173187 73.574432 20.280602 curveto
73.685108 20.384775 73.740447 20.472665 73.740448 20.544273 curveto
fill
grestore
gsave [2.54769 0 0 2.077595 -104.6201 -61.33681] concat
0 0 0 setrgbcolor
[] 0 setdash
0.082119331 setlinewidth
1 setlinejoin
1 setlinecap
newpath
61.50735 49.293147 moveto
66.86331 44.09124 74.522134 45.410461 78.60294 52.237838 curveto
80.275619 55.036306 81.078103 58.031005 81.098067 61.549112 curveto
stroke
gsave [0.047126506 -0.045771022 0.045771022 0.047126506 62.096432 48.721009] concat
gsave
0 0 0 setrgbcolor
newpath
0 0 moveto
5 -5 lineto
-12.5 0 lineto
5 5 lineto
0 0 lineto
closepath
eofill
grestore
0 0 0 setrgbcolor
[] 0 setdash
1.25 setlinewidth
0 setlinejoin
0 setlinecap
newpath
0 0 moveto
5 -5 lineto
-12.5 0 lineto
5 5 lineto
0 0 lineto
closepath
stroke
grestore
grestore
gsave
0 0 0 setrgbcolor
newpath
59.374126 41.885834 moveto
59.364357 42.071385 59.263446 42.322036 59.071392 42.637787 curveto
58.667743 42.429457 58.389423 42.325291 58.236431 42.325287 curveto
58.041116 42.325291 57.868591 42.419692 57.718853 42.60849 curveto
57.604919 42.781019 57.492614 42.953545 57.381939 43.126068 curveto
57.381939 45.547943 lineto
57.381937 45.899506 57.601664 46.075287 58.041119 46.075287 curveto
58.083434 46.075287 58.143655 46.073659 58.221783 46.070404 curveto
58.299905 46.067149 58.355244 46.065521 58.387798 46.065521 curveto
58.40733 46.246185 lineto
55.990337 46.246185 lineto
55.990337 46.104584 lineto
56.449321 46.091563 56.678813 45.906016 56.678814 45.547943 curveto
56.678814 42.686615 lineto
56.678813 42.494561 56.444438 42.348077 55.975689 42.247162 curveto
55.975689 42.066498 lineto
56.262147 42.03395 56.66742 41.867934 57.191509 41.568451 curveto
57.381939 41.607513 lineto
57.381939 42.759857 lineto
57.772562 42.030695 58.120869 41.666112 58.426861 41.666107 curveto
58.583108 41.666112 58.898863 41.739354 59.374126 41.885834 curveto
fill
grestore
gsave
0 0 0 setrgbcolor
newpath
64.261822 44.019623 moveto
64.261817 44.696708 64.045346 45.246837 63.612408 45.670013 curveto
63.182717 46.093191 62.627704 46.304779 61.947369 46.304779 curveto
61.332133 46.304779 60.799907 46.088308 60.350689 45.655365 curveto
59.904725 45.219168 59.681744 44.69508 59.681744 44.083099 curveto
59.681744 43.383232 59.886821 42.813572 60.296978 42.374115 curveto
60.710388 41.934666 61.265401 41.71494 61.962017 41.714935 curveto
62.626077 41.71494 63.174579 41.933039 63.607525 42.369232 curveto
64.043718 42.805434 64.261817 43.355563 64.261822 44.019623 curveto
63.378033 44.44931 moveto
63.378029 43.804781 63.277118 43.266045 63.075298 42.833099 curveto
62.805113 42.253676 62.385191 41.963963 61.815533 41.963959 curveto
61.304463 41.963963 60.951274 42.169041 60.755962 42.579193 curveto
60.619243 42.865655 60.550883 43.29697 60.550884 43.873138 curveto
60.550883 44.400484 60.679464 44.875744 60.936626 45.29892 curveto
61.236104 45.790457 61.633239 46.036225 62.128033 46.036224 curveto
62.961363 46.036225 63.378029 45.507254 63.378033 44.44931 curveto
fill
grestore
gsave
0 0 0 setrgbcolor
newpath
67.474712 45.38681 moveto
67.184996 45.959727 66.786234 46.246185 66.278423 46.246185 curveto
65.975688 46.246185 65.721782 46.153412 65.516705 45.967865 curveto
65.30186 45.772553 65.194438 45.525157 65.194439 45.225677 curveto
65.194439 42.164154 lineto
64.720806 42.164154 lineto
64.647564 41.924896 lineto
65.002381 41.791437 65.26117 41.591242 65.423931 41.32431 curveto
65.544373 41.129003 65.651795 40.813248 65.746197 40.377045 curveto
65.917095 40.377045 lineto
65.917095 41.778412 lineto
67.474712 41.778412 lineto
67.269634 42.164154 lineto
65.917095 42.164154 lineto
65.917095 44.927826 lineto
65.917094 45.097098 66.004984 45.279389 66.180767 45.474701 curveto
66.356547 45.670014 66.529072 45.76767 66.698345 45.76767 curveto
66.812275 45.76767 66.953877 45.678152 67.12315 45.499115 curveto
67.295673 45.316824 67.381936 45.225679 67.381939 45.225677 curveto
67.44704 45.225679 67.477965 45.279389 67.474712 45.38681 curveto
fill
grestore
gsave
0 0 0 setrgbcolor
newpath
72.499126 45.757904 moveto
72.173601 45.995535 72.007586 46.117605 72.00108 46.124115 curveto
71.789487 46.254323 71.594175 46.319427 71.415142 46.319427 curveto
71.135191 46.319427 70.943134 46.106211 70.83897 45.679779 curveto
70.445088 45.966238 70.226989 46.12086 70.184673 46.143646 curveto
69.969828 46.264089 69.722432 46.32431 69.442486 46.32431 curveto
69.165792 46.32431 68.931417 46.229909 68.739361 46.041107 curveto
68.550558 45.84905 68.456157 45.616303 68.456158 45.342865 curveto
68.456157 45.001069 68.591248 44.721122 68.861431 44.503021 curveto
69.020935 44.37607 69.305766 44.227958 69.715923 44.058685 curveto
70.819439 43.604584 lineto
70.819439 42.877045 lineto
70.819436 42.619887 70.726663 42.403416 70.541119 42.227631 curveto
70.358825 42.051854 70.137471 41.963963 69.877056 41.963959 curveto
69.463643 41.963963 69.256938 42.183689 69.256939 42.623138 curveto
69.256938 42.652439 69.263448 42.691501 69.27647 42.740326 curveto
69.28949 42.789158 69.296 42.826592 69.296001 42.852631 curveto
69.296 42.973077 69.204854 43.080498 69.022564 43.174896 curveto
68.863058 43.259535 68.716574 43.301852 68.583111 43.301849 curveto
68.527772 43.301852 68.500103 43.256279 68.500103 43.165131 curveto
68.500103 42.732191 68.682394 42.377374 69.046978 42.100677 curveto
69.379008 41.846776 69.769633 41.719823 70.218853 41.719818 curveto
70.668069 41.719823 70.996845 41.80283 71.205181 41.968842 curveto
71.436298 42.151137 71.551857 42.460382 71.551861 42.896576 curveto
71.551861 45.411224 lineto
71.551857 45.691173 71.647886 45.831147 71.839947 45.831146 curveto
71.960386 45.831147 72.176857 45.740001 72.489361 45.557709 curveto
72.499126 45.757904 lineto
70.824322 45.352631 moveto
70.819439 43.887787 lineto
69.828228 44.322357 lineto
69.382263 44.517671 69.159282 44.831799 69.159283 45.26474 curveto
69.159282 45.450288 69.219503 45.598399 69.339947 45.709076 curveto
69.460388 45.819753 69.613383 45.875092 69.798931 45.875092 curveto
69.990986 45.875092 70.176533 45.821381 70.355572 45.713959 curveto
70.433694 45.665131 70.589944 45.544689 70.824322 45.352631 curveto
fill
grestore
gsave
0 0 0 setrgbcolor
newpath
75.365337 45.38681 moveto
75.075621 45.959727 74.676859 46.246185 74.169048 46.246185 curveto
73.866313 46.246185 73.612407 46.153412 73.40733 45.967865 curveto
73.192485 45.772553 73.085063 45.525157 73.085064 45.225677 curveto
73.085064 42.164154 lineto
72.611431 42.164154 lineto
72.538189 41.924896 lineto
72.893006 41.791437 73.151795 41.591242 73.314556 41.32431 curveto
73.434998 41.129003 73.54242 40.813248 73.636822 40.377045 curveto
73.80772 40.377045 lineto
73.80772 41.778412 lineto
75.365337 41.778412 lineto
75.160259 42.164154 lineto
73.80772 42.164154 lineto
73.80772 44.927826 lineto
73.807719 45.097098 73.895609 45.279389 74.071392 45.474701 curveto
74.247172 45.670014 74.419697 45.76767 74.58897 45.76767 curveto
74.7029 45.76767 74.844502 45.678152 75.013775 45.499115 curveto
75.186298 45.316824 75.272561 45.225679 75.272564 45.225677 curveto
75.337665 45.225679 75.36859 45.279389 75.365337 45.38681 curveto
fill
grestore
gsave
0 0 0 setrgbcolor
newpath
78.387798 46.246185 moveto
76.146587 46.246185 lineto
76.127056 46.207123 lineto
76.156353 46.055756 lineto
76.387472 46.055756 76.55186 46.023204 76.649517 45.958099 curveto
76.769959 45.87672 76.83018 45.72047 76.830181 45.489349 curveto
76.830181 42.57431 lineto
76.83018 42.336684 76.712993 42.217869 76.478619 42.217865 curveto
76.390728 42.217869 76.288189 42.232517 76.171001 42.26181 curveto
76.048931 42.066498 lineto
76.66742 41.893976 77.131287 41.710057 77.440533 41.51474 curveto
77.621197 41.646576 lineto
77.621197 45.503998 lineto
77.621195 45.823009 77.870218 45.997162 78.368267 46.026459 curveto
78.387798 46.246185 lineto
77.67979 39.996185 moveto
77.679789 40.136165 77.630961 40.256608 77.533306 40.357513 curveto
77.435648 40.455175 77.316833 40.504004 77.176861 40.503998 curveto
77.036886 40.504004 76.918071 40.455175 76.820415 40.357513 curveto
76.722758 40.256608 76.67393 40.136165 76.673931 39.996185 curveto
76.67393 39.856218 76.722758 39.737403 76.820415 39.63974 curveto
76.918071 39.54209 77.036886 39.493262 77.176861 39.493256 curveto
77.316833 39.493262 77.435648 39.54209 77.533306 39.63974 curveto
77.630961 39.737403 77.679789 39.856218 77.67979 39.996185 curveto
fill
grestore
gsave
0 0 0 setrgbcolor
newpath
83.265728 44.019623 moveto
83.265723 44.696708 83.049252 45.246837 82.616314 45.670013 curveto
82.186623 46.093191 81.63161 46.304779 80.951275 46.304779 curveto
80.336039 46.304779 79.803813 46.088308 79.354595 45.655365 curveto
78.908631 45.219168 78.68565 44.69508 78.68565 44.083099 curveto
78.68565 43.383232 78.890728 42.813572 79.300884 42.374115 curveto
79.714295 41.934666 80.269307 41.71494 80.965923 41.714935 curveto
81.629983 41.71494 82.178485 41.933039 82.611431 42.369232 curveto
83.047625 42.805434 83.265723 43.355563 83.265728 44.019623 curveto
82.381939 44.44931 moveto
82.381935 43.804781 82.281024 43.266045 82.079205 42.833099 curveto
81.809019 42.253676 81.389098 41.963963 80.819439 41.963959 curveto
80.30837 41.963963 79.95518 42.169041 79.759869 42.579193 curveto
79.623149 42.865655 79.55479 43.29697 79.55479 43.873138 curveto
79.55479 44.400484 79.68337 44.875744 79.940533 45.29892 curveto
80.24001 45.790457 80.637145 46.036225 81.131939 46.036224 curveto
81.965269 46.036225 82.381935 45.507254 82.381939 44.44931 curveto
fill
grestore
gsave
0 0 0 setrgbcolor
newpath
88.92979 46.246185 moveto
86.727642 46.246185 lineto
86.727642 46.026459 lineto
87.176857 46.026459 87.401466 45.806733 87.40147 45.367279 curveto
87.40147 43.145599 lineto
87.401466 42.8624 87.342873 42.619887 87.225689 42.41806 curveto
87.082456 42.177179 86.879006 42.056736 86.615337 42.056732 curveto
86.195413 42.056736 85.68109 42.276463 85.072369 42.715912 curveto
85.072369 45.503998 lineto
85.072367 45.823009 85.323018 45.997162 85.824322 46.026459 curveto
85.795025 46.246185 lineto
83.68565 46.246185 lineto
83.666119 46.207123 lineto
83.695415 46.055756 lineto
83.900493 46.055756 84.066509 45.972748 84.193462 45.806732 curveto
84.310649 45.656993 84.369243 45.476329 84.369244 45.26474 curveto
84.369244 42.57431 lineto
84.369243 42.457127 84.266704 42.364353 84.061626 42.29599 curveto
84.035584 42.286228 83.879334 42.250421 83.592876 42.188568 curveto
83.592876 42.066498 lineto
83.739361 42.046971 83.972108 41.968846 84.291119 41.832123 curveto
84.590597 41.701919 84.790792 41.596125 84.891705 41.51474 curveto
85.072369 41.646576 lineto
85.072369 42.525482 lineto
86.032653 41.920018 86.695087 41.617284 87.059673 41.617279 curveto
87.414487 41.617284 87.689552 41.778416 87.884869 42.100677 curveto
88.05088 42.370864 88.133887 42.693129 88.133892 43.067474 curveto
88.133892 45.606537 lineto
88.133887 45.873464 88.389421 46.006928 88.900494 46.006927 curveto
88.92979 46.246185 lineto
fill
grestore
gsave
0 0 0 setrgbcolor
newpath
61.009869 55.76767 moveto
60.781999 55.845795 60.552507 55.925548 60.321392 56.006927 curveto
60.057716 56.107839 59.839617 56.210378 59.667095 56.314545 curveto
59.637795 56.334076 59.60687 56.343841 59.574322 56.343842 curveto
59.515724 56.343841 59.47829 56.281993 59.462017 56.158295 curveto
59.448993 56.070404 59.445737 55.948334 59.452251 55.792084 curveto
59.465269 55.577241 59.471779 55.48935 59.471783 55.528412 curveto
59.198342 55.697683 58.924905 55.868582 58.65147 56.041107 curveto
58.351989 56.210378 58.036234 56.295013 57.704205 56.295013 curveto
57.186625 56.295013 56.758566 56.050873 56.420025 55.562592 curveto
56.11729 55.126395 55.965923 54.639742 55.965923 54.102631 curveto
55.965923 53.402764 56.171001 52.839613 56.581158 52.413177 curveto
57.062927 51.915135 57.614685 51.666112 58.236431 51.666107 curveto
58.750751 51.666112 59.162535 51.754002 59.471783 51.929779 curveto
59.471783 49.991302 lineto
59.471779 49.743913 59.291115 49.620215 58.92979 49.620209 curveto
58.926532 49.620215 58.820738 49.625098 58.612408 49.634857 curveto
58.612408 49.463959 lineto
59.116962 49.398861 59.624774 49.231218 60.135845 48.961029 curveto
60.135845 55.303802 lineto
60.135841 55.385184 60.168393 55.461681 60.233501 55.533295 curveto
60.298601 55.601655 60.370216 55.635834 60.448345 55.635834 curveto
60.513445 55.635834 60.607846 55.629324 60.731548 55.616302 curveto
60.855241 55.603282 60.948015 55.596772 61.009869 55.596771 curveto
61.009869 55.76767 lineto
59.471783 55.337982 moveto
59.471783 52.823334 lineto
59.24717 52.504327 59.038837 52.287856 58.846783 52.17392 curveto
58.631936 52.050226 58.338968 51.988377 57.967876 51.988373 curveto
57.50238 51.988377 57.162211 52.2374 56.947369 52.735443 curveto
56.794373 53.093519 56.717876 53.537855 56.717876 54.068451 curveto
56.717876 54.485119 56.846456 54.874116 57.103619 55.235443 curveto
57.38682 55.629324 57.728617 55.826264 58.129009 55.826263 curveto
58.405699 55.826264 58.85329 55.663504 59.471783 55.337982 curveto
fill
grestore
gsave
0 0 0 setrgbcolor
newpath
63.524517 56.246185 moveto
61.283306 56.246185 lineto
61.263775 56.207123 lineto
61.293072 56.055756 lineto
61.524191 56.055756 61.688579 56.023204 61.786236 55.958099 curveto
61.906678 55.87672 61.966899 55.72047 61.9669 55.489349 curveto
61.9669 52.57431 lineto
61.966899 52.336684 61.849712 52.217869 61.615337 52.217865 curveto
61.527446 52.217869 61.424907 52.232517 61.30772 52.26181 curveto
61.18565 52.066498 lineto
61.804139 51.893976 62.268005 51.710057 62.577251 51.51474 curveto
62.757915 51.646576 lineto
62.757915 55.503998 lineto
62.757914 55.823009 63.006937 55.997162 63.504986 56.026459 curveto
63.524517 56.246185 lineto
62.816509 49.996185 moveto
62.816508 50.136165 62.767679 50.256608 62.670025 50.357513 curveto
62.572367 50.455175 62.453552 50.504004 62.31358 50.503998 curveto
62.173605 50.504004 62.05479 50.455175 61.957134 50.357513 curveto
61.859477 50.256608 61.810649 50.136165 61.81065 49.996185 curveto
61.810649 49.856218 61.859477 49.737403 61.957134 49.63974 curveto
62.05479 49.54209 62.173605 49.493262 62.31358 49.493256 curveto
62.453552 49.493262 62.572367 49.54209 62.670025 49.63974 curveto
62.767679 49.737403 62.816508 49.856218 62.816509 49.996185 curveto
fill
grestore
gsave
0 0 0 setrgbcolor
newpath
69.012798 55.645599 moveto
69.003033 55.845795 lineto
67.52354 56.265717 lineto
67.52354 55.38681 lineto
66.914813 55.992279 66.252379 56.295013 65.536236 56.295013 curveto
64.826599 56.295013 64.471782 55.811615 64.471783 54.844818 curveto
64.471783 52.686615 lineto
64.471782 52.488051 64.403423 52.331801 64.266705 52.217865 curveto
64.129985 52.103937 63.960715 52.046971 63.758892 52.046967 curveto
63.739361 51.846771 lineto
65.194439 51.587982 lineto
65.194439 54.766693 lineto
65.194438 55.046642 65.283956 55.284272 65.462994 55.479584 curveto
65.645283 55.684662 65.874775 55.787201 66.15147 55.787201 curveto
66.42816 55.787201 66.885517 55.556082 67.52354 55.093842 curveto
67.52354 52.408295 lineto
67.523537 52.164158 67.209409 52.024184 66.581158 51.988373 curveto
66.581158 51.82724 lineto
68.221783 51.524506 lineto
68.221783 55.337982 lineto
68.221778 55.582123 68.358497 55.704194 68.631939 55.704193 curveto
68.703549 55.704194 68.830502 55.684662 69.012798 55.645599 curveto
fill
grestore
gsave
0 0 0 setrgbcolor
newpath
72.948345 51.885834 moveto
72.938576 52.071385 72.837665 52.322036 72.645611 52.637787 curveto
72.241962 52.429457 71.963642 52.325291 71.81065 52.325287 curveto
71.615335 52.325291 71.442809 52.419692 71.293072 52.60849 curveto
71.179138 52.781019 71.066833 52.953545 70.956158 53.126068 curveto
70.956158 55.547943 lineto
70.956156 55.899506 71.175883 56.075287 71.615337 56.075287 curveto
71.657653 56.075287 71.717874 56.073659 71.796001 56.070404 curveto
71.874124 56.067149 71.929463 56.065521 71.962017 56.065521 curveto
71.981548 56.246185 lineto
69.564556 56.246185 lineto
69.564556 56.104584 lineto
70.02354 56.091563 70.253032 55.906016 70.253033 55.547943 curveto
70.253033 52.686615 lineto
70.253032 52.494561 70.018657 52.348077 69.549908 52.247162 curveto
69.549908 52.066498 lineto
69.836366 52.03395 70.241639 51.867934 70.765728 51.568451 curveto
70.956158 51.607513 lineto
70.956158 52.759857 lineto
71.346781 52.030695 71.695088 51.666112 72.00108 51.666107 curveto
72.157327 51.666112 72.473082 51.739354 72.948345 51.885834 curveto
fill
grestore
gsave
0 0 0 setrgbcolor
newpath
78.558697 56.246185 moveto
76.356548 56.246185 lineto
76.356548 56.026459 lineto
76.805763 56.026459 77.030373 55.806733 77.030376 55.367279 curveto
77.030376 53.145599 lineto
77.030373 52.8624 76.971779 52.619887 76.854595 52.41806 curveto
76.711363 52.177179 76.507912 52.056736 76.244244 52.056732 curveto
75.824319 52.056736 75.309997 52.276463 74.701275 52.715912 curveto
74.701275 55.503998 lineto
74.701273 55.823009 74.951924 55.997162 75.453228 56.026459 curveto
75.423931 56.246185 lineto
73.314556 56.246185 lineto
73.295025 56.207123 lineto
73.324322 56.055756 lineto
73.5294 56.055756 73.695415 55.972748 73.822369 55.806732 curveto
73.939555 55.656993 73.998149 55.476329 73.99815 55.26474 curveto
73.99815 52.57431 lineto
73.998149 52.457127 73.89561 52.364353 73.690533 52.29599 curveto
73.664491 52.286228 73.508241 52.250421 73.221783 52.188568 curveto
73.221783 52.066498 lineto
73.368267 52.046971 73.601014 51.968846 73.920025 51.832123 curveto
74.219503 51.701919 74.419698 51.596125 74.520611 51.51474 curveto
74.701275 51.646576 lineto
74.701275 52.525482 lineto
75.661559 51.920018 76.323993 51.617284 76.68858 51.617279 curveto
77.043393 51.617284 77.318458 51.778416 77.513775 52.100677 curveto
77.679786 52.370864 77.762794 52.693129 77.762798 53.067474 curveto
77.762798 55.606537 lineto
77.762794 55.873464 78.018327 56.006928 78.5294 56.006927 curveto
78.558697 56.246185 lineto
fill
grestore
gsave
0 0 0 setrgbcolor
newpath
82.650494 55.045013 moveto
82.246844 55.904389 81.607196 56.334076 80.731548 56.334076 curveto
80.168396 56.334076 79.693136 56.088308 79.305767 55.596771 curveto
78.944439 55.137788 78.763775 54.62021 78.763775 54.044037 curveto
78.763775 53.389743 78.949321 52.839613 79.320415 52.393646 curveto
79.71755 51.91839 80.236755 51.68076 80.878033 51.680756 curveto
81.389098 51.68076 81.802509 51.835382 82.118267 52.144623 curveto
82.437274 52.453871 82.596779 52.865655 82.596783 53.379974 curveto
79.442486 53.379974 lineto
79.426209 53.516696 79.418071 53.65667 79.418072 53.799896 curveto
79.418071 54.284924 79.566183 54.730887 79.862408 55.137787 curveto
80.187927 55.590261 80.585062 55.816498 81.053814 55.816498 curveto
81.66579 55.816498 82.131284 55.541433 82.450298 54.991302 curveto
82.489361 54.991302 lineto
82.560972 54.988049 82.614682 55.005952 82.650494 55.045013 curveto
81.849712 53.101654 moveto
81.836688 52.769626 81.721129 52.499444 81.503033 52.291107 curveto
81.284931 52.079523 81.008239 51.973729 80.672955 51.973724 curveto
80.39626 51.973729 80.150492 52.095799 79.93565 52.339935 curveto
79.746847 52.554783 79.618266 52.808689 79.549908 53.101654 curveto
81.849712 53.101654 lineto
fill
grestore
gsave [0.279641 0 0 0.595419 13.59529 32.25725] concat
gsave
0 0.95686275 1 setrgbcolor
newpath
71.267681 58.846415 moveto
69.850868 58.185 69.97984 57.165535 71.555564 56.570824 curveto
73.131288 55.976112 75.560013 56.030248 76.976826 56.691663 curveto
78.393639 57.353078 78.264667 58.372543 76.688943 58.967255 curveto
75.134892 59.553786 72.75437 59.511544 71.323797 58.87205 curveto
eofill
grestore
0 0.95686275 1 setrgbcolor
[] 0 setdash
0.20299999 setlinewidth
0 setlinejoin
1 setlinecap
newpath
71.267681 58.846415 moveto
69.850868 58.185 69.97984 57.165535 71.555564 56.570824 curveto
73.131288 55.976112 75.560013 56.030248 76.976826 56.691663 curveto
78.393639 57.353078 78.264667 58.372543 76.688943 58.967255 curveto
75.134892 59.553786 72.75437 59.511544 71.323797 58.87205 curveto
stroke
grestore
gsave
0 0 0 setrgbcolor
newpath
23.694235 64.501991 moveto
23.694229 65.130251 23.415909 65.659222 22.859274 66.088905 curveto
22.348202 66.482789 21.768776 66.679729 21.120993 66.679726 curveto
20.899636 66.679729 20.603412 66.6309 20.232321 66.533241 curveto
20.227438 68.559608 lineto
20.227436 68.855833 20.342996 69.080442 20.574118 69.233437 curveto
20.775938 69.3669 21.029844 69.425494 21.335836 69.409218 curveto
21.370016 69.545937 lineto
21.365133 69.594765 lineto
18.396383 69.594765 lineto
18.42568 69.379921 lineto
18.479391 69.379921 lineto
18.811422 69.383176 19.042541 69.3197 19.17275 69.189491 curveto
19.306213 69.056028 19.372945 68.823281 19.372946 68.491249 curveto
19.372946 63.466835 lineto
19.372945 63.033899 19.05719 62.819055 18.42568 62.822304 curveto
18.42568 62.64164 lineto
18.878153 62.579798 19.543843 62.548873 20.42275 62.548866 curveto
21.402565 62.548873 22.125221 62.641647 22.590719 62.827187 curveto
23.326391 63.120162 23.694229 63.678429 23.694235 64.501991 curveto
22.668844 64.501991 moveto
22.66884 64.029992 22.525611 63.629601 22.239157 63.300819 curveto
21.939674 62.955774 21.557187 62.783248 21.091696 62.783241 curveto
20.981016 62.783248 20.837787 62.796269 20.662008 62.822304 curveto
20.443907 62.851607 20.300678 62.869511 20.232321 62.876015 curveto
20.232321 66.269569 lineto
20.453673 66.331422 20.780821 66.362346 21.213766 66.362343 curveto
21.72483 66.362346 22.105689 66.173544 22.356344 65.795937 curveto
22.564673 65.47693 22.66884 65.045616 22.668844 64.501991 curveto
fill
grestore
gsave
0 0 0 setrgbcolor
newpath
25.349508 63.037148 moveto
25.349507 63.36593 25.299051 63.787479 25.198141 64.301796 curveto
25.071187 64.923545 24.997945 65.340212 24.978415 65.551796 curveto
24.851461 65.551796 lineto
24.831929 65.340212 24.760315 64.923545 24.636618 64.301796 curveto
24.532451 63.787479 24.480367 63.36593 24.480368 63.037148 curveto
24.480367 62.96554 24.534078 62.877649 24.6415 62.773476 curveto
24.752177 62.666061 24.843323 62.61235 24.914938 62.612343 curveto
24.986552 62.61235 25.07607 62.666061 25.183493 62.773476 curveto
25.294169 62.877649 25.349507 62.96554 25.349508 63.037148 curveto
fill
grestore
gsave
0 0 0 setrgbcolor
newpath
27.322165 63.037148 moveto
27.322163 63.36593 27.271708 63.787479 27.170797 64.301796 curveto
27.043843 64.923545 26.970601 65.340212 26.951071 65.551796 curveto
26.824118 65.551796 lineto
26.804586 65.340212 26.732971 64.923545 26.609274 64.301796 curveto
26.505107 63.787479 26.453023 63.36593 26.453024 63.037148 curveto
26.453023 62.96554 26.506734 62.877649 26.614157 62.773476 curveto
26.724833 62.666061 26.815979 62.61235 26.887594 62.612343 curveto
26.959208 62.61235 27.048726 62.666061 27.156149 62.773476 curveto
27.266825 62.877649 27.322163 62.96554 27.322165 63.037148 curveto
fill
grestore
grestore
showpage
%%EOF
