%!PS-Adobe-3.0 EPSF-3.0
%%Creator: inkscape 0.44.1
%%Pages: 1
%%Orientation: Portrait
%%BoundingBox: 18 11 153 82
%%HiResBoundingBox: 18.036827 11.91784 152.20598 81.108877
%%DocumentMedia: plain 171 86 0 () ()
%%EndComments
%%Page: 1 1
0 86 translate
0.8 -0.8 scale
gsave [1 0 0 1 0 0] concat
0 0 0 setrgbcolor
[] 0 setdash
0.5 setlinewidth
0 setlinejoin
0 setlinecap
newpath
38.471465 9.249241 moveto
75.870557 91.15191 lineto
stroke
gsave
1 1 1 setrgbcolor
newpath
94.00973 51.581214 moveto
93.97138 49.752816 lineto
93.8408 47.947428 lineto
93.62564 46.172916 lineto
93.31826 44.421414 lineto
92.9265 42.700592 lineto
92.45784 41.010449 lineto
91.89715 39.358657 lineto
91.2749 37.76075 lineto
90.57576 36.18605 lineto
89.79224 34.65737 lineto
88.9395 33.166843 lineto
88.017533 31.730301 lineto
87.034206 30.332206 lineto
85.981849 28.995472 lineto
84.86007 27.704757 lineto
83.684797 26.490938 lineto
82.463309 25.315665 lineto
81.180264 24.209422 lineto
79.843725 23.149199 lineto
78.445434 22.158202 lineto
77.00899 21.236432 lineto
75.518463 20.38369 lineto
73.989783 19.592309 lineto
72.414887 18.89336 lineto
70.81698 18.255574 lineto
69.165384 17.702551 lineto
67.482912 17.233897 lineto
65.76209 16.84214 lineto
64.010587 16.534752 lineto
62.235879 16.319797 lineto
60.430687 16.189211 lineto
58.602289 16.166004 lineto
38.889533 16.166004 22.902799 32.14497 22.902799 51.865593 curveto
22.902799 71.577956 38.881863 87.56489 58.602289 87.56489 curveto
78.314849 87.56489 94.30925 71.585822 94.30925 51.865593 curveto
eofill
grestore
1 1 1 setrgbcolor
[] 0 setdash
0 setlinewidth
0 setlinejoin
0 setlinecap
newpath
94.00973 51.581214 moveto
93.97138 49.752816 lineto
93.8408 47.947428 lineto
93.62564 46.172916 lineto
93.31826 44.421414 lineto
92.9265 42.700592 lineto
92.45784 41.010449 lineto
91.89715 39.358657 lineto
91.2749 37.76075 lineto
90.57576 36.18605 lineto
89.79224 34.65737 lineto
88.9395 33.166843 lineto
88.017533 31.730301 lineto
87.034206 30.332206 lineto
85.981849 28.995472 lineto
84.86007 27.704757 lineto
83.684797 26.490938 lineto
82.463309 25.315665 lineto
81.180264 24.209422 lineto
79.843725 23.149199 lineto
78.445434 22.158202 lineto
77.00899 21.236432 lineto
75.518463 20.38369 lineto
73.989783 19.592309 lineto
72.414887 18.89336 lineto
70.81698 18.255574 lineto
69.165384 17.702551 lineto
67.482912 17.233897 lineto
65.76209 16.84214 lineto
64.010587 16.534752 lineto
62.235879 16.319797 lineto
60.430687 16.189211 lineto
58.602289 16.166004 lineto
38.889533 16.166004 22.902799 32.14497 22.902799 51.865593 curveto
22.902799 71.577956 38.881863 87.56489 58.602289 87.56489 curveto
78.314849 87.56489 94.30925 71.585822 94.30925 51.865593 curveto
94.24022 51.796366 lineto
94.14799 51.7118 lineto
94.00973 51.581214 lineto
closepath
stroke
0 0 0 setrgbcolor
[] 0 setdash
0.71352965 setlinewidth
0 setlinejoin
0 setlinecap
newpath
58.602289 16.166004 moveto
38.889706 16.083302 22.902799 32.14497 22.902799 51.865593 curveto
22.902799 71.577956 38.881863 87.56489 58.602289 87.56489 curveto
78.314849 87.56489 94.30925 71.585822 94.30925 51.865593 curveto
94.24022 51.796366 lineto
93.70403 32.091468 78.17314 16.300051 58.602289 16.166004 curveto
closepath
stroke
0 0 0 setrgbcolor
[] 0 setdash
0.3567884 setlinewidth
0 setlinejoin
0 setlinecap
newpath
27.236953 42.36158 moveto
27.075491 42.953149 lineto
26.921895 43.537049 lineto
26.783639 44.128618 lineto
26.653054 44.720188 lineto
26.522468 45.311561 lineto
26.414892 45.918667 lineto
26.307316 46.51004 lineto
26.230616 47.116949 lineto
26.15372 47.723858 lineto
26.084494 48.330768 lineto
26.030804 48.937874 lineto
25.992454 49.544587 lineto
25.961578 50.159166 lineto
25.938568 50.766075 lineto
25.938568 51.388325 lineto
25.938568 51.995234 lineto
25.938568 70.202124 40.350405 85.121161 58.557491 85.75875 curveto
stroke
0 0 0 setrgbcolor
[] 0 setdash
0.3567884 setlinewidth
0 setlinejoin
0 setlinecap
newpath
28.479012 46.079932 moveto
28.409983 46.686842 lineto
28.348426 47.309091 lineto
28.294737 47.916 lineto
28.256387 48.53825 lineto
28.217841 49.160499 lineto
28.194831 49.782748 lineto
28.194831 50.404998 lineto
28.194831 51.027444 lineto
28.194831 67.567004 40.086991 81.725536 56.388586 84.575611 curveto
stroke
0 0 0 setrgbcolor
[] 0 setdash
0.3567884 setlinewidth
0 setlinejoin
0 setlinecap
newpath
30.323968 52.480172 moveto
31.046123 65.20167 38.981769 76.417891 50.758683 81.365206 curveto
stroke
gsave [1 0 0 -1 50.669735 70.910828] concat
gsave
/newlatin1font {findfont dup length dict copy dup /Encoding ISOLatin1Encoding put definefont} def
/(Thryomanes-ISOLatin1) /(Thryomanes) newlatin1font
10 scalefont
setfont
0 0 0 setrgbcolor
newpath
0 0 moveto
(Terre) show
grestore
grestore
gsave [1 0 0 -1 65.951088 31.769121] concat
gsave
/(Thryomanes-ISOLatin1) findfont
10 scalefont
setfont
0 0 0 setrgbcolor
newpath
0 0 moveto
(S) show
grestore
grestore
gsave [1 0 0 -1 123.05508 12.332312] concat
gsave
/(Thryomanes-ISOLatin1) findfont
10 scalefont
setfont
0 0 0 setrgbcolor
newpath
0 0 moveto
(E) show
grestore
grestore
gsave [1 0 0 -1 79.221718 56.031616] concat
gsave
/(Thryomanes-ISOLatin1) findfont
10 scalefont
setfont
0 0 0 setrgbcolor
newpath
0 0 moveto
(S') show
grestore
grestore
0 0 0 setrgbcolor
[4 4] 0 setdash
0.5 setlinewidth
0 setlinejoin
0 setlinecap
newpath
89.94549 35.254344 moveto
31.903167 61.259447 lineto
stroke
0 0 0 setrgbcolor
[] 0 setdash
0.36084622 setlinewidth
0 setlinejoin
0 setlinecap
newpath
190.07704 18.364432 moveto
129.49188 18.364432 lineto
68.906721 18.364432 lineto
stroke
gsave [0.14433849 -1.7675783e-17 1.7675783e-17 0.14433849 130.93526 18.364432] concat
gsave
0 0 0 setrgbcolor
newpath
0 0 moveto
5 -5 lineto
-12.5 0 lineto
5 5 lineto
0 0 lineto
closepath
eofill
grestore
0 0 0 setrgbcolor
[] 0 setdash
1.25 setlinewidth
0 setlinejoin
0 setlinecap
newpath
0 0 moveto
5 -5 lineto
-12.5 0 lineto
5 5 lineto
0 0 lineto
closepath
stroke
grestore
gsave [0.14433849 -1.7675783e-17 1.7675783e-17 0.14433849 70.350106 18.364432] concat
gsave
0 0 0 setrgbcolor
newpath
0 0 moveto
5 -5 lineto
-12.5 0 lineto
5 5 lineto
0 0 lineto
closepath
eofill
grestore
0 0 0 setrgbcolor
[] 0 setdash
1.25 setlinewidth
0 setlinejoin
0 setlinecap
newpath
0 0 moveto
5 -5 lineto
-12.5 0 lineto
5 5 lineto
0 0 lineto
closepath
stroke
grestore
0 0 0 setrgbcolor
[] 0 setdash
0.3523483 setlinewidth
0 setlinejoin
0 setlinecap
newpath
190.0813 24.802391 moveto
135.38901 24.802391 lineto
80.696728 24.802391 lineto
stroke
gsave [0.14093932 -1.7259519e-17 1.7259519e-17 0.14093932 136.7984 24.802391] concat
gsave
0 0 0 setrgbcolor
newpath
0 0 moveto
5 -5 lineto
-12.5 0 lineto
5 5 lineto
0 0 lineto
closepath
eofill
grestore
0 0 0 setrgbcolor
[] 0 setdash
1.25 setlinewidth
0 setlinejoin
0 setlinecap
newpath
0 0 moveto
5 -5 lineto
-12.5 0 lineto
5 5 lineto
0 0 lineto
closepath
stroke
grestore
gsave [0.14093932 -1.7259519e-17 1.7259519e-17 0.14093932 82.106121 24.802391] concat
gsave
0 0 0 setrgbcolor
newpath
0 0 moveto
5 -5 lineto
-12.5 0 lineto
5 5 lineto
0 0 lineto
closepath
eofill
grestore
0 0 0 setrgbcolor
[] 0 setdash
1.25 setlinewidth
0 setlinejoin
0 setlinecap
newpath
0 0 moveto
5 -5 lineto
-12.5 0 lineto
5 5 lineto
0 0 lineto
closepath
stroke
grestore
0 0 0 setrgbcolor
[] 0 setdash
0.34263816 setlinewidth
0 setlinejoin
0 setlinecap
newpath
190.08615 48.801528 moveto
141.622 48.801528 lineto
93.15783 48.801528 lineto
stroke
gsave [0.13705527 -1.6783875e-17 1.6783875e-17 0.13705527 142.99255 48.801528] concat
gsave
0 0 0 setrgbcolor
newpath
0 0 moveto
5 -5 lineto
-12.5 0 lineto
5 5 lineto
0 0 lineto
closepath
eofill
grestore
0 0 0 setrgbcolor
[] 0 setdash
1.25 setlinewidth
0 setlinejoin
0 setlinecap
newpath
0 0 moveto
5 -5 lineto
-12.5 0 lineto
5 5 lineto
0 0 lineto
closepath
stroke
grestore
gsave [0.13705527 -1.6783875e-17 1.6783875e-17 0.13705527 94.528383 48.801528] concat
gsave
0 0 0 setrgbcolor
newpath
0 0 moveto
5 -5 lineto
-12.5 0 lineto
5 5 lineto
0 0 lineto
closepath
eofill
grestore
0 0 0 setrgbcolor
[] 0 setdash
1.25 setlinewidth
0 setlinejoin
0 setlinecap
newpath
0 0 moveto
5 -5 lineto
-12.5 0 lineto
5 5 lineto
0 0 lineto
closepath
stroke
grestore
0 0 0 setrgbcolor
[] 0 setdash
0.34222522 setlinewidth
0 setlinejoin
0 setlinecap
newpath
190.08636 55.23578 moveto
141.75569 55.23578 lineto
93.42502 55.23578 lineto
stroke
gsave [0.13689009 -1.6763647e-17 1.6763647e-17 0.13689009 143.12459 55.23578] concat
gsave
0 0 0 setrgbcolor
newpath
0 0 moveto
5 -5 lineto
-12.5 0 lineto
5 5 lineto
0 0 lineto
closepath
eofill
grestore
0 0 0 setrgbcolor
[] 0 setdash
1.25 setlinewidth
0 setlinejoin
0 setlinecap
newpath
0 0 moveto
5 -5 lineto
-12.5 0 lineto
5 5 lineto
0 0 lineto
closepath
stroke
grestore
gsave [0.13689009 -1.6763647e-17 1.6763647e-17 0.13689009 94.793921 55.23578] concat
gsave
0 0 0 setrgbcolor
newpath
0 0 moveto
5 -5 lineto
-12.5 0 lineto
5 5 lineto
0 0 lineto
closepath
eofill
grestore
0 0 0 setrgbcolor
[] 0 setdash
1.25 setlinewidth
0 setlinejoin
0 setlinecap
newpath
0 0 moveto
5 -5 lineto
-12.5 0 lineto
5 5 lineto
0 0 lineto
closepath
stroke
grestore
gsave [1 0 0 1 -11.39399 -14.20897] concat
gsave
1 1 1 setrgbcolor
newpath
133.87431 29.719807 moveto
140.5334 30.911204 lineto
140.5334 41.861249 lineto
133.87054 40.565925 lineto
133.87431 29.719807 lineto
closepath
eofill
grestore
0 0 0 setrgbcolor
[] 0 setdash
0.28065643 setlinewidth
0 setlinejoin
0 setlinecap
newpath
133.87431 29.719807 moveto
140.5334 30.911204 lineto
140.5334 41.861249 lineto
133.87054 40.565925 lineto
133.87431 29.719807 lineto
closepath
stroke
0 0 0 setrgbcolor
[] 0 setdash
0.35787401 setlinewidth
0 setlinejoin
0 setlinecap
newpath
133.8845 32.5561 moveto
137.01242 32.5561 lineto
stroke
0 0 0 setrgbcolor
[] 0 setdash
0.35787401 setlinewidth
0 setlinejoin
0 setlinecap
newpath
133.83711 39.001513 moveto
136.96503 39.001513 lineto
stroke
grestore
gsave [1 0 0 1 -3.351175 16.21968] concat
gsave
1 1 1 setrgbcolor
newpath
133.87431 29.719807 moveto
140.5334 30.911204 lineto
140.5334 41.861249 lineto
133.87054 40.565925 lineto
133.87431 29.719807 lineto
closepath
eofill
grestore
0 0 0 setrgbcolor
[] 0 setdash
0.28065643 setlinewidth
0 setlinejoin
0 setlinecap
newpath
133.87431 29.719807 moveto
140.5334 30.911204 lineto
140.5334 41.861249 lineto
133.87054 40.565925 lineto
133.87431 29.719807 lineto
closepath
stroke
0 0 0 setrgbcolor
[] 0 setdash
0.35787401 setlinewidth
0 setlinejoin
0 setlinecap
newpath
133.8845 32.5561 moveto
137.01242 32.5561 lineto
stroke
0 0 0 setrgbcolor
[] 0 setdash
0.35787401 setlinewidth
0 setlinejoin
0 setlinecap
newpath
133.83711 39.001513 moveto
136.96503 39.001513 lineto
stroke
grestore
gsave [1 0 0 -1 130.82979 42.626915] concat
gsave
/(Thryomanes-ISOLatin1) findfont
10 scalefont
setfont
0 0 0 setrgbcolor
newpath
0 0 moveto
(E) show
grestore
grestore
0 0 0 setrgbcolor
[] 0 setdash
0.35787401 setlinewidth
0 setlinejoin
0 setlinecap
newpath
67.559647 17.426104 moveto
61.125395 17.292057 lineto
61.125395 17.292057 74.90533 20.534556 81.76862 28.149858 curveto
81.830732 28.218775 84.985747 28.149858 84.985747 28.149858 curveto
stroke
0 0 0 setrgbcolor
[] 0 setdash
0.35787401 setlinewidth
0 setlinejoin
0 setlinecap
newpath
93.6988 47.050474 moveto
91.28595 46.916427 lineto
91.28595 46.916427 93.05744 53.396543 91.41999 57.774228 curveto
91.38846 57.858528 93.96689 57.774228 93.96689 57.774228 curveto
stroke
gsave [1 0 0 -1 107.63967 81.634575] concat
gsave
/(Thryomanes-ISOLatin1) findfont
10 scalefont
setfont
0 0 0 setrgbcolor
newpath
0 0 moveto
(S>S') show
grestore
grestore
gsave [1 0 0 -1 80.160065 91.01786] concat
gsave
/(Thryomanes-ISOLatin1) findfont
10 scalefont
setfont
0 0 0 setrgbcolor
newpath
0 0 moveto
(Sud) show
grestore
grestore
gsave [1 0 0 -1 43.163109 12.19827] concat
gsave
/(Thryomanes-ISOLatin1) findfont
10 scalefont
setfont
0 0 0 setrgbcolor
newpath
0 0 moveto
(Nord) show
grestore
grestore
grestore
showpage
%%EOF
