\relax 
\@writefile{toc}{\contentsline {chapter}{\numberline {F}MRUA d\IeC {\'e}veloppements}{189}}
\@writefile{lof}{\addvspace {10\p@ }}
\@writefile{lot}{\addvspace {10\p@ }}
\@writefile{toc}{\contentsline {section}{\numberline {F.1}La position}{189}}
\newlabel{demo}{{F.1}{189}}
\@writefile{lof}{\contentsline {figure}{\numberline {F.1}{\ignorespaces \emph  {Discours concernant deux sciences nouvelles} de Galil\IeC {\'e}e}}{189}}
\newlabel{deuxsciences}{{F.1}{189}}
\newlabel{pratique}{{F.2}{189}}
\@writefile{toc}{\contentsline {section}{\numberline {F.2}Une autre relation bien pratique}{189}}
\@writefile{toc}{\contentsline {subsection}{\numberline {F.2.1}Cin\IeC {\'e}matique}{189}}
\newlabel{sanst}{{F.2}{190}}
\newlabel{demo2}{{F.2.1}{190}}
\@writefile{toc}{\contentsline {subsection}{\numberline {F.2.2}\IeC {\'E}nergie}{190}}
\@setckpt{Annexe-MRUA/Annexe-MRUA}{
\setcounter{page}{191}
\setcounter{equation}{2}
\setcounter{enumi}{2}
\setcounter{enumii}{0}
\setcounter{enumiii}{0}
\setcounter{enumiv}{0}
\setcounter{footnote}{0}
\setcounter{mpfootnote}{0}
\setcounter{part}{0}
\setcounter{chapter}{6}
\setcounter{section}{2}
\setcounter{subsection}{2}
\setcounter{subsubsection}{0}
\setcounter{paragraph}{0}
\setcounter{subparagraph}{0}
\setcounter{figure}{1}
\setcounter{table}{0}
\setcounter{NAT@ctr}{0}
\setcounter{parentequation}{0}
\setcounter{FancyVerbLine}{0}
\setcounter{float@type}{8}
\setcounter{fignum}{1}
\setcounter{r@tfl@t}{4}
\setcounter{subfigure}{0}
\setcounter{lofdepth}{1}
\setcounter{subtable}{0}
\setcounter{lotdepth}{1}
\setcounter{ContinuedFloat}{0}
\setcounter{endnote}{102}
\setcounter{OptionTest}{0}
\setcounter{DefaultLines}{2}
\setcounter{DefaultDepth}{0}
\setcounter{L@lines}{3}
\setcounter{L@depth}{0}
\setcounter{lstnumber}{1}
\setcounter{Solution}{0}
\setcounter{exc}{0}
\setcounter{Solution OS}{0}
\setcounter{exosc}{0}
\setcounter{lstlisting}{0}
}
