%!PS-Adobe-2.0 EPSF-2.0
%%Title: Ballon.fig
%%Creator: fig2dev Version 3.2 Patchlevel 5-alpha5
%%CreationDate: Wed Nov 16 17:47:29 2005
%%For: guyotv@debian ()
%%BoundingBox: 0 0 149 152
%Magnification: 1.0000
%%EndComments
/$F2psDict 200 dict def
$F2psDict begin
$F2psDict /mtrx matrix put
/col-1 {0 setgray} bind def
/col0 {0.000 0.000 0.000 srgb} bind def
/col1 {0.000 0.000 1.000 srgb} bind def
/col2 {0.000 1.000 0.000 srgb} bind def
/col3 {0.000 1.000 1.000 srgb} bind def
/col4 {1.000 0.000 0.000 srgb} bind def
/col5 {1.000 0.000 1.000 srgb} bind def
/col6 {1.000 1.000 0.000 srgb} bind def
/col7 {1.000 1.000 1.000 srgb} bind def
/col8 {0.000 0.000 0.560 srgb} bind def
/col9 {0.000 0.000 0.690 srgb} bind def
/col10 {0.000 0.000 0.820 srgb} bind def
/col11 {0.530 0.810 1.000 srgb} bind def
/col12 {0.000 0.560 0.000 srgb} bind def
/col13 {0.000 0.690 0.000 srgb} bind def
/col14 {0.000 0.820 0.000 srgb} bind def
/col15 {0.000 0.560 0.560 srgb} bind def
/col16 {0.000 0.690 0.690 srgb} bind def
/col17 {0.000 0.820 0.820 srgb} bind def
/col18 {0.560 0.000 0.000 srgb} bind def
/col19 {0.690 0.000 0.000 srgb} bind def
/col20 {0.820 0.000 0.000 srgb} bind def
/col21 {0.560 0.000 0.560 srgb} bind def
/col22 {0.690 0.000 0.690 srgb} bind def
/col23 {0.820 0.000 0.820 srgb} bind def
/col24 {0.500 0.190 0.000 srgb} bind def
/col25 {0.630 0.250 0.000 srgb} bind def
/col26 {0.750 0.380 0.000 srgb} bind def
/col27 {1.000 0.500 0.500 srgb} bind def
/col28 {1.000 0.630 0.630 srgb} bind def
/col29 {1.000 0.750 0.750 srgb} bind def
/col30 {1.000 0.880 0.880 srgb} bind def
/col31 {1.000 0.840 0.000 srgb} bind def

end
save
newpath 0 152 moveto 0 0 lineto 149 0 lineto 149 152 lineto closepath clip newpath
-13.4 156.7 translate
1 -1 scale

/cp {closepath} bind def
/ef {eofill} bind def
/gr {grestore} bind def
/gs {gsave} bind def
/sa {save} bind def
/rs {restore} bind def
/l {lineto} bind def
/m {moveto} bind def
/rm {rmoveto} bind def
/n {newpath} bind def
/s {stroke} bind def
/sh {show} bind def
/slc {setlinecap} bind def
/slj {setlinejoin} bind def
/slw {setlinewidth} bind def
/srgb {setrgbcolor} bind def
/rot {rotate} bind def
/sc {scale} bind def
/sd {setdash} bind def
/ff {findfont} bind def
/sf {setfont} bind def
/scf {scalefont} bind def
/sw {stringwidth} bind def
/tr {translate} bind def
/tnt {dup dup currentrgbcolor
  4 -2 roll dup 1 exch sub 3 -1 roll mul add
  4 -2 roll dup 1 exch sub 3 -1 roll mul add
  4 -2 roll dup 1 exch sub 3 -1 roll mul add srgb}
  bind def
/shd {dup dup currentrgbcolor 4 -2 roll mul 4 -2 roll mul
  4 -2 roll mul srgb} bind def
 /DrawEllipse {
	/endangle exch def
	/startangle exch def
	/yrad exch def
	/xrad exch def
	/y exch def
	/x exch def
	/savematrix mtrx currentmatrix def
	x y tr xrad yrad sc 0 0 1 startangle endangle arc
	closepath
	savematrix setmatrix
	} def

/$F2psBegin {$F2psDict begin /$F2psEnteredState save def} def
/$F2psEnd {$F2psEnteredState restore end} def

$F2psBegin
10 setmiterlimit
0 slj 0 slc
 0.06299 0.06299 sc
%
% Fig objects follow
%
% 
% here starts figure with depth 50
% Ellipse
7.500 slw
n 1305 630 542 542 0 360 DrawEllipse gs col0 s gr

% Polyline
0 slj
0 slc
n 1080 1485 m 1530 1485 l 1530 1620 l 1080 1620 l
 cp gs col0 s gr 
% Arc
n 605.2 2451.1 104.2 -62.0604 9.3517 arc
gs col0 s gr

% Arc
n 2440.3 2447.0 137.6 -138.0269 169.5292 arcn
gs col0 s gr

% Polyline
n 225 2475 m
 2565 2475 l gs col0 s gr 
% Polyline
n 1080 1485 m
 810 855 l gs col0 s gr 
% Polyline
n 1530 1485 m
 1800 855 l gs col0 s gr 
% Polyline
n 1530 1620 m
 2475 2475 l gs col0 s gr 
% Polyline
gs  clippath
807 2037 m 748 2138 l 786 2161 l 846 2060 l 846 2060 l 789 2114 l 807 2037 l cp
eoclip
n 1077 1618 m
 775 2137 l gs col0 s gr gr

% arrowhead
n 807 2037 m 789 2114 l 846 2060 l 819 2062 l 807 2037 l 
 cp gs 0.00 setgray ef gr  col0 s
% Polyline
gs  clippath
1870 1959 m 1957 2037 l 1987 2004 l 1900 1926 l 1900 1926 l 1941 1993 l 1870 1959 l cp
eoclip
n 1529 1623 m
 1961 2011 l gs col0 s gr gr

% arrowhead
n 1870 1959 m 1941 1993 l 1900 1926 l 1896 1952 l 1870 1959 l 
 cp gs 0.00 setgray ef gr  col0 s
% Polyline
gs  clippath
1284 2001 m 1284 2118 l 1329 2119 l 1329 2002 l 1329 2002 l 1307 2077 l 1284 2001 l cp
eoclip
n 1308 1558 m
 1307 2104 l gs col0 s gr gr

% arrowhead
n 1284 2001 m 1307 2077 l 1329 2002 l 1307 2017 l 1284 2001 l 
 cp gs 0.00 setgray ef gr  col0 s
% Polyline
n 1071 1621 m
 576 2476 l gs col0 s gr 
% Polyline
gs  clippath
1328 424 m 1328 307 l 1283 308 l 1283 425 l 1283 425 l 1306 350 l 1328 424 l cp
eoclip
n 1307 934 m
 1306 323 l gs col0 s gr gr

% arrowhead
n 1328 424 m 1306 350 l 1283 425 l 1306 409 l 1328 424 l 
 cp gs 0.00 setgray ef gr  col0 s
% Polyline
gs  clippath
2177 1669 m 2294 1669 l 2294 1624 l 2177 1624 l 2177 1624 l 2252 1647 l 2177 1669 l cp
1861 1263 m 1861 1146 l 1816 1146 l 1816 1263 l 1816 1263 l 1839 1188 l 1861 1263 l cp
eoclip
n 1839 1161 m 1839 1647 l
 2279 1647 l gs col0 s gr gr

% arrowhead
n 1861 1263 m 1839 1188 l 1816 1263 l 1839 1248 l 1861 1263 l 
 cp gs 0.00 setgray ef gr  col0 s
% arrowhead
n 2177 1669 m 2252 1647 l 2177 1624 l 2192 1647 l 2177 1669 l 
 cp gs 0.00 setgray ef gr  col0 s
% Polyline
gs  clippath
802 1693 m 857 1693 l 857 1677 l 802 1677 l 802 1677 l 821 1685 l 802 1692 l cp
eoclip
n 754 1685 m
 842 1685 l gs col0 s gr gr

% arrowhead
n 802 1692 m 821 1685 l 802 1677 l 806 1685 l 802 1692 l 
 cp gs 0.00 setgray ef gr  col0 s
% Polyline
gs  clippath
1410 1785 m 1465 1785 l 1465 1769 l 1410 1769 l 1410 1769 l 1429 1777 l 1410 1784 l cp
eoclip
n 1362 1777 m
 1450 1777 l gs col0 s gr gr

% arrowhead
n 1410 1784 m 1429 1777 l 1410 1769 l 1414 1777 l 1410 1784 l 
 cp gs 0.00 setgray ef gr  col0 s
% Polyline
gs  clippath
1896 1714 m 1951 1714 l 1951 1698 l 1896 1698 l 1896 1698 l 1915 1706 l 1896 1713 l cp
eoclip
n 1848 1706 m
 1936 1706 l gs col0 s gr gr

% arrowhead
n 1896 1713 m 1915 1706 l 1896 1698 l 1900 1706 l 1896 1713 l 
 cp gs 0.00 setgray ef gr  col0 s
% Polyline
gs  clippath
1410 566 m 1465 566 l 1465 550 l 1410 550 l 1410 550 l 1429 558 l 1410 565 l cp
eoclip
n 1362 558 m
 1450 558 l gs col0 s gr gr

% arrowhead
n 1410 565 m 1429 558 l 1410 550 l 1414 558 l 1410 565 l 
 cp gs 0.00 setgray ef gr  col0 s
/Symbol ff 158.75 scf sf
737 2418 m
gs 1 -1 sc (a) col0 sh gr
/Symbol ff 158.75 scf sf
2146 2414 m
gs 1 -1 sc (b) col0 sh gr
/Times-Roman ff 127.00 scf sf
834 1890 m
gs 1 -1 sc (1) col0 sh gr
/Times-Roman ff 158.75 scf sf
742 1847 m
gs 1 -1 sc (T) col0 sh gr
/Times-Roman ff 158.75 scf sf
1839 1877 m
gs 1 -1 sc (T) col0 sh gr
/Times-Roman ff 127.00 scf sf
1952 1927 m
gs 1 -1 sc (2) col0 sh gr
/Times-Roman ff 158.75 scf sf
1358 1941 m
gs 1 -1 sc (P) col0 sh gr
/Times-Roman ff 158.75 scf sf
1894 1219 m
gs 1 -1 sc (y) col0 sh gr
/Times-Roman ff 158.75 scf sf
2220 1589 m
gs 1 -1 sc (x) col0 sh gr
/Times-Roman ff 158.75 scf sf
1353 716 m
gs 1 -1 sc (F) col0 sh gr
% here ends figure;
$F2psEnd
rs
showpage
%%Trailer
%EOF
