%!PS-Adobe-2.0 EPSF-2.0
%%Title: Parabolesecurite.fig
%%Creator: fig2dev Version 3.2 Patchlevel 5-alpha5
%%CreationDate: Tue Nov 22 20:14:59 2005
%%For: guyotv@debian ()
%%BoundingBox: 0 0 161 85
%Magnification: 1.0000
%%EndComments
/$F2psDict 200 dict def
$F2psDict begin
$F2psDict /mtrx matrix put
/col-1 {0 setgray} bind def
/col0 {0.000 0.000 0.000 srgb} bind def
/col1 {0.000 0.000 1.000 srgb} bind def
/col2 {0.000 1.000 0.000 srgb} bind def
/col3 {0.000 1.000 1.000 srgb} bind def
/col4 {1.000 0.000 0.000 srgb} bind def
/col5 {1.000 0.000 1.000 srgb} bind def
/col6 {1.000 1.000 0.000 srgb} bind def
/col7 {1.000 1.000 1.000 srgb} bind def
/col8 {0.000 0.000 0.560 srgb} bind def
/col9 {0.000 0.000 0.690 srgb} bind def
/col10 {0.000 0.000 0.820 srgb} bind def
/col11 {0.530 0.810 1.000 srgb} bind def
/col12 {0.000 0.560 0.000 srgb} bind def
/col13 {0.000 0.690 0.000 srgb} bind def
/col14 {0.000 0.820 0.000 srgb} bind def
/col15 {0.000 0.560 0.560 srgb} bind def
/col16 {0.000 0.690 0.690 srgb} bind def
/col17 {0.000 0.820 0.820 srgb} bind def
/col18 {0.560 0.000 0.000 srgb} bind def
/col19 {0.690 0.000 0.000 srgb} bind def
/col20 {0.820 0.000 0.000 srgb} bind def
/col21 {0.560 0.000 0.560 srgb} bind def
/col22 {0.690 0.000 0.690 srgb} bind def
/col23 {0.820 0.000 0.820 srgb} bind def
/col24 {0.500 0.190 0.000 srgb} bind def
/col25 {0.630 0.250 0.000 srgb} bind def
/col26 {0.750 0.380 0.000 srgb} bind def
/col27 {1.000 0.500 0.500 srgb} bind def
/col28 {1.000 0.630 0.630 srgb} bind def
/col29 {1.000 0.750 0.750 srgb} bind def
/col30 {1.000 0.880 0.880 srgb} bind def
/col31 {1.000 0.840 0.000 srgb} bind def

end
save
newpath 0 85 moveto 0 0 lineto 161 0 lineto 161 85 lineto closepath clip newpath
-23.2 139.3 translate
1 -1 scale

/cp {closepath} bind def
/ef {eofill} bind def
/gr {grestore} bind def
/gs {gsave} bind def
/sa {save} bind def
/rs {restore} bind def
/l {lineto} bind def
/m {moveto} bind def
/rm {rmoveto} bind def
/n {newpath} bind def
/s {stroke} bind def
/sh {show} bind def
/slc {setlinecap} bind def
/slj {setlinejoin} bind def
/slw {setlinewidth} bind def
/srgb {setrgbcolor} bind def
/rot {rotate} bind def
/sc {scale} bind def
/sd {setdash} bind def
/ff {findfont} bind def
/sf {setfont} bind def
/scf {scalefont} bind def
/sw {stringwidth} bind def
/tr {translate} bind def
/tnt {dup dup currentrgbcolor
  4 -2 roll dup 1 exch sub 3 -1 roll mul add
  4 -2 roll dup 1 exch sub 3 -1 roll mul add
  4 -2 roll dup 1 exch sub 3 -1 roll mul add srgb}
  bind def
/shd {dup dup currentrgbcolor 4 -2 roll mul 4 -2 roll mul
  4 -2 roll mul srgb} bind def
/$F2psBegin {$F2psDict begin /$F2psEnteredState save def} def
/$F2psEnd {$F2psEnteredState restore end} def

$F2psBegin
10 setmiterlimit
0 slj 0 slc
 0.06299 0.06299 sc
%
% Fig objects follow
%
% 
% here starts figure with depth 50
% Polyline
0 slj
0 slc
7.500 slw
gs  clippath
2795 2199 m 2912 2199 l 2913 2154 l 2796 2154 l 2796 2154 l 2871 2177 l 2795 2199 l cp
425 980 m 425 863 l 380 863 l 380 980 l 380 980 l 403 905 l 425 980 l cp
eoclip
n 403 878 m 403 2176 l
 2898 2177 l gs col0 s gr gr

% arrowhead
n 425 980 m 403 905 l 380 980 l 403 965 l 425 980 l 
 cp gs 0.00 setgray ef gr  col0 s
% arrowhead
n 2795 2199 m 2871 2177 l 2796 2154 l 2811 2176 l 2795 2199 l 
 cp gs 0.00 setgray ef gr  col0 s
% Polyline
2 slj
n 408 2176 m 408 2174 l 408 2170 l 409 2162 l 409 2149 l 410 2132 l
 411 2109 l 413 2080 l 415 2046 l 417 2007 l 419 1964 l
 422 1917 l 425 1867 l 428 1814 l 431 1760 l 434 1705 l
 438 1650 l 441 1595 l 445 1541 l 449 1489 l 453 1438 l
 458 1389 l 462 1342 l 467 1299 l 471 1258 l 476 1220 l
 482 1187 l 487 1158 l 493 1134 l 499 1116 l 506 1104 l
 512 1100 l 518 1104 l 525 1116 l 531 1134 l 537 1159 l
 542 1188 l 547 1221 l 552 1259 l 557 1300 l 562 1344 l
 566 1390 l 570 1439 l 574 1490 l 578 1543 l 582 1597 l
 585 1652 l 589 1707 l 592 1762 l 595 1817 l 598 1869 l
 601 1920 l 603 1967 l 606 2010 l 608 2049 l 609 2083 l
 611 2111 l 612 2135 l 613 2152 l 613 2165 l 614 2173 l
 614 2177 l
 614 2179 l gs col0 s gr 
% Polyline
n 408 2174 m 408 2172 l 409 2168 l 409 2160 l 411 2147 l 412 2130 l
 414 2107 l 417 2079 l 420 2045 l 424 2006 l 429 1963 l
 434 1916 l 439 1866 l 445 1814 l 451 1760 l 457 1705 l
 464 1650 l 471 1596 l 478 1542 l 486 1490 l 493 1439 l
 502 1391 l 510 1344 l 519 1301 l 528 1260 l 538 1223 l
 548 1189 l 559 1160 l 570 1136 l 582 1118 l 594 1106 l
 607 1102 l 620 1106 l 632 1117 l 644 1136 l 655 1159 l
 666 1188 l 677 1222 l 687 1259 l 696 1299 l 705 1343 l
 714 1389 l 722 1437 l 730 1488 l 738 1540 l 745 1594 l
 753 1648 l 760 1703 l 766 1758 l 773 1811 l 779 1864 l
 784 1914 l 789 1960 l 794 2004 l 798 2042 l 801 2076 l
 804 2104 l 807 2127 l 808 2144 l 810 2157 l 810 2165 l
 811 2169 l
 811 2171 l gs col0 s gr 
% Polyline
n 406 2174 m 406 2172 l 407 2168 l 408 2160 l 410 2147 l 412 2130 l
 416 2107 l 420 2079 l 425 2046 l 431 2007 l 438 1965 l
 446 1918 l 454 1868 l 463 1816 l 472 1763 l 482 1709 l
 492 1654 l 503 1600 l 514 1547 l 525 1495 l 537 1444 l
 549 1396 l 562 1350 l 576 1307 l 590 1266 l 604 1229 l
 620 1196 l 636 1167 l 653 1144 l 671 1126 l 689 1114 l
 708 1110 l 727 1114 l 745 1126 l 763 1144 l 780 1167 l
 796 1196 l 811 1229 l 826 1266 l 840 1307 l 853 1350 l
 866 1396 l 878 1444 l 890 1495 l 901 1547 l 912 1600 l
 922 1654 l 933 1709 l 942 1763 l 951 1816 l 960 1868 l
 968 1918 l 976 1965 l 982 2007 l 988 2046 l 993 2079 l
 997 2107 l 1001 2130 l 1003 2147 l 1005 2160 l 1006 2168 l
 1007 2172 l
 1007 2174 l gs col0 s gr 
% Polyline
n 406 2171 m 406 2169 l 407 2165 l 409 2157 l 411 2145 l 414 2128 l
 419 2106 l 424 2078 l 431 2045 l 439 2007 l 448 1965 l
 457 1919 l 468 1870 l 480 1819 l 492 1767 l 505 1713 l
 518 1660 l 532 1607 l 546 1554 l 561 1503 l 577 1454 l
 593 1406 l 610 1361 l 627 1318 l 645 1279 l 665 1242 l
 685 1210 l 706 1181 l 729 1158 l 752 1140 l 776 1129 l
 801 1125 l 826 1129 l 850 1140 l 873 1158 l 896 1181 l
 917 1210 l 937 1242 l 957 1279 l 975 1318 l 993 1361 l
 1010 1406 l 1026 1454 l 1042 1503 l 1057 1554 l 1071 1607 l
 1085 1660 l 1099 1713 l 1111 1767 l 1124 1819 l 1135 1870 l
 1146 1919 l 1156 1965 l 1165 2007 l 1173 2045 l 1179 2078 l
 1185 2106 l 1190 2128 l 1193 2145 l 1195 2157 l 1197 2165 l
 1198 2169 l
 1198 2171 l gs col0 s gr 
% Polyline
n 403 2174 m 403 2172 l 404 2168 l 406 2160 l 409 2148 l 413 2131 l
 419 2109 l 426 2082 l 434 2050 l 444 2012 l 455 1971 l
 467 1925 l 480 1877 l 495 1827 l 510 1775 l 526 1722 l
 543 1669 l 560 1617 l 578 1565 l 597 1514 l 616 1466 l
 636 1419 l 657 1374 l 679 1332 l 702 1293 l 726 1257 l
 751 1225 l 778 1197 l 806 1174 l 835 1156 l 865 1145 l
 896 1141 l 927 1145 l 957 1156 l 986 1174 l 1014 1197 l
 1041 1225 l 1066 1257 l 1091 1293 l 1114 1332 l 1136 1374 l
 1157 1419 l 1177 1466 l 1196 1514 l 1215 1565 l 1233 1617 l
 1251 1669 l 1268 1722 l 1284 1775 l 1299 1827 l 1314 1877 l
 1327 1925 l 1339 1971 l 1351 2012 l 1360 2050 l 1369 2082 l
 1376 2109 l 1381 2131 l 1386 2148 l 1389 2160 l 1391 2168 l
 1392 2172 l
 1392 2174 l gs col0 s gr 
% Polyline
n 403 2171 m 403 2169 l 404 2166 l 406 2160 l 409 2150 l 414 2136 l
 419 2117 l 426 2094 l 435 2067 l 445 2035 l 457 1999 l
 470 1960 l 484 1918 l 499 1873 l 515 1827 l 533 1779 l
 551 1730 l 570 1682 l 589 1634 l 609 1586 l 630 1539 l
 651 1494 l 674 1451 l 697 1409 l 721 1369 l 746 1332 l
 772 1297 l 799 1266 l 828 1237 l 858 1213 l 889 1192 l
 922 1177 l 955 1167 l 989 1164 l 1023 1167 l 1056 1177 l
 1089 1192 l 1120 1213 l 1149 1237 l 1178 1266 l 1205 1297 l
 1230 1332 l 1255 1369 l 1278 1409 l 1301 1451 l 1322 1494 l
 1343 1539 l 1363 1586 l 1383 1634 l 1402 1682 l 1420 1730 l
 1437 1779 l 1454 1827 l 1470 1873 l 1484 1918 l 1498 1960 l
 1510 1999 l 1522 2035 l 1531 2067 l 1540 2094 l 1546 2117 l
 1552 2136 l 1556 2150 l 1559 2160 l 1561 2166 l 1562 2169 l

 1562 2171 l gs col0 s gr 
% Polyline
n 406 2174 m 407 2173 l 408 2169 l 410 2163 l 413 2153 l 418 2140 l
 424 2122 l 432 2099 l 442 2072 l 454 2041 l 467 2006 l
 481 1968 l 497 1927 l 514 1883 l 533 1838 l 552 1791 l
 573 1744 l 594 1696 l 616 1649 l 639 1603 l 662 1557 l
 687 1513 l 712 1470 l 738 1429 l 766 1391 l 794 1354 l
 824 1320 l 855 1289 l 888 1262 l 922 1238 l 958 1218 l
 995 1203 l 1033 1193 l 1072 1190 l 1111 1193 l 1149 1203 l
 1186 1218 l 1222 1237 l 1256 1261 l 1289 1289 l 1320 1320 l
 1350 1353 l 1378 1390 l 1405 1428 l 1431 1469 l 1456 1512 l
 1480 1556 l 1504 1601 l 1527 1648 l 1548 1695 l 1570 1742 l
 1590 1789 l 1609 1836 l 1627 1881 l 1645 1925 l 1660 1966 l
 1675 2005 l 1688 2040 l 1699 2071 l 1709 2097 l 1717 2120 l
 1723 2138 l 1728 2151 l 1731 2161 l 1733 2167 l 1734 2171 l

 1735 2172 l gs col0 s gr 
% Polyline
n 408 2171 m 409 2170 l 410 2166 l 412 2160 l 416 2151 l 422 2138 l
 429 2120 l 438 2098 l 449 2072 l 462 2042 l 477 2008 l
 493 1971 l 511 1931 l 531 1889 l 551 1844 l 573 1799 l
 596 1753 l 620 1707 l 645 1661 l 671 1616 l 698 1572 l
 725 1529 l 753 1488 l 783 1448 l 814 1411 l 846 1375 l
 879 1342 l 914 1312 l 951 1285 l 989 1262 l 1029 1243 l
 1071 1228 l 1113 1219 l 1157 1216 l 1201 1219 l 1243 1228 l
 1285 1243 l 1324 1262 l 1363 1285 l 1399 1312 l 1433 1342 l
 1466 1375 l 1498 1411 l 1528 1448 l 1557 1488 l 1585 1529 l
 1612 1572 l 1638 1616 l 1663 1661 l 1687 1707 l 1710 1753 l
 1733 1799 l 1754 1844 l 1774 1889 l 1793 1931 l 1811 1971 l
 1827 2008 l 1841 2042 l 1853 2072 l 1864 2098 l 1873 2120 l
 1880 2138 l 1885 2151 l 1889 2160 l 1891 2166 l 1892 2170 l

 1893 2171 l gs col0 s gr 
% Polyline
n 408 2174 m 409 2173 l 410 2170 l 413 2164 l 417 2155 l 424 2143 l
 432 2127 l 443 2107 l 456 2082 l 471 2054 l 488 2023 l
 507 1988 l 528 1951 l 551 1911 l 575 1870 l 601 1828 l
 628 1785 l 656 1742 l 685 1700 l 715 1658 l 747 1617 l
 779 1577 l 812 1538 l 847 1502 l 883 1467 l 921 1434 l
 960 1403 l 1002 1375 l 1045 1350 l 1091 1328 l 1138 1310 l
 1188 1297 l 1239 1288 l 1291 1285 l 1343 1288 l 1394 1296 l
 1444 1310 l 1492 1327 l 1537 1349 l 1581 1374 l 1623 1402 l
 1662 1432 l 1700 1465 l 1737 1500 l 1772 1537 l 1806 1575 l
 1838 1615 l 1870 1656 l 1901 1698 l 1930 1740 l 1959 1783 l
 1986 1826 l 2012 1868 l 2037 1909 l 2060 1948 l 2081 1985 l
 2101 2020 l 2118 2051 l 2134 2079 l 2147 2104 l 2157 2124 l
 2166 2140 l 2172 2152 l 2177 2161 l 2180 2167 l 2181 2170 l

 2182 2171 l gs col0 s gr 
% Polyline
n 408 2171 m 409 2170 l 410 2167 l 413 2161 l 418 2153 l 425 2141 l
 434 2126 l 446 2106 l 460 2083 l 476 2056 l 495 2026 l
 515 1993 l 538 1957 l 563 1919 l 589 1880 l 617 1839 l
 646 1798 l 677 1757 l 708 1716 l 741 1676 l 774 1636 l
 809 1598 l 845 1561 l 883 1526 l 922 1492 l 962 1461 l
 1005 1432 l 1049 1405 l 1096 1381 l 1145 1360 l 1196 1343 l
 1249 1330 l 1303 1322 l 1359 1319 l 1415 1322 l 1469 1330 l
 1522 1343 l 1573 1360 l 1622 1381 l 1668 1405 l 1713 1432 l
 1755 1461 l 1795 1493 l 1834 1526 l 1871 1562 l 1907 1599 l
 1941 1637 l 1975 1677 l 2007 1717 l 2038 1758 l 2068 1799 l
 2097 1840 l 2125 1880 l 2151 1920 l 2175 1958 l 2198 1993 l
 2218 2027 l 2237 2057 l 2253 2084 l 2267 2107 l 2278 2127 l
 2287 2142 l 2294 2154 l 2299 2162 l 2302 2168 l 2303 2171 l

 2304 2172 l gs col0 s gr 
% Polyline
n 410 2177 m 411 2176 l 412 2174 l 415 2170 l 420 2163 l 426 2154 l
 435 2142 l 445 2127 l 459 2108 l 474 2087 l 492 2062 l
 512 2036 l 534 2006 l 559 1975 l 584 1942 l 612 1908 l
 641 1874 l 671 1839 l 702 1803 l 735 1768 l 769 1734 l
 803 1700 l 839 1667 l 876 1635 l 914 1604 l 954 1574 l
 996 1546 l 1039 1520 l 1084 1496 l 1131 1474 l 1180 1454 l
 1232 1437 l 1285 1423 l 1341 1412 l 1398 1405 l 1456 1403 l
 1514 1405 l 1571 1412 l 1627 1422 l 1681 1436 l 1732 1453 l
 1782 1473 l 1829 1495 l 1874 1519 l 1917 1545 l 1959 1573 l
 1999 1602 l 2037 1633 l 2075 1665 l 2111 1698 l 2146 1732 l
 2179 1766 l 2212 1801 l 2244 1836 l 2274 1871 l 2303 1906 l
 2331 1940 l 2357 1973 l 2382 2004 l 2404 2033 l 2424 2060 l
 2442 2084 l 2458 2105 l 2471 2124 l 2482 2139 l 2491 2151 l
 2497 2160 l 2502 2167 l 2505 2171 l 2506 2173 l
 2507 2174 l gs col0 s gr 
% Polyline
n 407 2177 m 408 2176 l 409 2174 l 412 2170 l 417 2164 l 424 2155 l
 433 2144 l 444 2129 l 458 2112 l 474 2092 l 493 2069 l
 514 2043 l 537 2015 l 563 1986 l 590 1955 l 619 1923 l
 649 1890 l 681 1857 l 713 1824 l 747 1790 l 783 1758 l
 819 1725 l 856 1694 l 895 1664 l 935 1635 l 976 1607 l
 1019 1580 l 1064 1555 l 1111 1532 l 1160 1511 l 1211 1493 l
 1264 1476 l 1320 1463 l 1378 1453 l 1437 1446 l 1497 1444 l
 1557 1446 l 1616 1452 l 1674 1462 l 1729 1475 l 1782 1491 l
 1833 1510 l 1882 1530 l 1928 1553 l 1973 1578 l 2015 1604 l
 2056 1632 l 2096 1660 l 2134 1691 l 2171 1722 l 2207 1754 l
 2241 1786 l 2275 1819 l 2307 1852 l 2338 1885 l 2368 1918 l
 2396 1950 l 2423 1981 l 2448 2010 l 2471 2038 l 2492 2063 l
 2510 2086 l 2526 2106 l 2540 2123 l 2551 2138 l 2560 2149 l
 2566 2158 l 2571 2164 l 2574 2168 l 2575 2170 l
 2576 2171 l gs col0 s gr 
% Polyline
n 405 2177 m 406 2176 l 407 2174 l 410 2171 l 415 2165 l 422 2157 l
 431 2146 l 443 2132 l 457 2116 l 474 2097 l 493 2076 l
 515 2052 l 539 2027 l 565 1999 l 593 1970 l 622 1940 l
 653 1910 l 686 1879 l 719 1848 l 754 1817 l 790 1786 l
 828 1756 l 866 1727 l 906 1699 l 947 1672 l 989 1646 l
 1034 1621 l 1080 1598 l 1128 1576 l 1178 1557 l 1231 1539 l
 1286 1524 l 1343 1512 l 1402 1502 l 1463 1496 l 1525 1494 l
 1587 1496 l 1648 1502 l 1707 1511 l 1764 1523 l 1819 1538 l
 1871 1555 l 1921 1574 l 1969 1596 l 2015 1618 l 2059 1643 l
 2101 1669 l 2142 1696 l 2182 1724 l 2220 1753 l 2257 1782 l
 2292 1813 l 2327 1843 l 2360 1874 l 2393 1905 l 2423 1935 l
 2453 1965 l 2480 1994 l 2506 2021 l 2529 2047 l 2551 2070 l
 2570 2092 l 2586 2111 l 2600 2127 l 2612 2140 l 2621 2151 l
 2628 2159 l 2633 2165 l 2636 2168 l 2637 2170 l
 2638 2171 l gs col0 s gr 
% Polyline
n 405 2174 m 406 2173 l 407 2171 l 411 2168 l 416 2163 l 423 2155 l
 432 2145 l 444 2133 l 459 2117 l 476 2100 l 496 2080 l
 518 2058 l 542 2034 l 569 2008 l 598 1981 l 628 1953 l
 660 1925 l 693 1896 l 728 1867 l 763 1838 l 800 1810 l
 839 1782 l 878 1755 l 919 1728 l 961 1703 l 1004 1679 l
 1049 1656 l 1096 1634 l 1146 1614 l 1197 1596 l 1251 1580 l
 1307 1566 l 1365 1554 l 1426 1546 l 1488 1540 l 1551 1538 l
 1618 1540 l 1683 1546 l 1747 1556 l 1808 1568 l 1866 1584 l
 1922 1601 l 1975 1621 l 2025 1643 l 2073 1667 l 2120 1691 l
 2164 1718 l 2207 1745 l 2248 1774 l 2288 1803 l 2326 1833 l
 2364 1863 l 2399 1894 l 2434 1924 l 2467 1954 l 2498 1984 l
 2527 2012 l 2554 2038 l 2578 2063 l 2600 2086 l 2619 2106 l
 2636 2123 l 2649 2137 l 2660 2149 l 2668 2158 l 2674 2164 l
 2677 2168 l 2679 2170 l
 2680 2171 l gs col0 s gr 
% Polyline
n 406 2164 m 407 2163 l 409 2161 l 413 2158 l 419 2153 l 427 2145 l
 439 2136 l 453 2123 l 471 2109 l 491 2092 l 514 2073 l
 540 2052 l 569 2030 l 600 2006 l 633 1981 l 667 1956 l
 704 1930 l 741 1905 l 781 1879 l 821 1854 l 863 1829 l
 906 1805 l 951 1782 l 997 1760 l 1045 1739 l 1095 1719 l
 1148 1701 l 1202 1684 l 1260 1669 l 1320 1656 l 1382 1646 l
 1447 1638 l 1514 1633 l 1582 1631 l 1650 1633 l 1716 1638 l
 1781 1646 l 1842 1657 l 1901 1670 l 1958 1686 l 2011 1703 l
 2062 1721 l 2111 1741 l 2157 1762 l 2202 1784 l 2245 1808 l
 2287 1832 l 2327 1856 l 2365 1882 l 2402 1908 l 2438 1933 l
 2473 1959 l 2506 1985 l 2537 2009 l 2566 2033 l 2593 2056 l
 2617 2077 l 2639 2096 l 2658 2113 l 2675 2127 l 2688 2139 l
 2699 2149 l 2707 2157 l 2713 2162 l 2716 2165 l 2718 2167 l

 2719 2168 l gs col0 s gr 
% Polyline
n 408 2174 m 409 2173 l 410 2169 l 413 2164 l 417 2155 l 423 2142 l
 430 2125 l 440 2104 l 452 2079 l 466 2050 l 482 2017 l
 500 1981 l 520 1942 l 541 1901 l 563 1859 l 587 1815 l
 612 1771 l 638 1726 l 665 1682 l 693 1638 l 722 1596 l
 752 1554 l 783 1514 l 816 1476 l 849 1440 l 884 1406 l
 921 1374 l 959 1345 l 999 1319 l 1042 1296 l 1086 1278 l
 1132 1264 l 1179 1255 l 1227 1252 l 1275 1255 l 1322 1264 l
 1368 1278 l 1413 1296 l 1455 1319 l 1495 1345 l 1534 1374 l
 1571 1406 l 1606 1440 l 1639 1476 l 1672 1514 l 1703 1554 l
 1733 1596 l 1762 1638 l 1790 1682 l 1818 1726 l 1844 1771 l
 1869 1815 l 1893 1859 l 1916 1901 l 1937 1942 l 1957 1981 l
 1975 2017 l 1991 2050 l 2005 2079 l 2017 2104 l 2027 2125 l
 2035 2142 l 2041 2155 l 2045 2164 l 2048 2169 l 2049 2173 l

 2050 2174 l gs col0 s gr 
% Polyline
n 405 2177 m 406 2176 l 408 2173 l 411 2168 l 416 2160 l 423 2149 l
 433 2134 l 445 2115 l 460 2093 l 477 2068 l 497 2039 l
 519 2007 l 543 1973 l 569 1938 l 597 1900 l 626 1862 l
 657 1823 l 689 1784 l 723 1745 l 757 1707 l 793 1669 l
 830 1633 l 868 1598 l 908 1564 l 949 1532 l 992 1502 l
 1037 1474 l 1084 1448 l 1133 1426 l 1185 1406 l 1239 1389 l
 1295 1377 l 1353 1369 l 1412 1366 l 1471 1369 l 1529 1376 l
 1585 1388 l 1639 1404 l 1690 1424 l 1740 1446 l 1786 1472 l
 1831 1499 l 1874 1529 l 1915 1561 l 1954 1594 l 1992 1629 l
 2029 1665 l 2064 1703 l 2098 1741 l 2131 1779 l 2163 1818 l
 2194 1857 l 2223 1895 l 2251 1933 l 2277 1968 l 2300 2002 l
 2322 2034 l 2342 2062 l 2359 2088 l 2373 2110 l 2386 2128 l
 2395 2143 l 2402 2154 l 2407 2162 l 2411 2167 l 2412 2170 l

 2413 2171 l gs col0 s gr 
% Polyline
n 403 2171 m 404 2170 l 405 2169 l 409 2165 l 414 2160 l 421 2153 l
 430 2144 l 442 2133 l 457 2119 l 474 2102 l 494 2084 l
 516 2064 l 541 2041 l 568 2018 l 596 1993 l 627 1967 l
 659 1941 l 692 1914 l 727 1887 l 763 1861 l 800 1835 l
 839 1809 l 878 1784 l 919 1759 l 962 1736 l 1006 1714 l
 1051 1693 l 1099 1673 l 1149 1654 l 1201 1637 l 1255 1622 l
 1312 1609 l 1371 1599 l 1433 1591 l 1496 1586 l 1560 1584 l
 1624 1586 l 1687 1591 l 1749 1599 l 1808 1609 l 1865 1622 l
 1919 1637 l 1971 1654 l 2021 1673 l 2069 1693 l 2114 1714 l
 2158 1736 l 2201 1759 l 2242 1784 l 2281 1809 l 2320 1835 l
 2357 1861 l 2393 1887 l 2428 1914 l 2461 1941 l 2493 1967 l
 2524 1993 l 2552 2018 l 2579 2041 l 2604 2064 l 2626 2084 l
 2646 2102 l 2663 2119 l 2678 2133 l 2690 2144 l 2699 2153 l
 2706 2160 l 2711 2165 l 2715 2169 l 2716 2170 l
 2717 2171 l gs col0 s gr 
% Polyline
n 403 2174 m 404 2173 l 406 2172 l 410 2168 l 415 2164 l 424 2157 l
 435 2148 l 449 2136 l 466 2123 l 485 2107 l 508 2090 l
 533 2070 l 561 2049 l 591 2027 l 623 2005 l 657 1981 l
 692 1957 l 729 1933 l 767 1910 l 807 1886 l 848 1863 l
 890 1841 l 934 1820 l 980 1799 l 1027 1779 l 1076 1761 l
 1128 1744 l 1182 1728 l 1239 1714 l 1299 1702 l 1361 1692 l
 1425 1685 l 1492 1680 l 1560 1678 l 1628 1680 l 1695 1684 l
 1759 1692 l 1821 1702 l 1881 1714 l 1938 1727 l 1992 1743 l
 2044 1760 l 2093 1778 l 2140 1797 l 2186 1818 l 2230 1839 l
 2272 1861 l 2313 1884 l 2353 1908 l 2391 1931 l 2428 1955 l
 2463 1979 l 2497 2002 l 2529 2025 l 2559 2047 l 2587 2068 l
 2612 2087 l 2635 2104 l 2654 2120 l 2671 2133 l 2685 2145 l
 2696 2154 l 2705 2161 l 2710 2165 l 2714 2169 l 2716 2170 l

 2717 2171 l gs col0 s gr 
% Polyline
n 406 2174 m 407 2173 l 409 2172 l 412 2169 l 418 2165 l 426 2158 l
 437 2150 l 451 2140 l 467 2128 l 487 2113 l 509 2098 l
 534 2080 l 561 2061 l 590 2041 l 622 2020 l 655 1999 l
 689 1978 l 726 1956 l 763 1934 l 802 1913 l 842 1892 l
 884 1872 l 927 1853 l 971 1834 l 1018 1816 l 1066 1800 l
 1117 1784 l 1170 1770 l 1226 1758 l 1284 1747 l 1345 1738 l
 1409 1731 l 1474 1727 l 1541 1725 l 1608 1727 l 1673 1731 l
 1737 1738 l 1798 1747 l 1856 1758 l 1912 1770 l 1966 1784 l
 2016 1800 l 2065 1816 l 2112 1834 l 2156 1853 l 2199 1872 l
 2241 1892 l 2281 1913 l 2320 1934 l 2358 1956 l 2394 1978 l
 2429 1999 l 2462 2020 l 2494 2041 l 2523 2061 l 2551 2080 l
 2576 2098 l 2598 2113 l 2617 2128 l 2634 2140 l 2648 2150 l
 2659 2158 l 2667 2165 l 2673 2169 l 2676 2172 l 2678 2173 l

 2679 2174 l gs col0 s gr 
% Polyline
n 409 2174 m 410 2173 l 412 2172 l 415 2169 l 421 2166 l 429 2160 l
 440 2153 l 453 2143 l 470 2132 l 489 2120 l 511 2105 l
 535 2090 l 562 2073 l 591 2055 l 622 2036 l 654 2017 l
 688 1998 l 724 1978 l 761 1959 l 799 1940 l 839 1921 l
 880 1903 l 922 1886 l 966 1869 l 1011 1853 l 1059 1838 l
 1109 1824 l 1161 1812 l 1216 1800 l 1273 1790 l 1333 1782 l
 1396 1776 l 1460 1772 l 1525 1771 l 1590 1772 l 1654 1776 l
 1717 1782 l 1776 1790 l 1834 1800 l 1888 1812 l 1940 1824 l
 1990 1838 l 2038 1853 l 2083 1869 l 2127 1886 l 2169 1903 l
 2209 1921 l 2249 1940 l 2287 1959 l 2323 1978 l 2359 1998 l
 2393 2017 l 2425 2036 l 2456 2055 l 2484 2073 l 2511 2090 l
 2535 2105 l 2557 2120 l 2576 2132 l 2592 2143 l 2605 2153 l
 2616 2160 l 2624 2166 l 2630 2169 l 2633 2172 l 2635 2173 l

 2636 2174 l gs col0 s gr 
% Polyline
n 409 2174 m 410 2173 l 412 2172 l 417 2169 l 423 2165 l 433 2159 l
 445 2152 l 461 2142 l 480 2131 l 501 2118 l 526 2103 l
 554 2088 l 584 2071 l 616 2054 l 650 2036 l 686 2017 l
 724 1999 l 763 1981 l 803 1963 l 845 1945 l 888 1928 l
 933 1912 l 979 1896 l 1028 1882 l 1079 1868 l 1132 1856 l
 1188 1844 l 1247 1835 l 1309 1827 l 1373 1820 l 1439 1816 l
 1507 1815 l 1574 1816 l 1640 1820 l 1704 1826 l 1765 1834 l
 1823 1844 l 1878 1855 l 1931 1867 l 1981 1880 l 2028 1895 l
 2073 1910 l 2117 1926 l 2159 1943 l 2199 1961 l 2238 1979 l
 2275 1997 l 2311 2015 l 2346 2033 l 2379 2051 l 2409 2069 l
 2438 2085 l 2464 2101 l 2488 2115 l 2509 2128 l 2527 2139 l
 2542 2149 l 2554 2156 l 2563 2162 l 2569 2166 l 2573 2169 l
 2575 2170 l
 2576 2171 l gs col0 s gr 
% Polyline
n 409 2174 m 410 2173 l 412 2172 l 416 2170 l 423 2166 l 432 2161 l
 444 2154 l 459 2146 l 477 2136 l 498 2125 l 522 2112 l
 548 2098 l 577 2084 l 608 2068 l 641 2052 l 675 2036 l
 711 2020 l 749 2004 l 788 1988 l 828 1973 l 869 1958 l
 912 1944 l 957 1930 l 1004 1917 l 1053 1905 l 1105 1894 l
 1159 1885 l 1215 1876 l 1275 1869 l 1337 1864 l 1401 1860 l
 1466 1859 l 1531 1860 l 1595 1864 l 1656 1869 l 1715 1876 l
 1772 1885 l 1825 1894 l 1876 1905 l 1924 1917 l 1970 1930 l
 2014 1944 l 2056 1958 l 2096 1973 l 2135 1988 l 2173 2004 l
 2209 2020 l 2244 2036 l 2278 2052 l 2309 2068 l 2339 2084 l
 2367 2098 l 2393 2112 l 2416 2125 l 2436 2136 l 2453 2146 l
 2468 2154 l 2479 2161 l 2488 2166 l 2494 2170 l 2498 2172 l
 2500 2173 l
 2501 2174 l gs col0 s gr 
% Polyline
n 409 2171 m 410 2171 l 412 2169 l 416 2167 l 422 2164 l 430 2160 l
 441 2154 l 455 2147 l 472 2138 l 492 2128 l 514 2117 l
 539 2105 l 566 2093 l 595 2079 l 626 2065 l 659 2052 l
 693 2038 l 728 2024 l 764 2010 l 802 1997 l 842 1984 l
 882 1971 l 925 1960 l 969 1949 l 1016 1938 l 1065 1929 l
 1116 1921 l 1170 1913 l 1227 1907 l 1286 1903 l 1348 1900 l
 1410 1899 l 1473 1900 l 1534 1903 l 1593 1908 l 1650 1914 l
 1704 1922 l 1756 1931 l 1805 1940 l 1852 1951 l 1896 1962 l
 1939 1974 l 1980 1987 l 2019 2000 l 2058 2013 l 2094 2027 l
 2130 2041 l 2164 2055 l 2197 2069 l 2228 2083 l 2257 2097 l
 2284 2110 l 2310 2122 l 2332 2133 l 2352 2143 l 2369 2151 l
 2383 2159 l 2395 2165 l 2403 2169 l 2409 2172 l 2413 2174 l
 2415 2176 l
 2416 2176 l gs col0 s gr 
% Polyline
n 409 2174 m 410 2173 l 412 2172 l 416 2170 l 423 2167 l 432 2162 l
 444 2157 l 459 2149 l 477 2141 l 497 2131 l 520 2121 l
 546 2109 l 574 2097 l 604 2084 l 635 2072 l 668 2059 l
 702 2046 l 738 2034 l 776 2022 l 814 2010 l 855 1999 l
 898 1988 l 943 1978 l 990 1969 l 1040 1961 l 1093 1954 l
 1149 1948 l 1208 1944 l 1269 1941 l 1332 1940 l 1395 1941 l
 1457 1944 l 1517 1948 l 1574 1954 l 1629 1961 l 1680 1969 l
 1730 1978 l 1777 1988 l 1821 1999 l 1864 2010 l 1906 2022 l
 1946 2034 l 1984 2046 l 2021 2059 l 2057 2072 l 2091 2084 l
 2124 2097 l 2154 2109 l 2182 2121 l 2208 2131 l 2230 2141 l
 2250 2149 l 2266 2157 l 2280 2162 l 2290 2167 l 2297 2170 l
 2301 2172 l 2304 2173 l
 2305 2174 l gs col0 s gr 
% Polyline
n 414 2174 m 415 2173 l 418 2172 l 422 2170 l 429 2167 l 439 2162 l
 452 2156 l 469 2149 l 488 2141 l 510 2132 l 534 2121 l
 561 2111 l 590 2099 l 621 2088 l 654 2076 l 688 2065 l
 723 2054 l 761 2043 l 799 2032 l 840 2023 l 884 2013 l
 929 2005 l 978 1997 l 1030 1991 l 1084 1985 l 1143 1981 l
 1203 1978 l 1266 1977 l 1325 1978 l 1383 1980 l 1438 1984 l
 1492 1989 l 1543 1995 l 1591 2002 l 1638 2009 l 1682 2018 l
 1724 2026 l 1764 2036 l 1803 2046 l 1841 2056 l 1877 2066 l
 1912 2077 l 1946 2088 l 1978 2099 l 2008 2109 l 2037 2119 l
 2064 2129 l 2088 2138 l 2109 2146 l 2128 2153 l 2144 2159 l
 2156 2164 l 2166 2168 l 2172 2171 l 2177 2173 l 2179 2174 l

 2180 2174 l gs col0 s gr 
% Polyline
n 409 2177 m 410 2177 l 412 2176 l 417 2174 l 424 2171 l 434 2167 l
 446 2162 l 462 2156 l 481 2150 l 502 2142 l 526 2133 l
 552 2124 l 580 2115 l 610 2105 l 642 2096 l 674 2086 l
 708 2077 l 744 2068 l 781 2059 l 820 2051 l 861 2043 l
 904 2036 l 950 2030 l 999 2024 l 1050 2019 l 1104 2015 l
 1161 2013 l 1219 2012 l 1277 2013 l 1334 2015 l 1388 2018 l
 1440 2022 l 1489 2028 l 1536 2034 l 1579 2041 l 1621 2048 l
 1661 2056 l 1699 2064 l 1735 2073 l 1770 2082 l 1804 2092 l
 1836 2101 l 1866 2110 l 1895 2119 l 1922 2128 l 1947 2136 l
 1969 2144 l 1988 2151 l 2004 2157 l 2017 2161 l 2028 2165 l
 2035 2168 l 2039 2170 l 2042 2171 l
 2043 2171 l gs col0 s gr 
% Polyline
n 416 2175 m 417 2175 l 420 2174 l 425 2172 l 432 2169 l 443 2166 l
 456 2161 l 473 2155 l 492 2149 l 514 2142 l 539 2134 l
 565 2126 l 593 2118 l 623 2109 l 655 2101 l 688 2093 l
 722 2085 l 758 2078 l 796 2071 l 837 2065 l 880 2059 l
 926 2054 l 975 2049 l 1027 2046 l 1082 2044 l 1138 2043 l
 1195 2044 l 1250 2046 l 1303 2049 l 1353 2053 l 1400 2058 l
 1444 2063 l 1486 2069 l 1526 2076 l 1564 2083 l 1601 2091 l
 1636 2098 l 1669 2107 l 1701 2115 l 1732 2123 l 1760 2131 l
 1786 2138 l 1810 2145 l 1831 2152 l 1849 2157 l 1864 2162 l
 1875 2165 l 1884 2168 l 1889 2170 l 1892 2171 l
 1893 2171 l gs col0 s gr 
% Polyline
n 418 2171 m 419 2171 l 422 2170 l 428 2168 l 436 2165 l 448 2162 l
 463 2158 l 482 2153 l 503 2147 l 527 2140 l 553 2134 l
 580 2127 l 610 2120 l 641 2113 l 674 2107 l 708 2100 l
 744 2095 l 783 2089 l 823 2084 l 867 2080 l 914 2076 l
 963 2073 l 1016 2072 l 1070 2071 l 1124 2072 l 1177 2074 l
 1227 2077 l 1274 2081 l 1317 2085 l 1359 2090 l 1397 2096 l
 1434 2102 l 1468 2109 l 1501 2115 l 1533 2122 l 1563 2129 l
 1591 2136 l 1618 2143 l 1642 2149 l 1663 2155 l 1682 2160 l
 1697 2165 l 1709 2168 l 1718 2171 l 1724 2173 l 1727 2174 l

 1728 2174 l gs col0 s gr 
% Polyline
n 415 2174 m 416 2174 l 419 2173 l 424 2172 l 432 2170 l 443 2167 l
 457 2164 l 473 2160 l 493 2155 l 515 2151 l 538 2145 l
 564 2140 l 591 2135 l 619 2130 l 649 2125 l 680 2120 l
 712 2115 l 747 2111 l 783 2107 l 822 2103 l 863 2100 l
 907 2098 l 953 2097 l 1001 2096 l 1053 2096 l 1102 2098 l
 1149 2100 l 1192 2104 l 1232 2107 l 1269 2112 l 1304 2116 l
 1336 2121 l 1367 2127 l 1396 2132 l 1424 2138 l 1450 2144 l
 1474 2149 l 1495 2154 l 1514 2159 l 1530 2163 l 1542 2166 l
 1551 2168 l 1557 2170 l 1561 2171 l
 1562 2171 l gs col0 s gr 
% Polyline
n 418 2174 m 419 2174 l 423 2173 l 428 2172 l 437 2170 l 449 2168 l
 465 2165 l 483 2162 l 503 2158 l 526 2154 l 551 2150 l
 577 2146 l 604 2142 l 633 2138 l 663 2134 l 694 2130 l
 728 2127 l 764 2124 l 802 2122 l 842 2120 l 885 2119 l
 929 2118 l 977 2118 l 1022 2120 l 1064 2122 l 1102 2124 l
 1137 2127 l 1170 2131 l 1200 2135 l 1227 2139 l 1254 2143 l
 1278 2148 l 1301 2152 l 1322 2156 l 1340 2160 l 1355 2163 l
 1368 2166 l 1377 2168 l 1383 2170 l 1386 2171 l
 1388 2171 l gs col0 s gr 
% Polyline
n 417 2171 m 419 2171 l 423 2170 l 431 2169 l 442 2167 l 456 2164 l
 474 2162 l 495 2159 l 517 2155 l 542 2152 l 568 2149 l
 595 2146 l 625 2143 l 657 2141 l 692 2139 l 730 2137 l
 771 2136 l 814 2136 l 857 2137 l 898 2138 l 935 2140 l
 969 2142 l 1001 2145 l 1030 2148 l 1056 2151 l 1082 2154 l
 1105 2158 l 1127 2161 l 1147 2164 l 1164 2167 l 1177 2170 l
 1188 2172 l 1195 2173 l 1199 2174 l
 1201 2174 l gs col0 s gr 
% Polyline
n 417 2171 m 419 2171 l 423 2170 l 431 2170 l 442 2169 l 456 2167 l
 474 2166 l 493 2164 l 515 2162 l 538 2161 l 562 2159 l
 588 2157 l 614 2156 l 642 2154 l 671 2153 l 702 2153 l
 734 2152 l 767 2152 l 807 2153 l 842 2154 l 872 2155 l
 898 2157 l 920 2160 l 939 2162 l 955 2165 l 970 2167 l
 982 2169 l 992 2171 l 998 2173 l 1002 2174 l
 1004 2174 l gs col0 s gr 
/Times-Roman ff 158.75 scf sf
2756 2121 m
gs 1 -1 sc (x) col0 sh gr
/Times-Roman ff 158.75 scf sf
445 1001 m
gs 1 -1 sc (y) col0 sh gr
% here ends figure;
$F2psEnd
rs
showpage
%%Trailer
%EOF
