%!PS-Adobe-2.0 EPSF-2.0
%%Title: Planincline.fig
%%Creator: fig2dev Version 3.2 Patchlevel 5-alpha5
%%CreationDate: Tue Nov 15 21:56:02 2005
%%For: guyotv@debian ()
%%BoundingBox: 0 0 150 140
%Magnification: 1.0000
%%EndComments
/$F2psDict 200 dict def
$F2psDict begin
$F2psDict /mtrx matrix put
/col-1 {0 setgray} bind def
/col0 {0.000 0.000 0.000 srgb} bind def
/col1 {0.000 0.000 1.000 srgb} bind def
/col2 {0.000 1.000 0.000 srgb} bind def
/col3 {0.000 1.000 1.000 srgb} bind def
/col4 {1.000 0.000 0.000 srgb} bind def
/col5 {1.000 0.000 1.000 srgb} bind def
/col6 {1.000 1.000 0.000 srgb} bind def
/col7 {1.000 1.000 1.000 srgb} bind def
/col8 {0.000 0.000 0.560 srgb} bind def
/col9 {0.000 0.000 0.690 srgb} bind def
/col10 {0.000 0.000 0.820 srgb} bind def
/col11 {0.530 0.810 1.000 srgb} bind def
/col12 {0.000 0.560 0.000 srgb} bind def
/col13 {0.000 0.690 0.000 srgb} bind def
/col14 {0.000 0.820 0.000 srgb} bind def
/col15 {0.000 0.560 0.560 srgb} bind def
/col16 {0.000 0.690 0.690 srgb} bind def
/col17 {0.000 0.820 0.820 srgb} bind def
/col18 {0.560 0.000 0.000 srgb} bind def
/col19 {0.690 0.000 0.000 srgb} bind def
/col20 {0.820 0.000 0.000 srgb} bind def
/col21 {0.560 0.000 0.560 srgb} bind def
/col22 {0.690 0.000 0.690 srgb} bind def
/col23 {0.820 0.000 0.820 srgb} bind def
/col24 {0.500 0.190 0.000 srgb} bind def
/col25 {0.630 0.250 0.000 srgb} bind def
/col26 {0.750 0.380 0.000 srgb} bind def
/col27 {1.000 0.500 0.500 srgb} bind def
/col28 {1.000 0.630 0.630 srgb} bind def
/col29 {1.000 0.750 0.750 srgb} bind def
/col30 {1.000 0.880 0.880 srgb} bind def
/col31 {1.000 0.840 0.000 srgb} bind def

end
save
newpath 0 140 moveto 0 0 lineto 150 0 lineto 150 140 lineto closepath clip newpath
-4.5 146.1 translate
1 -1 scale

/cp {closepath} bind def
/ef {eofill} bind def
/gr {grestore} bind def
/gs {gsave} bind def
/sa {save} bind def
/rs {restore} bind def
/l {lineto} bind def
/m {moveto} bind def
/rm {rmoveto} bind def
/n {newpath} bind def
/s {stroke} bind def
/sh {show} bind def
/slc {setlinecap} bind def
/slj {setlinejoin} bind def
/slw {setlinewidth} bind def
/srgb {setrgbcolor} bind def
/rot {rotate} bind def
/sc {scale} bind def
/sd {setdash} bind def
/ff {findfont} bind def
/sf {setfont} bind def
/scf {scalefont} bind def
/sw {stringwidth} bind def
/tr {translate} bind def
/tnt {dup dup currentrgbcolor
  4 -2 roll dup 1 exch sub 3 -1 roll mul add
  4 -2 roll dup 1 exch sub 3 -1 roll mul add
  4 -2 roll dup 1 exch sub 3 -1 roll mul add srgb}
  bind def
/shd {dup dup currentrgbcolor 4 -2 roll mul 4 -2 roll mul
  4 -2 roll mul srgb} bind def
/$F2psBegin {$F2psDict begin /$F2psEnteredState save def} def
/$F2psEnd {$F2psEnteredState restore end} def

$F2psBegin
10 setmiterlimit
0 slj 0 slc
 0.06299 0.06299 sc
%
% Fig objects follow
%
% 
% here starts figure with depth 50
% Arc
7.500 slw
0 slc
n 275.5 1744.0 235.7 -26.1797 7.8020 arc
gs col0 s gr

% Polyline
0 slj
n 2427 1784 m 83 1784 l
 2417 935 l gs col0 s gr 
% Polyline
n 1184 1058 m 1580 916 l 1682 1197 l 1287 1341 l
 1184 1058 l  cp gs col0 s gr 
% Polyline
gs  clippath
1399 2180 m 1399 2322 l 1444 2322 l 1444 2180 l 1444 2180 l 1422 2274 l 1399 2180 l cp
eoclip
n 1422 1132 m
 1422 2307 l gs col0 s gr gr

% arrowhead
n 1399 2180 m 1422 2274 l 1444 2180 l 1422 2199 l 1399 2180 l 
 cp gs 0.00 setgray ef gr  col0 s
% Polyline
 [60] 0 sd
gs  clippath
1730 2043 m 1777 2176 l 1820 2161 l 1772 2028 l 1772 2028 l 1783 2124 l 1730 2043 l cp
eoclip
n 1794 2155 m
 1426 1126 l gs col0 s gr gr
 [] 0 sd
% arrowhead
n 1730 2043 m 1783 2124 l 1772 2028 l 1757 2053 l 1730 2043 l 
 cp gs 0.00 setgray ef gr  col0 s
% Polyline
 [15 45] 45 sd
n 1422 2297 m
 1072 1253 l gs col0 s gr  [] 0 sd
% Polyline
 [15 45] 45 sd
n 1422 2297 m
 1791 2152 l gs col0 s gr  [] 0 sd
% Polyline
gs  clippath
1124 228 m 1077 95 l 1034 110 l 1082 243 l 1082 243 l 1072 148 l 1124 228 l cp
eoclip
n 1425 1138 m
 1061 117 l gs col0 s gr gr

% arrowhead
n 1124 228 m 1072 148 l 1082 243 l 1097 218 l 1124 228 l 
 cp gs 0.00 setgray ef gr  col0 s
% Polyline
 [60] 0 sd
gs  clippath
1182 1187 m 1047 1233 l 1062 1276 l 1197 1230 l 1197 1230 l 1101 1239 l 1182 1187 l cp
eoclip
n 1426 1129 m
 1069 1250 l gs col0 s gr gr
 [] 0 sd
% arrowhead
n 1182 1187 m 1101 1239 l 1197 1230 l 1172 1214 l 1182 1187 l 
 cp gs 0.00 setgray ef gr  col0 s
% Polyline
gs  clippath
1336 449 m 1391 447 l 1390 431 l 1335 433 l 1335 434 l 1355 441 l 1336 449 l cp
eoclip
n 1286 444 m
 1376 440 l gs col0 s gr gr

% arrowhead
n 1336 449 m 1355 441 l 1335 434 l 1340 441 l 1336 449 l 
 cp gs 0.00 setgray ef gr  col0 s
% Polyline
gs  clippath
966 1030 m 1021 1028 l 1020 1012 l 965 1014 l 965 1015 l 985 1022 l 966 1030 l cp
eoclip
n 916 1025 m
 1006 1021 l gs col0 s gr gr

% arrowhead
n 966 1030 m 985 1022 l 965 1015 l 970 1022 l 966 1030 l 
 cp gs 0.00 setgray ef gr  col0 s
% Polyline
gs  clippath
1728 1471 m 1783 1469 l 1782 1453 l 1727 1455 l 1727 1456 l 1747 1463 l 1728 1471 l cp
eoclip
n 1678 1466 m
 1768 1462 l gs col0 s gr gr

% arrowhead
n 1728 1471 m 1747 1463 l 1727 1456 l 1732 1463 l 1728 1471 l 
 cp gs 0.00 setgray ef gr  col0 s
% Polyline
gs  clippath
1529 1922 m 1584 1920 l 1583 1904 l 1528 1906 l 1528 1907 l 1548 1914 l 1529 1922 l cp
eoclip
n 1479 1917 m
 1569 1913 l gs col0 s gr gr

% arrowhead
n 1529 1922 m 1548 1914 l 1528 1907 l 1533 1914 l 1529 1922 l 
 cp gs 0.00 setgray ef gr  col0 s
% Polyline
gs  clippath
279 1058 m 169 1097 l 184 1140 l 294 1100 l 294 1100 l 216 1105 l 279 1058 l cp
525 512 m 489 400 l 446 414 l 483 526 l 483 526 l 481 448 l 525 512 l cp
eoclip
n 473 422 m 647 951 l
 191 1114 l gs col0 s gr gr

% arrowhead
n 525 512 m 481 448 l 483 526 l 499 504 l 525 512 l 
 cp gs 0.00 setgray ef gr  col0 s
% arrowhead
n 279 1058 m 216 1105 l 294 1100 l 272 1084 l 279 1058 l 
 cp gs 0.00 setgray ef gr  col0 s
% Polyline
gs  clippath
899 1371 m 766 1419 l 781 1462 l 914 1414 l 914 1414 l 819 1425 l 899 1371 l cp
eoclip
n 1256 1266 m
 788 1436 l gs col0 s gr gr

% arrowhead
n 899 1371 m 819 1425 l 914 1414 l 889 1399 l 899 1371 l 
 cp gs 0.00 setgray ef gr  col0 s
% Polyline
gs  clippath
722 1229 m 777 1227 l 776 1211 l 721 1213 l 721 1214 l 741 1221 l 722 1229 l cp
eoclip
n 672 1224 m
 762 1220 l gs col0 s gr gr

% arrowhead
n 722 1229 m 741 1221 l 721 1214 l 726 1221 l 722 1229 l 
 cp gs 0.00 setgray ef gr  col0 s
/Times-Roman ff 158.75 scf sf
1674 1029 m
gs 1 -1 sc (m) col0 sh gr
/Times-Roman ff 158.75 scf sf
1474 2066 m
gs 1 -1 sc (P) col0 sh gr
/Times-Roman ff 158.75 scf sf
1670 1614 m
gs 1 -1 sc (P) col0 sh gr
/Times-Roman ff 158.75 scf sf
909 1173 m
gs 1 -1 sc (P) col0 sh gr
/Times-Roman ff 127.00 scf sf
977 1218 m
gs 1 -1 sc (x) col0 sh gr
/Times-Roman ff 127.00 scf sf
1738 1655 m
gs 1 -1 sc (y) col0 sh gr
/Symbol ff 158.75 scf sf
561 1734 m
gs 1 -1 sc (a) col0 sh gr
/Times-Roman ff 158.75 scf sf
1278 592 m
gs 1 -1 sc (R) col0 sh gr
/Times-Roman ff 158.75 scf sf
360 495 m
gs 1 -1 sc (y) col0 sh gr
/Times-Roman ff 158.75 scf sf
225 1215 m
gs 1 -1 sc (x) col0 sh gr
/Times-Roman ff 158.75 scf sf
676 1328 m
gs 1 -1 sc (a) col0 sh gr
/Times-Roman ff 127.00 scf sf
756 1369 m
gs 1 -1 sc (x) col0 sh gr
% here ends figure;
$F2psEnd
rs
showpage
%%Trailer
%EOF
