%!PS-Adobe-2.0 EPSF-2.0
%%Title: Tira.fig
%%Creator: fig2dev Version 3.2 Patchlevel 5-alpha5
%%CreationDate: Tue Nov 22 07:09:36 2005
%%For: guyotv@debian ()
%%BoundingBox: 0 0 131 125
%Magnification: 1.0000
%%EndComments
/$F2psDict 200 dict def
$F2psDict begin
$F2psDict /mtrx matrix put
/col-1 {0 setgray} bind def
/col0 {0.000 0.000 0.000 srgb} bind def
/col1 {0.000 0.000 1.000 srgb} bind def
/col2 {0.000 1.000 0.000 srgb} bind def
/col3 {0.000 1.000 1.000 srgb} bind def
/col4 {1.000 0.000 0.000 srgb} bind def
/col5 {1.000 0.000 1.000 srgb} bind def
/col6 {1.000 1.000 0.000 srgb} bind def
/col7 {1.000 1.000 1.000 srgb} bind def
/col8 {0.000 0.000 0.560 srgb} bind def
/col9 {0.000 0.000 0.690 srgb} bind def
/col10 {0.000 0.000 0.820 srgb} bind def
/col11 {0.530 0.810 1.000 srgb} bind def
/col12 {0.000 0.560 0.000 srgb} bind def
/col13 {0.000 0.690 0.000 srgb} bind def
/col14 {0.000 0.820 0.000 srgb} bind def
/col15 {0.000 0.560 0.560 srgb} bind def
/col16 {0.000 0.690 0.690 srgb} bind def
/col17 {0.000 0.820 0.820 srgb} bind def
/col18 {0.560 0.000 0.000 srgb} bind def
/col19 {0.690 0.000 0.000 srgb} bind def
/col20 {0.820 0.000 0.000 srgb} bind def
/col21 {0.560 0.000 0.560 srgb} bind def
/col22 {0.690 0.000 0.690 srgb} bind def
/col23 {0.820 0.000 0.820 srgb} bind def
/col24 {0.500 0.190 0.000 srgb} bind def
/col25 {0.630 0.250 0.000 srgb} bind def
/col26 {0.750 0.380 0.000 srgb} bind def
/col27 {1.000 0.500 0.500 srgb} bind def
/col28 {1.000 0.630 0.630 srgb} bind def
/col29 {1.000 0.750 0.750 srgb} bind def
/col30 {1.000 0.880 0.880 srgb} bind def
/col31 {1.000 0.840 0.000 srgb} bind def

end
save
newpath 0 125 moveto 0 0 lineto 131 0 lineto 131 125 lineto closepath clip newpath
-23.3 141.0 translate
1 -1 scale

/cp {closepath} bind def
/ef {eofill} bind def
/gr {grestore} bind def
/gs {gsave} bind def
/sa {save} bind def
/rs {restore} bind def
/l {lineto} bind def
/m {moveto} bind def
/rm {rmoveto} bind def
/n {newpath} bind def
/s {stroke} bind def
/sh {show} bind def
/slc {setlinecap} bind def
/slj {setlinejoin} bind def
/slw {setlinewidth} bind def
/srgb {setrgbcolor} bind def
/rot {rotate} bind def
/sc {scale} bind def
/sd {setdash} bind def
/ff {findfont} bind def
/sf {setfont} bind def
/scf {scalefont} bind def
/sw {stringwidth} bind def
/tr {translate} bind def
/tnt {dup dup currentrgbcolor
  4 -2 roll dup 1 exch sub 3 -1 roll mul add
  4 -2 roll dup 1 exch sub 3 -1 roll mul add
  4 -2 roll dup 1 exch sub 3 -1 roll mul add srgb}
  bind def
/shd {dup dup currentrgbcolor 4 -2 roll mul 4 -2 roll mul
  4 -2 roll mul srgb} bind def
 /DrawEllipse {
	/endangle exch def
	/startangle exch def
	/yrad exch def
	/xrad exch def
	/y exch def
	/x exch def
	/savematrix mtrx currentmatrix def
	x y tr xrad yrad sc 0 0 1 startangle endangle arc
	closepath
	savematrix setmatrix
	} def

/$F2psBegin {$F2psDict begin /$F2psEnteredState save def} def
/$F2psEnd {$F2psEnteredState restore end} def

$F2psBegin
10 setmiterlimit
0 slj 0 slc
 0.06299 0.06299 sc
%
% Fig objects follow
%
% 
% here starts figure with depth 50
% Arc
7.500 slw
0 slc
n 381.8 2189.9 150.9 -53.2765 5.3518 arc
gs col0 s gr

% Arc
n 404.4 2127.6 263.9 -78.5111 16.8355 arc
gs col0 s gr

% Ellipse
n 997 1389 18 18 0 360 DrawEllipse gs 0.00 setgray ef gr gs col0 s gr

% Polyline
0 slj
gs  clippath
2328 2227 m 2445 2227 l 2445 2182 l 2328 2182 l 2328 2182 l 2403 2205 l 2328 2227 l cp
427 372 m 427 255 l 382 255 l 382 372 l 382 372 l 405 297 l 427 372 l cp
eoclip
n 405 270 m 405 2205 l
 2430 2205 l gs col0 s gr gr

% arrowhead
n 427 372 m 405 297 l 382 372 l 405 357 l 427 372 l 
 cp gs 0.00 setgray ef gr  col0 s
% arrowhead
n 2328 2227 m 2403 2205 l 2328 2182 l 2343 2205 l 2328 2227 l 
 cp gs 0.00 setgray ef gr  col0 s
% Polyline
2 slj
 [60] 0 sd
n 405 2205 m 405 2203 l 406 2199 l 407 2192 l 408 2180 l 411 2163 l
 413 2141 l 417 2114 l 422 2081 l 427 2042 l 433 1998 l
 440 1950 l 448 1897 l 456 1841 l 465 1782 l 475 1721 l
 485 1658 l 495 1595 l 506 1531 l 517 1468 l 529 1405 l
 541 1344 l 553 1285 l 566 1227 l 579 1171 l 593 1118 l
 607 1068 l 622 1021 l 637 977 l 653 937 l 670 901 l
 688 871 l 706 845 l 725 826 l 745 814 l 765 810 l
 785 814 l 805 826 l 824 845 l 842 871 l 860 901 l
 877 937 l 893 977 l 908 1021 l 923 1068 l 937 1118 l
 951 1171 l 964 1227 l 977 1285 l 989 1344 l 1001 1405 l
 1013 1468 l 1024 1531 l 1035 1595 l 1045 1658 l 1055 1721 l
 1065 1782 l 1074 1841 l 1082 1897 l 1090 1950 l 1097 1998 l
 1103 2042 l 1108 2081 l 1113 2114 l 1117 2141 l 1119 2163 l
 1122 2180 l 1123 2192 l 1124 2199 l 1125 2203 l
 1125 2205 l gs col0 s gr  [] 0 sd
% Polyline
 [60] 0 sd
n 405 2205 m 406 2204 l 407 2201 l 410 2195 l 414 2186 l 420 2174 l
 429 2157 l 439 2137 l 451 2112 l 466 2084 l 483 2052 l
 501 2017 l 522 1979 l 544 1939 l 568 1897 l 593 1855 l
 619 1811 l 646 1768 l 674 1725 l 704 1682 l 734 1640 l
 765 1600 l 797 1561 l 831 1524 l 866 1488 l 903 1455 l
 941 1424 l 981 1396 l 1023 1370 l 1067 1348 l 1113 1330 l
 1161 1317 l 1210 1308 l 1260 1305 l 1310 1308 l 1359 1317 l
 1407 1330 l 1453 1348 l 1497 1370 l 1539 1396 l 1579 1424 l
 1617 1455 l 1654 1488 l 1689 1524 l 1723 1561 l 1755 1600 l
 1786 1640 l 1816 1682 l 1846 1725 l 1874 1768 l 1901 1811 l
 1927 1855 l 1952 1897 l 1976 1939 l 1998 1979 l 2019 2017 l
 2037 2052 l 2054 2084 l 2069 2112 l 2081 2137 l 2091 2157 l
 2100 2174 l 2106 2186 l 2110 2195 l 2113 2201 l 2114 2204 l

 2115 2205 l gs col0 s gr  [] 0 sd
/Times-Roman ff 158.75 scf sf
495 405 m
gs 1 -1 sc (y) col0 sh gr
/Times-Roman ff 158.75 scf sf
1005 1310 m
gs 1 -1 sc (C) col0 sh gr
/Symbol ff 158.75 scf sf
702 2119 m
gs 1 -1 sc (b) col0 sh gr
/Symbol ff 158.75 scf sf
532 2124 m
gs 1 -1 sc (a) col0 sh gr
/Times-Roman ff 158.75 scf sf
2290 2120 m
gs 1 -1 sc (x) col0 sh gr
% here ends figure;
$F2psEnd
rs
showpage
%%Trailer
%EOF
