%!PS-Adobe-2.0 EPSF-2.0
%%Title: Tirb.fig
%%Creator: fig2dev Version 3.2 Patchlevel 5-alpha5
%%CreationDate: Tue Nov 22 07:08:57 2005
%%For: guyotv@debian ()
%%BoundingBox: 0 0 131 125
%Magnification: 1.0000
%%EndComments
/$F2psDict 200 dict def
$F2psDict begin
$F2psDict /mtrx matrix put
/col-1 {0 setgray} bind def
/col0 {0.000 0.000 0.000 srgb} bind def
/col1 {0.000 0.000 1.000 srgb} bind def
/col2 {0.000 1.000 0.000 srgb} bind def
/col3 {0.000 1.000 1.000 srgb} bind def
/col4 {1.000 0.000 0.000 srgb} bind def
/col5 {1.000 0.000 1.000 srgb} bind def
/col6 {1.000 1.000 0.000 srgb} bind def
/col7 {1.000 1.000 1.000 srgb} bind def
/col8 {0.000 0.000 0.560 srgb} bind def
/col9 {0.000 0.000 0.690 srgb} bind def
/col10 {0.000 0.000 0.820 srgb} bind def
/col11 {0.530 0.810 1.000 srgb} bind def
/col12 {0.000 0.560 0.000 srgb} bind def
/col13 {0.000 0.690 0.000 srgb} bind def
/col14 {0.000 0.820 0.000 srgb} bind def
/col15 {0.000 0.560 0.560 srgb} bind def
/col16 {0.000 0.690 0.690 srgb} bind def
/col17 {0.000 0.820 0.820 srgb} bind def
/col18 {0.560 0.000 0.000 srgb} bind def
/col19 {0.690 0.000 0.000 srgb} bind def
/col20 {0.820 0.000 0.000 srgb} bind def
/col21 {0.560 0.000 0.560 srgb} bind def
/col22 {0.690 0.000 0.690 srgb} bind def
/col23 {0.820 0.000 0.820 srgb} bind def
/col24 {0.500 0.190 0.000 srgb} bind def
/col25 {0.630 0.250 0.000 srgb} bind def
/col26 {0.750 0.380 0.000 srgb} bind def
/col27 {1.000 0.500 0.500 srgb} bind def
/col28 {1.000 0.630 0.630 srgb} bind def
/col29 {1.000 0.750 0.750 srgb} bind def
/col30 {1.000 0.880 0.880 srgb} bind def
/col31 {1.000 0.840 0.000 srgb} bind def

end
save
newpath 0 125 moveto 0 0 lineto 131 0 lineto 131 125 lineto closepath clip newpath
-20.5 129.7 translate
1 -1 scale

/cp {closepath} bind def
/ef {eofill} bind def
/gr {grestore} bind def
/gs {gsave} bind def
/sa {save} bind def
/rs {restore} bind def
/l {lineto} bind def
/m {moveto} bind def
/rm {rmoveto} bind def
/n {newpath} bind def
/s {stroke} bind def
/sh {show} bind def
/slc {setlinecap} bind def
/slj {setlinejoin} bind def
/slw {setlinewidth} bind def
/srgb {setrgbcolor} bind def
/rot {rotate} bind def
/sc {scale} bind def
/sd {setdash} bind def
/ff {findfont} bind def
/sf {setfont} bind def
/scf {scalefont} bind def
/sw {stringwidth} bind def
/tr {translate} bind def
/tnt {dup dup currentrgbcolor
  4 -2 roll dup 1 exch sub 3 -1 roll mul add
  4 -2 roll dup 1 exch sub 3 -1 roll mul add
  4 -2 roll dup 1 exch sub 3 -1 roll mul add srgb}
  bind def
/shd {dup dup currentrgbcolor 4 -2 roll mul 4 -2 roll mul
  4 -2 roll mul srgb} bind def
 /DrawEllipse {
	/endangle exch def
	/startangle exch def
	/yrad exch def
	/xrad exch def
	/y exch def
	/x exch def
	/savematrix mtrx currentmatrix def
	x y tr xrad yrad sc 0 0 1 startangle endangle arc
	closepath
	savematrix setmatrix
	} def

/$F2psBegin {$F2psDict begin /$F2psEnteredState save def} def
/$F2psEnd {$F2psEnteredState restore end} def

$F2psBegin
10 setmiterlimit
0 slj 0 slc
 0.06299 0.06299 sc
%
% Fig objects follow
%
% 
% here starts figure with depth 50
% Arc
7.500 slw
0 slc
n 344.5 2002.4 154.0 -64.0069 8.0477 arc
gs col0 s gr

% Ellipse
n 1350 855 18 18 0 360 DrawEllipse gs 0.00 setgray ef gr gs col0 s gr

% Polyline
0 slj
gs  clippath
2283 2047 m 2400 2047 l 2400 2002 l 2283 2002 l 2283 2002 l 2358 2025 l 2283 2047 l cp
382 192 m 382 75 l 337 75 l 337 192 l 337 192 l 360 117 l 382 192 l cp
eoclip
n 360 90 m 360 2025 l
 2385 2025 l gs col0 s gr gr

% arrowhead
n 382 192 m 360 117 l 337 192 l 360 177 l 382 192 l 
 cp gs 0.00 setgray ef gr  col0 s
% arrowhead
n 2283 2047 m 2358 2025 l 2283 2002 l 2298 2025 l 2283 2047 l 
 cp gs 0.00 setgray ef gr  col0 s
% Polyline
2 slj
 [60] 0 sd
n 362 2024 m 362 2023 l 363 2020 l 365 2014 l 368 2005 l 373 1993 l
 378 1976 l 386 1955 l 395 1929 l 405 1899 l 418 1865 l
 431 1827 l 447 1786 l 464 1741 l 482 1693 l 501 1644 l
 521 1593 l 543 1541 l 565 1488 l 588 1435 l 612 1383 l
 637 1330 l 662 1279 l 688 1229 l 715 1181 l 743 1134 l
 771 1089 l 801 1046 l 832 1006 l 864 967 l 898 932 l
 933 900 l 969 872 l 1007 847 l 1047 827 l 1088 812 l
 1130 802 l 1172 799 l 1214 802 l 1256 812 l 1297 827 l
 1336 847 l 1374 872 l 1411 900 l 1446 932 l 1479 967 l
 1511 1006 l 1542 1046 l 1571 1089 l 1600 1134 l 1628 1181 l
 1654 1229 l 1680 1279 l 1705 1330 l 1730 1383 l 1753 1435 l
 1776 1488 l 1798 1541 l 1819 1593 l 1840 1644 l 1859 1693 l
 1877 1741 l 1893 1786 l 1908 1827 l 1922 1865 l 1934 1899 l
 1945 1929 l 1954 1955 l 1961 1976 l 1966 1993 l 1971 2005 l
 1974 2014 l 1976 2020 l 1977 2023 l
 1977 2024 l gs col0 s gr  [] 0 sd
/Times-Roman ff 158.75 scf sf
445 205 m
gs 1 -1 sc (y) col0 sh gr
/Times-Roman ff 158.75 scf sf
2250 1935 m
gs 1 -1 sc (x) col0 sh gr
/Symbol ff 158.75 scf sf
527 1944 m
gs 1 -1 sc (a) col0 sh gr
/Times-Roman ff 158.75 scf sf
1440 810 m
gs 1 -1 sc (C) col0 sh gr
% here ends figure;
$F2psEnd
rs
showpage
%%Trailer
%EOF
