%!PS-Adobe-2.0 EPSF-2.0
%%Title: Viragesvmin0.fig
%%Creator: fig2dev Version 3.2 Patchlevel 5-alpha5
%%CreationDate: Sat Nov 26 17:03:49 2005
%%For: guyotv@debian ()
%%BoundingBox: 0 0 154 73
%Magnification: 1.0000
%%EndComments
/$F2psDict 200 dict def
$F2psDict begin
$F2psDict /mtrx matrix put
/col-1 {0 setgray} bind def
/col0 {0.000 0.000 0.000 srgb} bind def
/col1 {0.000 0.000 1.000 srgb} bind def
/col2 {0.000 1.000 0.000 srgb} bind def
/col3 {0.000 1.000 1.000 srgb} bind def
/col4 {1.000 0.000 0.000 srgb} bind def
/col5 {1.000 0.000 1.000 srgb} bind def
/col6 {1.000 1.000 0.000 srgb} bind def
/col7 {1.000 1.000 1.000 srgb} bind def
/col8 {0.000 0.000 0.560 srgb} bind def
/col9 {0.000 0.000 0.690 srgb} bind def
/col10 {0.000 0.000 0.820 srgb} bind def
/col11 {0.530 0.810 1.000 srgb} bind def
/col12 {0.000 0.560 0.000 srgb} bind def
/col13 {0.000 0.690 0.000 srgb} bind def
/col14 {0.000 0.820 0.000 srgb} bind def
/col15 {0.000 0.560 0.560 srgb} bind def
/col16 {0.000 0.690 0.690 srgb} bind def
/col17 {0.000 0.820 0.820 srgb} bind def
/col18 {0.560 0.000 0.000 srgb} bind def
/col19 {0.690 0.000 0.000 srgb} bind def
/col20 {0.820 0.000 0.000 srgb} bind def
/col21 {0.560 0.000 0.560 srgb} bind def
/col22 {0.690 0.000 0.690 srgb} bind def
/col23 {0.820 0.000 0.820 srgb} bind def
/col24 {0.500 0.190 0.000 srgb} bind def
/col25 {0.630 0.250 0.000 srgb} bind def
/col26 {0.750 0.380 0.000 srgb} bind def
/col27 {1.000 0.500 0.500 srgb} bind def
/col28 {1.000 0.630 0.630 srgb} bind def
/col29 {1.000 0.750 0.750 srgb} bind def
/col30 {1.000 0.880 0.880 srgb} bind def
/col31 {1.000 0.840 0.000 srgb} bind def

end
save
newpath 0 73 moveto 0 0 lineto 154 0 lineto 154 73 lineto closepath clip newpath
-8.8 143.6 translate
1 -1 scale

/cp {closepath} bind def
/ef {eofill} bind def
/gr {grestore} bind def
/gs {gsave} bind def
/sa {save} bind def
/rs {restore} bind def
/l {lineto} bind def
/m {moveto} bind def
/rm {rmoveto} bind def
/n {newpath} bind def
/s {stroke} bind def
/sh {show} bind def
/slc {setlinecap} bind def
/slj {setlinejoin} bind def
/slw {setlinewidth} bind def
/srgb {setrgbcolor} bind def
/rot {rotate} bind def
/sc {scale} bind def
/sd {setdash} bind def
/ff {findfont} bind def
/sf {setfont} bind def
/scf {scalefont} bind def
/sw {stringwidth} bind def
/tr {translate} bind def
/tnt {dup dup currentrgbcolor
  4 -2 roll dup 1 exch sub 3 -1 roll mul add
  4 -2 roll dup 1 exch sub 3 -1 roll mul add
  4 -2 roll dup 1 exch sub 3 -1 roll mul add srgb}
  bind def
/shd {dup dup currentrgbcolor 4 -2 roll mul 4 -2 roll mul
  4 -2 roll mul srgb} bind def
/$F2psBegin {$F2psDict begin /$F2psEnteredState save def} def
/$F2psEnd {$F2psEnteredState restore end} def

$F2psBegin
10 setmiterlimit
0 slj 0 slc
 0.06299 0.06299 sc
%
% Fig objects follow
%
% 
% here starts figure with depth 50
% Arc
7.500 slw
0 slc
n 1201.0 2174.5 104.4 -52.2033 14.7036 arc
gs col0 s gr

% Arc
gs  clippath
494 1564 m 513 1522 l 486 1510 l 467 1551 l 467 1551 l 489 1541 l 494 1564 l cp
eoclip
n 402.4 1498.6 96.8 133.3197 18.9494 arcn
gs col0 s gr
 gr

% arrowhead
0 slj
n 494 1564 m 489 1541 l 467 1551 l 482 1554 l 494 1564 l 
 cp gs 0.00 setgray ef gr  col0 s
% Polyline
n 2565 2205 m 1035 2205 l
 2475 1485 l gs col0 s gr 
% Polyline
n 1624 1770 m 1843 1658 l 1899 1769 l 1683 1879 l
 1625 1766 l gs col0 s gr 
% Polyline
gs  clippath
1741 2099 m 1741 2173 l 1771 2173 l 1771 2099 l 1771 2099 l 1756 2137 l 1741 2099 l cp
eoclip
n 1756 1770 m
 1756 2158 l gs col0 s gr gr

% arrowhead
n 1741 2099 m 1756 2137 l 1771 2099 l 1756 2107 l 1741 2099 l 
 cp gs 0.00 setgray ef gr  col0 s
% Polyline
 [60] 0 sd
gs  clippath
1517 1326 m 1481 1262 l 1455 1277 l 1491 1341 l 1491 1341 l 1486 1301 l 1517 1326 l cp
eoclip
n 1476 1283 m
 1966 2142 l gs col0 s gr gr
 [] 0 sd
% arrowhead
n 1517 1326 m 1486 1301 l 1491 1341 l 1500 1327 l 1517 1326 l 
 cp gs 0.00 setgray ef gr  col0 s
% Polyline
gs  clippath
1632 1520 m 1596 1456 l 1570 1471 l 1605 1535 l 1605 1535 l 1601 1495 l 1632 1520 l cp
eoclip
n 1756 1777 m
 1591 1477 l gs col0 s gr gr

% arrowhead
n 1632 1520 m 1601 1495 l 1605 1535 l 1615 1521 l 1632 1520 l 
 cp gs 0.00 setgray ef gr  col0 s
% Polyline
 [60] 0 sd
gs  clippath
2239 1549 m 2305 1516 l 2291 1489 l 2225 1522 l 2225 1522 l 2266 1519 l 2239 1549 l cp
eoclip
n 1756 1773 m
 2285 1510 l gs col0 s gr gr
 [] 0 sd
% arrowhead
n 2239 1549 m 2266 1519 l 2225 1522 l 2239 1532 l 2239 1549 l 
 cp gs 0.00 setgray ef gr  col0 s
% Polyline
gs  clippath
1917 1708 m 1983 1674 l 1969 1647 l 1903 1681 l 1903 1681 l 1944 1678 l 1917 1708 l cp
eoclip
n 1752 1777 m
 1963 1668 l gs col0 s gr gr

% arrowhead
n 1917 1708 m 1944 1678 l 1903 1681 l 1917 1691 l 1917 1708 l 
 cp gs 0.00 setgray ef gr  col0 s
% Polyline
 [45 22 15 22] 0 sd
gs  clippath
1711 1781 m 1766 1781 l 1766 1765 l 1711 1765 l 1711 1765 l 1730 1773 l 1711 1780 l cp
457 1765 m 403 1765 l 403 1781 l 457 1781 l 457 1780 l 439 1773 l 457 1765 l cp
eoclip
n 418 1773 m
 1751 1773 l gs col0 s gr gr
 [] 0 sd
% arrowhead
n 457 1765 m 439 1773 l 457 1780 l 454 1773 l 457 1765 l 
 cp gs 0.00 setgray ef gr  col0 s
% arrowhead
n 1711 1780 m 1730 1773 l 1711 1765 l 1715 1773 l 1711 1780 l 
 cp gs 0.00 setgray ef gr  col0 s
% Polyline
n 408 1231 m
 408 2267 l gs col0 s gr 
% Polyline
gs  clippath
1702 1349 m 1757 1349 l 1757 1333 l 1702 1333 l 1702 1333 l 1721 1341 l 1702 1348 l cp
eoclip
n 1644 1341 m
 1742 1341 l gs col0 s gr gr

% arrowhead
n 1702 1348 m 1721 1341 l 1702 1333 l 1706 1341 l 1702 1348 l 
 cp gs 0.00 setgray ef gr  col0 s
% Polyline
gs  clippath
1656 1994 m 1711 1994 l 1711 1978 l 1656 1978 l 1656 1978 l 1675 1986 l 1656 1993 l cp
eoclip
n 1598 1986 m
 1696 1986 l gs col0 s gr gr

% arrowhead
n 1656 1993 m 1675 1986 l 1656 1978 l 1660 1986 l 1656 1993 l 
 cp gs 0.00 setgray ef gr  col0 s
% Polyline
gs  clippath
1905 1441 m 1960 1441 l 1960 1425 l 1905 1425 l 1905 1425 l 1924 1433 l 1905 1440 l cp
eoclip
n 1847 1433 m
 1945 1433 l gs col0 s gr gr

% arrowhead
n 1905 1440 m 1924 1433 l 1905 1425 l 1909 1433 l 1905 1440 l 
 cp gs 0.00 setgray ef gr  col0 s
/Times-Roman ff 158.75 scf sf
1638 1500 m
gs 1 -1 sc (R) col0 sh gr
/Times-Roman ff 158.75 scf sf
1514 1247 m
gs 1 -1 sc (y) col0 sh gr
/Times-Roman ff 158.75 scf sf
967 1731 m
gs 1 -1 sc (r) col0 sh gr
/Times-Roman ff 158.75 scf sf
1591 2143 m
gs 1 -1 sc (P) col0 sh gr
/Symbol ff 158.75 scf sf
1334 2173 m
gs 1 -1 sc (a) col0 sh gr
/Times-Roman ff 158.75 scf sf
155 1253 m
gs 1 -1 sc (axe de rotation) col0 sh gr
/Times-Roman ff 158.75 scf sf
2152 1470 m
gs 1 -1 sc (x) col0 sh gr
/Times-Roman ff 158.75 scf sf
1843 1589 m
gs 1 -1 sc (F) col0 sh gr
/Times-Roman ff 127.00 scf sf
1933 1607 m
gs 1 -1 sc (fr) col0 sh gr
% here ends figure;
$F2psEnd
rs
showpage
%%Trailer
%EOF
