\relax 
\@writefile{toc}{\contentsline {chapter}{\numberline {H}Satellite en orbite g\IeC {\'e}ostationnaire}{193}}
\@writefile{lof}{\addvspace {10\p@ }}
\@writefile{lot}{\addvspace {10\p@ }}
\newlabel{geostat}{{H}{193}}
\@writefile{toc}{\contentsline {section}{\numberline {H.1}Introduction}{193}}
\@writefile{toc}{\contentsline {section}{\numberline {H.2}Th\IeC {\'e}oriquement}{193}}
\newlabel{vitessesatgeostat}{{H.1}{193}}
\@writefile{lof}{\contentsline {figure}{\numberline {H.1}{\ignorespaces Satellite}}{193}}
\newlabel{satellite}{{H.1}{193}}
\@writefile{toc}{\contentsline {section}{\numberline {H.3}Num\IeC {\'e}riquement}{194}}
\@writefile{toc}{\contentsline {section}{\numberline {H.4}Loi de Kepler}{194}}
\newlabel{keplergeostat}{{H.4}{194}}
\@setckpt{Annexe-Satellites/Annexe-Satellites}{
\setcounter{page}{195}
\setcounter{equation}{1}
\setcounter{enumi}{2}
\setcounter{enumii}{0}
\setcounter{enumiii}{0}
\setcounter{enumiv}{0}
\setcounter{footnote}{0}
\setcounter{mpfootnote}{0}
\setcounter{part}{0}
\setcounter{chapter}{8}
\setcounter{section}{4}
\setcounter{subsection}{0}
\setcounter{subsubsection}{0}
\setcounter{paragraph}{0}
\setcounter{subparagraph}{0}
\setcounter{figure}{1}
\setcounter{table}{0}
\setcounter{NAT@ctr}{0}
\setcounter{parentequation}{0}
\setcounter{FancyVerbLine}{0}
\setcounter{float@type}{8}
\setcounter{fignum}{1}
\setcounter{r@tfl@t}{4}
\setcounter{subfigure}{0}
\setcounter{lofdepth}{1}
\setcounter{subtable}{0}
\setcounter{lotdepth}{1}
\setcounter{ContinuedFloat}{0}
\setcounter{endnote}{104}
\setcounter{OptionTest}{0}
\setcounter{DefaultLines}{2}
\setcounter{DefaultDepth}{0}
\setcounter{L@lines}{3}
\setcounter{L@depth}{0}
\setcounter{lstnumber}{1}
\setcounter{Solution}{0}
\setcounter{exc}{0}
\setcounter{Solution OS}{0}
\setcounter{exosc}{0}
\setcounter{lstlisting}{0}
}
