\relax 
\@writefile{toc}{\contentsline {chapter}{\numberline {B}Deux syst\IeC {\`e}mes de coordonn\IeC {\'e}es}{169}}
\@writefile{lof}{\addvspace {10\p@ }}
\@writefile{lot}{\addvspace {10\p@ }}
\newlabel{coordonn\IeC {\'e}es}{{B}{169}}
\@writefile{toc}{\contentsline {section}{\numberline {B.1}Le syst\IeC {\`e}me de coordonn\IeC {\'e}es circulaires}{169}}
\@writefile{toc}{\contentsline {subsection}{\numberline {B.1.1}Introduction}{169}}
\@writefile{toc}{\contentsline {subsection}{\numberline {B.1.2}Description}{169}}
\@writefile{lof}{\contentsline {figure}{\numberline {B.1}{\ignorespaces Syst\IeC {\`e}me de coordonn\IeC {\'e}es circulaires\relax }}{169}}
\newlabel{circulaire}{{B.1}{169}}
\@writefile{toc}{\contentsline {section}{\numberline {B.2}Coordonn\IeC {\'e}es sph\IeC {\'e}riques}{169}}
\@writefile{toc}{\contentsline {subsection}{\numberline {B.2.1}Introduction}{169}}
\@writefile{toc}{\contentsline {subsection}{\numberline {B.2.2}Description}{169}}
\newlabel{sph\IeC {\`e}re}{{B.2.2}{170}}
\@writefile{lof}{\contentsline {figure}{\numberline {B.2}{\ignorespaces Syst\IeC {\`e}me de coordonn\IeC {\'e}es sph\IeC {\'e}riques\relax }}{170}}
\newlabel{sph\IeC {\`e}rique}{{B.2}{170}}
\@writefile{toc}{\contentsline {subsection}{\numberline {B.2.3}Latitude et longitude}{170}}
\newlabel{latitude}{{B.2.3}{170}}
\@setckpt{Annexe-SystemeCoordonnees/Annexe-SystemeCoordonnees}{
\setcounter{page}{171}
\setcounter{equation}{0}
\setcounter{enumi}{3}
\setcounter{enumii}{0}
\setcounter{enumiii}{0}
\setcounter{enumiv}{0}
\setcounter{footnote}{0}
\setcounter{mpfootnote}{0}
\setcounter{part}{0}
\setcounter{chapter}{2}
\setcounter{section}{2}
\setcounter{subsection}{3}
\setcounter{subsubsection}{0}
\setcounter{paragraph}{0}
\setcounter{subparagraph}{0}
\setcounter{figure}{2}
\setcounter{table}{0}
\setcounter{NAT@ctr}{0}
\setcounter{parentequation}{0}
\setcounter{FancyVerbLine}{0}
\setcounter{float@type}{8}
\setcounter{fignum}{1}
\setcounter{r@tfl@t}{4}
\setcounter{subfigure}{0}
\setcounter{lofdepth}{1}
\setcounter{subtable}{0}
\setcounter{lotdepth}{1}
\setcounter{ContinuedFloat}{0}
\setcounter{endnote}{91}
\setcounter{OptionTest}{0}
\setcounter{DefaultLines}{2}
\setcounter{DefaultDepth}{0}
\setcounter{L@lines}{3}
\setcounter{L@depth}{0}
\setcounter{lstnumber}{1}
\setcounter{Solution}{0}
\setcounter{exc}{0}
\setcounter{Solution OS}{0}
\setcounter{exosc}{0}
\setcounter{lstlisting}{0}
}
