%!PS-Adobe-2.0 EPSF-2.0
%%Title: Energie.eps
%%Creator: fig2dev Version 3.2 Patchlevel 3d
%%CreationDate: Wed Dec 25 21:18:18 2002
%%For: prof@portable (Vincent Guyot)
%%BoundingBox: 0 0 163 88
%%Magnification: 1.0000
%%EndComments
/$F2psDict 200 dict def
$F2psDict begin
$F2psDict /mtrx matrix put
/col-1 {0 setgray} bind def
/col0 {0.000 0.000 0.000 srgb} bind def
/col1 {0.000 0.000 1.000 srgb} bind def
/col2 {0.000 1.000 0.000 srgb} bind def
/col3 {0.000 1.000 1.000 srgb} bind def
/col4 {1.000 0.000 0.000 srgb} bind def
/col5 {1.000 0.000 1.000 srgb} bind def
/col6 {1.000 1.000 0.000 srgb} bind def
/col7 {1.000 1.000 1.000 srgb} bind def
/col8 {0.000 0.000 0.560 srgb} bind def
/col9 {0.000 0.000 0.690 srgb} bind def
/col10 {0.000 0.000 0.820 srgb} bind def
/col11 {0.530 0.810 1.000 srgb} bind def
/col12 {0.000 0.560 0.000 srgb} bind def
/col13 {0.000 0.690 0.000 srgb} bind def
/col14 {0.000 0.820 0.000 srgb} bind def
/col15 {0.000 0.560 0.560 srgb} bind def
/col16 {0.000 0.690 0.690 srgb} bind def
/col17 {0.000 0.820 0.820 srgb} bind def
/col18 {0.560 0.000 0.000 srgb} bind def
/col19 {0.690 0.000 0.000 srgb} bind def
/col20 {0.820 0.000 0.000 srgb} bind def
/col21 {0.560 0.000 0.560 srgb} bind def
/col22 {0.690 0.000 0.690 srgb} bind def
/col23 {0.820 0.000 0.820 srgb} bind def
/col24 {0.500 0.190 0.000 srgb} bind def
/col25 {0.630 0.250 0.000 srgb} bind def
/col26 {0.750 0.380 0.000 srgb} bind def
/col27 {1.000 0.500 0.500 srgb} bind def
/col28 {1.000 0.630 0.630 srgb} bind def
/col29 {1.000 0.750 0.750 srgb} bind def
/col30 {1.000 0.880 0.880 srgb} bind def
/col31 {1.000 0.840 0.000 srgb} bind def
/col32 {0.557 0.573 0.557 srgb} bind def
/col33 {0.906 0.906 0.812 srgb} bind def
/col34 {0.620 0.604 0.620 srgb} bind def
/col35 {0.812 0.573 0.000 srgb} bind def
/col36 {0.969 0.380 0.682 srgb} bind def
/col37 {0.443 0.443 1.000 srgb} bind def
/col38 {0.349 0.365 0.349 srgb} bind def
/col39 {0.812 0.812 0.812 srgb} bind def

end
save
newpath 0 88 moveto 0 0 lineto 163 0 lineto 163 88 lineto closepath clip newpath
-4.9 97.1 translate
1 -1 scale

/cp {closepath} bind def
/ef {eofill} bind def
/gr {grestore} bind def
/gs {gsave} bind def
/sa {save} bind def
/rs {restore} bind def
/l {lineto} bind def
/m {moveto} bind def
/rm {rmoveto} bind def
/n {newpath} bind def
/s {stroke} bind def
/sh {show} bind def
/slc {setlinecap} bind def
/slj {setlinejoin} bind def
/slw {setlinewidth} bind def
/srgb {setrgbcolor} bind def
/rot {rotate} bind def
/sc {scale} bind def
/sd {setdash} bind def
/ff {findfont} bind def
/sf {setfont} bind def
/scf {scalefont} bind def
/sw {stringwidth} bind def
/tr {translate} bind def
/tnt {dup dup currentrgbcolor
  4 -2 roll dup 1 exch sub 3 -1 roll mul add
  4 -2 roll dup 1 exch sub 3 -1 roll mul add
  4 -2 roll dup 1 exch sub 3 -1 roll mul add srgb}
  bind def
/shd {dup dup currentrgbcolor 4 -2 roll mul 4 -2 roll mul
  4 -2 roll mul srgb} bind def
/reencdict 12 dict def /ReEncode { reencdict begin
/newcodesandnames exch def /newfontname exch def /basefontname exch def
/basefontdict basefontname findfont def /newfont basefontdict maxlength dict def
basefontdict { exch dup /FID ne { dup /Encoding eq
{ exch dup length array copy newfont 3 1 roll put }
{ exch newfont 3 1 roll put } ifelse } { pop pop } ifelse } forall
newfont /FontName newfontname put newcodesandnames aload pop
128 1 255 { newfont /Encoding get exch /.notdef put } for
newcodesandnames length 2 idiv { newfont /Encoding get 3 1 roll put } repeat
newfontname newfont definefont pop end } def
/isovec [
8#055 /minus 8#200 /grave 8#201 /acute 8#202 /circumflex 8#203 /tilde
8#204 /macron 8#205 /breve 8#206 /dotaccent 8#207 /dieresis
8#210 /ring 8#211 /cedilla 8#212 /hungarumlaut 8#213 /ogonek 8#214 /caron
8#220 /dotlessi 8#230 /oe 8#231 /OE
8#240 /space 8#241 /exclamdown 8#242 /cent 8#243 /sterling
8#244 /currency 8#245 /yen 8#246 /brokenbar 8#247 /section 8#250 /dieresis
8#251 /copyright 8#252 /ordfeminine 8#253 /guillemotleft 8#254 /logicalnot
8#255 /hyphen 8#256 /registered 8#257 /macron 8#260 /degree 8#261 /plusminus
8#262 /twosuperior 8#263 /threesuperior 8#264 /acute 8#265 /mu 8#266 /paragraph
8#267 /periodcentered 8#270 /cedilla 8#271 /onesuperior 8#272 /ordmasculine
8#273 /guillemotright 8#274 /onequarter 8#275 /onehalf
8#276 /threequarters 8#277 /questiondown 8#300 /Agrave 8#301 /Aacute
8#302 /Acircumflex 8#303 /Atilde 8#304 /Adieresis 8#305 /Aring
8#306 /AE 8#307 /Ccedilla 8#310 /Egrave 8#311 /Eacute
8#312 /Ecircumflex 8#313 /Edieresis 8#314 /Igrave 8#315 /Iacute
8#316 /Icircumflex 8#317 /Idieresis 8#320 /Eth 8#321 /Ntilde 8#322 /Ograve
8#323 /Oacute 8#324 /Ocircumflex 8#325 /Otilde 8#326 /Odieresis 8#327 /multiply
8#330 /Oslash 8#331 /Ugrave 8#332 /Uacute 8#333 /Ucircumflex
8#334 /Udieresis 8#335 /Yacute 8#336 /Thorn 8#337 /germandbls 8#340 /agrave
8#341 /aacute 8#342 /acircumflex 8#343 /atilde 8#344 /adieresis 8#345 /aring
8#346 /ae 8#347 /ccedilla 8#350 /egrave 8#351 /eacute
8#352 /ecircumflex 8#353 /edieresis 8#354 /igrave 8#355 /iacute
8#356 /icircumflex 8#357 /idieresis 8#360 /eth 8#361 /ntilde 8#362 /ograve
8#363 /oacute 8#364 /ocircumflex 8#365 /otilde 8#366 /odieresis 8#367 /divide
8#370 /oslash 8#371 /ugrave 8#372 /uacute 8#373 /ucircumflex
8#374 /udieresis 8#375 /yacute 8#376 /thorn 8#377 /ydieresis] def
/Times-Roman /Times-Roman-iso isovec ReEncode
/$F2psBegin {$F2psDict begin /$F2psEnteredState save def} def
/$F2psEnd {$F2psEnteredState restore end} def

$F2psBegin
10 setmiterlimit
 0.06299 0.06299 sc
%
% Fig objects follow
%
% Arc
7.500 slw
gs  clippath
1242 829 m 1214 776 l 1110 829 l 1204 815 l 1137 882 l cp
eoclip
n 1286.9 1098.7 297.5 95.2 -104.0 arc
gs col0 s gr
 gr

% arrowhead
n 1137 882 m 1204 815 l 1110 829 l 1097 870 l 1137 882 l 
 cp gs col7 1.00 shd ef gr  col0 s
% Arc
gs  clippath
1197 244 m 1169 191 l 1065 244 l 1159 230 l 1092 297 l cp
eoclip
n 1241.9 513.7 297.5 95.2 -104.0 arc
gs col0 s gr
 gr

% arrowhead
n 1092 297 m 1159 230 l 1065 244 l 1052 285 l 1092 297 l 
 cp gs col7 1.00 shd ef gr  col0 s
% Arc
gs  clippath
2578 1405 m 2637 1414 l 2655 1298 l 2612 1383 l 2596 1289 l cp
eoclip
n 2180.0 1260.0 450.7 17.4 -86.8 arcn
gs col0 s gr
 gr

% arrowhead
n 2596 1289 m 2612 1383 l 2655 1298 l 2630 1264 l 2596 1289 l 
 cp gs col7 1.00 shd ef gr  col0 s
% Arc
gs  clippath
2181 786 m 2200 843 l 2310 806 l 2216 806 l 2292 749 l cp
eoclip
n 2178.1 513.7 297.5 84.8 -76.0 arcn
gs col0 s gr
 gr

% arrowhead
n 2292 749 m 2216 806 l 2310 806 l 2330 768 l 2292 749 l 
 cp gs col7 1.00 shd ef gr  col0 s
% Polyline
gs  clippath
1230 1425 m 1230 1365 l 1045 1365 l 1195 1395 l 1045 1425 l cp
eoclip
n 675 1395 m
 1215 1395 l gs col0 s gr gr

% arrowhead
n 1045 1425 m 1195 1395 l 1045 1365 l 1075 1395 l 1045 1425 l 
 cp gs 0.00 setgray ef gr  col0 s
% Polyline
n 195 1215 m 90 1215 90 1425 105 arcto 4 {pop} repeat
  90 1530 570 1530 105 arcto 4 {pop} repeat
  675 1530 675 1320 105 arcto 4 {pop} repeat
  675 1215 195 1215 105 arcto 4 {pop} repeat
 cp gs col0 s gr 
% Polyline
n 195 630 m 90 630 90 840 105 arcto 4 {pop} repeat
  90 945 660 945 105 arcto 4 {pop} repeat
  765 945 765 735 105 arcto 4 {pop} repeat
  765 630 195 630 105 arcto 4 {pop} repeat
 cp gs col0 s gr 
% Polyline
gs  clippath
1185 840 m 1185 780 l 1000 780 l 1150 810 l 1000 840 l cp
eoclip
n 765 810 m
 1170 810 l gs col0 s gr gr

% arrowhead
n 1000 840 m 1150 810 l 1000 780 l 1030 810 l 1000 840 l 
 cp gs 0.00 setgray ef gr  col0 s
/Times-Roman-iso ff 180.00 scf sf
1215 855 m
gs 1 -1 sc (Vitesse : v\(t\)) col0 sh gr
/Times-Roman-iso ff 180.00 scf sf
1215 270 m
gs 1 -1 sc (Position : x\(t\)) col0 sh gr
/Times-Roman-iso ff 180.00 scf sf
180 1440 m
gs 1 -1 sc (Force) col0 sh gr
/Times-Roman-iso ff 180.00 scf sf
135 855 m
gs 1 -1 sc (Energie) col0 sh gr
/Times-Roman-iso ff 150.00 scf sf
270 540 m
gs 1 -1 sc (Int\351gration) col0 sh gr
/Times-Roman-iso ff 150.00 scf sf
315 1125 m
gs 1 -1 sc (Int\351gration) col0 sh gr
/Times-Roman-iso ff 180.00 scf sf
1260 1440 m
gs 1 -1 sc (Acc\351l\351ration : a\(t\)) col0 sh gr
/Times-Roman-iso ff 150.00 scf sf
1800 540 m
gs 1 -1 sc (D\351rivation) col0 sh gr
/Times-Roman-iso ff 150.00 scf sf
1935 1125 m
gs 1 -1 sc (D\351rivation) col0 sh gr
$F2psEnd
rs
