%!PS-Adobe-2.0 EPSF-2.0
%%Title: TravailFerme.eps
%%Creator: fig2dev Version 3.2 Patchlevel 3d
%%CreationDate: Wed Jan  8 22:13:13 2003
%%For: prof@portable (Vincent Guyot)
%%BoundingBox: 0 0 191 170
%%Magnification: 1.0000
%%EndComments
/$F2psDict 200 dict def
$F2psDict begin
$F2psDict /mtrx matrix put
/col-1 {0 setgray} bind def
/col0 {0.000 0.000 0.000 srgb} bind def
/col1 {0.000 0.000 1.000 srgb} bind def
/col2 {0.000 1.000 0.000 srgb} bind def
/col3 {0.000 1.000 1.000 srgb} bind def
/col4 {1.000 0.000 0.000 srgb} bind def
/col5 {1.000 0.000 1.000 srgb} bind def
/col6 {1.000 1.000 0.000 srgb} bind def
/col7 {1.000 1.000 1.000 srgb} bind def
/col8 {0.000 0.000 0.560 srgb} bind def
/col9 {0.000 0.000 0.690 srgb} bind def
/col10 {0.000 0.000 0.820 srgb} bind def
/col11 {0.530 0.810 1.000 srgb} bind def
/col12 {0.000 0.560 0.000 srgb} bind def
/col13 {0.000 0.690 0.000 srgb} bind def
/col14 {0.000 0.820 0.000 srgb} bind def
/col15 {0.000 0.560 0.560 srgb} bind def
/col16 {0.000 0.690 0.690 srgb} bind def
/col17 {0.000 0.820 0.820 srgb} bind def
/col18 {0.560 0.000 0.000 srgb} bind def
/col19 {0.690 0.000 0.000 srgb} bind def
/col20 {0.820 0.000 0.000 srgb} bind def
/col21 {0.560 0.000 0.560 srgb} bind def
/col22 {0.690 0.000 0.690 srgb} bind def
/col23 {0.820 0.000 0.820 srgb} bind def
/col24 {0.500 0.190 0.000 srgb} bind def
/col25 {0.630 0.250 0.000 srgb} bind def
/col26 {0.750 0.380 0.000 srgb} bind def
/col27 {1.000 0.500 0.500 srgb} bind def
/col28 {1.000 0.630 0.630 srgb} bind def
/col29 {1.000 0.750 0.750 srgb} bind def
/col30 {1.000 0.880 0.880 srgb} bind def
/col31 {1.000 0.840 0.000 srgb} bind def

end
save
newpath 0 170 moveto 0 0 lineto 191 0 lineto 191 170 lineto closepath clip newpath
-22.7 185.0 translate
1 -1 scale

/cp {closepath} bind def
/ef {eofill} bind def
/gr {grestore} bind def
/gs {gsave} bind def
/sa {save} bind def
/rs {restore} bind def
/l {lineto} bind def
/m {moveto} bind def
/rm {rmoveto} bind def
/n {newpath} bind def
/s {stroke} bind def
/sh {show} bind def
/slc {setlinecap} bind def
/slj {setlinejoin} bind def
/slw {setlinewidth} bind def
/srgb {setrgbcolor} bind def
/rot {rotate} bind def
/sc {scale} bind def
/sd {setdash} bind def
/ff {findfont} bind def
/sf {setfont} bind def
/scf {scalefont} bind def
/sw {stringwidth} bind def
/tr {translate} bind def
/tnt {dup dup currentrgbcolor
  4 -2 roll dup 1 exch sub 3 -1 roll mul add
  4 -2 roll dup 1 exch sub 3 -1 roll mul add
  4 -2 roll dup 1 exch sub 3 -1 roll mul add srgb}
  bind def
/shd {dup dup currentrgbcolor 4 -2 roll mul 4 -2 roll mul
  4 -2 roll mul srgb} bind def
 /DrawEllipse {
	/endangle exch def
	/startangle exch def
	/yrad exch def
	/xrad exch def
	/y exch def
	/x exch def
	/savematrix mtrx currentmatrix def
	x y tr xrad yrad sc 0 0 1 startangle endangle arc
	closepath
	savematrix setmatrix
	} def

/$F2psBegin {$F2psDict begin /$F2psEnteredState save def} def
/$F2psEnd {$F2psEnteredState restore end} def

$F2psBegin
10 setmiterlimit
 0.06299 0.06299 sc
%
% Fig objects follow
%
% Polyline
7.500 slw
gs  clippath
915 1380 m 915 1320 l 763 1320 l 883 1350 l 763 1380 l cp
eoclip
n 630 1350 m
 900 1350 l gs col0 s gr gr

% arrowhead
n 763 1380 m 883 1350 l 763 1320 l  col0 s
/Times-Roman ff 180.00 scf sf
630 1485 m
gs 1 -1 sc (mg) col0 sh gr
% Polyline
gs  clippath
2040 705 m 2040 645 l 1888 645 l 2008 675 l 1888 705 l cp
eoclip
n 1755 675 m
 2025 675 l gs col0 s gr gr

% arrowhead
n 1888 705 m 2008 675 l 1888 645 l  col0 s
/Times-Roman ff 180.00 scf sf
1755 810 m
gs 1 -1 sc (mg) col0 sh gr
% Polyline
gs  clippath
3075 1740 m 3075 1680 l 2923 1680 l 3043 1710 l 2923 1740 l cp
eoclip
n 2790 1710 m
 3060 1710 l gs col0 s gr gr

% arrowhead
n 2923 1740 m 3043 1710 l 2923 1680 l  col0 s
/Times-Roman ff 180.00 scf sf
2790 1845 m
gs 1 -1 sc (mg) col0 sh gr
% Polyline
gs  clippath
1995 2595 m 1995 2535 l 1843 2535 l 1963 2565 l 1843 2595 l cp
eoclip
n 1710 2565 m
 1980 2565 l gs col0 s gr gr

% arrowhead
n 1843 2595 m 1963 2565 l 1843 2535 l  col0 s
/Times-Roman ff 180.00 scf sf
1710 2700 m
gs 1 -1 sc (mg) col0 sh gr
% Polyline
n 540 405 m 3150 405 l 3150 2385 l 540 2385 l
 cp gs col0 s gr 
% Polyline
gs  clippath
1635 960 m 1695 960 l 1695 808 l 1665 928 l 1635 808 l cp
eoclip
n 1665 405 m
 1665 945 l gs col0 s gr gr

% arrowhead
n 1635 808 m 1665 928 l 1695 808 l  col0 s
% Polyline
gs  clippath
510 1635 m 570 1635 l 570 1483 l 540 1603 l 510 1483 l cp
eoclip
n 540 1080 m
 540 1620 l gs col0 s gr gr

% arrowhead
n 510 1483 m 540 1603 l 570 1483 l  col0 s
% Polyline
gs  clippath
3120 1950 m 3180 1950 l 3180 1798 l 3150 1918 l 3120 1798 l cp
eoclip
n 3150 1395 m
 3150 1935 l gs col0 s gr gr

% arrowhead
n 3120 1798 m 3150 1918 l 3180 1798 l  col0 s
% Polyline
gs  clippath
1995 2940 m 2055 2940 l 2055 2788 l 2025 2908 l 1995 2788 l cp
eoclip
n 2025 2385 m
 2025 2925 l gs col0 s gr gr

% arrowhead
n 1995 2788 m 2025 2908 l 2055 2788 l  col0 s
% Polyline
gs  clippath
570 390 m 510 390 l 510 542 l 540 422 l 570 542 l cp
eoclip
n 540 720 m
 540 405 l gs col0 s gr gr

% arrowhead
n 570 542 m 540 422 l 510 542 l  col0 s
% Polyline
gs  clippath
3120 2400 m 3180 2400 l 3180 2248 l 3150 2368 l 3120 2248 l cp
eoclip
n 3150 2385 m
 3150 2070 l gs col0 s gr gr

% arrowhead
n 3120 2248 m 3150 2368 l 3180 2248 l  col0 s
% Polyline
gs  clippath
525 2355 m 525 2415 l 677 2415 l 557 2385 l 677 2355 l cp
eoclip
n 540 2385 m
 855 2385 l gs col0 s gr gr

% arrowhead
n 677 2355 m 557 2385 l 677 2415 l  col0 s
% Polyline
gs  clippath
3165 435 m 3165 375 l 3013 375 l 3133 405 l 3013 435 l cp
eoclip
n 3150 405 m
 2835 405 l gs col0 s gr gr

% arrowhead
n 3013 435 m 3133 405 l 3013 375 l  col0 s
/Times-Roman ff 180.00 scf sf
360 2520 m
gs 1 -1 sc (A) col0 sh gr
/Times-Roman ff 180.00 scf sf
3240 2520 m
gs 1 -1 sc (D) col0 sh gr
/Times-Roman ff 180.00 scf sf
360 360 m
gs 1 -1 sc (B) col0 sh gr
/Times-Roman ff 180.00 scf sf
3240 360 m
gs 1 -1 sc (C) col0 sh gr
/Times-Roman ff 180.00 scf sf
675 1125 m
gs 1 -1 sc (m) col0 sh gr
/Times-Roman ff 180.00 scf sf
2880 1440 m
gs 1 -1 sc (m) col0 sh gr
/Times-Roman ff 180.00 scf sf
1395 360 m
gs 1 -1 sc (m) col0 sh gr
/Times-Roman ff 180.00 scf sf
1800 2295 m
gs 1 -1 sc (m) col0 sh gr
% Ellipse
n 540 1080 101 101 0 360 DrawEllipse gs col7 1.00 shd ef gr gs col0 s gr

% Ellipse
n 1665 405 101 101 0 360 DrawEllipse gs col7 1.00 shd ef gr gs col0 s gr

% Ellipse
n 3150 1395 101 101 0 360 DrawEllipse gs col7 1.00 shd ef gr gs col0 s gr

% Ellipse
n 2025 2385 101 101 0 360 DrawEllipse gs col7 1.00 shd ef gr gs col0 s gr

$F2psEnd
rs
