%!PS-Adobe-3.0 EPSF-3.0
%%Creator: inkscape 0.44.1
%%Pages: 1
%%Orientation: Portrait
%%BoundingBox: 2 753 178 828
%%HiResBoundingBox: 2.3089901 753.11078 177.57176 827.8182
%%DocumentMedia: plain 596 842 0 () ()
%%EndComments
%%Page: 1 1
0 842 translate
0.8 -0.8 scale
gsave [1 0 0 1 0 0] concat
gsave [1 0 0 -1 183.65825 86.22261] concat
gsave
/newlatin1font {findfont dup length dict copy dup /Encoding ISOLatin1Encoding put definefont} def
/(Thryomanes-ISOLatin1) /(Thryomanes) newlatin1font
10 scalefont
setfont
0 0 0 setrgbcolor
newpath
0 0 moveto
(293,15) show
grestore
grestore
gsave [1 0 0 -1 11.872128 87.481766] concat
gsave
/(Thryomanes-ISOLatin1) findfont
10 scalefont
setfont
0 0 0 setrgbcolor
newpath
0 0 moveto
(2500) show
grestore
grestore
0 0 0 setrgbcolor
[] 0 setdash
2.4154675 setlinewidth
0 setlinejoin
0 setlinecap
newpath
46.877596 73.130179 moveto
85.474701 73.130179 lineto
stroke
gsave [-0.966187 0 0 -0.966187 75.812831 73.130179] concat
gsave
0 0 0 setrgbcolor
newpath
0 0 moveto
5 -5 lineto
-12.5 0 lineto
5 5 lineto
0 0 lineto
closepath
eofill
grestore
0 0 0 setrgbcolor
[] 0 setdash
1.25 setlinewidth
0 setlinejoin
0 setlinecap
newpath
0 0 moveto
5 -5 lineto
-12.5 0 lineto
5 5 lineto
0 0 lineto
closepath
stroke
grestore
gsave [1 0 0 -1 5.5762987 42.511589] concat
gsave
/(Thryomanes-ISOLatin1) findfont
10 scalefont
setfont
0 0 0 setrgbcolor
newpath
0 0 moveto
(11'967'603) show
grestore
grestore
0 0 0 setrgbcolor
[] 0 setdash
2.1259842 setlinewidth
0 setlinejoin
0 setlinecap
newpath
131.99362 72.590536 moveto
172.82656 72.590536 lineto
stroke
gsave [-0.85039368 0 0 -0.85039368 164.32262 72.590536] concat
gsave
0 0 0 setrgbcolor
newpath
0 0 moveto
5 -5 lineto
-12.5 0 lineto
5 5 lineto
0 0 lineto
closepath
eofill
grestore
0 0 0 setrgbcolor
[] 0 setdash
1.25 setlinewidth
0 setlinejoin
0 setlinecap
newpath
0 0 moveto
5 -5 lineto
-12.5 0 lineto
5 5 lineto
0 0 lineto
closepath
stroke
grestore
gsave [1 0 0 -1 112.78522 110.86628] concat
gsave
/(Thryomanes-ISOLatin1) findfont
10 scalefont
setfont
0 0 0 setrgbcolor
newpath
0 0 moveto
(10'160'103) show
grestore
grestore
0 0 0 setrgbcolor
[] 0 setdash
1.0629921 setlinewidth
0 setlinejoin
0 setlinecap
newpath
120.54824 54.064726 moveto
141.0881 18.773891 lineto
stroke
gsave [-0.2138833 0.36748644 -0.36748644 -0.2138833 138.94927 22.448755] concat
gsave
0 0 0 setrgbcolor
newpath
0 0 moveto
5 -5 lineto
-12.5 0 lineto
5 5 lineto
0 0 lineto
closepath
eofill
grestore
0 0 0 setrgbcolor
[] 0 setdash
1.25 setlinewidth
0 setlinejoin
0 setlinecap
newpath
0 0 moveto
5 -5 lineto
-12.5 0 lineto
5 5 lineto
0 0 lineto
closepath
stroke
grestore
gsave [1 0 0 1 -21.94545 -18.52772] concat
0 0 0 setrgbcolor
[] 0 setdash
1.0629921 setlinewidth
1 setlinejoin
1 setlinecap
newpath
118.01985 104.8201 moveto
110.48463 96.439719 111.17056 83.522706 119.55094 75.987482 curveto
127.93132 68.452259 140.84833 69.138185 148.38356 77.518567 curveto
155.91878 85.89895 155.23286 98.815963 146.85247 106.35119 curveto
138.58736 113.78277 125.92671 113.24754 118.3183 105.1449 curveto
stroke
grestore
0 0 0 setrgbcolor
[] 0 setdash
1.3377312 setlinewidth
1 setlinejoin
1 setlinecap
newpath
3.5551033 52.002754 moveto
46.811508 52.002754 lineto
46.811508 94.719517 lineto
3.5551033 94.719517 lineto
3.5551033 52.002754 lineto
closepath
stroke
gsave [1 0 0 -1 11.512368 63.017994] concat
gsave
/(Thryomanes-ISOLatin1) findfont
10 scalefont
setfont
0 0 0 setrgbcolor
newpath
0 0 moveto
(Source) show
grestore
grestore
gsave [1 0 0 -1 11.692249 73.45108] concat
gsave
/(Thryomanes-ISOLatin1) findfont
10 scalefont
setfont
0 0 0 setrgbcolor
newpath
0 0 moveto
(chaude) show
grestore
grestore
0 0 0 setrgbcolor
[] 0 setdash
1.3377312 setlinewidth
1 setlinejoin
1 setlinecap
newpath
178.03943 50.563709 moveto
221.29583 50.563709 lineto
221.29583 93.280472 lineto
178.03943 93.280472 lineto
178.03943 50.563709 lineto
closepath
stroke
gsave [1 0 0 -1 184.82947 61.798126] concat
gsave
/(Thryomanes-ISOLatin1) findfont
10 scalefont
setfont
0 0 0 setrgbcolor
newpath
0 0 moveto
(Source) show
grestore
grestore
gsave [1 0 0 -1 184.91742 72.73156] concat
gsave
/(Thryomanes-ISOLatin1) findfont
10 scalefont
setfont
0 0 0 setrgbcolor
newpath
0 0 moveto
(froide) show
grestore
grestore
gsave [1 0 0 -1 141.56615 36.215763] concat
gsave
/(Thryomanes-ISOLatin1) findfont
10 scalefont
setfont
0 0 0 setrgbcolor
newpath
0 0 moveto
(1'807'500) show
grestore
grestore
gsave [1 0 0 -1 102.71191 79.926788] concat
gsave
/(Thryomanes-ISOLatin1) findfont
10 scalefont
setfont
0 0 0 setrgbcolor
newpath
0 0 moveto
(M) show
grestore
grestore
grestore
showpage
%%EOF
