%!PS-Adobe-3.0 EPSF-3.0
%%Creator: inkscape 0.44.1
%%Pages: 1
%%Orientation: Portrait
%%BoundingBox: 6 736 175 832
%%HiResBoundingBox: 6.3330555 736.23553 174.61333 831.34247
%%DocumentMedia: plain 596 842 0 () ()
%%EndComments
%%Page: 1 1
0 842 translate
0.8 -0.8 scale
gsave [1 0 0 1 0 0] concat
0 0 0 setrgbcolor
[] 0 setdash
0.70866144 setlinewidth
0 setlinejoin
0 setlinecap
newpath
32.198656 16.968514 moveto
32.198656 130.47328 lineto
199.84753 130.47328 lineto
stroke
gsave [1.7356626e-17 0.28346457 -0.28346457 1.7356626e-17 32.198656 19.80316] concat
gsave
0 0 0 setrgbcolor
newpath
0 0 moveto
5 -5 lineto
-12.5 0 lineto
5 5 lineto
0 0 lineto
closepath
eofill
grestore
0 0 0 setrgbcolor
[] 0 setdash
1.25 setlinewidth
0 setlinejoin
0 setlinecap
newpath
0 0 moveto
5 -5 lineto
-12.5 0 lineto
5 5 lineto
0 0 lineto
closepath
stroke
grestore
gsave [-0.28346457 0 0 -0.28346457 197.01288 130.47328] concat
gsave
0 0 0 setrgbcolor
newpath
0 0 moveto
5 -5 lineto
-12.5 0 lineto
5 5 lineto
0 0 lineto
closepath
eofill
grestore
0 0 0 setrgbcolor
[] 0 setdash
1.25 setlinewidth
0 setlinejoin
0 setlinecap
newpath
0 0 moveto
5 -5 lineto
-12.5 0 lineto
5 5 lineto
0 0 lineto
closepath
stroke
grestore
0 0 0 setrgbcolor
[] 0 setdash
0.70866144 setlinewidth
0 setlinejoin
0 setlinecap
newpath
71.853832 41.873467 moveto
174.94257 41.873467 lineto
174.94257 106.10796 lineto
72.126554 106.10796 lineto
71.853832 41.873467 lineto
closepath
stroke
gsave [2.118757 0 0 2.118517 -18.83438 -58.68067] concat
0 0 0 setrgbcolor
[] 0 setdash
0.70866144 setlinewidth
1 setlinejoin
1 setlinecap
newpath
42.387278 47.938861 moveto
42.221304 47.754271 42.236412 47.469756 42.421002 47.303782 curveto
42.605592 47.137807 42.890108 47.152916 43.056082 47.337506 curveto
43.222056 47.522096 43.206947 47.806612 43.022357 47.972586 curveto
42.840306 48.136277 42.561437 48.124488 42.393851 47.946015 curveto
stroke
grestore
gsave [2.118757 0 0 2.118517 84.41718 -59.04043] concat
0 0 0 setrgbcolor
[] 0 setdash
0.70866144 setlinewidth
1 setlinejoin
1 setlinecap
newpath
42.387278 47.938861 moveto
42.221304 47.754271 42.236412 47.469756 42.421002 47.303782 curveto
42.605592 47.137807 42.890108 47.152916 43.056082 47.337506 curveto
43.222056 47.522096 43.206947 47.806612 43.022357 47.972586 curveto
42.840306 48.136277 42.561437 48.124488 42.393851 47.946015 curveto
stroke
grestore
gsave [2.118757 0 0 2.118517 84.41718 4.997121] concat
0 0 0 setrgbcolor
[] 0 setdash
0.70866144 setlinewidth
1 setlinejoin
1 setlinecap
newpath
42.387278 47.938861 moveto
42.221304 47.754271 42.236412 47.469756 42.421002 47.303782 curveto
42.605592 47.137807 42.890108 47.152916 43.056082 47.337506 curveto
43.222056 47.522096 43.206947 47.806612 43.022357 47.972586 curveto
42.840306 48.136277 42.561437 48.124488 42.393851 47.946015 curveto
stroke
grestore
gsave [2.118757 0 0 2.118517 -18.47462 4.997121] concat
0 0 0 setrgbcolor
[] 0 setdash
0.70866144 setlinewidth
1 setlinejoin
1 setlinecap
newpath
42.387278 47.938861 moveto
42.221304 47.754271 42.236412 47.469756 42.421002 47.303782 curveto
42.605592 47.137807 42.890108 47.152916 43.056082 47.337506 curveto
43.222056 47.522096 43.206947 47.806612 43.022357 47.972586 curveto
42.840306 48.136277 42.561437 48.124488 42.393851 47.946015 curveto
stroke
grestore
gsave [1 0 0 -1 44.970192 118.78102] concat
gsave
/newlatin1font {findfont dup length dict copy dup /Encoding ISOLatin1Encoding put definefont} def
/(Thryomanes-ISOLatin1) /(Thryomanes) newlatin1font
10 scalefont
setfont
0 0 0 setrgbcolor
newpath
0 0 moveto
(Etat1) show
grestore
grestore
gsave [1 0 0 -1 42.165512 37.708744] concat
gsave
/(Thryomanes-ISOLatin1) findfont
10 scalefont
setfont
0 0 0 setrgbcolor
newpath
0 0 moveto
(Etat2) show
grestore
grestore
gsave [1 0 0 -1 182.83228 37.348984] concat
gsave
/(Thryomanes-ISOLatin1) findfont
10 scalefont
setfont
0 0 0 setrgbcolor
newpath
0 0 moveto
(Etat3) show
grestore
grestore
gsave [1 0 0 -1 183.11862 109.06747] concat
gsave
/(Thryomanes-ISOLatin1) findfont
10 scalefont
setfont
0 0 0 setrgbcolor
newpath
0 0 moveto
(Etat4) show
grestore
grestore
0 0 0 setrgbcolor
[] 0 setdash
0.70866144 setlinewidth
0 setlinejoin
0 setlinecap
newpath
71.952305 85.682965 moveto
71.952305 67.155247 lineto
stroke
gsave [-1.7356626e-17 0.28346457 -0.28346457 -1.7356626e-17 71.952305 69.989893] concat
gsave
0 0 0 setrgbcolor
newpath
0 0 moveto
5 -5 lineto
-12.5 0 lineto
5 5 lineto
0 0 lineto
closepath
eofill
grestore
0 0 0 setrgbcolor
[] 0 setdash
1.25 setlinewidth
0 setlinejoin
0 setlinecap
newpath
0 0 moveto
5 -5 lineto
-12.5 0 lineto
5 5 lineto
0 0 lineto
closepath
stroke
grestore
0 0 0 setrgbcolor
[] 0 setdash
0.70866144 setlinewidth
0 setlinejoin
0 setlinecap
newpath
175.02398 65.180632 moveto
175.02398 83.708349 lineto
stroke
gsave [-1.7356626e-17 -0.28346457 0.28346457 -1.7356626e-17 175.02398 80.873703] concat
gsave
0 0 0 setrgbcolor
newpath
0 0 moveto
5 -5 lineto
-12.5 0 lineto
5 5 lineto
0 0 lineto
closepath
eofill
grestore
0 0 0 setrgbcolor
[] 0 setdash
1.25 setlinewidth
0 setlinejoin
0 setlinecap
newpath
0 0 moveto
5 -5 lineto
-12.5 0 lineto
5 5 lineto
0 0 lineto
closepath
stroke
grestore
0 0 0 setrgbcolor
[] 0 setdash
0.70866144 setlinewidth
0 setlinejoin
0 setlinecap
newpath
95.880519 41.79206 moveto
114.40824 41.79206 lineto
stroke
gsave [-0.28346457 0 0 -0.28346457 111.57359 41.79206] concat
gsave
0 0 0 setrgbcolor
newpath
0 0 moveto
5 -5 lineto
-12.5 0 lineto
5 5 lineto
0 0 lineto
closepath
eofill
grestore
0 0 0 setrgbcolor
[] 0 setdash
1.25 setlinewidth
0 setlinejoin
0 setlinecap
newpath
0 0 moveto
5 -5 lineto
-12.5 0 lineto
5 5 lineto
0 0 lineto
closepath
stroke
grestore
0 0 0 setrgbcolor
[] 0 setdash
0.70866144 setlinewidth
0 setlinejoin
0 setlinecap
newpath
116.91842 106.18937 moveto
98.390701 106.18937 lineto
stroke
gsave [0.28346457 -3.4713252e-17 3.4713252e-17 0.28346457 101.22535 106.18937] concat
gsave
0 0 0 setrgbcolor
newpath
0 0 moveto
5 -5 lineto
-12.5 0 lineto
5 5 lineto
0 0 lineto
closepath
eofill
grestore
0 0 0 setrgbcolor
[] 0 setdash
1.25 setlinewidth
0 setlinejoin
0 setlinecap
newpath
0 0 moveto
5 -5 lineto
-12.5 0 lineto
5 5 lineto
0 0 lineto
closepath
stroke
grestore
gsave [1 0 0 -1 195.5304 124.53721] concat
gsave
/(Thryomanes-ISOLatin1) findfont
10 scalefont
setfont
0 0 0 setrgbcolor
newpath
0 0 moveto
(V/m) show
grestore
grestore
gsave [1 0 0 -1 38.134724 20.38625] concat
gsave
/(Thryomanes-ISOLatin1) findfont
10 scalefont
setfont
0 0 0 setrgbcolor
newpath
0 0 moveto
(p/bar) show
grestore
grestore
0 0 0 setrgbcolor
[2.8346457 2.8346457] 0 setdash
0.35433072 setlinewidth
0 setlinejoin
0 setlinecap
newpath
71.952305 106.18937 moveto
71.952305 130.47328 lineto
stroke
0 0 0 setrgbcolor
[2.8346457 2.8346457] 0 setdash
0.35433072 setlinewidth
0 setlinejoin
0 setlinecap
newpath
174.8441 106.09943 moveto
174.8441 130.38334 lineto
stroke
0 0 0 setrgbcolor
[2.8346457 2.8346457] 0 setdash
0.35433072 setlinewidth
0 setlinejoin
0 setlinecap
newpath
32.217363 106.18937 moveto
71.393955 106.18937 lineto
stroke
0 0 0 setrgbcolor
[2.8346457 2.8346457] 0 setdash
0.35433072 setlinewidth
0 setlinejoin
0 setlinecap
newpath
32.21219 41.97194 moveto
70.679602 41.97194 lineto
stroke
gsave [1 0 0 -1 75.909676 99.353905] concat
gsave
/(Thryomanes-ISOLatin1) findfont
10 scalefont
setfont
0 0 0 setrgbcolor
newpath
0 0 moveto
(293,15) show
grestore
grestore
gsave [1 0 0 -1 76.269447 55.283119] concat
gsave
/(Thryomanes-ISOLatin1) findfont
10 scalefont
setfont
0 0 0 setrgbcolor
newpath
0 0 moveto
(1000) show
grestore
grestore
gsave [1 0 0 -1 139.22771 55.103233] concat
gsave
/(Thryomanes-ISOLatin1) findfont
10 scalefont
setfont
0 0 0 setrgbcolor
newpath
0 0 moveto
(2500) show
grestore
grestore
gsave [1 0 0 -1 134.91057 99.893547] concat
gsave
/(Thryomanes-ISOLatin1) findfont
10 scalefont
setfont
0 0 0 setrgbcolor
newpath
0 0 moveto
(732,87) show
grestore
grestore
0 0 0 setrgbcolor
[] 0 setdash
1.4173229 setlinewidth
0 setlinejoin
0 setlinecap
newpath
49.287329 75.249887 moveto
90.120261 75.249887 lineto
stroke
gsave [-0.56692915 0 0 -0.56692915 84.45097 75.249887] concat
gsave
0 0 0 setrgbcolor
newpath
0 0 moveto
5 -5 lineto
-12.5 0 lineto
5 5 lineto
0 0 lineto
closepath
eofill
grestore
0 0 0 setrgbcolor
[] 0 setdash
1.25 setlinewidth
0 setlinejoin
0 setlinecap
newpath
0 0 moveto
5 -5 lineto
-12.5 0 lineto
5 5 lineto
0 0 lineto
closepath
stroke
grestore
gsave [1 0 0 -1 7.5549912 69.673592] concat
gsave
/(Thryomanes-ISOLatin1) findfont
10 scalefont
setfont
0 0 0 setrgbcolor
newpath
0 0 moveto
(3'014'039) show
grestore
grestore
0 0 0 setrgbcolor
[] 0 setdash
2.480315 setlinewidth
0 setlinejoin
0 setlinecap
newpath
122.94036 23.542313 moveto
122.94036 64.375248 lineto
stroke
gsave [-6.0748189e-17 -0.99212599 0.99212599 -6.0748189e-17 122.94036 54.453988] concat
gsave
0 0 0 setrgbcolor
newpath
0 0 moveto
5 -5 lineto
-12.5 0 lineto
5 5 lineto
0 0 lineto
closepath
eofill
grestore
0 0 0 setrgbcolor
[] 0 setdash
1.25 setlinewidth
0 setlinejoin
0 setlinecap
newpath
0 0 moveto
5 -5 lineto
-12.5 0 lineto
5 5 lineto
0 0 lineto
closepath
stroke
grestore
gsave [1 0 0 -1 101.45274 20.386255] concat
gsave
/(Thryomanes-ISOLatin1) findfont
10 scalefont
setfont
0 0 0 setrgbcolor
newpath
0 0 moveto
(8'953'564) show
grestore
grestore
0 0 0 setrgbcolor
[] 0 setdash
2.1259842 setlinewidth
0 setlinejoin
0 setlinecap
newpath
155.558 74.209463 moveto
196.39094 74.209463 lineto
stroke
gsave [-0.85039368 0 0 -0.85039368 187.887 74.209463] concat
gsave
0 0 0 setrgbcolor
newpath
0 0 moveto
5 -5 lineto
-12.5 0 lineto
5 5 lineto
0 0 lineto
closepath
eofill
grestore
0 0 0 setrgbcolor
[] 0 setdash
1.25 setlinewidth
0 setlinejoin
0 setlinecap
newpath
0 0 moveto
5 -5 lineto
-12.5 0 lineto
5 5 lineto
0 0 lineto
closepath
stroke
grestore
gsave [1 0 0 -1 182.75885 64.996689] concat
gsave
/(Thryomanes-ISOLatin1) findfont
10 scalefont
setfont
0 0 0 setrgbcolor
newpath
0 0 moveto
(7'535'118) show
grestore
grestore
gsave [1 0 0 -1 74.650513 122.91829] concat
gsave
/(Thryomanes-ISOLatin1) findfont
10 scalefont
setfont
0 0 0 setrgbcolor
newpath
0 0 moveto
(2'624'985) show
grestore
grestore
0 0 0 setrgbcolor
[] 0 setdash
1.0629921 setlinewidth
0 setlinejoin
0 setlinecap
newpath
129.0563 84.701774 moveto
129.0563 125.53471 lineto
stroke
gsave [-2.6034937e-17 -0.42519684 0.42519684 -2.6034937e-17 129.0563 121.28274] concat
gsave
0 0 0 setrgbcolor
newpath
0 0 moveto
5 -5 lineto
-12.5 0 lineto
5 5 lineto
0 0 lineto
closepath
eofill
grestore
0 0 0 setrgbcolor
[] 0 setdash
1.25 setlinewidth
0 setlinejoin
0 setlinecap
newpath
0 0 moveto
5 -5 lineto
-12.5 0 lineto
5 5 lineto
0 0 lineto
closepath
stroke
grestore
grestore
showpage
%%EOF
