%!PS-Adobe-3.0 EPSF-3.0
%%Creator: inkscape 0.44.1
%%Pages: 1
%%Orientation: Portrait
%%BoundingBox: 12 724 129 830
%%HiResBoundingBox: 12.168477 724.88925 128.50117 829.21782
%%DocumentMedia: plain 596 842 0 () ()
%%EndComments
%%Page: 1 1
0 842 translate
0.8 -0.8 scale
gsave [1 0 0 1 0 0] concat
0 0 0 setrgbcolor
[] 0 setdash
0.70866144 setlinewidth
0 setlinejoin
0 setlinecap
newpath
16.805085 16.725731 moveto
16.805085 134.36133 lineto
159.74064 134.36133 lineto
stroke
gsave [1.7356626e-17 0.28346457 -0.28346457 1.7356626e-17 16.805085 19.560377] concat
gsave
0 0 0 setrgbcolor
newpath
0 0 moveto
5 -5 lineto
-12.5 0 lineto
5 5 lineto
0 0 lineto
closepath
eofill
grestore
0 0 0 setrgbcolor
[] 0 setdash
1.25 setlinewidth
0 setlinejoin
0 setlinecap
newpath
0 0 moveto
5 -5 lineto
-12.5 0 lineto
5 5 lineto
0 0 lineto
closepath
stroke
grestore
gsave [-0.28346457 0 0 -0.28346457 156.90599 134.36133] concat
gsave
0 0 0 setrgbcolor
newpath
0 0 moveto
5 -5 lineto
-12.5 0 lineto
5 5 lineto
0 0 lineto
closepath
eofill
grestore
0 0 0 setrgbcolor
[] 0 setdash
1.25 setlinewidth
0 setlinejoin
0 setlinecap
newpath
0 0 moveto
5 -5 lineto
-12.5 0 lineto
5 5 lineto
0 0 lineto
closepath
stroke
grestore
0 0 0 setrgbcolor
[] 0 setdash
0.46881372 setlinewidth
0 setlinejoin
0 setlinecap
newpath
35.826225 41.779427 moveto
35.826225 134.23825 lineto
35.826225 133.91497 lineto
stroke
0 0 0 setrgbcolor
[] 0 setdash
0.25958452 setlinewidth
0 setlinejoin
0 setlinecap
newpath
136.65674 96.600677 moveto
136.65674 134.26437 lineto
stroke
gsave [1 0 0 -1 20.313839 27.067322] concat
gsave
/newlatin1font {findfont dup length dict copy dup /Encoding ISOLatin1Encoding put definefont} def
/(Thryomanes-ISOLatin1) /(Thryomanes) newlatin1font
10 scalefont
setfont
0 0 0 setrgbcolor
newpath
0 0 moveto
(p) show
grestore
grestore
gsave [1 0 0 -1 152.72314 128.63652] concat
gsave
/(Thryomanes-ISOLatin1) findfont
10 scalefont
setfont
0 0 0 setrgbcolor
newpath
0 0 moveto
(V) show
grestore
grestore
gsave [1 0 0 -1 31.024775 145.81094] concat
gsave
/(Thryomanes-ISOLatin1) findfont
10 scalefont
setfont
0 0 0 setrgbcolor
newpath
0 0 moveto
(V1) show
grestore
grestore
gsave [1 0 0 -1 131.52071 146.11391] concat
gsave
/(Thryomanes-ISOLatin1) findfont
10 scalefont
setfont
0 0 0 setrgbcolor
newpath
0 0 moveto
(V2) show
grestore
grestore
gsave [1 0 0 -1 44.136429 117.55623] concat
gsave
/(Thryomanes-ISOLatin1) findfont
10 scalefont
setfont
0 0 0 setrgbcolor
newpath
0 0 moveto
(int) show
grestore
grestore
0 0 0 setrgbcolor
[] 0 setdash
0.98203087 setlinewidth
0 setlinejoin
0 setlinecap
newpath
136.71431 97.090384 moveto
109.88763 95.517743 56.123111 77.326641 36.075436 42.139815 curveto
stroke
grestore
showpage
%%EOF
