%!PS-Adobe-3.0 EPSF-3.0
%%Creator: inkscape 0.44.1
%%Pages: 1
%%Orientation: Portrait
%%BoundingBox: 24 725 172 832
%%HiResBoundingBox: 24.483334 725.60157 171.90088 831.34247
%%DocumentMedia: plain 596 842 0 () ()
%%EndComments
%%Page: 1 1
0 842 translate
0.8 -0.8 scale
gsave [1 0 0 1 0 0] concat
0 0 0 setrgbcolor
[] 0 setdash
0.70866144 setlinewidth
0 setlinejoin
0 setlinecap
newpath
32.198656 16.968514 moveto
32.198656 130.47328 lineto
199.84753 130.47328 lineto
stroke
gsave [1.7356626e-17 0.28346457 -0.28346457 1.7356626e-17 32.198656 19.80316] concat
gsave
0 0 0 setrgbcolor
newpath
0 0 moveto
5 -5 lineto
-12.5 0 lineto
5 5 lineto
0 0 lineto
closepath
eofill
grestore
0 0 0 setrgbcolor
[] 0 setdash
1.25 setlinewidth
0 setlinejoin
0 setlinecap
newpath
0 0 moveto
5 -5 lineto
-12.5 0 lineto
5 5 lineto
0 0 lineto
closepath
stroke
grestore
gsave [-0.28346457 0 0 -0.28346457 197.01288 130.47328] concat
gsave
0 0 0 setrgbcolor
newpath
0 0 moveto
5 -5 lineto
-12.5 0 lineto
5 5 lineto
0 0 lineto
closepath
eofill
grestore
0 0 0 setrgbcolor
[] 0 setdash
1.25 setlinewidth
0 setlinejoin
0 setlinecap
newpath
0 0 moveto
5 -5 lineto
-12.5 0 lineto
5 5 lineto
0 0 lineto
closepath
stroke
grestore
0 0 0 setrgbcolor
[] 0 setdash
0.70866144 setlinewidth
0 setlinejoin
0 setlinecap
newpath
102.25368 39.714898 moveto
121.86068 55.004762 142.37931 61.66035 174.94257 62.020112 curveto
174.94257 106.10796 lineto
120.4384 106.10796 73.925358 73.0099 53.239074 39.552078 curveto
102.25368 39.714898 lineto
closepath
stroke
gsave [2.118757 0 0 2.118517 12.10511 -61.199] concat
0 0 0 setrgbcolor
[] 0 setdash
0.70866144 setlinewidth
1 setlinejoin
1 setlinecap
newpath
42.387278 47.938861 moveto
42.221304 47.754271 42.236412 47.469756 42.421002 47.303782 curveto
42.605592 47.137807 42.890108 47.152916 43.056082 47.337506 curveto
43.222056 47.522096 43.206947 47.806612 43.022357 47.972586 curveto
42.840306 48.136277 42.561437 48.124488 42.393851 47.946015 curveto
stroke
grestore
gsave [2.118757 0 0 2.118517 84.41718 -39.07367] concat
0 0 0 setrgbcolor
[] 0 setdash
0.70866144 setlinewidth
1 setlinejoin
1 setlinecap
newpath
42.387278 47.938861 moveto
42.221304 47.754271 42.236412 47.469756 42.421002 47.303782 curveto
42.605592 47.137807 42.890108 47.152916 43.056082 47.337506 curveto
43.222056 47.522096 43.206947 47.806612 43.022357 47.972586 curveto
42.840306 48.136277 42.561437 48.124488 42.393851 47.946015 curveto
stroke
grestore
gsave [2.118757 0 0 2.118517 84.41718 4.997121] concat
0 0 0 setrgbcolor
[] 0 setdash
0.70866144 setlinewidth
1 setlinejoin
1 setlinecap
newpath
42.387278 47.938861 moveto
42.221304 47.754271 42.236412 47.469756 42.421002 47.303782 curveto
42.605592 47.137807 42.890108 47.152916 43.056082 47.337506 curveto
43.222056 47.522096 43.206947 47.806612 43.022357 47.972586 curveto
42.840306 48.136277 42.561437 48.124488 42.393851 47.946015 curveto
stroke
grestore
gsave [2.118757 0 0 2.118517 -37.00234 -61.199] concat
0 0 0 setrgbcolor
[] 0 setdash
0.70866144 setlinewidth
1 setlinejoin
1 setlinecap
newpath
42.387278 47.938861 moveto
42.221304 47.754271 42.236412 47.469756 42.421002 47.303782 curveto
42.605592 47.137807 42.890108 47.152916 43.056082 47.337506 curveto
43.222056 47.522096 43.206947 47.806612 43.022357 47.972586 curveto
42.840306 48.136277 42.561437 48.124488 42.393851 47.946015 curveto
stroke
grestore
0 0 0 setrgbcolor
[] 0 setdash
0.70866144 setlinewidth
0 setlinejoin
0 setlinecap
newpath
67.819117 39.637566 moveto
86.34684 39.637566 lineto
stroke
gsave [-0.28346457 0 0 -0.28346457 83.512194 39.637566] concat
gsave
0 0 0 setrgbcolor
newpath
0 0 moveto
5 -5 lineto
-12.5 0 lineto
5 5 lineto
0 0 lineto
closepath
eofill
grestore
0 0 0 setrgbcolor
[] 0 setdash
1.25 setlinewidth
0 setlinejoin
0 setlinecap
newpath
0 0 moveto
5 -5 lineto
-12.5 0 lineto
5 5 lineto
0 0 lineto
closepath
stroke
grestore
0 0 0 setrgbcolor
[] 0 setdash
0.70866144 setlinewidth
0 setlinejoin
0 setlinecap
newpath
175.02398 65.180632 moveto
175.02398 83.708349 lineto
stroke
gsave [-1.7356626e-17 -0.28346457 0.28346457 -1.7356626e-17 175.02398 80.873703] concat
gsave
0 0 0 setrgbcolor
newpath
0 0 moveto
5 -5 lineto
-12.5 0 lineto
5 5 lineto
0 0 lineto
closepath
eofill
grestore
0 0 0 setrgbcolor
[] 0 setdash
1.25 setlinewidth
0 setlinejoin
0 setlinecap
newpath
0 0 moveto
5 -5 lineto
-12.5 0 lineto
5 5 lineto
0 0 lineto
closepath
stroke
grestore
0 0 0 setrgbcolor
[] 0 setdash
0.70866144 setlinewidth
0 setlinejoin
0 setlinecap
newpath
154.16244 60.820399 moveto
157.29547 61.316242 lineto
stroke
gsave [-0.2799799 -0.044310484 0.044310484 -0.2799799 154.49567 60.873137] concat
gsave
0 0 0 setrgbcolor
newpath
0 0 moveto
5 -5 lineto
-12.5 0 lineto
5 5 lineto
0 0 lineto
closepath
eofill
grestore
0 0 0 setrgbcolor
[] 0 setdash
1.25 setlinewidth
0 setlinejoin
0 setlinecap
newpath
0 0 moveto
5 -5 lineto
-12.5 0 lineto
5 5 lineto
0 0 lineto
closepath
stroke
grestore
0 0 0 setrgbcolor
[] 0 setdash
0.70866144 setlinewidth
0 setlinejoin
0 setlinecap
newpath
108.71631 89.414042 moveto
106.24336 88.268621 lineto
stroke
gsave [0.25721343 0.11913612 -0.11913612 0.25721343 108.81549 89.459982] concat
gsave
0 0 0 setrgbcolor
newpath
0 0 moveto
5 -5 lineto
-12.5 0 lineto
5 5 lineto
0 0 lineto
closepath
eofill
grestore
0 0 0 setrgbcolor
[] 0 setdash
1.25 setlinewidth
0 setlinejoin
0 setlinecap
newpath
0 0 moveto
5 -5 lineto
-12.5 0 lineto
5 5 lineto
0 0 lineto
closepath
stroke
grestore
gsave [1 0 0 -1 195.5304 124.53721] concat
gsave
/newlatin1font {findfont dup length dict copy dup /Encoding ISOLatin1Encoding put definefont} def
/(Thryomanes-ISOLatin1) /(Thryomanes) newlatin1font
10 scalefont
setfont
0 0 0 setrgbcolor
newpath
0 0 moveto
(V/m) show
grestore
grestore
gsave [1 0 0 -1 38.134724 20.38625] concat
gsave
/(Thryomanes-ISOLatin1) findfont
10 scalefont
setfont
0 0 0 setrgbcolor
newpath
0 0 moveto
(p/bar) show
grestore
grestore
0 0 0 setrgbcolor
[4.2963984 4.2963984] 0 setdash
0.53704983 setlinewidth
0 setlinejoin
0 setlinecap
newpath
53.334646 41.230681 moveto
53.334646 130.49502 lineto
stroke
0 0 0 setrgbcolor
[2.8346457 2.8346457] 0 setdash
0.35433072 setlinewidth
0 setlinejoin
0 setlinecap
newpath
174.8441 106.09943 moveto
174.8441 130.38334 lineto
stroke
0 0 0 setrgbcolor
[] 0 setdash
0.65463519 setlinewidth
0 setlinejoin
0 setlinecap
newpath
53.323713 105.64973 moveto
174.22544 105.64973 lineto
stroke
0 0 0 setrgbcolor
[] 0 setdash
1.0805978 setlinewidth
0 setlinejoin
0 setlinecap
newpath
143.9864 65.786481 moveto
143.9864 43.559583 lineto
stroke
gsave [-2.6466138e-17 0.4322391 -0.4322391 -2.6466138e-17 143.9864 47.881974] concat
gsave
0 0 0 setrgbcolor
newpath
0 0 moveto
5 -5 lineto
-12.5 0 lineto
5 5 lineto
0 0 lineto
closepath
eofill
grestore
0 0 0 setrgbcolor
[] 0 setdash
1.25 setlinewidth
0 setlinejoin
0 setlinecap
newpath
0 0 moveto
5 -5 lineto
-12.5 0 lineto
5 5 lineto
0 0 lineto
closepath
stroke
grestore
0 0 0 setrgbcolor
[] 0 setdash
2.480315 setlinewidth
0 setlinejoin
0 setlinecap
newpath
93.260033 20.484342 moveto
93.260033 61.317275 lineto
stroke
gsave [-6.0748189e-17 -0.99212599 0.99212599 -6.0748189e-17 93.260033 51.396015] concat
gsave
0 0 0 setrgbcolor
newpath
0 0 moveto
5 -5 lineto
-12.5 0 lineto
5 5 lineto
0 0 lineto
closepath
eofill
grestore
0 0 0 setrgbcolor
[] 0 setdash
1.25 setlinewidth
0 setlinejoin
0 setlinecap
newpath
0 0 moveto
5 -5 lineto
-12.5 0 lineto
5 5 lineto
0 0 lineto
closepath
stroke
grestore
0 0 0 setrgbcolor
[] 0 setdash
2.1259842 setlinewidth
0 setlinejoin
0 setlinecap
newpath
156.81717 88.420043 moveto
197.65011 88.420043 lineto
stroke
gsave [-0.85039368 0 0 -0.85039368 189.14617 88.420043] concat
gsave
0 0 0 setrgbcolor
newpath
0 0 moveto
5 -5 lineto
-12.5 0 lineto
5 5 lineto
0 0 lineto
closepath
eofill
grestore
0 0 0 setrgbcolor
[] 0 setdash
1.25 setlinewidth
0 setlinejoin
0 setlinecap
newpath
0 0 moveto
5 -5 lineto
-12.5 0 lineto
5 5 lineto
0 0 lineto
closepath
stroke
grestore
0 0 0 setrgbcolor
[] 0 setdash
0.70348704 setlinewidth
0 setlinejoin
0 setlinecap
newpath
98.656458 90.924649 moveto
98.656458 74.616552 lineto
stroke
gsave [-1.7229894e-17 0.28139482 -0.28139482 -1.7229894e-17 98.656458 77.4305] concat
gsave
0 0 0 setrgbcolor
newpath
0 0 moveto
5 -5 lineto
-12.5 0 lineto
5 5 lineto
0 0 lineto
closepath
eofill
grestore
0 0 0 setrgbcolor
[] 0 setdash
1.25 setlinewidth
0 setlinejoin
0 setlinecap
newpath
0 0 moveto
5 -5 lineto
-12.5 0 lineto
5 5 lineto
0 0 lineto
closepath
stroke
grestore
gsave [1 0 0 -1 170.16721 145.2235] concat
gsave
/(Thryomanes-ISOLatin1) findfont
10 scalefont
setfont
0 0 0 setrgbcolor
newpath
0 0 moveto
(V1) show
grestore
grestore
gsave [1 0 0 -1 67.275406 144.3241] concat
gsave
/(Thryomanes-ISOLatin1) findfont
10 scalefont
setfont
0 0 0 setrgbcolor
newpath
0 0 moveto
(V2) show
grestore
grestore
gsave [1 0 0 -1 153.07852 45.569557] concat
gsave
/(Thryomanes-ISOLatin1) findfont
10 scalefont
setfont
0 0 0 setrgbcolor
newpath
0 0 moveto
(A) show
grestore
grestore
gsave [1 0 0 -1 81.845749 93.777603] concat
gsave
/(Thryomanes-ISOLatin1) findfont
10 scalefont
setfont
0 0 0 setrgbcolor
newpath
0 0 moveto
(A) show
grestore
grestore
gsave [1 0 0 -1 102.53204 27.401602] concat
gsave
/(Thryomanes-ISOLatin1) findfont
10 scalefont
setfont
0 0 0 setrgbcolor
newpath
0 0 moveto
(Q1) show
grestore
grestore
gsave [1 0 0 -1 184.01802 77.408455] concat
gsave
/(Thryomanes-ISOLatin1) findfont
10 scalefont
setfont
0 0 0 setrgbcolor
newpath
0 0 moveto
(Q2) show
grestore
grestore
0 0 0 setrgbcolor
[] 0 setdash
0.70866144 setlinewidth
0 setlinejoin
0 setlinecap
newpath
82.571852 105.64972 moveto
85.297192 105.64972 lineto
stroke
gsave [-0.28346457 0 0 -0.28346457 82.462546 105.64972] concat
gsave
0 0 0 setrgbcolor
newpath
0 0 moveto
5 -5 lineto
-12.5 0 lineto
5 5 lineto
0 0 lineto
closepath
eofill
grestore
0 0 0 setrgbcolor
[] 0 setdash
1.25 setlinewidth
0 setlinejoin
0 setlinecap
newpath
0 0 moveto
5 -5 lineto
-12.5 0 lineto
5 5 lineto
0 0 lineto
closepath
stroke
grestore
0 0 0 setrgbcolor
[] 0 setdash
0.70866144 setlinewidth
0 setlinejoin
0 setlinecap
newpath
106.42468 105.64972 moveto
103.69934 105.64972 lineto
stroke
gsave [0.28346457 -3.4713252e-17 3.4713252e-17 0.28346457 106.53399 105.64972] concat
gsave
0 0 0 setrgbcolor
newpath
0 0 moveto
5 -5 lineto
-12.5 0 lineto
5 5 lineto
0 0 lineto
closepath
eofill
grestore
0 0 0 setrgbcolor
[] 0 setdash
1.25 setlinewidth
0 setlinejoin
0 setlinecap
newpath
0 0 moveto
5 -5 lineto
-12.5 0 lineto
5 5 lineto
0 0 lineto
closepath
stroke
grestore
gsave [1 0 0 -1 100.73322 120.93961] concat
gsave
/(Thryomanes-ISOLatin1) findfont
10 scalefont
setfont
0 0 0 setrgbcolor
newpath
0 0 moveto
(a ; f) show
grestore
grestore
gsave [1 0 0 -1 122.13905 91.978806] concat
gsave
/(Thryomanes-ISOLatin1) findfont
10 scalefont
setfont
0 0 0 setrgbcolor
newpath
0 0 moveto
(b) show
grestore
grestore
gsave [1 0 0 -1 68.534569 32.798027] concat
gsave
/(Thryomanes-ISOLatin1) findfont
10 scalefont
setfont
0 0 0 setrgbcolor
newpath
0 0 moveto
(c) show
grestore
grestore
gsave [1 0 0 -1 114.94381 64.816795] concat
gsave
/(Thryomanes-ISOLatin1) findfont
10 scalefont
setfont
0 0 0 setrgbcolor
newpath
0 0 moveto
(d) show
grestore
grestore
gsave [1 0 0 -1 157.03589 79.027382] concat
gsave
/(Thryomanes-ISOLatin1) findfont
10 scalefont
setfont
0 0 0 setrgbcolor
newpath
0 0 moveto
(e) show
grestore
grestore
grestore
showpage
%%EOF
