%!PS-Adobe-2.0 EPSF-2.0
%%Title: Dilatationlineaire.fig
%%Creator: fig2dev Version 3.2 Patchlevel 5-alpha5
%%CreationDate: Thu Mar 16 21:58:01 2006
%%For: guyotv@debian ()
%%BoundingBox: 0 0 91 23
%Magnification: 1.0000
%%EndComments
/$F2psDict 200 dict def
$F2psDict begin
$F2psDict /mtrx matrix put
/col-1 {0 setgray} bind def
/col0 {0.000 0.000 0.000 srgb} bind def
/col1 {0.000 0.000 1.000 srgb} bind def
/col2 {0.000 1.000 0.000 srgb} bind def
/col3 {0.000 1.000 1.000 srgb} bind def
/col4 {1.000 0.000 0.000 srgb} bind def
/col5 {1.000 0.000 1.000 srgb} bind def
/col6 {1.000 1.000 0.000 srgb} bind def
/col7 {1.000 1.000 1.000 srgb} bind def
/col8 {0.000 0.000 0.560 srgb} bind def
/col9 {0.000 0.000 0.690 srgb} bind def
/col10 {0.000 0.000 0.820 srgb} bind def
/col11 {0.530 0.810 1.000 srgb} bind def
/col12 {0.000 0.560 0.000 srgb} bind def
/col13 {0.000 0.690 0.000 srgb} bind def
/col14 {0.000 0.820 0.000 srgb} bind def
/col15 {0.000 0.560 0.560 srgb} bind def
/col16 {0.000 0.690 0.690 srgb} bind def
/col17 {0.000 0.820 0.820 srgb} bind def
/col18 {0.560 0.000 0.000 srgb} bind def
/col19 {0.690 0.000 0.000 srgb} bind def
/col20 {0.820 0.000 0.000 srgb} bind def
/col21 {0.560 0.000 0.560 srgb} bind def
/col22 {0.690 0.000 0.690 srgb} bind def
/col23 {0.820 0.000 0.820 srgb} bind def
/col24 {0.500 0.190 0.000 srgb} bind def
/col25 {0.630 0.250 0.000 srgb} bind def
/col26 {0.750 0.380 0.000 srgb} bind def
/col27 {1.000 0.500 0.500 srgb} bind def
/col28 {1.000 0.630 0.630 srgb} bind def
/col29 {1.000 0.750 0.750 srgb} bind def
/col30 {1.000 0.880 0.880 srgb} bind def
/col31 {1.000 0.840 0.000 srgb} bind def

end
save
newpath 0 23 moveto 0 0 lineto 91 0 lineto 91 23 lineto closepath clip newpath
-10.6 34.8 translate
1 -1 scale

/cp {closepath} bind def
/ef {eofill} bind def
/gr {grestore} bind def
/gs {gsave} bind def
/sa {save} bind def
/rs {restore} bind def
/l {lineto} bind def
/m {moveto} bind def
/rm {rmoveto} bind def
/n {newpath} bind def
/s {stroke} bind def
/sh {show} bind def
/slc {setlinecap} bind def
/slj {setlinejoin} bind def
/slw {setlinewidth} bind def
/srgb {setrgbcolor} bind def
/rot {rotate} bind def
/sc {scale} bind def
/sd {setdash} bind def
/ff {findfont} bind def
/sf {setfont} bind def
/scf {scalefont} bind def
/sw {stringwidth} bind def
/tr {translate} bind def
/tnt {dup dup currentrgbcolor
  4 -2 roll dup 1 exch sub 3 -1 roll mul add
  4 -2 roll dup 1 exch sub 3 -1 roll mul add
  4 -2 roll dup 1 exch sub 3 -1 roll mul add srgb}
  bind def
/shd {dup dup currentrgbcolor 4 -2 roll mul 4 -2 roll mul
  4 -2 roll mul srgb} bind def
/$F2psBegin {$F2psDict begin /$F2psEnteredState save def} def
/$F2psEnd {$F2psEnteredState restore end} def

$F2psBegin
10 setmiterlimit
0 slj 0 slc
 0.06299 0.06299 sc
%
% Fig objects follow
%
% 
% here starts figure with depth 50
% Arc
7.500 slw
0 slc
n 247.9 471.1 70.0 -106.5336 103.9876 arcn
gs col0 s gr

% Arc
n 1362.9 471.1 70.0 -106.5336 103.9876 arcn
gs col0 s gr

% Arc
 [45] 0 sd
n 1529.1 474.1 70.0 -73.4664 76.0124 arc
gs col0 s gr
 [] 0 sd
% Arc
 [45] 0 sd
n 1562.9 474.1 70.0 -106.5336 103.9876 arcn
gs col0 s gr
 [] 0 sd
% Arc
 [45] 0 sd
n 1338.1 474.1 70.0 -73.4664 76.0124 arc
gs col0 s gr
 [] 0 sd
% Polyline
0 slj
n 225 405 m
 1350 405 l gs col0 s gr 
% Polyline
n 225 540 m
 1350 540 l gs col0 s gr 
% Polyline
 [45] 0 sd
n 1341 404 m
 1551 404 l gs col0 s gr  [] 0 sd
% Polyline
 [45] 0 sd
n 1343 539 m
 1553 539 l gs col0 s gr  [] 0 sd
% Polyline
gs  clippath
1306 370 m 1361 370 l 1361 354 l 1306 354 l 1306 354 l 1325 362 l 1306 369 l cp
262 354 m 208 354 l 208 370 l 262 370 l 262 369 l 244 362 l 262 354 l cp
eoclip
n 223 362 m
 1346 362 l gs col0 s gr gr

% arrowhead
n 262 354 m 244 362 l 262 369 l 259 362 l 262 354 l 
 cp gs 0.00 setgray ef gr  col0 s
% arrowhead
n 1306 369 m 1325 362 l 1306 354 l 1310 362 l 1306 369 l 
 cp gs 0.00 setgray ef gr  col0 s
% Polyline
gs  clippath
1507 370 m 1562 370 l 1562 354 l 1507 354 l 1507 354 l 1526 362 l 1507 369 l cp
1389 354 m 1335 354 l 1335 370 l 1389 370 l 1389 369 l 1371 362 l 1389 354 l cp
eoclip
n 1350 362 m
 1547 362 l gs col0 s gr gr

% arrowhead
n 1389 354 m 1371 362 l 1389 369 l 1386 362 l 1389 354 l 
 cp gs 0.00 setgray ef gr  col0 s
% arrowhead
n 1507 369 m 1526 362 l 1507 354 l 1511 362 l 1507 369 l 
 cp gs 0.00 setgray ef gr  col0 s
/Times-Roman ff 158.75 scf sf
1459 322 m
gs 1 -1 sc (L) col0 sh gr
/Symbol ff 158.75 scf sf
1355 323 m
gs 1 -1 sc (D) col0 sh gr
/Times-Roman ff 127.00 scf sf
800 336 m
gs 1 -1 sc (o) col0 sh gr
/Times-Roman ff 158.75 scf sf
691 315 m
gs 1 -1 sc (L) col0 sh gr
% here ends figure;
$F2psEnd
rs
showpage
%%Trailer
%EOF
