%!PS-Adobe-3.0 EPSF-3.0
%%Creator: inkscape 0.44.1
%%Pages: 1
%%Orientation: Portrait
%%BoundingBox: 9 700 153 808
%%HiResBoundingBox: 9.9225464 700.19561 152.55082 807.40656
%%DocumentMedia: plain 596 842 0 () ()
%%EndComments
%%Page: 1 1
0 842 translate
0.8 -0.8 scale
gsave [1 0 0 1 0 0] concat
0 0 0 setrgbcolor
[] 0 setdash
0.70866144 setlinewidth
0 setlinejoin
0 setlinecap
newpath
15.399206 86.11334 moveto
56.669078 86.11334 lineto
56.669078 145.04097 lineto
126.47881 145.04097 lineto
126.47881 48.333954 lineto
190.33419 48.539277 lineto
stroke
0 0 0 setrgbcolor
[] 0 setdash
0.70866144 setlinewidth
0 setlinejoin
0 setlinecap
newpath
58.927628 86.318662 moveto
124.01494 86.318662 lineto
124.01494 90.219794 lineto
93.216527 90.219794 lineto
93.216527 124.30337 lineto
126.47881 124.30337 lineto
126.47881 127.79386 lineto
56.669078 127.79386 lineto
56.669078 124.30337 lineto
88.083458 124.30337 lineto
88.083458 90.014472 lineto
58.927628 90.014472 lineto
58.927628 86.318662 lineto
closepath
stroke
0 0 0 setrgbcolor
[] 0 setdash
1.0629921 setlinewidth
1 setlinejoin
1 setlinecap
newpath
75.353447 70.508812 moveto
105.74121 70.508812 lineto
105.74121 85.908018 lineto
75.353447 85.908018 lineto
75.353447 70.508812 lineto
closepath
stroke
0 0 0 setrgbcolor
[] 0 setdash
0.35433072 setlinewidth
0 setlinejoin
0 setlinecap
newpath
37.36874 78.721721 moveto
73.916189 78.721721 lineto
stroke
gsave [-0.14173229 0 0 -0.14173229 72.498866 78.721721] concat
gsave
0 0 0 setrgbcolor
newpath
0 0 moveto
5 -5 lineto
-12.5 0 lineto
5 5 lineto
0 0 lineto
closepath
eofill
grestore
0 0 0 setrgbcolor
[] 0 setdash
1.25 setlinewidth
0 setlinejoin
0 setlinecap
newpath
0 0 moveto
5 -5 lineto
-12.5 0 lineto
5 5 lineto
0 0 lineto
closepath
stroke
grestore
0 0 0 setrgbcolor
[] 0 setdash
0.69948137 setlinewidth
0 setlinejoin
0 setlinecap
newpath
56.664487 127.78927 moveto
126.4834 127.78927 lineto
126.4834 144.84023 lineto
56.664487 144.84023 lineto
56.664487 127.78927 lineto
closepath
stroke
0 0 0 setrgbcolor
[] 0 setdash
0.70866144 setlinewidth
1 setlinejoin
1 setlinecap
newpath
62.112754 130.73762 moveto
61.961195 130.56906 61.974991 130.30926 62.14355 130.1577 curveto
62.312108 130.00614 62.571914 130.01994 62.723473 130.18849 curveto
62.875032 130.35705 62.861236 130.61686 62.692678 130.76842 curveto
62.526438 130.91789 62.271788 130.90713 62.118757 130.74416 curveto
stroke
gsave [1 0 0 1 9.444848 5.338299] concat
0 0 0 setrgbcolor
[] 0 setdash
0.70866144 setlinewidth
1 setlinejoin
1 setlinecap
newpath
62.112754 130.73762 moveto
61.961195 130.56906 61.974991 130.30926 62.14355 130.1577 curveto
62.312108 130.00614 62.571914 130.01994 62.723473 130.18849 curveto
62.875032 130.35705 62.861236 130.61686 62.692678 130.76842 curveto
62.526438 130.91789 62.271788 130.90713 62.118757 130.74416 curveto
stroke
grestore
gsave [1 0 0 1 14.78324 1.231841] concat
0 0 0 setrgbcolor
[] 0 setdash
0.70866144 setlinewidth
1 setlinejoin
1 setlinecap
newpath
62.112754 130.73762 moveto
61.961195 130.56906 61.974991 130.30926 62.14355 130.1577 curveto
62.312108 130.00614 62.571914 130.01994 62.723473 130.18849 curveto
62.875032 130.35705 62.861236 130.61686 62.692678 130.76842 curveto
62.526438 130.91789 62.271788 130.90713 62.118757 130.74416 curveto
stroke
grestore
gsave [1 0 0 1 2.463871 7.596847] concat
0 0 0 setrgbcolor
[] 0 setdash
0.70866144 setlinewidth
1 setlinejoin
1 setlinecap
newpath
62.112754 130.73762 moveto
61.961195 130.56906 61.974991 130.30926 62.14355 130.1577 curveto
62.312108 130.00614 62.571914 130.01994 62.723473 130.18849 curveto
62.875032 130.35705 62.861236 130.61686 62.692678 130.76842 curveto
62.526438 130.91789 62.271788 130.90713 62.118757 130.74416 curveto
stroke
grestore
gsave [1 0 0 1 17.04179 9.239435] concat
0 0 0 setrgbcolor
[] 0 setdash
0.70866144 setlinewidth
1 setlinejoin
1 setlinecap
newpath
62.112754 130.73762 moveto
61.961195 130.56906 61.974991 130.30926 62.14355 130.1577 curveto
62.312108 130.00614 62.571914 130.01994 62.723473 130.18849 curveto
62.875032 130.35705 62.861236 130.61686 62.692678 130.76842 curveto
62.526438 130.91789 62.271788 130.90713 62.118757 130.74416 curveto
stroke
grestore
gsave [1 0 0 1 23.61212 7.596849] concat
0 0 0 setrgbcolor
[] 0 setdash
0.70866144 setlinewidth
1 setlinejoin
1 setlinecap
newpath
62.112754 130.73762 moveto
61.961195 130.56906 61.974991 130.30926 62.14355 130.1577 curveto
62.312108 130.00614 62.571914 130.01994 62.723473 130.18849 curveto
62.875032 130.35705 62.861236 130.61686 62.692678 130.76842 curveto
62.526438 130.91789 62.271788 130.90713 62.118757 130.74416 curveto
stroke
grestore
gsave [1 0 0 1 25.04937 1.847812] concat
0 0 0 setrgbcolor
[] 0 setdash
0.70866144 setlinewidth
1 setlinejoin
1 setlinecap
newpath
62.112754 130.73762 moveto
61.961195 130.56906 61.974991 130.30926 62.14355 130.1577 curveto
62.312108 130.00614 62.571914 130.01994 62.723473 130.18849 curveto
62.875032 130.35705 62.861236 130.61686 62.692678 130.76842 curveto
62.526438 130.91789 62.271788 130.90713 62.118757 130.74416 curveto
stroke
grestore
gsave [1 0 0 1 32.64632 2.874426] concat
0 0 0 setrgbcolor
[] 0 setdash
0.70866144 setlinewidth
1 setlinejoin
1 setlinecap
newpath
62.112754 130.73762 moveto
61.961195 130.56906 61.974991 130.30926 62.14355 130.1577 curveto
62.312108 130.00614 62.571914 130.01994 62.723473 130.18849 curveto
62.875032 130.35705 62.861236 130.61686 62.692678 130.76842 curveto
62.526438 130.91789 62.271788 130.90713 62.118757 130.74416 curveto
stroke
grestore
gsave [1 0 0 1 42.09116 0.821199] concat
0 0 0 setrgbcolor
[] 0 setdash
0.70866144 setlinewidth
1 setlinejoin
1 setlinecap
newpath
62.112754 130.73762 moveto
61.961195 130.56906 61.974991 130.30926 62.14355 130.1577 curveto
62.312108 130.00614 62.571914 130.01994 62.723473 130.18849 curveto
62.875032 130.35705 62.861236 130.61686 62.692678 130.76842 curveto
62.526438 130.91789 62.271788 130.90713 62.118757 130.74416 curveto
stroke
grestore
gsave [1 0 0 1 40.6539 5.748944] concat
0 0 0 setrgbcolor
[] 0 setdash
0.70866144 setlinewidth
1 setlinejoin
1 setlinecap
newpath
62.112754 130.73762 moveto
61.961195 130.56906 61.974991 130.30926 62.14355 130.1577 curveto
62.312108 130.00614 62.571914 130.01994 62.723473 130.18849 curveto
62.875032 130.35705 62.861236 130.61686 62.692678 130.76842 curveto
62.526438 130.91789 62.271788 130.90713 62.118757 130.74416 curveto
stroke
grestore
gsave [1 0 0 1 37.57406 10.26604] concat
0 0 0 setrgbcolor
[] 0 setdash
0.70866144 setlinewidth
1 setlinejoin
1 setlinecap
newpath
62.112754 130.73762 moveto
61.961195 130.56906 61.974991 130.30926 62.14355 130.1577 curveto
62.312108 130.00614 62.571914 130.01994 62.723473 130.18849 curveto
62.875032 130.35705 62.861236 130.61686 62.692678 130.76842 curveto
62.526438 130.91789 62.271788 130.90713 62.118757 130.74416 curveto
stroke
grestore
gsave [1 0 0 1 48.04552 6.775558] concat
0 0 0 setrgbcolor
[] 0 setdash
0.70866144 setlinewidth
1 setlinejoin
1 setlinecap
newpath
62.112754 130.73762 moveto
61.961195 130.56906 61.974991 130.30926 62.14355 130.1577 curveto
62.312108 130.00614 62.571914 130.01994 62.723473 130.18849 curveto
62.875032 130.35705 62.861236 130.61686 62.692678 130.76842 curveto
62.526438 130.91789 62.271788 130.90713 62.118757 130.74416 curveto
stroke
grestore
gsave [1 0 0 1 50.09875 1.231844] concat
0 0 0 setrgbcolor
[] 0 setdash
0.70866144 setlinewidth
1 setlinejoin
1 setlinecap
newpath
62.112754 130.73762 moveto
61.961195 130.56906 61.974991 130.30926 62.14355 130.1577 curveto
62.312108 130.00614 62.571914 130.01994 62.723473 130.18849 curveto
62.875032 130.35705 62.861236 130.61686 62.692678 130.76842 curveto
62.526438 130.91789 62.271788 130.90713 62.118757 130.74416 curveto
stroke
grestore
gsave [1 0 0 1 56.25843 6.570235] concat
0 0 0 setrgbcolor
[] 0 setdash
0.70866144 setlinewidth
1 setlinejoin
1 setlinecap
newpath
62.112754 130.73762 moveto
61.961195 130.56906 61.974991 130.30926 62.14355 130.1577 curveto
62.312108 130.00614 62.571914 130.01994 62.723473 130.18849 curveto
62.875032 130.35705 62.861236 130.61686 62.692678 130.76842 curveto
62.526438 130.91789 62.271788 130.90713 62.118757 130.74416 curveto
stroke
grestore
gsave [1 0 0 1 59.13295 1.231844] concat
0 0 0 setrgbcolor
[] 0 setdash
0.70866144 setlinewidth
1 setlinejoin
1 setlinecap
newpath
62.112754 130.73762 moveto
61.961195 130.56906 61.974991 130.30926 62.14355 130.1577 curveto
62.312108 130.00614 62.571914 130.01994 62.723473 130.18849 curveto
62.875032 130.35705 62.861236 130.61686 62.692678 130.76842 curveto
62.526438 130.91789 62.271788 130.90713 62.118757 130.74416 curveto
stroke
grestore
gsave [1 0 0 1 50.09875 10.88201] concat
0 0 0 setrgbcolor
[] 0 setdash
0.70866144 setlinewidth
1 setlinejoin
1 setlinecap
newpath
62.112754 130.73762 moveto
61.961195 130.56906 61.974991 130.30926 62.14355 130.1577 curveto
62.312108 130.00614 62.571914 130.01994 62.723473 130.18849 curveto
62.875032 130.35705 62.861236 130.61686 62.692678 130.76842 curveto
62.526438 130.91789 62.271788 130.90713 62.118757 130.74416 curveto
stroke
grestore
gsave [1 0 0 1 57.6957 11.08734] concat
0 0 0 setrgbcolor
[] 0 setdash
0.70866144 setlinewidth
1 setlinejoin
1 setlinecap
newpath
62.112754 130.73762 moveto
61.961195 130.56906 61.974991 130.30926 62.14355 130.1577 curveto
62.312108 130.00614 62.571914 130.01994 62.723473 130.18849 curveto
62.875032 130.35705 62.861236 130.61686 62.692678 130.76842 curveto
62.526438 130.91789 62.271788 130.90713 62.118757 130.74416 curveto
stroke
grestore
gsave [1 0 0 1 -1.026612 11.29266] concat
0 0 0 setrgbcolor
[] 0 setdash
0.70866144 setlinewidth
1 setlinejoin
1 setlinecap
newpath
62.112754 130.73762 moveto
61.961195 130.56906 61.974991 130.30926 62.14355 130.1577 curveto
62.312108 130.00614 62.571914 130.01994 62.723473 130.18849 curveto
62.875032 130.35705 62.861236 130.61686 62.692678 130.76842 curveto
62.526438 130.91789 62.271788 130.90713 62.118757 130.74416 curveto
stroke
grestore
gsave [1 0 0 1 9.444847 10.67669] concat
0 0 0 setrgbcolor
[] 0 setdash
0.70866144 setlinewidth
1 setlinejoin
1 setlinecap
newpath
62.112754 130.73762 moveto
61.961195 130.56906 61.974991 130.30926 62.14355 130.1577 curveto
62.312108 130.00614 62.571914 130.01994 62.723473 130.18849 curveto
62.875032 130.35705 62.861236 130.61686 62.692678 130.76842 curveto
62.526438 130.91789 62.271788 130.90713 62.118757 130.74416 curveto
stroke
grestore
gsave [1 0 0 1 29.36115 10.26604] concat
0 0 0 setrgbcolor
[] 0 setdash
0.70866144 setlinewidth
1 setlinejoin
1 setlinecap
newpath
62.112754 130.73762 moveto
61.961195 130.56906 61.974991 130.30926 62.14355 130.1577 curveto
62.312108 130.00614 62.571914 130.01994 62.723473 130.18849 curveto
62.875032 130.35705 62.861236 130.61686 62.692678 130.76842 curveto
62.526438 130.91789 62.271788 130.90713 62.118757 130.74416 curveto
stroke
grestore
gsave [1 0 0 -1 12.437363 50.340305] concat
gsave
/newlatin1font {findfont dup length dict copy dup /Encoding ISOLatin1Encoding put definefont} def
/(Thryomanes-ISOLatin1) /(Thryomanes) newlatin1font
10 scalefont
setfont
0 0 0 setrgbcolor
newpath
0 0 moveto
(Etape1 : isochore) show
grestore
grestore
0 0 0 setrgbcolor
[] 0 setdash
0.70866144 setlinewidth
0 setlinejoin
0 setlinecap
newpath
91.573026 146.17025 moveto
90.957056 146.5809 90.004316 151.2624 83.360112 156.02574 curveto
78.133588 159.77272 90.957056 165.67591 90.957056 165.67591 curveto
90.957056 168.55043 lineto
86.645277 168.55043 lineto
86.645277 176.76334 lineto
100.40189 176.76334 lineto
100.40189 168.34511 lineto
96.706082 168.34511 lineto
96.706082 165.67591 lineto
96.706082 165.67591 105.53061 161.22637 103.0711 154.7938 curveto
100.4019 147.81283 96.631952 153.75865 91.573026 146.17025 curveto
closepath
stroke
grestore
showpage
%%EOF
