\relax 
\@writefile{toc}{\contentsline {chapter}{\numberline {1}Introduction}{21}}
\@writefile{lof}{\addvspace {10\p@ }}
\@writefile{lot}{\addvspace {10\p@ }}
\@writefile{toc}{\contentsline {section}{\numberline {1.1}Du temps}{21}}
\@writefile{toc}{\contentsline {section}{\numberline {1.2}De l'infiniment grand \IeC {\`a} l'infiniment petit}{21}}
\@writefile{toc}{\contentsline {subsection}{\numberline {1.2.1}L'Univers}{21}}
\citation{JR00}
\@writefile{lof}{\contentsline {figure}{\numberline {1.1}{\ignorespaces L'univers profond}}{22}}
\providecommand*\caption@xref[2]{\@setref\relax\@undefined{#1}}
\newlabel{universprofond}{{1.1}{22}}
\@writefile{lof}{\contentsline {figure}{\numberline {1.2}{\ignorespaces Mod\IeC {\`e}les de courbure}}{22}}
\newlabel{modeledecourbure}{{1.2}{22}}
\@writefile{toc}{\contentsline {subsection}{\numberline {1.2.2}Les amas de galaxies}{22}}
\@writefile{lof}{\contentsline {figure}{\numberline {1.3}{\ignorespaces L'\IeC {\'e}volution du Soleil}}{23}}
\newlabel{evosol}{{1.3}{23}}
\@writefile{toc}{\contentsline {subsection}{\numberline {1.2.3}Les galaxies}{23}}
\citation{FC05}
\@writefile{lof}{\contentsline {figure}{\numberline {1.4}{\ignorespaces Groupe local}}{24}}
\newlabel{localesgalaxies}{{1.4}{24}}
\@writefile{lof}{\contentsline {figure}{\numberline {1.5}{\ignorespaces Galaxie du Sombrero}}{24}}
\newlabel{galaxies}{{1.5}{24}}
\@writefile{toc}{\contentsline {subsection}{\numberline {1.2.4}Les \IeC {\'e}toiles}{24}}
\@writefile{toc}{\contentsline {subsection}{\numberline {1.2.5}Le syst\IeC {\`e}me solaire}{24}}
\@writefile{lof}{\contentsline {figure}{\numberline {1.6}{\ignorespaces Interaction de deux galaxies}}{25}}
\newlabel{choc}{{1.6}{25}}
\@writefile{lof}{\contentsline {figure}{\numberline {1.7}{\ignorespaces N\IeC {\'e}buleuse plan\IeC {\'e}taire}}{25}}
\newlabel{planetaire}{{1.7}{25}}
\@writefile{lof}{\contentsline {figure}{\numberline {1.8}{\ignorespaces Premi\IeC {\`e}re exoplan\IeC {\`e}te}}{25}}
\newlabel{2M1207}{{1.8}{25}}
\@writefile{toc}{\contentsline {subsection}{\numberline {1.2.6}La Terre et la Lune}{26}}
\@writefile{toc}{\contentsline {subsubsection}{La Terre}{26}}
\@writefile{lof}{\contentsline {figure}{\numberline {1.9}{\ignorespaces Syst\IeC {\`e}me solaire}}{27}}
\newlabel{systemesolaire}{{1.9}{27}}
\@writefile{toc}{\contentsline {subsubsection}{La Lune}{27}}
\@writefile{lof}{\contentsline {figure}{\numberline {1.10}{\ignorespaces La taille des plan\IeC {\`e}tes}}{28}}
\newlabel{lesplanetes}{{1.10}{28}}
\@writefile{lof}{\contentsline {figure}{\numberline {1.11}{\ignorespaces La taille des plan\IeC {\`e}tes}}{29}}
\newlabel{billetcomete}{{1.11}{29}}
\@writefile{lof}{\contentsline {figure}{\numberline {1.12}{\ignorespaces Une com\IeC {\`e}te}}{29}}
\newlabel{comete}{{1.12}{29}}
\@writefile{lof}{\contentsline {figure}{\numberline {1.13}{\ignorespaces \IeC {\'E}toiles filantes}}{29}}
\newlabel{Leonides}{{1.13}{29}}
\@writefile{toc}{\contentsline {subsubsection}{Les mar\IeC {\'e}es}{29}}
\@writefile{lof}{\contentsline {figure}{\numberline {1.14}{\ignorespaces Les saisons}}{30}}
\newlabel{saisonsperso}{{1.14}{30}}
\@writefile{lof}{\contentsline {figure}{\numberline {1.15}{\ignorespaces Les saisons}}{30}}
\newlabel{pointingsaisons}{{1.15}{30}}
\@writefile{lof}{\contentsline {figure}{\numberline {1.16}{\ignorespaces La terre et la lune}}{30}}
\newlabel{terrelune}{{1.16}{30}}
\@writefile{lof}{\contentsline {figure}{\numberline {1.17}{\ignorespaces Les phases de la lune}}{31}}
\newlabel{phasesdelalune}{{1.17}{31}}
\@writefile{lof}{\contentsline {figure}{\numberline {1.18}{\ignorespaces Orbites de la lune et du soleil}}{31}}
\newlabel{Orbite-lune-soleil}{{1.18}{31}}
\citation{SV06}
\citation{FB05}
\newlabel{marees2}{{1.19(a)}{32}}
\newlabel{sub@marees2}{{(a)}{32}}
\newlabel{marees1}{{1.19(b)}{32}}
\newlabel{sub@marees1}{{(b)}{32}}
\@writefile{lof}{\contentsline {figure}{\numberline {1.19}{\ignorespaces Les mar\IeC {\'e}es\relax }}{32}}
\@writefile{lof}{\contentsline {subfigure}{\numberline{(a)}{\ignorespaces {Sans rotation de la lune}}}{32}}
\@writefile{lof}{\contentsline {subfigure}{\numberline{(b)}{\ignorespaces {Avec rotation de la lune}}}{32}}
\@writefile{toc}{\contentsline {subsection}{\numberline {1.2.7}Le monde subatomique}{32}}
\newlabel{subsectionsubatomique}{{1.2.7}{32}}
\@writefile{lof}{\contentsline {figure}{\numberline {1.20}{\ignorespaces La n\IeC {\'e}buleuse du Crabe}}{32}}
\newlabel{crabnebula}{{1.20}{32}}
\citation{SV06}
\@writefile{lof}{\contentsline {figure}{\numberline {1.21}{\ignorespaces L'atome de Bohr}}{33}}
\newlabel{Bohr}{{1.21}{33}}
\@writefile{lot}{\contentsline {table}{\numberline {1.1}{\ignorespaces Tableau des particules \IeC {\'e}l\IeC {\'e}mentaires}}{34}}
\newlabel{particuleselementaires}{{1.1}{34}}
\citation{JL06}
\@writefile{lof}{\contentsline {figure}{\numberline {1.22}{\ignorespaces L'atome~: onde de probabilit\IeC {\'e}}}{35}}
\newlabel{ondeproba}{{1.22}{35}}
\@writefile{lof}{\contentsline {figure}{\numberline {1.23}{\ignorespaces L'orbitale~: onde de probabilit\IeC {\'e}}}{35}}
\newlabel{orbitale}{{1.23}{35}}
\newlabel{forcefaible}{{1.2.7}{35}}
\@writefile{toc}{\contentsline {subsubsection}{Conclusion}{36}}
\@setckpt{Introduction/Introduction}{
\setcounter{page}{37}
\setcounter{equation}{0}
\setcounter{enumi}{0}
\setcounter{enumii}{0}
\setcounter{enumiii}{0}
\setcounter{enumiv}{0}
\setcounter{footnote}{4}
\setcounter{mpfootnote}{0}
\setcounter{part}{0}
\setcounter{chapter}{1}
\setcounter{section}{2}
\setcounter{subsection}{7}
\setcounter{subsubsection}{0}
\setcounter{paragraph}{0}
\setcounter{subparagraph}{0}
\setcounter{figure}{23}
\setcounter{table}{1}
\setcounter{NAT@ctr}{0}
\setcounter{parentequation}{0}
\setcounter{FancyVerbLine}{0}
\setcounter{float@type}{8}
\setcounter{fignum}{0}
\setcounter{r@tfl@t}{0}
\setcounter{subfigure}{0}
\setcounter{lofdepth}{1}
\setcounter{subtable}{0}
\setcounter{lotdepth}{1}
\setcounter{ContinuedFloat}{0}
\setcounter{endnote}{44}
\setcounter{OptionTest}{0}
\setcounter{DefaultLines}{2}
\setcounter{DefaultDepth}{0}
\setcounter{L@lines}{3}
\setcounter{L@depth}{0}
\setcounter{lstnumber}{1}
\setcounter{Solution}{0}
\setcounter{exc}{0}
\setcounter{Solution OS}{0}
\setcounter{exosc}{0}
\setcounter{lstlisting}{0}
}
