\relax 
\@writefile{toc}{\contentsline {chapter}{\numberline {G}Chute de la Lune}{191}}
\@writefile{lof}{\addvspace {10\p@ }}
\@writefile{lot}{\addvspace {10\p@ }}
\newlabel{chutelunecirculaire}{{G}{191}}
\@writefile{toc}{\contentsline {section}{\numberline {G.1}Introduction}{191}}
\@writefile{toc}{\contentsline {section}{\numberline {G.2}Acc\IeC {\'e}l\IeC {\'e}ration}{191}}
\newlabel{chutedelalune}{{G.2}{191}}
\@writefile{lof}{\contentsline {figure}{\numberline {G.1}{\ignorespaces Chute de la lune\relax }}{191}}
\newlabel{schemachutelune}{{G.1}{191}}
\newlabel{equation1}{{G.1}{192}}
\newlabel{equation2}{{G.2}{192}}
\@writefile{toc}{\contentsline {section}{\numberline {G.3}Force de gravitation}{192}}
\@setckpt{Annexe-ChuteLune/Annexe-ChuteLune}{
\setcounter{page}{193}
\setcounter{equation}{2}
\setcounter{enumi}{2}
\setcounter{enumii}{0}
\setcounter{enumiii}{0}
\setcounter{enumiv}{0}
\setcounter{footnote}{0}
\setcounter{mpfootnote}{0}
\setcounter{part}{0}
\setcounter{chapter}{7}
\setcounter{section}{3}
\setcounter{subsection}{0}
\setcounter{subsubsection}{0}
\setcounter{paragraph}{0}
\setcounter{subparagraph}{0}
\setcounter{figure}{1}
\setcounter{table}{0}
\setcounter{NAT@ctr}{0}
\setcounter{parentequation}{0}
\setcounter{FancyVerbLine}{0}
\setcounter{float@type}{8}
\setcounter{fignum}{1}
\setcounter{r@tfl@t}{4}
\setcounter{subfigure}{0}
\setcounter{lofdepth}{1}
\setcounter{subtable}{0}
\setcounter{lotdepth}{1}
\setcounter{ContinuedFloat}{0}
\setcounter{endnote}{102}
\setcounter{OptionTest}{0}
\setcounter{DefaultLines}{2}
\setcounter{DefaultDepth}{0}
\setcounter{L@lines}{3}
\setcounter{L@depth}{0}
\setcounter{lstnumber}{1}
\setcounter{Solution}{0}
\setcounter{exc}{0}
\setcounter{Solution OS}{0}
\setcounter{exosc}{0}
\setcounter{lstlisting}{0}
}
