\relax 
\@writefile{toc}{\contentsline {chapter}{\numberline {2}La cin\IeC {\'e}matique}{37}}
\@writefile{lof}{\addvspace {10\p@ }}
\@writefile{lot}{\addvspace {10\p@ }}
\@writefile{toc}{\contentsline {section}{\numberline {2.1}Introduction}{37}}
\@writefile{toc}{\contentsline {section}{\numberline {2.2}Position}{37}}
\@writefile{toc}{\contentsline {subsection}{\numberline {2.2.1}Dimensions}{37}}
\@writefile{toc}{\contentsline {subsection}{\numberline {2.2.2}Syst\IeC {\`e}me d'axes}{37}}
\@writefile{lof}{\contentsline {figure}{\numberline {2.1}{\ignorespaces Un syst\IeC {\`e}me d'axes en une dimension\relax }}{37}}
\newlabel{1dim}{{2.1}{37}}
\@writefile{toc}{\contentsline {subsection}{\numberline {2.2.3}Position}{37}}
\@writefile{lof}{\contentsline {figure}{\numberline {2.2}{\ignorespaces La position d'un objet\relax }}{38}}
\newlabel{position}{{2.2}{38}}
\@writefile{toc}{\contentsline {subsection}{\numberline {2.2.4}D\IeC {\'e}placement}{38}}
\@writefile{toc}{\contentsline {subsection}{\numberline {2.2.5}Distance parcourue}{38}}
\@writefile{toc}{\contentsline {section}{\numberline {2.3}Vitesse}{38}}
\@writefile{toc}{\contentsline {subsection}{\numberline {2.3.1}Vitesse moyenne}{38}}
\@writefile{toc}{\contentsline {subsection}{\numberline {2.3.2}Exemples}{38}}
\@writefile{toc}{\contentsline {subsubsection}{Exemple 1}{38}}
\@writefile{toc}{\contentsline {subsubsection}{Exemple 2}{38}}
\@writefile{toc}{\contentsline {subsection}{\numberline {2.3.3}Vitesse instantan\IeC {\'e}e}{38}}
\@writefile{toc}{\contentsline {section}{\numberline {2.4}Acc\IeC {\'e}l\IeC {\'e}ration}{39}}
\@writefile{toc}{\contentsline {subsection}{\numberline {2.4.1}Acc\IeC {\'e}l\IeC {\'e}ration moyenne}{39}}
\@writefile{toc}{\contentsline {subsection}{\numberline {2.4.2}Exemples}{39}}
\@writefile{toc}{\contentsline {subsubsection}{Exemple 1}{39}}
\@writefile{toc}{\contentsline {subsubsection}{Exemple 2}{39}}
\@writefile{toc}{\contentsline {subsubsection}{Remarque~:}{39}}
\@writefile{toc}{\contentsline {subsection}{\numberline {2.4.3}L'acc\IeC {\'e}l\IeC {\'e}ration instantan\IeC {\'e}e}{39}}
\@writefile{toc}{\contentsline {section}{\numberline {2.5}Mouvements simples}{39}}
\@writefile{toc}{\contentsline {subsection}{\numberline {2.5.1}Le mouvement rectiligne uniforme}{39}}
\@writefile{toc}{\contentsline {subsubsection}{D\IeC {\'e}finition}{39}}
\@writefile{toc}{\contentsline {subsubsection}{Propri\IeC {\'e}t\IeC {\'e}s}{39}}
\@writefile{lof}{\contentsline {figure}{\numberline {2.3}{\ignorespaces Apollo 16}}{40}}
\newlabel{apollo16}{{2.3}{40}}
\@writefile{toc}{\contentsline {subsubsection}{Un exemple~: Apollo en route vers la Lune}{40}}
\@writefile{lot}{\contentsline {table}{\numberline {2.1}{\ignorespaces Donn\IeC {\'e}es de la mission Apollo 12\relax }}{40}}
\newlabel{donneesdapollo}{{2.1}{40}}
\@writefile{lof}{\contentsline {figure}{\numberline {2.4}{\ignorespaces Collision Androm\IeC {\`e}de-Voie Lact\IeC {\'e}e}}{41}}
\newlabel{andromede_collision}{{2.4}{41}}
\@writefile{toc}{\contentsline {subsubsection}{Autre exemple~: le d\IeC {\'e}placement d'Androm\IeC {\`e}de}{41}}
\@writefile{toc}{\contentsline {subsection}{\numberline {2.5.2}Mouvement rectiligne uniform\IeC {\'e}ment acc\IeC {\'e}l\IeC {\'e}r\IeC {\'e} (MRUA)}{41}}
\@writefile{toc}{\contentsline {subsubsection}{D\IeC {\'e}finition}{41}}
\@writefile{toc}{\contentsline {subsubsection}{Propri\IeC {\'e}t\IeC {\'e}s}{41}}
\citation{SH03}
\citation{SH03}
\@writefile{toc}{\contentsline {subsection}{\numberline {2.5.3}La chute libre}{42}}
\@writefile{lot}{\contentsline {table}{\numberline {2.2}{\ignorespaces La hauteur en fonction du temps\relax }}{42}}
\newlabel{brutes}{{2.2}{42}}
\@writefile{toc}{\contentsline {paragraph}{D\IeC {\'e}finition}{42}}
\@writefile{toc}{\contentsline {paragraph}{Propri\IeC {\'e}t\IeC {\'e}s}{42}}
\@writefile{toc}{\contentsline {paragraph}{Exp\IeC {\'e}rience}{42}}
\@writefile{toc}{\contentsline {paragraph}{Calculs}{42}}
\@writefile{lot}{\contentsline {table}{\numberline {2.3}{\ignorespaces La vitesse en fonction du temps\relax }}{43}}
\newlabel{vitesse}{{2.3}{43}}
\@writefile{toc}{\contentsline {paragraph}{Analyse des r\IeC {\'e}sultats}{43}}
\@writefile{lof}{\contentsline {figure}{\numberline {2.5}{\ignorespaces Chute libre\relax }}{44}}
\newlabel{graphehauteur}{{2.5}{44}}
\@writefile{lof}{\contentsline {figure}{\numberline {2.6}{\ignorespaces Chute libre\relax }}{44}}
\newlabel{graphevitesse}{{2.6}{44}}
\newlabel{accg}{{2.5.3}{44}}
\@writefile{toc}{\contentsline {paragraph}{Conclusions}{44}}
\@writefile{toc}{\contentsline {subsection}{\numberline {2.5.4}Balistique}{44}}
\newlabel{balistique}{{2.5.4}{44}}
\@writefile{toc}{\contentsline {paragraph}{D\IeC {\'e}finition}{44}}
\@writefile{toc}{\contentsline {paragraph}{Propri\IeC {\'e}t\IeC {\'e}s}{44}}
\@writefile{toc}{\contentsline {paragraph}{\IeC {\'E}quations}{44}}
\citation{EL99}
\@writefile{toc}{\contentsline {paragraph}{Premier exemple}{45}}
\@writefile{toc}{\contentsline {paragraph}{Second exemple}{45}}
\@writefile{toc}{\contentsline {subsection}{\numberline {2.5.5}La chute libre ... de la Lune}{45}}
\newlabel{chutelibredelalune}{{2.5.5}{45}}
\@writefile{lof}{\contentsline {figure}{\numberline {2.7}{\ignorespaces L'id\IeC {\'e}e de la chute de la Lune\relax }}{46}}
\newlabel{chutelune}{{2.7}{46}}
\@writefile{lof}{\contentsline {figure}{\numberline {2.8}{\ignorespaces L'id\IeC {\'e}e de la chute de la Lune Illustration des Principia.\relax }}{46}}
\newlabel{chutelunenewton}{{2.8}{46}}
\@writefile{lof}{\contentsline {figure}{\numberline {2.9}{\ignorespaces Chute de la Lune sur la Terre\relax }}{46}}
\newlabel{quartchutelune}{{2.9}{46}}
\@writefile{toc}{\contentsline {subsection}{\numberline {2.5.6}Mouvement circulaire uniforme (MCU)}{47}}
\newlabel{MvtCU}{{2.5.6}{47}}
\newlabel{vomegar}{{2.13}{47}}
\@writefile{toc}{\contentsline {subsubsection}{Relation importante}{47}}
\@writefile{lof}{\contentsline {figure}{\numberline {2.10}{\ignorespaces Mouvement circulaire uniforme\relax }}{48}}
\newlabel{MCU}{{2.10}{48}}
\@writefile{toc}{\contentsline {subsection}{\numberline {2.5.7}Lois de Kepler}{48}}
\newlabel{loiskepler}{{2.5.7}{48}}
\@writefile{lof}{\contentsline {figure}{\numberline {2.11}{\ignorespaces Astronomica pars Optica}}{49}}
\newlabel{oeil}{{2.11}{49}}
\newlabel{keplertroisieme}{{2.16}{49}}
\newlabel{RF1}{50}
\@writefile{lof}{\contentsline {figure}{\numberline {2.12}{\ignorespaces R\IeC {\'e}sum\IeC {\'e} de cin\IeC {\'e}matique\relax }}{50}}
\@setckpt{Cinematique/Cinematique}{
\setcounter{page}{51}
\setcounter{equation}{24}
\setcounter{enumi}{3}
\setcounter{enumii}{0}
\setcounter{enumiii}{0}
\setcounter{enumiv}{0}
\setcounter{footnote}{3}
\setcounter{mpfootnote}{0}
\setcounter{part}{0}
\setcounter{chapter}{2}
\setcounter{section}{5}
\setcounter{subsection}{7}
\setcounter{subsubsection}{0}
\setcounter{paragraph}{0}
\setcounter{subparagraph}{0}
\setcounter{figure}{12}
\setcounter{table}{3}
\setcounter{NAT@ctr}{0}
\setcounter{parentequation}{0}
\setcounter{FancyVerbLine}{0}
\setcounter{float@type}{8}
\setcounter{fignum}{0}
\setcounter{r@tfl@t}{1}
\setcounter{subfigure}{0}
\setcounter{lofdepth}{1}
\setcounter{subtable}{0}
\setcounter{lotdepth}{1}
\setcounter{ContinuedFloat}{0}
\setcounter{endnote}{54}
\setcounter{OptionTest}{0}
\setcounter{DefaultLines}{2}
\setcounter{DefaultDepth}{0}
\setcounter{L@lines}{3}
\setcounter{L@depth}{0}
\setcounter{lstnumber}{1}
\setcounter{Solution}{0}
\setcounter{exc}{0}
\setcounter{Solution OS}{0}
\setcounter{exosc}{0}
\setcounter{lstlisting}{0}
}
