%!PS-Adobe-2.0
%%Creator: inkscape 0.41.1
%%Pages: 1
%%Orientation: Portrait
%%BoundingBox: 32 735 65 828
%%HiResBoundingBox: 32.641191 735.55017 64.784127 827.71816
%%EndComments
%%Page: 1 1
0 842 translate
0.80000000 -0.80000000 scale
gsave [1.0000000 0.0000000 0.0000000 1.0000000 0.0000000 0.0000000] concat
0.0000000 0.0000000 0.0000000 setrgbcolor
[] 0 setdash
0.35433072 setlinewidth
0 setlinejoin
0 setlinecap
newpath
64.269876 111.74847 moveto
49.443729 111.74618 lineto
49.443729 51.944327 lineto
71.869204 51.830156 lineto
71.869204 111.71993 lineto
64.269876 111.74847 lineto
closepath
stroke
0.0000000 0.0000000 0.0000000 setrgbcolor
[] 0 setdash
0.77288109 setlinewidth
0 setlinejoin
0 setlinecap
newpath
61.179400 89.276548 moveto
61.179400 67.326431 lineto
61.179400 67.326431 lineto
61.179400 67.326431 lineto
61.179400 67.326431 lineto
stroke
gsave [3.7859004e-17 -0.61830487 0.61830487 3.7859004e-17 61.179400 89.276548] concat
0.0000000 0.0000000 0.0000000 setrgbcolor
[] 0 setdash
1.2500000 setlinewidth
0 setlinejoin
0 setlinecap
newpath
0.0000000 5.6500000 moveto
0.0000000 -5.6500000 lineto
stroke
grestore
gsave [-2.8394253e-17 0.46372865 -0.46372865 -2.8394253e-17 61.179400 65.007788] concat
0.0000000 0.0000000 0.0000000 setrgbcolor
newpath
8.7185878 4.0337352 moveto
-2.2072895 0.016013256 lineto
8.7185884 -4.0017078 lineto
6.9730900 -1.6296469 6.9831476 1.6157441 8.7185878 4.0337352 curveto
closepath
eofill
grestore
0.0000000 0.0000000 0.0000000 setrgbcolor
[] 0 setdash
0.51299465 setlinewidth
0 setlinejoin
0 setlinecap
newpath
61.371789 92.128011 moveto
61.371789 101.79825 lineto
61.371789 101.79825 lineto
61.371789 101.79825 lineto
61.371789 101.79825 lineto
stroke
gsave [2.5128660e-17 0.41039572 -0.41039572 2.5128660e-17 61.371789 92.128011] concat
0.0000000 0.0000000 0.0000000 setrgbcolor
[] 0 setdash
1.2500000 setlinewidth
0 setlinejoin
0 setlinecap
newpath
0.0000000 5.6500000 moveto
0.0000000 -5.6500000 lineto
stroke
grestore
gsave [-1.8846495e-17 -0.30779679 0.30779679 -1.8846495e-17 61.371789 103.33723] concat
0.0000000 0.0000000 0.0000000 setrgbcolor
newpath
8.7185878 4.0337352 moveto
-2.2072895 0.016013256 lineto
8.7185884 -4.0017078 lineto
6.9730900 -1.6296469 6.9831476 1.6157441 8.7185878 4.0337352 curveto
closepath
eofill
grestore
gsave [1.0000000 0.0000000 0.0000000 1.0000000 -13.467150 32.705970] concat
0.0000000 0.0000000 0.0000000 setrgbcolor
newpath
93.769981 63.806114 moveto
93.769976 64.434374 93.491656 64.963345 92.935020 65.393028 curveto
92.423949 65.786912 91.844522 65.983851 91.196739 65.983849 curveto
90.975382 65.983851 90.679159 65.935023 90.308067 65.837364 curveto
90.303185 67.863731 lineto
90.303183 68.159956 90.418742 68.384565 90.649864 68.537560 curveto
90.851685 68.671023 91.105591 68.729617 91.411583 68.713341 curveto
91.445763 68.850060 lineto
91.440880 68.898888 lineto
88.472130 68.898888 lineto
88.501427 68.684044 lineto
88.555138 68.684044 lineto
88.887168 68.687299 89.118288 68.623823 89.248497 68.493614 curveto
89.381959 68.360151 89.448691 68.127404 89.448692 67.795372 curveto
89.448692 62.770958 lineto
89.448691 62.338022 89.132936 62.123178 88.501427 62.126427 curveto
88.501427 61.945763 lineto
88.953900 61.883921 89.619589 61.852996 90.498497 61.852989 curveto
91.478312 61.852996 92.200967 61.945770 92.666466 62.131310 curveto
93.402138 62.424285 93.769976 62.982552 93.769981 63.806114 curveto
92.744591 63.806114 moveto
92.744586 63.334115 92.601357 62.933724 92.314903 62.604942 curveto
92.015420 62.259897 91.632934 62.087371 91.167442 62.087364 curveto
91.056762 62.087371 90.913533 62.100392 90.737755 62.126427 curveto
90.519654 62.155730 90.376425 62.173634 90.308067 62.180138 curveto
90.308067 65.573692 lineto
90.529419 65.635545 90.856567 65.666469 91.289513 65.666466 curveto
91.800577 65.666469 92.181436 65.477667 92.432091 65.100060 curveto
92.640420 64.781053 92.744586 64.349739 92.744591 63.806114 curveto
fill
0.0000000 0.0000000 0.0000000 setrgbcolor
[] 0 setdash
0.35433072 setlinewidth
0 setlinejoin
0 setlinecap
newpath
86.574622 59.832237 moveto
94.270144 59.832237 lineto
stroke
gsave [-0.21259843 0.0000000 0.0000000 -0.21259843 95.333136 59.832237] concat
0.0000000 0.0000000 0.0000000 setrgbcolor
newpath
8.7185878 4.0337352 moveto
-2.2072895 0.016013256 lineto
8.7185884 -4.0017078 lineto
6.9730900 -1.6296469 6.9831476 1.6157441 8.7185878 4.0337352 curveto
closepath
eofill
grestore
grestore
gsave [1.0000000 0.0000000 0.0000000 1.0000000 -24.240890 -23.471350] concat
0.0000000 0.0000000 0.0000000 setrgbcolor
newpath
94.184029 88.863297 moveto
94.130318 88.868179 lineto
93.821067 88.874690 93.466249 88.772151 93.065865 88.560562 curveto
92.668724 88.345719 92.390404 88.106461 92.230904 87.842789 curveto
91.083443 85.953140 lineto
90.927189 85.979185 90.772567 85.992206 90.619576 85.992203 curveto
90.394963 85.992206 90.098740 85.943378 89.730904 85.845718 curveto
89.726021 87.872086 lineto
89.726019 88.168310 89.841579 88.392919 90.072701 88.545914 curveto
90.274521 88.679377 90.528427 88.737971 90.834419 88.721695 curveto
90.868599 88.858414 lineto
90.863716 88.907242 lineto
87.894966 88.907242 lineto
87.924263 88.692398 lineto
87.977974 88.692398 lineto
88.310005 88.695653 88.541124 88.632177 88.671333 88.501968 curveto
88.804796 88.368505 88.871527 88.135758 88.871529 87.803726 curveto
88.871529 82.779312 lineto
88.871527 82.343121 88.555773 82.128277 87.924263 82.134781 curveto
87.924263 81.954117 lineto
88.376736 81.892275 89.042426 81.861350 89.921333 81.861343 curveto
90.897893 81.861350 91.618921 81.954124 92.084419 82.139664 curveto
92.823346 82.432639 93.192812 82.990907 93.192818 83.814468 curveto
93.192812 84.227884 93.064232 84.605488 92.807076 84.947281 curveto
92.572696 85.263040 92.258568 85.515318 91.864693 85.704117 curveto
93.344185 87.999039 lineto
93.611106 88.409195 93.879660 88.615901 94.149849 88.619156 curveto
94.184029 88.863297 lineto
92.167427 83.814468 moveto
92.167423 83.345724 92.024194 82.945334 91.737740 82.613297 curveto
91.435001 82.268251 91.052515 82.095725 90.590279 82.095718 curveto
90.479599 82.095725 90.336370 82.108746 90.160591 82.134781 curveto
89.935980 82.164084 89.792751 82.181988 89.730904 82.188492 curveto
89.730904 85.582047 lineto
89.952256 85.643899 90.279404 85.674823 90.712349 85.674820 curveto
91.223413 85.674823 91.604272 85.484394 91.854927 85.103531 curveto
92.063256 84.784525 92.167423 84.354837 92.167427 83.814468 curveto
fill
0.0000000 0.0000000 0.0000000 setrgbcolor
[] 0 setdash
0.35433072 setlinewidth
0 setlinejoin
0 setlinecap
newpath
85.997458 79.840594 moveto
93.692980 79.840594 lineto
stroke
gsave [-0.21259843 0.0000000 0.0000000 -0.21259843 94.755972 79.840594] concat
0.0000000 0.0000000 0.0000000 setrgbcolor
newpath
8.7185878 4.0337352 moveto
-2.2072895 0.016013256 lineto
8.7185884 -4.0017078 lineto
6.9730900 -1.6296469 6.9831476 1.6157441 8.7185878 4.0337352 curveto
closepath
eofill
grestore
grestore
0.0000000 0.0000000 0.0000000 setrgbcolor
[] 0 setdash
0.35433072 setlinewidth
0 setlinejoin
0 setlinecap
newpath
40.978654 132.74731 moveto
40.978654 24.240448 lineto
stroke
gsave [1.7356626e-17 -0.28346457 0.28346457 1.7356626e-17 40.978654 132.74731] concat
0.0000000 0.0000000 0.0000000 setrgbcolor
[] 0 setdash
1.2500000 setlinewidth
0 setlinejoin
0 setlinecap
newpath
0.0000000 5.6500000 moveto
0.0000000 -5.6500000 lineto
stroke
grestore
gsave [-2.3865361e-17 0.38976379 -0.38976379 -2.3865361e-17 40.978654 22.291629] concat
0.0000000 0.0000000 0.0000000 setrgbcolor
newpath
8.7185878 4.0337352 moveto
-2.2072895 0.016013256 lineto
8.7185884 -4.0017078 lineto
6.9730900 -1.6296469 6.9831476 1.6157441 8.7185878 4.0337352 curveto
closepath
eofill
grestore
0.0000000 0.0000000 0.0000000 setrgbcolor
newpath
48.066620 24.446596 moveto
46.269745 24.446596 lineto
46.269745 26.243471 lineto
45.810760 26.243471 lineto
45.810760 24.446596 lineto
44.013885 24.446596 lineto
44.013885 23.987612 lineto
45.810760 23.987612 lineto
45.810760 22.190737 lineto
46.269745 22.190737 lineto
46.269745 23.987612 lineto
48.066620 23.987612 lineto
48.066620 24.446596 lineto
fill
0.0000000 0.0000000 0.0000000 setrgbcolor
[] 0 setdash
0.35433072 setlinewidth
0 setlinejoin
0 setlinecap
newpath
60.794623 51.751947 moveto
60.794623 17.891651 lineto
stroke
0.0000000 0.0000000 0.0000000 setrgbcolor
[] 0 setdash
0.35433072 setlinewidth
1 setlinejoin
1 setlinecap
newpath
53.099102 108.69881 moveto
69.067310 108.69881 lineto
69.067310 111.77702 lineto
53.099102 111.77702 lineto
53.099102 108.69881 lineto
closepath
stroke
0.0000000 0.0000000 0.0000000 setrgbcolor
[] 0 setdash
0.35433072 setlinewidth
1 setlinejoin
1 setlinecap
newpath
64.257609 77.628136 moveto
64.257609 79.380406 62.835476 80.802538 61.083206 80.802538 curveto
59.330936 80.802538 57.908803 79.380406 57.908803 77.628136 curveto
57.908803 75.875865 59.330936 74.453733 61.083206 74.453733 curveto
62.835476 74.453733 64.257609 75.875865 64.257609 77.628136 curveto
closepath
stroke
gsave [1.0000000 0.0000000 0.0000000 1.0000000 0.19238800 -1.3467160] concat
0.0000000 0.0000000 0.0000000 setrgbcolor
[] 0 setdash
0.35433072 setlinewidth
1 setlinejoin
1 setlinecap
newpath
64.834773 90.902916 moveto
64.834773 95.734934 63.154071 99.656572 61.083206 99.656572 curveto
59.012341 99.656572 57.331639 95.734934 57.331639 90.902916 curveto
57.331639 86.070898 59.012341 82.149260 61.083206 82.149260 curveto
63.154071 82.149260 64.834773 86.070898 64.834773 90.902916 curveto
closepath
stroke
grestore
gsave [0.95042300 0.31096100 -0.31096100 0.95042300 34.877380 -13.534670] concat
0.0000000 0.0000000 0.0000000 setrgbcolor
[] 0 setdash
0.35433072 setlinewidth
1 setlinejoin
1 setlinecap
newpath
59.447906 103.40813 moveto
59.447906 106.32858 59.146241 108.69880 58.774548 108.69880 curveto
58.402854 108.69880 58.101189 106.32858 58.101189 103.40813 curveto
58.101189 100.48768 58.402854 98.117455 58.774548 98.117455 curveto
59.146241 98.117455 59.447906 100.48768 59.447906 103.40813 curveto
closepath
stroke
grestore
gsave [-0.95042300 0.31096100 0.31096100 0.95042300 87.866200 -13.534670] concat
0.0000000 0.0000000 0.0000000 setrgbcolor
[] 0 setdash
0.35433072 setlinewidth
1 setlinejoin
1 setlinecap
newpath
59.447906 103.40813 moveto
59.447906 106.32858 59.146241 108.69880 58.774548 108.69880 curveto
58.402854 108.69880 58.101189 106.32858 58.101189 103.40813 curveto
58.101189 100.48768 58.402854 98.117455 58.774548 98.117455 curveto
59.146241 98.117455 59.447906 100.48768 59.447906 103.40813 curveto
closepath
stroke
grestore
gsave [0.77161000 0.63609600 -0.63609600 0.77161000 80.301760 -8.6176100] concat
0.0000000 0.0000000 0.0000000 setrgbcolor
[] 0 setdash
0.35433072 setlinewidth
1 setlinejoin
1 setlinecap
newpath
55.984922 104.94724 moveto
55.984922 105.31894 55.209213 105.62060 54.253429 105.62060 curveto
53.297646 105.62060 52.521937 105.31894 52.521937 104.94724 curveto
52.521937 104.57555 53.297646 104.27388 54.253429 104.27388 curveto
55.209213 104.27388 55.984922 104.57555 55.984922 104.94724 curveto
closepath
stroke
grestore
gsave [0.77161000 0.63609600 -0.63609600 0.77161000 80.301760 -8.6176100] concat
0.0000000 0.0000000 0.0000000 setrgbcolor
[] 0 setdash
0.35433072 setlinewidth
1 setlinejoin
1 setlinecap
newpath
55.984922 104.94724 moveto
55.984922 105.31894 55.209213 105.62060 54.253429 105.62060 curveto
53.297646 105.62060 52.521937 105.31894 52.521937 104.94724 curveto
52.521937 104.57555 53.297646 104.27388 54.253429 104.27388 curveto
55.209213 104.27388 55.984922 104.57555 55.984922 104.94724 curveto
closepath
stroke
grestore
gsave [-0.77161000 0.63609600 0.63609600 0.77161000 42.441770 -8.6176100] concat
0.0000000 0.0000000 0.0000000 setrgbcolor
[] 0 setdash
0.35433072 setlinewidth
1 setlinejoin
1 setlinecap
newpath
55.984922 104.94724 moveto
55.984922 105.31894 55.209213 105.62060 54.253429 105.62060 curveto
53.297646 105.62060 52.521937 105.31894 52.521937 104.94724 curveto
52.521937 104.57555 53.297646 104.27388 54.253429 104.27388 curveto
55.209213 104.27388 55.984922 104.57555 55.984922 104.94724 curveto
closepath
stroke
grestore
gsave [0.92662900 0.37597700 -0.37597700 0.92662900 38.018410 -15.778160] concat
0.0000000 0.0000000 0.0000000 setrgbcolor
[] 0 setdash
0.35433072 setlinewidth
1 setlinejoin
1 setlinecap
newpath
56.946860 91.672470 moveto
56.946860 95.442506 56.645196 98.502246 56.273502 98.502246 curveto
55.901809 98.502246 55.600144 95.442506 55.600144 91.672470 curveto
55.600144 87.902434 55.901809 84.842694 56.273502 84.842694 curveto
56.645196 84.842694 56.946860 87.902434 56.946860 91.672470 curveto
closepath
stroke
grestore
gsave [-0.92662900 0.37597700 0.37597700 0.92662900 84.532750 -16.162940] concat
0.0000000 0.0000000 0.0000000 setrgbcolor
[] 0 setdash
0.35433072 setlinewidth
1 setlinejoin
1 setlinecap
newpath
56.946860 91.672470 moveto
56.946860 95.442506 56.645196 98.502246 56.273502 98.502246 curveto
55.901809 98.502246 55.600144 95.442506 55.600144 91.672470 curveto
55.600144 87.902434 55.901809 84.842694 56.273502 84.842694 curveto
56.645196 84.842694 56.946860 87.902434 56.946860 91.672470 curveto
closepath
stroke
grestore
grestore
showpage
