%!PS-Adobe-3.0 EPSF-3.0
%%Creator: cairo 1.14.8 (http://cairographics.org)
%%CreationDate: Wed Feb 13 21:23:58 2019
%%Pages: 1
%%DocumentData: Clean7Bit
%%LanguageLevel: 2
%%BoundingBox: 0 -1 94 50
%%EndComments
%%BeginProlog
save
50 dict begin
/q { gsave } bind def
/Q { grestore } bind def
/cm { 6 array astore concat } bind def
/w { setlinewidth } bind def
/J { setlinecap } bind def
/j { setlinejoin } bind def
/M { setmiterlimit } bind def
/d { setdash } bind def
/m { moveto } bind def
/l { lineto } bind def
/c { curveto } bind def
/h { closepath } bind def
/re { exch dup neg 3 1 roll 5 3 roll moveto 0 rlineto
      0 exch rlineto 0 rlineto closepath } bind def
/S { stroke } bind def
/f { fill } bind def
/f* { eofill } bind def
/n { newpath } bind def
/W { clip } bind def
/W* { eoclip } bind def
/BT { } bind def
/ET { } bind def
/pdfmark where { pop globaldict /?pdfmark /exec load put }
    { globaldict begin /?pdfmark /pop load def /pdfmark
    /cleartomark load def end } ifelse
/BDC { mark 3 1 roll /BDC pdfmark } bind def
/EMC { mark /EMC pdfmark } bind def
/cairo_store_point { /cairo_point_y exch def /cairo_point_x exch def } def
/Tj { show currentpoint cairo_store_point } bind def
/TJ {
  {
    dup
    type /stringtype eq
    { show } { -0.001 mul 0 cairo_font_matrix dtransform rmoveto } ifelse
  } forall
  currentpoint cairo_store_point
} bind def
/cairo_selectfont { cairo_font_matrix aload pop pop pop 0 0 6 array astore
    cairo_font exch selectfont cairo_point_x cairo_point_y moveto } bind def
/Tf { pop /cairo_font exch def /cairo_font_matrix where
      { pop cairo_selectfont } if } bind def
/Td { matrix translate cairo_font_matrix matrix concatmatrix dup
      /cairo_font_matrix exch def dup 4 get exch 5 get cairo_store_point
      /cairo_font where { pop cairo_selectfont } if } bind def
/Tm { 2 copy 8 2 roll 6 array astore /cairo_font_matrix exch def
      cairo_store_point /cairo_font where { pop cairo_selectfont } if } bind def
/g { setgray } bind def
/rg { setrgbcolor } bind def
/d1 { setcachedevice } bind def
%%EndProlog
%%BeginSetup
%%EndSetup
%%Page: 1 1
%%BeginPageSetup
%%PageBoundingBox: 0 -1 94 50
%%EndPageSetup
q 0 -1 94 51 rectclip q
0 g
0.75 w
0 J
0 j
[] 0.0 d
4 M q 1 0 0 1 0 49.474178 cm
0 -49.098 m 93.332 -49.098 l S Q
q 1 0 0 -1 0 49.474178 cm
13.879 18.078 33.195 30.75 re S Q
1 1 0.984314 rg
47.074 28.673 19.047 -18.23 re f
0 g
0.75 w
q 1 0 0 -1 0 49.474178 cm
47.074 20.801 19.047 18.23 re S Q
0.751181 w
q 1 0 0 1 0 49.474178 cm
47.617 -30.598 m 47.617 -1.48 l S Q
47.617 44.99 m 46.117 43.486 l 47.617 48.744 l 49.121 43.486 l h
47.617 44.99 m f*
0.40063 w
q 0.000000274768 -1 1 0.000000274768 0 49.474178 cm
4.484 47.617 m 5.988 46.117 l 0.73 47.617 l 5.988 49.121 l h
4.484 47.617 m S Q
0.751181 w
q 1 0 0 1 0 49.474178 cm
47.617 -30.598 m 74.828 -30.598 l S Q
71.824 18.877 m 70.324 20.38 l 75.582 18.877 l 70.324 17.377 l h
71.824 18.877 m f*
0.40063 w
q -1 0 0 -1 0 49.474178 cm
-71.824 30.598 m -70.324 29.094 l -75.582 30.598 l -70.324 32.098 l h
-71.824 30.598 m S Q
Q Q
showpage
%%Trailer
end restore
%%EOF
