%!PS-Adobe-3.0 EPSF-3.0
%%Creator: cairo 1.14.8 (http://cairographics.org)
%%CreationDate: Thu Jan 24 23:27:40 2019
%%Pages: 1
%%DocumentData: Clean7Bit
%%LanguageLevel: 2
%%BoundingBox: 4 5 45 75
%%EndComments
%%BeginProlog
save
50 dict begin
/q { gsave } bind def
/Q { grestore } bind def
/cm { 6 array astore concat } bind def
/w { setlinewidth } bind def
/J { setlinecap } bind def
/j { setlinejoin } bind def
/M { setmiterlimit } bind def
/d { setdash } bind def
/m { moveto } bind def
/l { lineto } bind def
/c { curveto } bind def
/h { closepath } bind def
/re { exch dup neg 3 1 roll 5 3 roll moveto 0 rlineto
      0 exch rlineto 0 rlineto closepath } bind def
/S { stroke } bind def
/f { fill } bind def
/f* { eofill } bind def
/n { newpath } bind def
/W { clip } bind def
/W* { eoclip } bind def
/BT { } bind def
/ET { } bind def
/pdfmark where { pop globaldict /?pdfmark /exec load put }
    { globaldict begin /?pdfmark /pop load def /pdfmark
    /cleartomark load def end } ifelse
/BDC { mark 3 1 roll /BDC pdfmark } bind def
/EMC { mark /EMC pdfmark } bind def
/cairo_store_point { /cairo_point_y exch def /cairo_point_x exch def } def
/Tj { show currentpoint cairo_store_point } bind def
/TJ {
  {
    dup
    type /stringtype eq
    { show } { -0.001 mul 0 cairo_font_matrix dtransform rmoveto } ifelse
  } forall
  currentpoint cairo_store_point
} bind def
/cairo_selectfont { cairo_font_matrix aload pop pop pop 0 0 6 array astore
    cairo_font exch selectfont cairo_point_x cairo_point_y moveto } bind def
/Tf { pop /cairo_font exch def /cairo_font_matrix where
      { pop cairo_selectfont } if } bind def
/Td { matrix translate cairo_font_matrix matrix concatmatrix dup
      /cairo_font_matrix exch def dup 4 get exch 5 get cairo_store_point
      /cairo_font where { pop cairo_selectfont } if } bind def
/Tm { 2 copy 8 2 roll 6 array astore /cairo_font_matrix exch def
      cairo_store_point /cairo_font where { pop cairo_selectfont } if } bind def
/g { setgray } bind def
/rg { setrgbcolor } bind def
/d1 { setcachedevice } bind def
%%EndProlog
%%BeginSetup
%%EndSetup
%%Page: 1 1
%%BeginPageSetup
%%PageBoundingBox: 4 5 45 75
%%EndPageSetup
q 4 5 41 70 rectclip q
1 g
38.715 27.258 m 38.715 19.363 32.312 12.961 24.418 12.961 c 16.52 12.961
 10.117 19.363 10.117 27.258 c 10.117 31.051 11.625 34.687 14.305 37.371
 c 16.988 40.051 20.625 41.559 24.418 41.559 c 28.211 41.559 31.848 40.051
 34.527 37.371 c 37.211 34.687 38.715 31.051 38.715 27.258 c h
38.715 27.258 m f
0 0.105882 0 rg
0.751181 w
0 J
0 j
[] 0.0 d
4 M q 1 0 0 -1 0 78.249924 cm
38.715 50.992 m 38.715 58.887 32.312 65.289 24.418 65.289 c 16.52 65.289
 10.117 58.887 10.117 50.992 c 10.117 47.199 11.625 43.562 14.305 40.879
 c 16.988 38.199 20.625 36.691 24.418 36.691 c 28.211 36.691 31.848 38.199
 34.527 40.879 c 37.211 43.562 38.715 47.199 38.715 50.992 c h
38.715 50.992 m S Q
0 g
0.75 w
q 1 0 0 -1 0 78.249924 cm
10.117 5.422 m 10.117 51.711 l S Q
q 1 0 0 -1 0 78.249924 cm
38.715 5.422 m 38.715 51.711 l S Q
0.566929 w
q 1 0 0 -1 0 78.249924 cm
6.004 5.422 m 6.004 51.711 l S Q
6.004 70.562 m 7.137 69.43 l 6.004 73.394 l 4.871 69.43 l h
6.004 70.562 m f*
0.302362 w
q 0 -1 -1 0 0 78.249924 cm
7.688 -6.004 m 8.82 -7.137 l 4.855 -6.004 l 8.82 -4.871 l h
7.688 -6.004 m S Q
6.004 28.809 m 4.871 29.941 l 6.004 25.973 l 7.137 29.941 l h
6.004 28.809 m f*
q 0 1 1 0 0 78.249924 cm
-49.441 6.004 m -48.309 4.871 l -52.277 6.004 l -48.309 7.137 l h
-49.441 6.004 m S Q
0.566929 w
q 1 0 0 -1 0 78.249924 cm
43.035 5.422 m 43.035 51.711 l S Q
43.035 70.562 m 44.168 69.43 l 43.035 73.394 l 41.902 69.43 l h
43.035 70.562 m f*
0.302362 w
q 0 -1 -1 0 0 78.249924 cm
7.688 -43.035 m 8.82 -44.168 l 4.855 -43.035 l 8.82 -41.902 l h
7.688 -43.035 m S Q
43.035 28.809 m 41.902 29.941 l 43.035 25.973 l 44.168 29.941 l h
43.035 28.809 m f*
q 0 1 1 0 0 78.249924 cm
-49.441 43.035 m -48.309 41.902 l -52.277 43.035 l -48.309 44.168 l h
-49.441 43.035 m S Q
0.510236 w
q 1 0 0 -1 0 78.249924 cm
6.004 51.711 m 6.004 51.711 6.242 72.234 24.312 72.285 c 42.387 72.336 
43.035 51.711 43.035 51.711 c S Q
6.027 24.5 m 7.059 23.488 l 6 27.051 l 5.02 23.465 l h
6.027 24.5 m f*
0.272108 w
q 0.0115749 -1 -1 -0.0115749 0 78.249924 cm
53.813 -5.404 m 54.836 -6.424 l 51.262 -5.407 l 54.836 -4.385 l h
53.813 -5.404 m S Q
42.973 24.5 m 43.961 23.449 l 43.051 27.051 l 41.918 23.512 l h
42.973 24.5 m f*
0.271991 w
q -0.031468 -1 -1 0.031468 0 78.249924 cm
52.346 -44.62 m 53.365 -45.64 l 49.795 -44.618 l 53.366 -43.597 l h
52.346 -44.62 m S Q
Q Q
showpage
%%Trailer
end restore
%%EOF
