%!PS-Adobe-3.0 EPSF-3.0
%%Creator: cairo 1.14.8 (http://cairographics.org)
%%CreationDate: Thu Jan 24 23:02:01 2019
%%Pages: 1
%%DocumentData: Clean7Bit
%%LanguageLevel: 2
%%BoundingBox: 4 5 45 122
%%EndComments
%%BeginProlog
save
50 dict begin
/q { gsave } bind def
/Q { grestore } bind def
/cm { 6 array astore concat } bind def
/w { setlinewidth } bind def
/J { setlinecap } bind def
/j { setlinejoin } bind def
/M { setmiterlimit } bind def
/d { setdash } bind def
/m { moveto } bind def
/l { lineto } bind def
/c { curveto } bind def
/h { closepath } bind def
/re { exch dup neg 3 1 roll 5 3 roll moveto 0 rlineto
      0 exch rlineto 0 rlineto closepath } bind def
/S { stroke } bind def
/f { fill } bind def
/f* { eofill } bind def
/n { newpath } bind def
/W { clip } bind def
/W* { eoclip } bind def
/BT { } bind def
/ET { } bind def
/pdfmark where { pop globaldict /?pdfmark /exec load put }
    { globaldict begin /?pdfmark /pop load def /pdfmark
    /cleartomark load def end } ifelse
/BDC { mark 3 1 roll /BDC pdfmark } bind def
/EMC { mark /EMC pdfmark } bind def
/cairo_store_point { /cairo_point_y exch def /cairo_point_x exch def } def
/Tj { show currentpoint cairo_store_point } bind def
/TJ {
  {
    dup
    type /stringtype eq
    { show } { -0.001 mul 0 cairo_font_matrix dtransform rmoveto } ifelse
  } forall
  currentpoint cairo_store_point
} bind def
/cairo_selectfont { cairo_font_matrix aload pop pop pop 0 0 6 array astore
    cairo_font exch selectfont cairo_point_x cairo_point_y moveto } bind def
/Tf { pop /cairo_font exch def /cairo_font_matrix where
      { pop cairo_selectfont } if } bind def
/Td { matrix translate cairo_font_matrix matrix concatmatrix dup
      /cairo_font_matrix exch def dup 4 get exch 5 get cairo_store_point
      /cairo_font where { pop cairo_selectfont } if } bind def
/Tm { 2 copy 8 2 roll 6 array astore /cairo_font_matrix exch def
      cairo_store_point /cairo_font where { pop cairo_selectfont } if } bind def
/g { setgray } bind def
/rg { setrgbcolor } bind def
/d1 { setcachedevice } bind def
%%EndProlog
%%BeginSetup
%%EndSetup
%%Page: 1 1
%%BeginPageSetup
%%PageBoundingBox: 4 5 45 122
%%EndPageSetup
q 4 5 41 117 rectclip q
1 g
38.715 27.261 m 38.715 19.363 32.312 12.96 24.418 12.96 c 16.52 12.96 10.117
 19.363 10.117 27.261 c 10.117 31.05 11.625 34.687 14.305 37.37 c 16.988
 40.05 20.625 41.558 24.418 41.558 c 28.211 41.558 31.848 40.05 34.527 37.37
 c 37.211 34.687 38.715 31.05 38.715 27.261 c h
38.715 27.261 m f
0 0.105882 0 rg
0.751181 w
0 J
0 j
[] 0.0 d
4 M q 1 0 0 -1 0 124.128304 cm
38.715 96.867 m 38.715 104.766 32.312 111.168 24.418 111.168 c 16.52 111.168
 10.117 104.766 10.117 96.867 c 10.117 93.078 11.625 89.441 14.305 86.758
 c 16.988 84.078 20.625 82.57 24.418 82.57 c 28.211 82.57 31.848 84.078 
34.527 86.758 c 37.211 89.441 38.715 93.078 38.715 96.867 c h
38.715 96.867 m S Q
0 g
0.75 w
q 1 0 0 -1 0 124.128304 cm
10.117 51.301 m 10.117 97.59 l S Q
q 1 0 0 -1 0 124.128304 cm
10.117 5.008 m 10.117 51.301 l S Q
0.566929 w
q 1 0 0 -1 0 124.128304 cm
6.004 51.301 m 6.004 97.59 l S Q
6.004 70.562 m 7.137 69.429 l 6.004 73.398 l 4.871 69.429 l h
6.004 70.562 m f*
0.302362 w
q 0 -1 -1 0 0 124.128304 cm
53.566 -6.004 m 54.699 -7.137 l 50.73 -6.004 l 54.699 -4.871 l h
53.566 -6.004 m S Q
6.004 28.808 m 4.871 29.941 l 6.004 25.972 l 7.137 29.941 l h
6.004 28.808 m f*
q 0 1 1 0 0 124.128304 cm
-95.32 6.004 m -94.188 4.871 l -98.156 6.004 l -94.188 7.137 l h
-95.32 6.004 m S Q
0.566929 w
q 1 0 0 -1 0 124.128304 cm
6.004 5.008 m 6.004 51.301 l S Q
6.004 116.851 m 7.137 115.718 l 6.004 119.687 l 4.871 115.718 l h
6.004 116.851 m f*
0.302362 w
q 0 -1 -1 0 0 124.128304 cm
7.277 -6.004 m 8.41 -7.137 l 4.441 -6.004 l 8.41 -4.871 l h
7.277 -6.004 m S Q
6.004 75.097 m 4.871 76.23 l 6.004 72.261 l 7.137 76.23 l h
6.004 75.097 m f*
q 0 1 1 0 0 124.128304 cm
-49.031 6.004 m -47.898 4.871 l -51.867 6.004 l -47.898 7.137 l h
-49.031 6.004 m S Q
0.510236 w
q 1 0 0 -1 0 124.128304 cm
6.004 97.59 m 6.004 97.59 6.242 118.109 24.312 118.16 c 42.387 118.215 
43.035 97.59 43.035 97.59 c S Q
6.027 24.499 m 7.059 23.492 l 6 27.05 l 5.02 23.468 l h
6.027 24.499 m f*
0.272108 w
q 0.0115749 -1 -1 -0.0115749 0 124.128304 cm
99.685 -4.873 m 100.705 -5.893 l 97.135 -4.876 l 100.705 -3.854 l h
99.685 -4.873 m S Q
42.973 24.499 m 43.961 23.449 l 43.051 27.05 l 41.918 23.511 l h
42.973 24.499 m f*
0.271991 w
q -0.031468 -1 -1 0.031468 0 124.128304 cm
98.179 -46.062 m 99.198 -47.083 l 95.629 -46.06 l 99.2 -45.04 l h
98.179 -46.062 m S Q
Q Q
showpage
%%Trailer
end restore
%%EOF
