%!PS-Adobe-3.0 EPSF-3.0
%%Creator: cairo 1.14.8 (http://cairographics.org)
%%CreationDate: Fri Jan 25 22:03:02 2019
%%Pages: 1
%%DocumentData: Clean7Bit
%%LanguageLevel: 2
%%BoundingBox: 0 0 66 93
%%EndComments
%%BeginProlog
save
50 dict begin
/q { gsave } bind def
/Q { grestore } bind def
/cm { 6 array astore concat } bind def
/w { setlinewidth } bind def
/J { setlinecap } bind def
/j { setlinejoin } bind def
/M { setmiterlimit } bind def
/d { setdash } bind def
/m { moveto } bind def
/l { lineto } bind def
/c { curveto } bind def
/h { closepath } bind def
/re { exch dup neg 3 1 roll 5 3 roll moveto 0 rlineto
      0 exch rlineto 0 rlineto closepath } bind def
/S { stroke } bind def
/f { fill } bind def
/f* { eofill } bind def
/n { newpath } bind def
/W { clip } bind def
/W* { eoclip } bind def
/BT { } bind def
/ET { } bind def
/pdfmark where { pop globaldict /?pdfmark /exec load put }
    { globaldict begin /?pdfmark /pop load def /pdfmark
    /cleartomark load def end } ifelse
/BDC { mark 3 1 roll /BDC pdfmark } bind def
/EMC { mark /EMC pdfmark } bind def
/cairo_store_point { /cairo_point_y exch def /cairo_point_x exch def } def
/Tj { show currentpoint cairo_store_point } bind def
/TJ {
  {
    dup
    type /stringtype eq
    { show } { -0.001 mul 0 cairo_font_matrix dtransform rmoveto } ifelse
  } forall
  currentpoint cairo_store_point
} bind def
/cairo_selectfont { cairo_font_matrix aload pop pop pop 0 0 6 array astore
    cairo_font exch selectfont cairo_point_x cairo_point_y moveto } bind def
/Tf { pop /cairo_font exch def /cairo_font_matrix where
      { pop cairo_selectfont } if } bind def
/Td { matrix translate cairo_font_matrix matrix concatmatrix dup
      /cairo_font_matrix exch def dup 4 get exch 5 get cairo_store_point
      /cairo_font where { pop cairo_selectfont } if } bind def
/Tm { 2 copy 8 2 roll 6 array astore /cairo_font_matrix exch def
      cairo_store_point /cairo_font where { pop cairo_selectfont } if } bind def
/g { setgray } bind def
/rg { setrgbcolor } bind def
/d1 { setcachedevice } bind def
%%EndProlog
%%BeginSetup
%%EndSetup
%%Page: 1 1
%%BeginPageSetup
%%PageBoundingBox: 0 0 66 93
%%EndPageSetup
q 0 0 66 93 rectclip q
1 g
46.906 22.939 m 46.906 15.041 40.504 8.642 32.609 8.642 c 24.711 8.642 
18.309 15.041 18.309 22.939 c 18.309 26.732 19.816 30.369 22.496 33.048 
c 25.18 35.732 28.816 37.236 32.609 37.236 c 36.398 37.236 40.035 35.732
 42.719 33.048 c 45.398 30.369 46.906 26.732 46.906 22.939 c h
46.906 22.939 m f
0 0.105882 0 rg
0.751181 w
0 J
0 j
[] 0.0 d
4 M q 1 0 0 -1 0 92.771095 cm
46.906 69.832 m 46.906 77.73 40.504 84.129 32.609 84.129 c 24.711 84.129
 18.309 77.73 18.309 69.832 c 18.309 66.039 19.816 62.402 22.496 59.723 
c 25.18 57.039 28.816 55.535 32.609 55.535 c 36.398 55.535 40.035 57.039
 42.719 59.723 c 45.398 62.402 46.906 66.039 46.906 69.832 c h
46.906 69.832 m S Q
0 g
q 1 0 0 -1 0 92.771095 cm
18.309 47.406 m 18.309 70.551 l S Q
q 1 0 0 -1 0 92.771095 cm
18.309 1.117 m 18.309 47.406 l S Q
0.566929 w
q 1 0 0 -1 0 92.771095 cm
1.441 47.145 m 1.441 70.289 l S Q
1.441 43.361 m 2.574 42.228 l 1.441 46.193 l 0.305 42.228 l h
1.441 43.361 m f*
0.302362 w
q 0 -1 -1 0 0 92.771095 cm
49.41 -1.441 m 50.543 -2.574 l 46.578 -1.441 l 50.543 -0.305 l h
49.41 -1.441 m S Q
1.441 24.752 m 0.305 25.884 l 1.441 21.916 l 2.574 25.884 l h
1.441 24.752 m f*
q 0 1 1 0 0 92.771095 cm
-68.02 1.441 m -66.887 0.305 l -70.855 1.441 l -66.887 2.574 l h
-68.02 1.441 m S Q
0.566929 w
q 1 0 0 -1 0 92.771095 cm
14.195 1.117 m 14.195 47.406 l S Q
14.195 89.384 m 15.328 88.252 l 14.195 92.22 l 13.062 88.252 l h
14.195 89.384 m f*
0.302362 w
q 0 -1 -1 0 0 92.771095 cm
3.387 -14.195 m 4.52 -15.328 l 0.551 -14.195 l 4.52 -13.062 l h
3.387 -14.195 m S Q
14.195 47.63 m 13.062 48.767 l 14.195 44.798 l 15.328 48.767 l h
14.195 47.63 m f*
q 0 1 1 0 0 92.771095 cm
-45.141 14.195 m -44.004 13.062 l -47.973 14.195 l -44.004 15.328 l h
-45.141 14.195 m S Q
0.510236 w
q 1 0 0 -1 0 92.771095 cm
14.195 70.551 m 14.195 70.551 14.434 91.074 32.504 91.125 c 50.578 91.176
 51.227 70.551 51.227 70.551 c S Q
14.219 20.177 m 15.25 19.17 l 14.188 22.728 l 13.211 19.146 l h
14.219 20.177 m f*
0.272108 w
q 0.0115749 -1 -1 -0.0115749 0 92.771095 cm
72.749 -13.377 m 73.768 -14.396 l 70.198 -13.375 l 73.768 -12.357 l h
72.749 -13.377 m S Q
51.164 20.177 m 52.152 19.127 l 51.242 22.728 l 50.109 19.193 l h
51.164 20.177 m f*
0.271991 w
q -0.031468 -1 -1 0.031468 0 92.771095 cm
70.913 -53.396 m 71.932 -54.416 l 68.363 -53.393 l 71.93 -52.373 l h
70.913 -53.396 m S Q
0.751181 w
q 1 0 0 -1 0 92.771095 cm
46.906 47.82 m 46.906 70.965 l S Q
0.566929 w
q 1 0 0 -1 0 92.771095 cm
63.777 48.082 m 63.777 71.227 l S Q
63.777 42.42 m 64.91 41.287 l 63.777 45.255 l 62.645 41.287 l h
63.777 42.42 m f*
0.302362 w
q 0 -1 -1 0 0 92.771095 cm
50.352 -63.777 m 51.484 -64.91 l 47.516 -63.777 l 51.484 -62.645 l h
50.352 -63.777 m S Q
63.777 23.81 m 62.645 24.947 l 63.777 20.978 l 64.91 24.947 l h
63.777 23.81 m f*
q 0 1 1 0 0 92.771095 cm
-68.961 63.777 m -67.824 62.645 l -71.793 63.777 l -67.824 64.91 l h
-68.961 63.777 m S Q
0.425197 w
[ 1.700787 1.700787] 0 d
q 1 0 0 -1 0 92.771095 cm
1.441 47.145 m 18.309 47.406 l S Q
[ 1.700787 1.700787] 0 d
q 1 0 0 -1 0 92.771095 cm
1.441 70.289 m 18.309 70.551 l S Q
[ 1.700788 1.700788] 0 d
q 1 0 0 -1 0 92.771095 cm
46.906 47.82 m 63.777 48.082 l S Q
[ 1.700788 1.700788] 0 d
q 1 0 0 -1 0 92.771095 cm
46.906 70.965 m 63.777 71.227 l S Q
Q Q
showpage
%%Trailer
end restore
%%EOF
