%!PS-Adobe-3.0 EPSF-3.0
%%Creator: cairo 1.14.8 (http://cairographics.org)
%%CreationDate: Sun Jan 27 16:17:13 2019
%%Pages: 1
%%DocumentData: Clean7Bit
%%LanguageLevel: 2
%%BoundingBox: 0 -1 95 108
%%EndComments
%%BeginProlog
save
50 dict begin
/q { gsave } bind def
/Q { grestore } bind def
/cm { 6 array astore concat } bind def
/w { setlinewidth } bind def
/J { setlinecap } bind def
/j { setlinejoin } bind def
/M { setmiterlimit } bind def
/d { setdash } bind def
/m { moveto } bind def
/l { lineto } bind def
/c { curveto } bind def
/h { closepath } bind def
/re { exch dup neg 3 1 roll 5 3 roll moveto 0 rlineto
      0 exch rlineto 0 rlineto closepath } bind def
/S { stroke } bind def
/f { fill } bind def
/f* { eofill } bind def
/n { newpath } bind def
/W { clip } bind def
/W* { eoclip } bind def
/BT { } bind def
/ET { } bind def
/pdfmark where { pop globaldict /?pdfmark /exec load put }
    { globaldict begin /?pdfmark /pop load def /pdfmark
    /cleartomark load def end } ifelse
/BDC { mark 3 1 roll /BDC pdfmark } bind def
/EMC { mark /EMC pdfmark } bind def
/cairo_store_point { /cairo_point_y exch def /cairo_point_x exch def } def
/Tj { show currentpoint cairo_store_point } bind def
/TJ {
  {
    dup
    type /stringtype eq
    { show } { -0.001 mul 0 cairo_font_matrix dtransform rmoveto } ifelse
  } forall
  currentpoint cairo_store_point
} bind def
/cairo_selectfont { cairo_font_matrix aload pop pop pop 0 0 6 array astore
    cairo_font exch selectfont cairo_point_x cairo_point_y moveto } bind def
/Tf { pop /cairo_font exch def /cairo_font_matrix where
      { pop cairo_selectfont } if } bind def
/Td { matrix translate cairo_font_matrix matrix concatmatrix dup
      /cairo_font_matrix exch def dup 4 get exch 5 get cairo_store_point
      /cairo_font where { pop cairo_selectfont } if } bind def
/Tm { 2 copy 8 2 roll 6 array astore /cairo_font_matrix exch def
      cairo_store_point /cairo_font where { pop cairo_selectfont } if } bind def
/g { setgray } bind def
/rg { setrgbcolor } bind def
/d1 { setcachedevice } bind def
%%EndProlog
%%BeginSetup
%%EndSetup
%%Page: 1 1
%%BeginPageSetup
%%PageBoundingBox: 0 -1 95 108
%%EndPageSetup
q 0 -1 95 109 rectclip q
0 g
0.75 w
0 J
0 j
[] 0.0 d
4 M q 1 0 0 -1 0 107.113777 cm
0 0.375 m 94.227 0.375 l S Q
0 0.0862745 0 rg
q 1 0 0 -1 0 107.113777 cm
45.672 24.961 m 45.672 32.855 39.27 39.258 31.375 39.258 c 23.477 39.258
 17.074 32.855 17.074 24.961 c 17.074 17.062 23.477 10.66 31.375 10.66 c
 35.168 10.66 38.805 12.168 41.484 14.848 c 44.168 17.531 45.672 21.168 
45.672 24.961 c h
45.672 24.961 m S Q
1 g
74.27 37.098 m 74.27 29.2 67.867 22.801 59.973 22.801 c 52.074 22.801 45.672
 29.2 45.672 37.098 c 45.672 40.891 47.18 44.528 49.859 47.208 c 52.543 
49.891 56.18 51.395 59.973 51.395 c 63.762 51.395 67.398 49.891 70.082 47.208
 c 72.762 44.528 74.27 40.891 74.27 37.098 c h
74.27 37.098 m f
0 0.105882 0 rg
q 1 0 0 -1 0 107.113777 cm
74.27 70.016 m 74.27 77.914 67.867 84.312 59.973 84.312 c 52.074 84.312
 45.672 77.914 45.672 70.016 c 45.672 66.223 47.18 62.586 49.859 59.906 
c 52.543 57.223 56.18 55.719 59.973 55.719 c 63.762 55.719 67.398 57.223
 70.082 59.906 c 72.762 62.586 74.27 66.223 74.27 70.016 c h
74.27 70.016 m S Q
0 g
q 1 0 0 -1 0 107.113777 cm
45.672 24.445 m 45.672 70.734 l S Q
q 1 0 0 -1 0 107.113777 cm
17.074 24.445 m 17.074 70.734 l S Q
q 1 0 0 -1 0 107.113777 cm
74.27 0.785 m 74.27 70.324 l S Q
q 1 0 0 -1 0 107.113777 cm
31.477 0.375 m 31.477 25.473 l S Q
0 0.105882 0 rg
q 1 0 0 -1 0 107.113777 cm
9.668 70.531 15.02 12.547 re S Q
0 g
q 1 0 0 -1 0 107.113777 cm
59.867 69.5 m 59.867 94.602 l S Q
0 0.105882 0 rg
q 1 0 0 -1 0 107.113777 cm
52.461 94.188 15.02 12.551 re S Q
Q Q
showpage
%%Trailer
end restore
%%EOF
