%!PS-Adobe-2.0
%%Creator: inkscape 0.41.1
%%Pages: 1
%%Orientation: Portrait
%%BoundingBox: 21 754 153 835
%%HiResBoundingBox: 21.480557 754.00865 152.08214 834.20692
%%EndComments
%%Page: 1 1
0 842 translate
0.80000000 -0.80000000 scale
gsave [1.0000000 0.0000000 0.0000000 1.0000000 0.0000000 0.0000000] concat
gsave [0.0000000 -1.2212320 1.2212320 0.0000000 19.846910 237.17080] concat
0.0000000 0.0000000 0.0000000 setrgbcolor
[] 0 setdash
0.35433072 setlinewidth
1 setlinejoin
1 setlinecap
newpath
115.28149 12.885265 moveto
148.44686 12.911676 175.34225 39.849930 175.31584 73.015298 curveto
175.28945 106.14704 148.41324 133.02326 115.28150 133.04964 curveto
stroke
grestore
0.0000000 0.0000000 0.0000000 setrgbcolor
[0.70866142 1.4173228] 0.0000000 setdash
0.35433072 setlinewidth
0 setlinejoin
0 setlinecap
newpath
108.95710 9.7806958 moveto
108.95710 109.67421 108.95710 109.67421 108.95710 109.67421 curveto
stroke
0.0000000 0.0000000 0.0000000 setrgbcolor
[0.70866142 1.4173228] 0.0000000 setdash
0.35433072 setlinewidth
0 setlinejoin
0 setlinecap
newpath
27.027862 96.525521 moveto
189.92551 96.525521 lineto
stroke
0.0000000 0.0000000 0.0000000 setrgbcolor
[] 0 setdash
0.35433072 setlinewidth
0 setlinejoin
0 setlinecap
newpath
108.84193 96.525521 moveto
64.647722 38.086902 lineto
109.02455 38.086902 lineto
stroke
0.0000000 0.0000000 0.0000000 setrgbcolor
newpath
94.843491 67.286682 moveto
94.789780 67.291565 lineto
94.480529 67.298075 94.125711 67.195536 93.725327 66.983948 curveto
93.328186 66.769105 93.049866 66.529847 92.890366 66.266174 curveto
91.742905 64.376526 lineto
91.586651 64.402570 91.432029 64.415591 91.279037 64.415588 curveto
91.054425 64.415591 90.758202 64.366763 90.390366 64.269104 curveto
90.385483 66.295471 lineto
90.385481 66.591696 90.501041 66.816305 90.732162 66.969299 curveto
90.933983 67.102763 91.187889 67.161357 91.493881 67.145081 curveto
91.528061 67.281799 lineto
91.523178 67.330627 lineto
88.554428 67.330627 lineto
88.583725 67.115784 lineto
88.637436 67.115784 lineto
88.969467 67.119039 89.200586 67.055563 89.330795 66.925354 curveto
89.464258 66.791891 89.530989 66.559144 89.530991 66.227112 curveto
89.530991 61.202698 lineto
89.530989 60.766506 89.215235 60.551663 88.583725 60.558167 curveto
88.583725 60.377502 lineto
89.036198 60.315660 89.701888 60.284736 90.580795 60.284729 curveto
91.557355 60.284736 92.278383 60.377509 92.743881 60.563049 curveto
93.482808 60.856025 93.852274 61.414292 93.852280 62.237854 curveto
93.852274 62.651270 93.723694 63.028874 93.466537 63.370667 curveto
93.232158 63.686425 92.918030 63.938704 92.524155 64.127502 curveto
94.003647 66.422424 lineto
94.270568 66.832581 94.539122 67.039287 94.809311 67.042542 curveto
94.843491 67.286682 lineto
92.826889 62.237854 moveto
92.826885 61.769110 92.683656 61.368719 92.397202 61.036682 curveto
92.094463 60.691637 91.711977 60.519111 91.249741 60.519104 curveto
91.139061 60.519111 90.995832 60.532132 90.820053 60.558167 curveto
90.595442 60.587470 90.452212 60.605374 90.390366 60.611877 curveto
90.390366 64.005432 lineto
90.611718 64.067284 90.938866 64.098209 91.371811 64.098206 curveto
91.882875 64.098209 92.263734 63.907779 92.514389 63.526917 curveto
92.722718 63.207910 92.826885 62.778223 92.826889 62.237854 curveto
fill
0.0000000 0.0000000 0.0000000 setrgbcolor
newpath
66.902527 94.679787 moveto
66.848816 94.684669 lineto
66.539565 94.691180 66.184748 94.588641 65.784363 94.377052 curveto
65.387222 94.162209 65.108902 93.922952 64.949402 93.659279 curveto
63.801941 91.769630 lineto
63.645688 91.795675 63.491065 91.808696 63.338074 91.808693 curveto
63.113462 91.808696 62.817238 91.759868 62.449402 91.662209 curveto
62.444519 93.688576 lineto
62.444517 93.984800 62.560077 94.209410 62.791199 94.362404 curveto
62.993019 94.495868 63.246925 94.554461 63.552917 94.538185 curveto
63.587097 94.674904 lineto
63.582214 94.723732 lineto
60.613464 94.723732 lineto
60.642761 94.508888 lineto
60.696472 94.508888 lineto
61.028503 94.512144 61.259622 94.448667 61.389832 94.318459 curveto
61.523294 94.184996 61.590026 93.952248 61.590027 93.620216 curveto
61.590027 88.595802 lineto
61.590026 88.159611 61.274271 87.944767 60.642761 87.951271 curveto
60.642761 87.770607 lineto
61.095235 87.708765 61.760924 87.677841 62.639832 87.677834 curveto
63.616391 87.677841 64.337419 87.770614 64.802917 87.956154 curveto
65.541845 88.249129 65.911310 88.807397 65.911316 89.630959 curveto
65.911310 90.044375 65.782730 90.421978 65.525574 90.763771 curveto
65.291194 91.079530 64.977067 91.331808 64.583191 91.520607 curveto
66.062683 93.815529 lineto
66.329604 94.225686 66.598159 94.432391 66.868347 94.435646 curveto
66.902527 94.679787 lineto
64.885925 89.630959 moveto
64.885921 89.162214 64.742692 88.761824 64.456238 88.429787 curveto
64.153500 88.084741 63.771013 87.912215 63.308777 87.912209 curveto
63.198097 87.912215 63.054868 87.925236 62.879089 87.951271 curveto
62.654478 87.980575 62.511249 87.998478 62.449402 88.004982 curveto
62.449402 91.398537 lineto
62.670754 91.460389 62.997902 91.491313 63.430847 91.491310 curveto
63.941911 91.491313 64.322770 91.300884 64.573425 90.920021 curveto
64.781754 90.601015 64.885921 90.171328 64.885925 89.630959 curveto
fill
0.0000000 0.0000000 0.0000000 setrgbcolor
newpath
91.682350 32.630825 moveto
91.672581 32.816376 91.571670 33.067027 91.379616 33.382778 curveto
90.975967 33.174449 90.697647 33.070282 90.544655 33.070278 curveto
90.349340 33.070282 90.176814 33.164683 90.027077 33.353481 curveto
89.913143 33.526011 89.800838 33.698537 89.690163 33.871059 curveto
89.690163 36.292934 lineto
89.690161 36.644497 89.909888 36.820278 90.349342 36.820278 curveto
90.391658 36.820278 90.451879 36.818651 90.530006 36.815395 curveto
90.608129 36.812140 90.663467 36.810513 90.696022 36.810513 curveto
90.715553 36.991177 lineto
88.298561 36.991177 lineto
88.298561 36.849575 lineto
88.757545 36.836554 88.987037 36.651008 88.987038 36.292934 curveto
88.987038 33.431606 lineto
88.987037 33.239553 88.752662 33.093069 88.283913 32.992153 curveto
88.283913 32.811489 lineto
88.570371 32.778941 88.975644 32.612926 89.499733 32.313442 curveto
89.690163 32.352505 lineto
89.690163 33.504848 lineto
90.080786 32.775686 90.429093 32.411103 90.735085 32.411098 curveto
90.891332 32.411103 91.207087 32.484345 91.682350 32.630825 curveto
fill
0.0000000 0.0000000 0.0000000 setrgbcolor
[] 0 setdash
0.35433072 setlinewidth
0 setlinejoin
0 setlinecap
newpath
97.702066 96.342900 moveto
97.702066 96.342900 97.336825 91.777383 101.53710 87.029245 curveto
stroke
0.0000000 0.0000000 0.0000000 setrgbcolor
newpath
96.431442 91.489334 moveto
96.431438 92.019935 96.252401 92.509843 95.894333 92.959061 curveto
95.513470 93.440832 95.065879 93.681717 94.551559 93.681717 curveto
94.076297 93.681717 93.838667 93.434321 93.838669 92.939529 curveto
93.838667 92.822343 93.880984 92.706783 93.965622 92.592850 curveto
94.053510 92.475663 94.154422 92.417070 94.268356 92.417068 curveto
94.538536 92.417070 94.673627 92.534257 94.673630 92.768631 curveto
94.673627 92.830481 94.634564 92.902095 94.556442 92.983475 curveto
94.481570 93.061600 94.444135 93.102290 94.444138 93.105545 curveto
94.444135 93.164139 94.494590 93.219478 94.595505 93.271561 curveto
94.683392 93.317134 94.759890 93.339920 94.824997 93.339920 curveto
95.202598 93.339920 95.451621 93.131587 95.572067 92.714920 curveto
95.630657 92.503333 95.659954 92.138750 95.659958 91.621170 curveto
95.659954 90.599038 95.163535 90.087970 94.170700 90.087967 curveto
94.066531 90.087970 93.955854 90.092853 93.838669 90.102615 curveto
93.867966 89.794998 lineto
94.691530 89.544351 95.103314 88.977946 95.103317 88.095779 curveto
95.103314 87.770264 95.026817 87.508220 94.873825 87.309647 curveto
94.704551 87.091554 94.462038 86.982505 94.146286 86.982498 curveto
93.755659 86.982505 93.500125 87.164796 93.379684 87.529373 curveto
93.314579 87.724692 93.282027 88.068116 93.282028 88.559647 curveto
93.282028 93.603592 lineto
91.768356 93.603592 lineto
91.768356 93.403397 lineto
91.826950 93.408279 lineto
91.970179 93.414790 92.108525 93.374100 92.241989 93.286209 curveto
92.378707 93.198319 92.447066 93.082759 92.447067 92.939529 curveto
92.447067 88.281326 lineto
92.447066 87.832113 92.590296 87.444744 92.876755 87.119217 curveto
93.172977 86.780682 93.542443 86.611411 93.985153 86.611404 curveto
94.463666 86.611411 94.877077 86.718833 95.225388 86.933670 curveto
95.638795 87.184328 95.845501 87.531007 95.845505 87.973709 curveto
95.845501 88.338298 95.721803 88.701253 95.474411 89.062576 curveto
95.227012 89.420653 94.927533 89.664794 94.575974 89.794998 curveto
94.728965 89.759195 94.873822 89.741291 95.010544 89.741287 curveto
95.469524 89.741291 95.827597 89.921955 96.084763 90.283279 curveto
96.315878 90.605548 96.431438 91.007566 96.431442 91.489334 curveto
fill
0.0000000 0.0000000 0.0000000 setrgbcolor
[] 0 setdash
1.0000000 setlinewidth
0 setlinejoin
0 setlinecap
newpath
58.621239 43.200286 moveto
58.621239 43.200286 59.899584 31.329941 54.603584 21.833666 curveto
stroke
0.0000000 0.0000000 0.0000000 setrgbcolor
[] 0 setdash
1.0000000 setlinewidth
0 setlinejoin
0 setlinecap
newpath
69.943722 33.886631 moveto
69.943722 33.886631 63.917239 33.156148 54.603584 21.651045 curveto
stroke
0.0000000 0.0000000 0.0000000 setrgbcolor
[] 0 setdash
1.0355049 setlinewidth
0 setlinejoin
0 setlinecap
newpath
58.454504 34.597487 moveto
63.353491 30.801706 lineto
stroke
0.0000000 0.0000000 0.0000000 setrgbcolor
[] 0 setdash
1.0000000 setlinewidth
0 setlinejoin
0 setlinecap
newpath
57.525515 30.782079 moveto
60.630067 28.225389 lineto
stroke
grestore
showpage
