%!PS-Adobe-3.0 EPSF-3.0
%%Creator: cairo 1.14.8 (http://cairographics.org)
%%CreationDate: Sat Jan 26 11:17:06 2019
%%Pages: 1
%%DocumentData: Clean7Bit
%%LanguageLevel: 2
%%BoundingBox: 0 -1 119 77
%%EndComments
%%BeginProlog
save
50 dict begin
/q { gsave } bind def
/Q { grestore } bind def
/cm { 6 array astore concat } bind def
/w { setlinewidth } bind def
/J { setlinecap } bind def
/j { setlinejoin } bind def
/M { setmiterlimit } bind def
/d { setdash } bind def
/m { moveto } bind def
/l { lineto } bind def
/c { curveto } bind def
/h { closepath } bind def
/re { exch dup neg 3 1 roll 5 3 roll moveto 0 rlineto
      0 exch rlineto 0 rlineto closepath } bind def
/S { stroke } bind def
/f { fill } bind def
/f* { eofill } bind def
/n { newpath } bind def
/W { clip } bind def
/W* { eoclip } bind def
/BT { } bind def
/ET { } bind def
/pdfmark where { pop globaldict /?pdfmark /exec load put }
    { globaldict begin /?pdfmark /pop load def /pdfmark
    /cleartomark load def end } ifelse
/BDC { mark 3 1 roll /BDC pdfmark } bind def
/EMC { mark /EMC pdfmark } bind def
/cairo_store_point { /cairo_point_y exch def /cairo_point_x exch def } def
/Tj { show currentpoint cairo_store_point } bind def
/TJ {
  {
    dup
    type /stringtype eq
    { show } { -0.001 mul 0 cairo_font_matrix dtransform rmoveto } ifelse
  } forall
  currentpoint cairo_store_point
} bind def
/cairo_selectfont { cairo_font_matrix aload pop pop pop 0 0 6 array astore
    cairo_font exch selectfont cairo_point_x cairo_point_y moveto } bind def
/Tf { pop /cairo_font exch def /cairo_font_matrix where
      { pop cairo_selectfont } if } bind def
/Td { matrix translate cairo_font_matrix matrix concatmatrix dup
      /cairo_font_matrix exch def dup 4 get exch 5 get cairo_store_point
      /cairo_font where { pop cairo_selectfont } if } bind def
/Tm { 2 copy 8 2 roll 6 array astore /cairo_font_matrix exch def
      cairo_store_point /cairo_font where { pop cairo_selectfont } if } bind def
/g { setgray } bind def
/rg { setrgbcolor } bind def
/d1 { setcachedevice } bind def
%%EndProlog
%%BeginSetup
%%EndSetup
%%Page: 1 1
%%BeginPageSetup
%%PageBoundingBox: 0 -1 119 77
%%EndPageSetup
q 0 -1 119 78 rectclip q
0 g
0.75 w
0 J
0 j
[] 0.0 d
4 M q 1 0 0 1 0 76.737648 cm
0 -56.715 m 118.094 -56.715 l S Q
q 1 0 0 -1 0 76.737648 cm
45.168 37.941 44.898 18.504 re S Q
q 1 0 0 1 0 76.737648 cm
7.617 -16.172 m 7.617 -45.289 l 35.102 -45.289 l S Q
7.617 57.566 m 6.117 56.066 l 7.617 61.316 l 9.117 56.066 l h
7.617 57.566 m f*
0.4 w
q 0 -1 1 0 0 76.737648 cm
19.172 7.617 m 20.672 6.117 l 15.422 7.617 l 20.672 9.117 l h
19.172 7.617 m S Q
32.102 31.449 m 30.602 32.949 l 35.852 31.449 l 30.602 29.949 l h
32.102 31.449 m f*
q -1 0 0 -1 0 76.737648 cm
-32.102 45.289 m -30.602 43.789 l -35.852 45.289 l -30.602 46.789 l h
-32.102 45.289 m S Q
0.75 w
q 1 0 0 1 0 76.737648 cm
67.211 -47.465 m 67.211 -75.258 l S Q
67.211 4.48 m 68.711 5.98 l 67.211 0.73 l 65.711 5.98 l h
67.211 4.48 m f*
0.4 w
q 0 1 -1 0 0 76.737648 cm
-72.258 -67.211 m -70.758 -68.711 l -76.008 -67.211 l -70.758 -65.711 l
 h
-72.258 -67.211 m S Q
0.75 w
q 1 0 0 1 0 76.737648 cm
67.211 -1.477 m 67.211 -47.465 l S Q
67.211 72.261 m 65.711 70.761 l 67.211 76.011 l 68.711 70.761 l h
67.211 72.261 m f*
0.4 w
q 0 -1 1 0 0 76.737648 cm
4.477 67.211 m 5.977 65.711 l 0.727 67.211 l 5.977 68.711 l h
4.477 67.211 m S Q
0.75 w
q 1 0 0 1 0 76.737648 cm
103.672 -65.695 m 67.211 -47.465 l S Q
100.988 12.382 m 100.32 14.398 l 104.344 10.706 l 98.977 11.714 l h
100.988 12.382 m f*
0.357771 w
q -1 0.5 -0.5 -1 0 76.737648 cm
-106.533 11.089 m -105.192 9.744 l -109.888 11.088 l -105.191 12.428 l 
h
-106.533 11.089 m S Q
0.882353 0 0 rg
0.75 w
q 1 0 0 1 0 76.737648 cm
104.219 -47.465 m 67.211 -47.465 l 67.484 -65.695 l S Q
101.219 29.273 m 99.719 30.773 l 104.969 29.273 l 99.719 27.773 l h
101.219 29.273 m f*
0.4 w
q -1 0 0 -1 0 76.737648 cm
-101.219 47.465 m -99.719 45.965 l -104.969 47.465 l -99.719 48.965 l h
-101.219 47.465 m S Q
67.438 14.042 m 68.914 15.566 l 67.492 10.292 l 65.914 15.519 l h
67.438 14.042 m f*
0.399955 w
q -0.0149255 1 -1 -0.0149255 0 76.737648 cm
-63.688 -66.487 m -62.187 -67.986 l -67.438 -66.486 l -62.189 -64.986 l
 h
-63.688 -66.487 m S Q
0 g
0.525 w
[ 3.15 1.05] 0 d
q 1 0 0 1 0 76.737648 cm
104.219 -47.465 m 103.672 -65.695 l 67.484 -65.695 l S Q
0.75 w
[] 0.0 d
q 1 0 0 1 0 76.737648 cm
73.891 -50.488 m 75.859 -50.035 74.828 -47.191 74.828 -47.191 c S Q
Q Q
showpage
%%Trailer
end restore
%%EOF
