%!PS-Adobe-2.0
%%Creator: inkscape 0.41.1
%%Pages: 1
%%Orientation: Portrait
%%BoundingBox: 32 729 62 825
%%HiResBoundingBox: 32.641191 729.73755 61.326616 824.13716
%%EndComments
%%Page: 1 1
0 842 translate
0.80000000 -0.80000000 scale
gsave [1.0000000 0.0000000 0.0000000 1.0000000 0.0000000 0.0000000] concat
0.0000000 0.0000000 0.0000000 setrgbcolor
[] 0 setdash
0.35433072 setlinewidth
0 setlinejoin
0 setlinecap
newpath
52.521937 118.89537 moveto
56.649523 111.74618 lineto
49.443729 111.74618 lineto
49.443729 51.944327 lineto
60.086485 33.510532 lineto
71.869204 51.830156 lineto
71.869204 111.71993 lineto
64.269876 111.74847 lineto
68.406219 118.70298 lineto
stroke
0.0000000 0.0000000 0.0000000 setrgbcolor
newpath
59.449113 112.36191 moveto
59.584405 113.43630 59.966083 114.47859 60.267906 115.51942 curveto
60.480765 116.45365 59.976439 116.92360 59.317671 117.47725 curveto
58.551848 118.06718 58.166422 118.66909 58.191265 119.61091 curveto
58.558469 120.51130 58.364250 121.29020 58.068098 122.17051 curveto
57.739469 123.09919 57.716975 124.01898 57.250495 124.89475 curveto
56.732986 125.76170 56.608271 126.67047 56.017468 127.52665 curveto
55.114967 128.47814 55.091883 129.76765 54.587138 130.90056 curveto
54.027516 131.78296 53.764659 132.79616 53.427849 133.78125 curveto
53.309590 134.00719 53.375042 134.26730 53.350126 134.49663 curveto
50.338205 136.12796 lineto
50.324764 135.83271 50.218150 135.54553 50.356781 135.24478 curveto
50.670852 134.23288 50.941387 133.18631 51.489631 132.29112 curveto
52.029047 131.16474 52.058015 129.86726 52.909194 128.88186 curveto
53.500779 128.01606 53.752048 127.19539 54.117749 126.24789 curveto
54.660572 125.41365 54.703609 124.57439 54.980346 123.62845 curveto
55.272794 122.78551 55.538619 122.06779 55.164324 121.19811 curveto
55.041519 120.16612 55.339967 119.45025 56.146086 118.75619 curveto
56.730952 118.29129 57.323527 117.94786 57.266442 117.13612 curveto
56.984381 116.06405 56.646524 115.00269 56.368492 113.93157 curveto
59.449113 112.36191 lineto
closepath
fill
0.0000000 0.0000000 0.0000000 setrgbcolor
newpath
63.681650 114.67057 moveto
63.682010 115.62227 64.042623 116.39589 63.752062 117.33300 curveto
62.888560 118.62564 62.257593 119.80391 62.869418 121.29911 curveto
63.690478 122.83985 62.638302 124.53126 62.959668 126.24169 curveto
63.817687 127.86544 62.170762 128.13625 61.208447 129.13603 curveto
60.524988 130.16336 61.081016 131.20690 60.963045 132.35796 curveto
60.716480 133.71163 60.642604 134.83052 61.682132 135.78611 curveto
62.484752 136.74135 63.367300 137.62387 64.393082 138.32142 curveto
61.525033 140.19025 lineto
60.537187 139.40204 59.658933 138.49712 58.783714 137.58519 curveto
57.679216 136.54367 57.675756 135.31315 57.932299 133.85403 curveto
58.080197 132.65948 57.475382 131.59493 58.096702 130.47822 curveto
58.873650 129.45300 60.642887 129.23430 59.997970 127.84495 curveto
59.652856 126.16046 60.546092 124.52837 59.928585 123.00043 curveto
59.168961 121.46450 59.714004 120.07288 60.662546 118.73640 curveto
60.999098 117.85114 60.708833 117.16580 60.601029 116.24022 curveto
63.681650 114.67057 lineto
closepath
fill
0.0000000 0.0000000 0.0000000 setrgbcolor
newpath
66.952247 118.71072 moveto
67.658267 120.79893 69.887146 122.27909 70.425366 124.44750 curveto
69.984714 126.58763 68.418098 128.76823 69.905986 130.80746 curveto
71.292968 133.71740 74.752302 134.83757 76.608741 137.20747 curveto
76.725107 137.57688 76.606760 137.93241 76.554992 138.29438 curveto
73.427621 139.69794 lineto
73.509265 139.43915 73.682417 139.18159 73.615584 138.86402 curveto
71.633865 136.61410 68.718738 135.10302 66.997028 132.53306 curveto
65.581383 130.46830 66.686498 128.16790 67.409184 126.01154 curveto
66.873433 123.81945 64.932653 122.25022 63.871626 120.28037 curveto
66.952247 118.71072 lineto
closepath
fill
0.0000000 0.0000000 0.0000000 setrgbcolor
[] 0 setdash
1.0000000 setlinewidth
0 setlinejoin
0 setlinecap
newpath
60.025071 78.301490 moveto
60.025071 41.555372 lineto
60.025071 41.555372 lineto
60.025071 41.555372 lineto
60.025071 41.555372 lineto
stroke
gsave [4.8984254e-17 -0.80000000 0.80000000 4.8984254e-17 60.025071 78.301490] concat
0.0000000 0.0000000 0.0000000 setrgbcolor
[] 0 setdash
1.2500000 setlinewidth
0 setlinejoin
0 setlinecap
newpath
0.0000000 5.6500000 moveto
0.0000000 -5.6500000 lineto
stroke
grestore
gsave [-3.6738191e-17 0.60000000 -0.60000000 -3.6738191e-17 60.025071 38.555372] concat
0.0000000 0.0000000 0.0000000 setrgbcolor
newpath
8.7185878 4.0337352 moveto
-2.2072895 0.016013256 lineto
8.7185884 -4.0017078 lineto
6.9730900 -1.6296469 6.9831476 1.6157441 8.7185878 4.0337352 curveto
closepath
eofill
grestore
0.0000000 0.0000000 0.0000000 setrgbcolor
[] 0 setdash
0.64331710 setlinewidth
0 setlinejoin
0 setlinecap
newpath
60.025071 79.547522 moveto
60.025071 94.755158 lineto
60.025071 94.755158 lineto
60.025071 94.755158 lineto
60.025071 94.755158 lineto
stroke
gsave [3.1512408e-17 0.51465368 -0.51465368 3.1512408e-17 60.025071 79.547522] concat
0.0000000 0.0000000 0.0000000 setrgbcolor
[] 0 setdash
1.2500000 setlinewidth
0 setlinejoin
0 setlinecap
newpath
0.0000000 5.6500000 moveto
0.0000000 -5.6500000 lineto
stroke
grestore
gsave [-2.3634306e-17 -0.38599026 0.38599026 -2.3634306e-17 60.025071 96.685109] concat
0.0000000 0.0000000 0.0000000 setrgbcolor
newpath
8.7185878 4.0337352 moveto
-2.2072895 0.016013256 lineto
8.7185884 -4.0017078 lineto
6.9730900 -1.6296469 6.9831476 1.6157441 8.7185878 4.0337352 curveto
closepath
eofill
grestore
gsave [1.0000000 0.0000000 0.0000000 1.0000000 -25.010440 25.010450] concat
0.0000000 0.0000000 0.0000000 setrgbcolor
newpath
93.769981 63.806114 moveto
93.769976 64.434374 93.491656 64.963345 92.935020 65.393028 curveto
92.423949 65.786912 91.844522 65.983851 91.196739 65.983849 curveto
90.975382 65.983851 90.679159 65.935023 90.308067 65.837364 curveto
90.303185 67.863731 lineto
90.303183 68.159956 90.418742 68.384565 90.649864 68.537560 curveto
90.851685 68.671023 91.105591 68.729617 91.411583 68.713341 curveto
91.445763 68.850060 lineto
91.440880 68.898888 lineto
88.472130 68.898888 lineto
88.501427 68.684044 lineto
88.555138 68.684044 lineto
88.887168 68.687299 89.118288 68.623823 89.248497 68.493614 curveto
89.381959 68.360151 89.448691 68.127404 89.448692 67.795372 curveto
89.448692 62.770958 lineto
89.448691 62.338022 89.132936 62.123178 88.501427 62.126427 curveto
88.501427 61.945763 lineto
88.953900 61.883921 89.619589 61.852996 90.498497 61.852989 curveto
91.478312 61.852996 92.200967 61.945770 92.666466 62.131310 curveto
93.402138 62.424285 93.769976 62.982552 93.769981 63.806114 curveto
92.744591 63.806114 moveto
92.744586 63.334115 92.601357 62.933724 92.314903 62.604942 curveto
92.015420 62.259897 91.632934 62.087371 91.167442 62.087364 curveto
91.056762 62.087371 90.913533 62.100392 90.737755 62.126427 curveto
90.519654 62.155730 90.376425 62.173634 90.308067 62.180138 curveto
90.308067 65.573692 lineto
90.529419 65.635545 90.856567 65.666469 91.289513 65.666466 curveto
91.800577 65.666469 92.181436 65.477667 92.432091 65.100060 curveto
92.640420 64.781053 92.744586 64.349739 92.744591 63.806114 curveto
fill
0.0000000 0.0000000 0.0000000 setrgbcolor
[] 0 setdash
0.35433072 setlinewidth
0 setlinejoin
0 setlinecap
newpath
86.574622 59.832237 moveto
94.270144 59.832237 lineto
stroke
gsave [-0.21259843 0.0000000 0.0000000 -0.21259843 95.333136 59.832237] concat
0.0000000 0.0000000 0.0000000 setrgbcolor
newpath
8.7185878 4.0337352 moveto
-2.2072895 0.016013256 lineto
8.7185884 -4.0017078 lineto
6.9730900 -1.6296469 6.9831476 1.6157441 8.7185878 4.0337352 curveto
closepath
eofill
grestore
grestore
gsave [1.0000000 0.0000000 0.0000000 1.0000000 -24.240890 -26.934330] concat
0.0000000 0.0000000 0.0000000 setrgbcolor
newpath
92.699654 83.345718 moveto
92.523872 83.345718 lineto
92.523868 82.697938 92.237410 82.374045 91.664497 82.374039 curveto
89.462349 82.374039 lineto
89.462349 84.996109 lineto
91.283638 84.996109 lineto
91.478947 84.996113 91.633569 84.919616 91.747505 84.766617 curveto
91.845157 84.633158 91.893985 84.462259 91.893990 84.253922 curveto
92.030708 84.253922 lineto
92.030708 86.158218 lineto
91.893990 86.158218 lineto
91.893985 85.624367 91.690535 85.357441 91.283638 85.357437 curveto
89.462349 85.357437 lineto
89.462349 88.008804 lineto
89.462347 88.445003 89.756943 88.663101 90.346138 88.663101 curveto
90.346138 88.882828 lineto
87.792427 88.882828 lineto
87.792427 88.663101 lineto
88.332791 88.663101 88.602973 88.425471 88.602974 87.950211 curveto
88.602974 82.686539 lineto
88.602973 82.331728 88.332791 82.155946 87.792427 82.159195 curveto
87.792427 81.949234 lineto
92.582466 81.949234 lineto
92.699654 83.345718 lineto
fill
0.0000000 0.0000000 0.0000000 setrgbcolor
[] 0 setdash
0.35433072 setlinewidth
0 setlinejoin
0 setlinecap
newpath
85.997458 79.840594 moveto
93.692980 79.840594 lineto
stroke
gsave [-0.21259843 0.0000000 0.0000000 -0.21259843 94.755972 79.840594] concat
0.0000000 0.0000000 0.0000000 setrgbcolor
newpath
8.7185878 4.0337352 moveto
-2.2072895 0.016013256 lineto
8.7185884 -4.0017078 lineto
6.9730900 -1.6296469 6.9831476 1.6157441 8.7185878 4.0337352 curveto
closepath
eofill
grestore
grestore
0.0000000 0.0000000 0.0000000 setrgbcolor
[] 0 setdash
0.35433072 setlinewidth
0 setlinejoin
0 setlinecap
newpath
40.978654 132.74731 moveto
40.978654 24.240448 lineto
stroke
gsave [1.7356626e-17 -0.28346457 0.28346457 1.7356626e-17 40.978654 132.74731] concat
0.0000000 0.0000000 0.0000000 setrgbcolor
[] 0 setdash
1.2500000 setlinewidth
0 setlinejoin
0 setlinecap
newpath
0.0000000 5.6500000 moveto
0.0000000 -5.6500000 lineto
stroke
grestore
gsave [-2.3865361e-17 0.38976379 -0.38976379 -2.3865361e-17 40.978654 22.291629] concat
0.0000000 0.0000000 0.0000000 setrgbcolor
newpath
8.7185878 4.0337352 moveto
-2.2072895 0.016013256 lineto
8.7185884 -4.0017078 lineto
6.9730900 -1.6296469 6.9831476 1.6157441 8.7185878 4.0337352 curveto
closepath
eofill
grestore
0.0000000 0.0000000 0.0000000 setrgbcolor
newpath
48.066620 24.446596 moveto
46.269745 24.446596 lineto
46.269745 26.243471 lineto
45.810760 26.243471 lineto
45.810760 24.446596 lineto
44.013885 24.446596 lineto
44.013885 23.987612 lineto
45.810760 23.987612 lineto
45.810760 22.190737 lineto
46.269745 22.190737 lineto
46.269745 23.987612 lineto
48.066620 23.987612 lineto
48.066620 24.446596 lineto
fill
grestore
showpage
