%!PS-Adobe-2.0
%%Creator: inkscape 0.41.1
%%Pages: 1
%%Orientation: Portrait
%%BoundingBox: 4 748 187 810
%%HiResBoundingBox: 4.5000371 748.61124 186.11436 809.57426
%%EndComments
%%Page: 1 1
0 842 translate
0.80000000 -0.80000000 scale
gsave [1.0000000 0.0000000 0.0000000 1.0000000 0.0000000 0.0000000] concat
0.0000000 0.0000000 0.0000000 setrgbcolor
[] 0 setdash
0.28209710 setlinewidth
0 setlinejoin
0 setlinecap
newpath
11.072413 50.622858 moveto
11.072413 113.93936 11.072413 113.93936 11.072413 113.93936 curveto
stroke
gsave [1.9000185e-17 0.31030681 -0.31030681 1.9000185e-17 11.072413 49.071324] concat
0.0000000 0.0000000 0.0000000 setrgbcolor
newpath
8.7185878 4.0337352 moveto
-2.2072895 0.016013256 lineto
8.7185884 -4.0017078 lineto
6.9730900 -1.6296469 6.9831476 1.6157441 8.7185878 4.0337352 curveto
closepath
eofill
grestore
0.0000000 0.0000000 0.0000000 setrgbcolor
[] 0 setdash
0.22042209 setlinewidth
0 setlinejoin
0 setlinecap
newpath
5.7352574 106.56966 moveto
68.773981 106.56966 lineto
stroke
gsave [-0.24246430 0.0000000 0.0000000 -0.24246430 69.986302 106.56966] concat
0.0000000 0.0000000 0.0000000 setrgbcolor
newpath
8.7185878 4.0337352 moveto
-2.2072895 0.016013256 lineto
8.7185884 -4.0017078 lineto
6.9730900 -1.6296469 6.9831476 1.6157441 8.7185878 4.0337352 curveto
closepath
eofill
grestore
0.0000000 0.0000000 0.0000000 setrgbcolor
[] 0 setdash
1.0000000 setlinewidth
0 setlinejoin
0 setlinecap
newpath
11.139862 106.38704 moveto
51.133791 60.914492 lineto
stroke
0.0000000 0.0000000 0.0000000 setrgbcolor
[0.70866142 1.4173228] 0.0000000 setdash
0.35433072 setlinewidth
0 setlinejoin
0 setlinecap
newpath
50.768550 61.279733 moveto
50.768550 106.38704 lineto
stroke
0.0000000 0.0000000 0.0000000 setrgbcolor
newpath
18.500251 49.957253 moveto
16.307868 49.957253 lineto
16.327399 49.732643 lineto
16.493412 49.706602 16.591068 49.688698 16.620368 49.678932 curveto
16.731042 49.636615 16.786380 49.566628 16.786384 49.468971 curveto
16.786380 49.355040 16.615482 49.073464 16.273688 48.624245 curveto
16.049076 48.341043 15.824467 48.056213 15.599860 47.769753 curveto
14.776291 48.717019 14.364507 49.263894 14.364509 49.410378 curveto
14.364507 49.592670 14.603765 49.700091 15.082282 49.732643 curveto
15.082282 49.957253 lineto
13.148688 49.957253 lineto
13.109626 49.796120 lineto
13.526292 49.714740 13.846930 49.538959 14.071540 49.268776 curveto
15.472907 47.603737 lineto
14.354743 46.129128 lineto
14.169195 45.884991 13.855068 45.762921 13.412360 45.762917 curveto
13.397712 45.479713 lineto
15.570563 45.479713 lineto
15.531501 45.684792 lineto
15.199468 45.684796 15.033452 45.748272 15.033454 45.875221 curveto
15.033452 45.966371 15.316655 46.378155 15.883063 47.110573 curveto
16.649665 46.187721 lineto
16.711510 46.112855 16.742435 46.018454 16.742438 45.904518 curveto
16.742435 45.784080 16.565026 45.696189 16.210212 45.640846 curveto
16.190681 45.479713 lineto
18.236579 45.479713 lineto
18.217048 45.621315 lineto
17.823163 45.621319 17.411379 45.821514 16.981696 46.221901 curveto
16.923099 46.273988 16.604089 46.628805 16.024665 47.286354 curveto
16.421797 47.800679 16.927981 48.435444 17.543220 49.190651 curveto
17.826418 49.542214 18.132407 49.716367 18.461188 49.713112 curveto
18.500251 49.957253 lineto
fill
0.0000000 0.0000000 0.0000000 setrgbcolor
newpath
68.648720 114.11083 moveto
68.359004 114.68375 67.960241 114.97021 67.452431 114.97021 curveto
67.149695 114.97021 66.895789 114.87743 66.690712 114.69189 curveto
66.475867 114.49657 66.368446 114.24918 66.368446 113.94970 curveto
66.368446 110.88818 lineto
65.894814 110.88818 lineto
65.821571 110.64892 lineto
66.176389 110.51546 66.435177 110.31526 66.597939 110.04833 curveto
66.718380 109.85302 66.825802 109.53727 66.920204 109.10107 curveto
67.091103 109.10107 lineto
67.091103 110.50243 lineto
68.648720 110.50243 lineto
68.443642 110.88818 lineto
67.091103 110.88818 lineto
67.091103 113.65185 lineto
67.091101 113.82112 67.178992 114.00341 67.354774 114.19872 curveto
67.530554 114.39404 67.703080 114.49169 67.872353 114.49169 curveto
67.986283 114.49169 68.127884 114.40217 68.297157 114.22314 curveto
68.469681 114.04085 68.555944 113.94970 68.555946 113.94970 curveto
68.621048 113.94970 68.651972 114.00341 68.648720 114.11083 curveto
fill
0.0000000 0.0000000 0.0000000 setrgbcolor
newpath
19.877238 77.733231 moveto
19.877233 78.381019 19.637976 78.971839 19.159465 79.505692 curveto
18.667925 80.055822 18.103147 80.330887 17.465129 80.330887 curveto
17.126585 80.330887 16.796182 80.238113 16.473918 80.052567 curveto
16.473918 81.639481 lineto
16.473916 82.095208 16.822223 82.349114 17.518840 82.401199 curveto
17.509074 82.640457 lineto
14.974895 82.640457 lineto
14.916301 82.489090 lineto
14.955363 82.420731 lineto
15.498983 82.404452 15.770792 82.244947 15.770793 81.942215 curveto
15.770793 77.010574 lineto
15.770792 76.740396 15.725219 76.564615 15.634074 76.483231 curveto
15.546183 76.401854 15.363892 76.351399 15.087199 76.331863 curveto
15.033488 76.092606 lineto
15.219035 76.060058 15.442016 75.980305 15.702434 75.853348 curveto
15.953084 75.729654 16.153279 75.604329 16.303020 75.477371 curveto
16.473918 75.535965 lineto
16.473918 76.473465 lineto
17.170530 75.965657 17.767860 75.711751 18.265910 75.711746 curveto
18.741167 75.711751 19.136674 75.936360 19.452434 76.385574 curveto
19.735632 76.792479 19.877233 77.241697 19.877238 77.733231 curveto
19.193645 78.021317 moveto
19.193640 77.555824 19.073198 77.137531 18.832316 76.766434 curveto
18.555620 76.343261 18.194292 76.131672 17.748332 76.131668 curveto
17.295856 76.131672 16.871051 76.322102 16.473918 76.702957 curveto
16.473918 79.320145 lineto
16.887328 79.727046 17.349567 79.930497 17.860637 79.930496 curveto
18.020139 79.930497 18.204058 79.857254 18.412395 79.710770 curveto
18.591427 79.580562 18.734656 79.438961 18.842082 79.285965 curveto
19.076453 78.947425 19.193640 78.525876 19.193645 78.021317 curveto
fill
0.0000000 0.0000000 0.0000000 setrgbcolor
newpath
24.266887 79.071121 moveto
23.863237 79.930497 23.223590 80.360184 22.347941 80.360184 curveto
21.784789 80.360184 21.309529 80.114416 20.922160 79.622879 curveto
20.560832 79.163896 20.380168 78.646318 20.380168 78.070145 curveto
20.380168 77.415851 20.565715 76.865721 20.936809 76.419754 curveto
21.333943 75.944498 21.853148 75.706868 22.494426 75.706863 curveto
23.005491 75.706868 23.418902 75.861490 23.734660 76.170731 curveto
24.053667 76.479979 24.213172 76.891763 24.213176 77.406082 curveto
21.058879 77.406082 lineto
21.042602 77.542804 21.034464 77.682777 21.034465 77.826004 curveto
21.034464 78.311032 21.182576 78.756995 21.478801 79.163895 curveto
21.804320 79.616369 22.201455 79.842606 22.670207 79.842606 curveto
23.282183 79.842606 23.747678 79.567541 24.066691 79.017410 curveto
24.105754 79.017410 lineto
24.177365 79.014156 24.231075 79.032060 24.266887 79.071121 curveto
23.466105 77.127762 moveto
23.453081 76.795734 23.337522 76.525552 23.119426 76.317215 curveto
22.901324 76.105631 22.624632 75.999836 22.289348 75.999832 curveto
22.012653 75.999836 21.766885 76.121907 21.552043 76.366043 curveto
21.363240 76.580891 21.234659 76.834797 21.166301 77.127762 curveto
23.466105 77.127762 lineto
fill
0.0000000 0.0000000 0.0000000 setrgbcolor
newpath
29.999309 80.272293 moveto
27.797160 80.272293 lineto
27.797160 80.052567 lineto
28.246375 80.052567 28.470984 79.832840 28.470988 79.393387 curveto
28.470988 77.171707 lineto
28.470984 76.888507 28.412391 76.645995 28.295207 76.444168 curveto
28.151974 76.203287 27.948524 76.082844 27.684855 76.082840 curveto
27.264931 76.082844 26.750609 76.302570 26.141887 76.742020 curveto
26.141887 79.530106 lineto
26.141885 79.849116 26.392536 80.023270 26.893840 80.052567 curveto
26.864543 80.272293 lineto
24.755168 80.272293 lineto
24.735637 80.233231 lineto
24.764934 80.081863 lineto
24.970011 80.081864 25.136027 79.998856 25.262980 79.832840 curveto
25.380167 79.683101 25.438761 79.502437 25.438762 79.290848 curveto
25.438762 76.600418 lineto
25.438761 76.483234 25.336222 76.390461 25.131145 76.322098 curveto
25.105102 76.312336 24.948853 76.276529 24.662395 76.214676 curveto
24.662395 76.092606 lineto
24.808879 76.073079 25.041626 75.994954 25.360637 75.858231 curveto
25.660115 75.728027 25.860310 75.622233 25.961223 75.540848 curveto
26.141887 75.672684 lineto
26.141887 76.551590 lineto
27.102171 75.946126 27.764605 75.643391 28.129191 75.643387 curveto
28.484005 75.643391 28.759070 75.804524 28.954387 76.126785 curveto
29.120398 76.396971 29.203406 76.719237 29.203410 77.093582 curveto
29.203410 79.632645 lineto
29.203406 79.899572 29.458939 80.033036 29.970012 80.033035 curveto
29.999309 80.272293 lineto
fill
0.0000000 0.0000000 0.0000000 setrgbcolor
newpath
33.036418 79.412918 moveto
32.746702 79.985835 32.347939 80.272293 31.840129 80.272293 curveto
31.537393 80.272293 31.283487 80.179520 31.078410 79.993973 curveto
30.863566 79.798661 30.756144 79.551265 30.756145 79.251785 curveto
30.756145 76.190262 lineto
30.282512 76.190262 lineto
30.209270 75.951004 lineto
30.564087 75.817545 30.822876 75.617350 30.985637 75.350418 curveto
31.106078 75.155111 31.213500 74.839356 31.307902 74.403152 curveto
31.478801 74.403152 lineto
31.478801 75.804520 lineto
33.036418 75.804520 lineto
32.831340 76.190262 lineto
31.478801 76.190262 lineto
31.478801 78.953934 lineto
31.478799 79.123206 31.566690 79.305497 31.742473 79.500809 curveto
31.918252 79.696122 32.090778 79.793778 32.260051 79.793777 curveto
32.373981 79.793778 32.515582 79.704260 32.684855 79.525223 curveto
32.857379 79.342932 32.943642 79.251786 32.943645 79.251785 curveto
33.008746 79.251786 33.039670 79.305497 33.036418 79.412918 curveto
fill
0.0000000 0.0000000 0.0000000 setrgbcolor
newpath
fill
0.0000000 0.0000000 0.0000000 setrgbcolor
newpath
fill
0.0000000 0.0000000 0.0000000 setrgbcolor
newpath
43.583293 79.071121 moveto
43.179644 79.930497 42.539996 80.360184 41.664348 80.360184 curveto
41.101195 80.360184 40.625935 80.114416 40.238566 79.622879 curveto
39.877238 79.163896 39.696574 78.646318 39.696574 78.070145 curveto
39.696574 77.415851 39.882121 76.865721 40.253215 76.419754 curveto
40.650349 75.944498 41.169554 75.706868 41.810832 75.706863 curveto
42.321897 75.706868 42.735308 75.861490 43.051066 76.170731 curveto
43.370073 76.479979 43.529578 76.891763 43.529582 77.406082 curveto
40.375285 77.406082 lineto
40.359008 77.542804 40.350870 77.682777 40.350871 77.826004 curveto
40.350870 78.311032 40.498982 78.756995 40.795207 79.163895 curveto
41.120726 79.616369 41.517861 79.842606 41.986613 79.842606 curveto
42.598589 79.842606 43.064084 79.567541 43.383098 79.017410 curveto
43.422160 79.017410 lineto
43.493771 79.014156 43.547482 79.032060 43.583293 79.071121 curveto
42.782512 77.127762 moveto
42.769488 76.795734 42.653928 76.525552 42.435832 76.317215 curveto
42.217730 76.105631 41.941038 75.999836 41.605754 75.999832 curveto
41.329059 75.999836 41.083292 76.121907 40.868449 76.366043 curveto
40.679646 76.580891 40.551065 76.834797 40.482707 77.127762 curveto
42.782512 77.127762 lineto
fill
0.0000000 0.0000000 0.0000000 setrgbcolor
newpath
fill
0.0000000 0.0000000 0.0000000 setrgbcolor
newpath
48.544230 79.798660 moveto
48.544229 79.951655 48.488890 80.083491 48.378215 80.194168 curveto
48.270792 80.301590 48.140583 80.355301 47.987590 80.355301 curveto
47.831339 80.355301 47.697876 80.301590 47.587199 80.194168 curveto
47.479777 80.083491 47.426066 79.951655 47.426066 79.798660 curveto
47.426066 79.642411 47.479777 79.510575 47.587199 79.403152 curveto
47.697876 79.292476 47.831339 79.237138 47.987590 79.237137 curveto
48.140583 79.237138 48.270792 79.292476 48.378215 79.403152 curveto
48.488890 79.510575 48.544229 79.642411 48.544230 79.798660 curveto
48.544230 76.356277 moveto
48.544229 76.509276 48.488890 76.641112 48.378215 76.751785 curveto
48.270792 76.859211 48.140583 76.912921 47.987590 76.912918 curveto
47.831339 76.912921 47.697876 76.859211 47.587199 76.751785 curveto
47.479777 76.641112 47.426066 76.509276 47.426066 76.356277 curveto
47.426066 76.200032 47.479777 76.068196 47.587199 75.960770 curveto
47.697876 75.850097 47.831339 75.794759 47.987590 75.794754 curveto
48.140583 75.794759 48.270792 75.850097 48.378215 75.960770 curveto
48.488890 76.068196 48.544229 76.200032 48.544230 76.356277 curveto
fill
0.0000000 0.0000000 0.0000000 setrgbcolor
newpath
fill
0.0000000 0.0000000 0.0000000 setrgbcolor
newpath
55.873332 80.267410 moveto
53.026652 80.267410 lineto
53.026652 80.096512 lineto
53.716755 80.096512 54.061807 79.818192 54.061809 79.261551 curveto
54.061809 74.105301 lineto
53.886026 74.209474 53.711872 74.313640 53.539348 74.417801 curveto
53.331013 74.534994 53.147094 74.614747 52.987590 74.657059 curveto
52.894816 74.442215 lineto
53.549112 74.116700 54.110635 73.719565 54.579387 73.250809 curveto
54.872355 73.250809 lineto
54.872355 79.261551 lineto
54.872353 79.596838 54.958616 79.824702 55.131145 79.945145 curveto
55.271116 80.046056 55.518511 80.096512 55.873332 80.096512 curveto
55.873332 80.267410 lineto
fill
0.0000000 0.0000000 0.0000000 setrgbcolor
newpath
60.819621 77.957840 moveto
60.819617 78.840003 60.578732 79.469885 60.096965 79.847488 curveto
59.667274 80.186030 58.998330 80.355301 58.090129 80.355301 curveto
57.826456 80.355301 57.587198 80.309728 57.372355 80.218582 curveto
57.092407 80.094884 56.952433 79.917476 56.952434 79.686356 curveto
56.952433 79.578934 56.989868 79.489416 57.064738 79.417801 curveto
57.139607 79.342932 57.232381 79.305497 57.343059 79.305496 curveto
57.567667 79.305497 57.803669 79.414547 58.051066 79.632645 curveto
58.301716 79.850744 58.550739 79.959793 58.798137 79.959793 curveto
59.673785 79.959793 60.111610 79.346187 60.111613 78.118973 curveto
60.111610 77.783689 60.028602 77.467934 59.862590 77.171707 curveto
59.667274 76.823403 59.413368 76.649250 59.100871 76.649246 curveto
58.772093 76.649250 58.425413 76.742023 58.060832 76.927567 curveto
57.968059 76.678543 lineto
58.251260 76.600422 58.589801 76.382323 58.983684 76.024246 curveto
59.410113 75.636881 59.623329 75.314616 59.623332 75.057449 curveto
59.623329 74.757976 59.509397 74.499187 59.281535 74.281082 curveto
59.053668 74.062989 58.789996 73.953940 58.490520 73.953934 curveto
58.132445 73.953940 57.652302 74.240398 57.050090 74.813309 curveto
56.898723 74.749832 lineto
57.227498 74.248536 57.507446 73.900229 57.738566 73.704910 curveto
58.083617 73.421714 58.497028 73.280113 58.978801 73.280106 curveto
59.392209 73.280113 59.747027 73.410321 60.043254 73.670731 curveto
60.355750 73.944174 60.512000 74.284343 60.512004 74.691238 curveto
60.512000 75.039551 60.404578 75.329264 60.189738 75.560379 curveto
60.046506 75.716634 59.786089 75.895670 59.408488 76.097488 curveto
59.851193 76.126789 60.204383 76.338378 60.468059 76.732254 curveto
60.702429 77.083820 60.819617 77.492348 60.819621 77.957840 curveto
fill
0.0000000 0.0000000 0.0000000 setrgbcolor
newpath
62.875285 80.257645 moveto
62.875283 79.997228 62.810179 79.775874 62.679973 79.593582 curveto
62.536742 79.385250 62.339802 79.281083 62.089152 79.281082 curveto
61.916625 79.281083 61.765258 79.326656 61.635051 79.417801 curveto
61.495076 79.518713 61.425089 79.652177 61.425090 79.818192 curveto
61.425089 79.958166 61.464152 80.078608 61.542277 80.179520 curveto
61.630167 80.293452 61.739217 80.350418 61.869426 80.350418 curveto
61.908487 80.350418 61.962198 80.343908 62.030559 80.330887 curveto
62.102172 80.321121 62.155883 80.316238 62.191691 80.316238 curveto
62.325154 80.316238 62.391885 80.407384 62.391887 80.589676 curveto
62.391885 81.058425 62.107055 81.442539 61.537395 81.742020 curveto
61.573201 81.859206 61.607381 81.917799 61.639934 81.917801 curveto
61.701782 81.917799 61.815714 81.860833 61.981730 81.746902 curveto
62.134724 81.642734 62.235636 81.561354 62.284465 81.502762 curveto
62.502562 81.239089 62.642536 81.050287 62.704387 80.936356 curveto
62.818317 80.734532 62.875283 80.508295 62.875285 80.257645 curveto
fill
0.0000000 0.0000000 0.0000000 setrgbcolor
newpath
68.656535 76.336746 moveto
68.656530 77.381671 68.283809 78.278480 67.538371 79.027176 curveto
66.913368 79.658687 66.053994 80.158361 64.960246 80.526199 curveto
64.867473 80.311356 lineto
66.508095 79.731929 67.478146 78.638180 67.777629 77.030106 curveto
67.442339 77.303546 67.196571 77.484210 67.040324 77.572098 curveto
66.763628 77.725095 66.470660 77.801592 66.161418 77.801590 curveto
65.611286 77.801592 65.121378 77.567218 64.691691 77.098465 curveto
64.268514 76.639484 64.056925 76.133300 64.056926 75.579910 curveto
64.056925 74.964681 64.281535 74.424317 64.730754 73.958817 curveto
65.183226 73.493329 65.715452 73.260581 66.327434 73.260574 curveto
67.076128 73.260581 67.666948 73.599123 68.099895 74.276199 curveto
68.470984 74.855632 68.656530 75.542480 68.656535 76.336746 curveto
67.836223 76.370926 moveto
67.836219 74.440593 67.310503 73.475425 66.259074 73.475418 curveto
65.705687 73.475425 65.323200 73.716310 65.111613 74.198074 curveto
64.968383 74.526856 64.896768 75.010254 64.896770 75.648270 curveto
64.896768 76.110513 65.002563 76.520669 65.214152 76.878738 curveto
65.461546 77.305174 65.801715 77.518390 66.234660 77.518387 curveto
66.511350 77.518390 66.794553 77.432127 67.084270 77.259598 curveto
67.185178 77.201007 67.429318 77.025226 67.816691 76.732254 curveto
67.829708 76.618325 67.836219 76.497883 67.836223 76.370926 curveto
fill
0.0000000 0.0000000 0.0000000 setrgbcolor
newpath
fill
0.0000000 0.0000000 0.0000000 setrgbcolor
newpath
80.531535 80.272293 moveto
78.368449 80.272293 lineto
78.368449 80.052567 lineto
78.811151 80.052567 79.032505 79.832840 79.032512 79.393387 curveto
79.032512 77.171707 lineto
79.032505 76.895018 78.965773 76.652505 78.832316 76.444168 curveto
78.676060 76.203287 78.466099 76.082844 78.202434 76.082840 curveto
77.798782 76.082844 77.318640 76.286294 76.762004 76.693192 curveto
76.762004 79.632645 lineto
76.762000 79.899572 77.022416 80.033036 77.543254 80.033035 curveto
77.567668 80.272293 lineto
75.409465 80.272293 lineto
75.409465 80.052567 lineto
75.848914 80.052567 76.068641 79.832840 76.068645 79.393387 curveto
76.068645 77.171707 lineto
76.068641 76.891763 76.011675 76.650877 75.897746 76.449051 curveto
75.757769 76.204914 75.557574 76.082844 75.297160 76.082840 curveto
74.887001 76.082844 74.384072 76.302570 73.788371 76.742020 curveto
73.788371 79.530106 lineto
73.788370 79.849116 74.034138 80.023270 74.525676 80.052567 curveto
74.496379 80.272293 lineto
72.430949 80.272293 lineto
72.411418 80.233231 lineto
72.440715 80.081863 lineto
72.642537 80.081864 72.805298 79.998856 72.928996 79.832840 curveto
73.042928 79.679846 73.099894 79.499182 73.099895 79.290848 curveto
73.099895 76.600418 lineto
73.099894 76.483234 72.998982 76.390461 72.797160 76.322098 curveto
72.771118 76.312336 72.618123 76.276529 72.338176 76.214676 curveto
72.338176 76.092606 lineto
72.370728 76.056803 72.411418 76.030761 72.460246 76.014481 curveto
72.717407 75.926594 73.101521 75.768717 73.612590 75.540848 curveto
73.788371 75.672684 lineto
73.788371 76.551590 lineto
74.729124 75.946126 75.378537 75.643391 75.736613 75.643387 curveto
75.954709 75.643391 76.158159 75.744303 76.346965 75.946121 curveto
76.506466 76.118651 76.622026 76.320474 76.693645 76.551590 curveto
77.634394 75.946126 78.283808 75.643391 78.641887 75.643387 curveto
78.990187 75.643391 79.268507 75.804524 79.476848 76.126785 curveto
79.659132 76.406737 79.750278 76.729002 79.750285 77.093582 curveto
79.750285 79.632645 lineto
79.750278 79.899572 80.000929 80.033036 80.502238 80.033035 curveto
80.531535 80.272293 lineto
fill
0.0000000 0.0000000 0.0000000 setrgbcolor
newpath
84.286418 73.436356 moveto
81.239543 80.345535 lineto
80.804973 80.252762 lineto
83.886027 73.343582 lineto
84.286418 73.436356 lineto
fill
0.0000000 0.0000000 0.0000000 setrgbcolor
newpath
87.767863 79.056473 moveto
87.767860 79.398271 87.611610 79.689611 87.299113 79.930496 curveto
87.012652 80.158361 86.693642 80.272293 86.342082 80.272293 curveto
86.224893 80.272293 86.050739 80.251134 85.819621 80.208817 curveto
85.588500 80.163244 85.414347 80.140457 85.297160 80.140457 curveto
85.173461 80.140457 85.090454 80.203934 85.048137 80.330887 curveto
84.857707 80.291824 lineto
84.808879 79.032059 lineto
84.921184 79.012527 lineto
85.210896 79.712398 85.627563 80.062332 86.171184 80.062332 curveto
86.802692 80.062332 87.118446 79.777502 87.118449 79.207840 curveto
87.118446 78.879065 86.921507 78.623532 86.527629 78.441238 curveto
86.163044 78.284990 85.796833 78.128741 85.428996 77.972488 curveto
85.035115 77.731606 84.838175 77.376788 84.838176 76.908035 curveto
84.838175 76.569497 85.004191 76.286294 85.336223 76.058426 curveto
85.629190 75.853352 85.951455 75.750813 86.303020 75.750809 curveto
86.840126 75.750813 87.245399 75.832193 87.518840 75.994949 curveto
87.582316 77.093582 lineto
87.470012 77.113113 lineto
87.261675 76.670409 87.123329 76.408365 87.054973 76.326981 curveto
86.872678 76.105631 86.609007 75.994954 86.263957 75.994949 curveto
86.042601 75.994954 85.845661 76.063313 85.673137 76.200027 curveto
85.484333 76.343261 85.389933 76.522297 85.389934 76.737137 curveto
85.389933 77.000812 85.595010 77.228676 86.005168 77.420731 curveto
86.753863 77.769040 87.134722 77.948077 87.147746 77.957840 curveto
87.561154 78.231280 87.767860 78.597490 87.767863 79.056473 curveto
fill
0.0000000 0.0000000 0.0000000 setrgbcolor
newpath
46.832844 113.20363 moveto
46.832839 114.08579 46.591954 114.71567 46.110188 115.09328 curveto
45.680497 115.43182 45.011552 115.60109 44.103352 115.60109 curveto
43.839678 115.60109 43.600421 115.55552 43.385578 115.46437 curveto
43.105630 115.34067 42.965656 115.16326 42.965656 114.93214 curveto
42.965656 114.82472 43.003091 114.73520 43.077961 114.66359 curveto
43.152830 114.58872 43.245604 114.55129 43.356281 114.55128 curveto
43.580890 114.55129 43.816892 114.66034 44.064289 114.87843 curveto
44.314938 115.09653 44.563962 115.20558 44.811359 115.20558 curveto
45.687007 115.20558 46.124832 114.59198 46.124836 113.36476 curveto
46.124832 113.02948 46.041825 112.71372 45.875813 112.41750 curveto
45.680497 112.06919 45.426591 111.89504 45.114094 111.89503 curveto
44.785316 111.89504 44.438636 111.98781 44.074055 112.17336 curveto
43.981281 111.92433 lineto
44.264483 111.84621 44.603024 111.62811 44.996906 111.27003 curveto
45.423336 110.88267 45.636552 110.56040 45.636555 110.30324 curveto
45.636552 110.00376 45.522619 109.74498 45.294758 109.52687 curveto
45.066891 109.30878 44.803219 109.19973 44.503742 109.19972 curveto
44.145668 109.19973 43.665525 109.48619 43.063313 110.05910 curveto
42.911945 109.99562 lineto
43.240721 109.49432 43.520668 109.14602 43.751789 108.95070 curveto
44.096840 108.66750 44.510251 108.52590 44.992023 108.52589 curveto
45.405432 108.52590 45.760249 108.65611 46.056477 108.91652 curveto
46.368973 109.18996 46.525223 109.53013 46.525227 109.93703 curveto
46.525223 110.28534 46.417801 110.57505 46.202961 110.80617 curveto
46.059728 110.96242 45.799312 111.14146 45.421711 111.34328 curveto
45.864416 111.37258 46.217606 111.58417 46.481281 111.97804 curveto
46.715652 112.32961 46.832839 112.73814 46.832844 113.20363 curveto
fill
0.0000000 0.0000000 0.0000000 setrgbcolor
newpath
51.832844 111.99269 moveto
51.832839 112.78371 51.665196 113.53241 51.329914 114.23878 curveto
50.913244 115.12095 50.351721 115.56203 49.645344 115.56203 curveto
48.912920 115.56203 48.343259 115.12746 47.936359 114.25832 curveto
47.617348 113.57798 47.457843 112.82277 47.457844 111.99269 curveto
47.457843 111.20168 47.625486 110.45298 47.960773 109.74660 curveto
48.377439 108.86770 48.938962 108.42825 49.645344 108.42824 curveto
50.377762 108.42825 50.945796 108.86119 51.349445 109.72707 curveto
51.671706 110.41066 51.832839 111.16587 51.832844 111.99269 curveto
51.115070 112.21242 moveto
51.115066 109.87193 50.625158 108.70168 49.645344 108.70168 curveto
48.665524 108.70168 48.175616 109.72707 48.175617 111.77785 curveto
48.175616 114.11509 48.665524 115.28371 49.645344 115.28371 curveto
50.625158 115.28371 51.115066 114.25994 51.115070 112.21242 curveto
fill
0.0000000 0.0000000 0.0000000 setrgbcolor
newpath
57.379719 111.99269 moveto
57.379714 112.78371 57.212071 113.53241 56.876789 114.23878 curveto
56.460119 115.12095 55.898596 115.56203 55.192219 115.56203 curveto
54.459795 115.56203 53.890134 115.12746 53.483234 114.25832 curveto
53.164223 113.57798 53.004718 112.82277 53.004719 111.99269 curveto
53.004718 111.20168 53.172361 110.45298 53.507648 109.74660 curveto
53.924314 108.86770 54.485837 108.42825 55.192219 108.42824 curveto
55.924637 108.42825 56.492671 108.86119 56.896320 109.72707 curveto
57.218581 110.41066 57.379714 111.16587 57.379719 111.99269 curveto
56.661945 112.21242 moveto
56.661941 109.87193 56.172033 108.70168 55.192219 108.70168 curveto
54.212399 108.70168 53.722491 109.72707 53.722492 111.77785 curveto
53.722491 114.11509 54.212399 115.28371 55.192219 115.28371 curveto
56.172033 115.28371 56.661941 114.25994 56.661945 112.21242 curveto
fill
0.0000000 0.0000000 0.0000000 setrgbcolor
newpath
73.304085 116.59813 moveto
71.033577 116.59813 lineto
71.033577 107.30614 lineto
73.304085 107.30614 lineto
73.304085 107.76024 lineto
71.751350 107.76024 lineto
71.751350 116.14891 lineto
73.304085 116.14891 lineto
73.304085 116.59813 lineto
fill
0.0000000 0.0000000 0.0000000 setrgbcolor
newpath
76.878304 113.02391 moveto
76.878300 113.36571 76.722050 113.65705 76.409554 113.89793 curveto
76.123093 114.12580 75.804082 114.23973 75.452522 114.23973 curveto
75.335333 114.23973 75.161179 114.21857 74.930061 114.17625 curveto
74.698940 114.13068 74.524787 114.10790 74.407600 114.10789 curveto
74.283902 114.10790 74.200894 114.17137 74.158577 114.29832 curveto
73.968147 114.25926 lineto
73.919319 112.99950 lineto
74.031624 112.97997 lineto
74.321337 113.67984 74.738003 114.02977 75.281624 114.02977 curveto
75.913132 114.02977 76.228887 113.74494 76.228889 113.17528 curveto
76.228887 112.84650 76.031947 112.59097 75.638069 112.40868 curveto
75.273484 112.25243 74.907273 112.09618 74.539436 111.93993 curveto
74.145555 111.69904 73.948616 111.34423 73.948616 110.87547 curveto
73.948616 110.53694 74.114631 110.25373 74.446663 110.02586 curveto
74.739630 109.82079 75.061896 109.71825 75.413460 109.71825 curveto
75.950567 109.71825 76.355840 109.79963 76.629280 109.96239 curveto
76.692757 111.06102 lineto
76.580452 111.08055 lineto
76.372116 110.63785 76.233770 110.37580 76.165413 110.29442 curveto
75.983119 110.07307 75.719447 109.96239 75.374397 109.96239 curveto
75.153041 109.96239 74.956102 110.03075 74.783577 110.16747 curveto
74.594774 110.31070 74.500373 110.48973 74.500374 110.70457 curveto
74.500373 110.96825 74.705451 111.19611 75.115608 111.38817 curveto
75.864304 111.73648 76.245163 111.91551 76.258186 111.92528 curveto
76.671595 112.19872 76.878300 112.56493 76.878304 113.02391 curveto
fill
0.0000000 0.0000000 0.0000000 setrgbcolor
newpath
80.154671 116.59813 moveto
77.889046 116.59813 lineto
77.889046 116.14891 lineto
79.436897 116.14891 lineto
79.436897 107.76024 lineto
77.889046 107.76024 lineto
77.889046 107.30614 lineto
80.154671 107.30614 lineto
80.154671 116.59813 lineto
fill
0.0000000 0.0000000 0.0000000 setrgbcolor
newpath
21.987673 52.315651 moveto
19.717165 52.315651 lineto
19.717165 43.023659 lineto
21.987673 43.023659 lineto
21.987673 43.477760 lineto
20.434938 43.477760 lineto
20.434938 51.866432 lineto
21.987673 51.866432 lineto
21.987673 52.315651 lineto
fill
0.0000000 0.0000000 0.0000000 setrgbcolor
newpath
30.298220 49.957253 moveto
28.135134 49.957253 lineto
28.135134 49.737526 lineto
28.577836 49.737526 28.799190 49.517800 28.799196 49.078346 curveto
28.799196 46.856667 lineto
28.799190 46.579977 28.732458 46.337464 28.599001 46.129128 curveto
28.442745 45.888246 28.232784 45.767804 27.969118 45.767799 curveto
27.565467 45.767804 27.085324 45.971254 26.528688 46.378151 curveto
26.528688 49.317604 lineto
26.528684 49.584532 26.789100 49.717995 27.309938 49.717995 curveto
27.334352 49.957253 lineto
25.176149 49.957253 lineto
25.176149 49.737526 lineto
25.615599 49.737526 25.835325 49.517800 25.835329 49.078346 curveto
25.835329 46.856667 lineto
25.835325 46.576722 25.778359 46.335837 25.664431 46.134010 curveto
25.524453 45.889874 25.324258 45.767804 25.063845 45.767799 curveto
24.653686 45.767804 24.150757 45.987530 23.555056 46.426979 curveto
23.555056 49.215065 lineto
23.555054 49.534076 23.800822 49.708229 24.292360 49.737526 curveto
24.263063 49.957253 lineto
22.197634 49.957253 lineto
22.178102 49.918190 lineto
22.207399 49.766823 lineto
22.409222 49.766823 22.571982 49.683815 22.695681 49.517799 curveto
22.809612 49.364805 22.866578 49.184141 22.866579 48.975807 curveto
22.866579 46.285378 lineto
22.866578 46.168194 22.765667 46.075420 22.563845 46.007057 curveto
22.537803 45.997296 22.384808 45.961488 22.104860 45.899635 curveto
22.104860 45.777565 lineto
22.137412 45.741762 22.178102 45.715720 22.226931 45.699440 curveto
22.484092 45.611554 22.868206 45.453676 23.379274 45.225807 curveto
23.555056 45.357643 lineto
23.555056 46.236549 lineto
24.495808 45.631085 25.145222 45.328351 25.503298 45.328346 curveto
25.721393 45.328351 25.924844 45.429262 26.113649 45.631081 curveto
26.273150 45.803611 26.388710 46.005434 26.460329 46.236549 curveto
27.401079 45.631085 28.050492 45.328351 28.408571 45.328346 curveto
28.756872 45.328351 29.035192 45.489484 29.243532 45.811745 curveto
29.425817 46.091696 29.516962 46.413962 29.516970 46.778542 curveto
29.516970 49.317604 lineto
29.516962 49.584532 29.767613 49.717995 30.268923 49.717995 curveto
30.298220 49.957253 lineto
fill
0.0000000 0.0000000 0.0000000 setrgbcolor
newpath
33.096071 52.315651 moveto
30.830446 52.315651 lineto
30.830446 51.866432 lineto
32.378298 51.866432 lineto
32.378298 43.477760 lineto
30.830446 43.477760 lineto
30.830446 43.023659 lineto
33.096071 43.023659 lineto
33.096071 52.315651 lineto
fill
0.0000000 0.0000000 0.0000000 setrgbcolor
[] 0 setdash
0.28209710 setlinewidth
0 setlinejoin
0 setlinecap
newpath
88.868824 50.257617 moveto
88.868824 113.57412 88.868824 113.57412 88.868824 113.57412 curveto
stroke
gsave [1.9000185e-17 0.31030681 -0.31030681 1.9000185e-17 88.868824 48.706083] concat
0.0000000 0.0000000 0.0000000 setrgbcolor
newpath
8.7185878 4.0337352 moveto
-2.2072895 0.016013256 lineto
8.7185884 -4.0017078 lineto
6.9730900 -1.6296469 6.9831476 1.6157441 8.7185878 4.0337352 curveto
closepath
eofill
grestore
0.0000000 0.0000000 0.0000000 setrgbcolor
[] 0 setdash
0.22042209 setlinewidth
0 setlinejoin
0 setlinecap
newpath
83.531669 106.20442 moveto
146.57039 106.20442 lineto
stroke
gsave [-0.24246430 0.0000000 0.0000000 -0.24246430 147.78271 106.20442] concat
0.0000000 0.0000000 0.0000000 setrgbcolor
newpath
8.7185878 4.0337352 moveto
-2.2072895 0.016013256 lineto
8.7185884 -4.0017078 lineto
6.9730900 -1.6296469 6.9831476 1.6157441 8.7185878 4.0337352 curveto
closepath
eofill
grestore
0.0000000 0.0000000 0.0000000 setrgbcolor
[] 0 setdash
1.0000000 setlinewidth
0 setlinejoin
0 setlinecap
newpath
88.936273 77.532973 moveto
128.56496 77.532975 lineto
stroke
0.0000000 0.0000000 0.0000000 setrgbcolor
[0.70866142 1.4173228] 0.0000000 setdash
0.35433072 setlinewidth
0 setlinejoin
0 setlinecap
newpath
128.56496 77.167733 moveto
128.56496 106.02180 lineto
stroke
0.0000000 0.0000000 0.0000000 setrgbcolor
newpath
96.057404 45.124237 moveto
96.037872 45.300018 lineto
95.871852 45.300023 95.707464 45.376520 95.544708 45.529510 curveto
95.404730 45.659723 95.297308 45.811090 95.222443 45.983612 curveto
93.615997 49.640839 lineto
93.352325 49.640839 lineto
91.726349 45.885956 lineto
91.553822 45.495335 91.267364 45.300023 90.866974 45.300018 curveto
90.866974 45.124237 lineto
93.093536 45.124237 lineto
93.093536 45.300018 lineto
92.618274 45.300023 92.380644 45.387913 92.380646 45.563690 curveto
92.380644 45.615777 92.782662 46.605360 93.586700 48.532440 curveto
93.609484 48.584525 93.633898 48.610566 93.659943 48.610565 curveto
93.695747 48.610566 93.728299 48.578014 93.757599 48.512909 curveto
94.822052 46.139862 lineto
94.890407 45.986871 94.924587 45.853407 94.924591 45.739471 curveto
94.924587 45.433486 94.669053 45.280491 94.157990 45.280487 curveto
94.211700 45.124237 lineto
96.057404 45.124237 lineto
fill
0.0000000 0.0000000 0.0000000 setrgbcolor
newpath
146.44513 113.74560 moveto
146.15541 114.31851 145.75665 114.60497 145.24884 114.60497 curveto
144.94610 114.60497 144.69220 114.51220 144.48712 114.32665 curveto
144.27228 114.13134 144.16486 113.88394 144.16486 113.58447 curveto
144.16486 110.52294 lineto
143.69122 110.52294 lineto
143.61798 110.28368 lineto
143.97280 110.15022 144.23159 109.95003 144.39435 109.68310 curveto
144.51479 109.48779 144.62221 109.17204 144.71661 108.73583 curveto
144.88751 108.73583 lineto
144.88751 110.13720 lineto
146.44513 110.13720 lineto
146.24005 110.52294 lineto
144.88751 110.52294 lineto
144.88751 113.28661 lineto
144.88751 113.45589 144.97540 113.63818 145.15118 113.83349 curveto
145.32696 114.02880 145.49949 114.12646 145.66876 114.12646 curveto
145.78269 114.12646 145.92429 114.03694 146.09357 113.85790 curveto
146.26609 113.67561 146.35235 113.58447 146.35236 113.58447 curveto
146.41746 113.58447 146.44838 113.63818 146.44513 113.74560 curveto
fill
0.0000000 0.0000000 0.0000000 setrgbcolor
newpath
124.62926 112.83839 moveto
124.62925 113.72055 124.38837 114.35043 123.90660 114.72803 curveto
123.47691 115.06658 122.80797 115.23585 121.89977 115.23585 curveto
121.63609 115.23585 121.39683 115.19027 121.18199 115.09913 curveto
120.90204 114.97543 120.76207 114.79802 120.76207 114.56690 curveto
120.76207 114.45948 120.79950 114.36996 120.87437 114.29835 curveto
120.94924 114.22348 121.04202 114.18604 121.15269 114.18604 curveto
121.37730 114.18604 121.61331 114.29509 121.86070 114.51319 curveto
122.11135 114.73129 122.36037 114.84034 122.60777 114.84034 curveto
123.48342 114.84034 123.92125 114.22673 123.92125 112.99952 curveto
123.92125 112.66424 123.83824 112.34848 123.67223 112.05225 curveto
123.47691 111.70395 123.22300 111.52980 122.91051 111.52979 curveto
122.58173 111.52980 122.23505 111.62257 121.87047 111.80811 curveto
121.77769 111.55909 lineto
122.06090 111.48097 122.39944 111.26287 122.79332 110.90479 curveto
123.21975 110.51743 123.43297 110.19516 123.43297 109.93800 curveto
123.43297 109.63852 123.31903 109.37973 123.09117 109.16163 curveto
122.86330 108.94354 122.59963 108.83449 122.30016 108.83448 curveto
121.94208 108.83449 121.46194 109.12094 120.85973 109.69386 curveto
120.70836 109.63038 lineto
121.03713 109.12908 121.31708 108.78078 121.54820 108.58546 curveto
121.89325 108.30226 122.30666 108.16066 122.78844 108.16065 curveto
123.20185 108.16066 123.55666 108.29087 123.85289 108.55128 curveto
124.16539 108.82472 124.32164 109.16489 124.32164 109.57178 curveto
124.32164 109.92010 124.21421 110.20981 123.99937 110.44093 curveto
123.85614 110.59718 123.59573 110.77622 123.21812 110.97803 curveto
123.66083 111.00734 124.01402 111.21892 124.27769 111.61280 curveto
124.51207 111.96437 124.62925 112.37289 124.62926 112.83839 curveto
fill
0.0000000 0.0000000 0.0000000 setrgbcolor
newpath
129.62926 111.62745 moveto
129.62925 112.41847 129.46161 113.16716 129.12633 113.87354 curveto
128.70966 114.75570 128.14813 115.19678 127.44176 115.19678 curveto
126.70933 115.19678 126.13967 114.76222 125.73277 113.89307 curveto
125.41376 113.21274 125.25426 112.45753 125.25426 111.62745 curveto
125.25426 110.83644 125.42190 110.08774 125.75719 109.38136 curveto
126.17385 108.50246 126.73538 108.06300 127.44176 108.06300 curveto
128.17418 108.06300 128.74221 108.49595 129.14586 109.36182 curveto
129.46812 110.04542 129.62925 110.80063 129.62926 111.62745 curveto
128.91148 111.84718 moveto
128.91148 109.50669 128.42157 108.33644 127.44176 108.33643 curveto
126.46194 108.33644 125.97203 109.36183 125.97203 111.41261 curveto
125.97203 113.74985 126.46194 114.91846 127.44176 114.91846 curveto
128.42157 114.91846 128.91148 113.89470 128.91148 111.84718 curveto
fill
0.0000000 0.0000000 0.0000000 setrgbcolor
newpath
135.17613 111.62745 moveto
135.17613 112.41847 135.00848 113.16716 134.67320 113.87354 curveto
134.25653 114.75570 133.69501 115.19678 132.98863 115.19678 curveto
132.25621 115.19678 131.68655 114.76222 131.27965 113.89307 curveto
130.96064 113.21274 130.80113 112.45753 130.80113 111.62745 curveto
130.80113 110.83644 130.96877 110.08774 131.30406 109.38136 curveto
131.72073 108.50246 132.28225 108.06300 132.98863 108.06300 curveto
133.72105 108.06300 134.28908 108.49595 134.69273 109.36182 curveto
135.01499 110.04542 135.17613 110.80063 135.17613 111.62745 curveto
134.45836 111.84718 moveto
134.45835 109.50669 133.96845 108.33644 132.98863 108.33643 curveto
132.00881 108.33644 131.51890 109.36183 131.51891 111.41261 curveto
131.51890 113.74985 132.00881 114.91846 132.98863 114.91846 curveto
133.96845 114.91846 134.45835 113.89470 134.45836 111.84718 curveto
fill
0.0000000 0.0000000 0.0000000 setrgbcolor
newpath
151.10049 116.23289 moveto
148.82999 116.23289 lineto
148.82999 106.94090 lineto
151.10049 106.94090 lineto
151.10049 107.39500 lineto
149.54776 107.39500 lineto
149.54776 115.78367 lineto
151.10049 115.78367 lineto
151.10049 116.23289 lineto
fill
0.0000000 0.0000000 0.0000000 setrgbcolor
newpath
154.67471 112.65867 moveto
154.67471 113.00047 154.51846 113.29181 154.20596 113.53269 curveto
153.91950 113.76056 153.60049 113.87449 153.24893 113.87449 curveto
153.13174 113.87449 152.95759 113.85333 152.72647 113.81101 curveto
152.49535 113.76544 152.32120 113.74265 152.20401 113.74265 curveto
152.08031 113.74265 151.99730 113.80613 151.95499 113.93308 curveto
151.76456 113.89402 lineto
151.71573 112.63425 lineto
151.82803 112.61472 lineto
152.11775 113.31459 152.53441 113.66453 153.07803 113.66453 curveto
153.70954 113.66453 154.02530 113.37970 154.02530 112.81004 curveto
154.02530 112.48126 153.82836 112.22573 153.43448 112.04343 curveto
153.06989 111.88719 152.70368 111.73094 152.33585 111.57468 curveto
151.94197 111.33380 151.74503 110.97898 151.74503 110.51023 curveto
151.74503 110.17169 151.91104 109.88849 152.24307 109.66062 curveto
152.53604 109.45555 152.85831 109.35301 153.20987 109.35300 curveto
153.74698 109.35301 154.15225 109.43439 154.42569 109.59715 curveto
154.48917 110.69578 lineto
154.37686 110.71531 lineto
154.16853 110.27260 154.03018 110.01056 153.96182 109.92918 curveto
153.77953 109.70783 153.51586 109.59715 153.17081 109.59715 curveto
152.94945 109.59715 152.75251 109.66551 152.57999 109.80222 curveto
152.39118 109.94546 152.29678 110.12449 152.29678 110.33933 curveto
152.29678 110.60301 152.50186 110.83087 152.91202 111.02293 curveto
153.66071 111.37124 154.04157 111.55027 154.05460 111.56004 curveto
154.46800 111.83348 154.67471 112.19969 154.67471 112.65867 curveto
fill
0.0000000 0.0000000 0.0000000 setrgbcolor
newpath
157.95108 116.23289 moveto
155.68546 116.23289 lineto
155.68546 115.78367 lineto
157.23331 115.78367 lineto
157.23331 107.39500 lineto
155.68546 107.39500 lineto
155.68546 106.94090 lineto
157.95108 106.94090 lineto
157.95108 116.23289 lineto
fill
0.0000000 0.0000000 0.0000000 setrgbcolor
newpath
99.784081 51.950409 moveto
97.513573 51.950409 lineto
97.513573 42.658417 lineto
99.784081 42.658417 lineto
99.784081 43.112518 lineto
98.231346 43.112518 lineto
98.231346 51.501190 lineto
99.784081 51.501190 lineto
99.784081 51.950409 lineto
fill
0.0000000 0.0000000 0.0000000 setrgbcolor
newpath
108.09463 49.592010 moveto
105.93154 49.592010 lineto
105.93154 49.372284 lineto
106.37424 49.372284 106.59560 49.152558 106.59560 48.713104 curveto
106.59560 46.491425 lineto
106.59560 46.214735 106.52887 45.972222 106.39541 45.763885 curveto
106.23915 45.523004 106.02919 45.402562 105.76553 45.402557 curveto
105.36187 45.402562 104.88173 45.606012 104.32510 46.012909 curveto
104.32510 48.952362 lineto
104.32509 49.219290 104.58551 49.352753 105.10635 49.352753 curveto
105.13076 49.592010 lineto
102.97256 49.592010 lineto
102.97256 49.372284 lineto
103.41201 49.372284 103.63173 49.152558 103.63174 48.713104 curveto
103.63174 46.491425 lineto
103.63173 46.211480 103.57477 45.970595 103.46084 45.768768 curveto
103.32086 45.524632 103.12067 45.402562 102.86025 45.402557 curveto
102.45009 45.402562 101.94716 45.622288 101.35146 46.061737 curveto
101.35146 48.849823 lineto
101.35146 49.168834 101.59723 49.342987 102.08877 49.372284 curveto
102.05947 49.592010 lineto
99.994041 49.592010 lineto
99.974510 49.552948 lineto
100.00381 49.401581 lineto
100.20563 49.401581 100.36839 49.318573 100.49209 49.152557 curveto
100.60602 48.999563 100.66299 48.818899 100.66299 48.610565 curveto
100.66299 45.920135 lineto
100.66299 45.802952 100.56207 45.710178 100.36025 45.641815 curveto
100.33421 45.632054 100.18122 45.596246 99.901268 45.534393 curveto
99.901268 45.412323 lineto
99.933820 45.376520 99.974510 45.350478 100.02334 45.334198 curveto
100.28050 45.246312 100.66461 45.088434 101.17568 44.860565 curveto
101.35146 44.992401 lineto
101.35146 45.871307 lineto
102.29222 45.265843 102.94163 44.963109 103.29971 44.963104 curveto
103.51780 44.963109 103.72125 45.064020 103.91006 45.265839 curveto
104.06956 45.438369 104.18512 45.640192 104.25674 45.871307 curveto
105.19749 45.265843 105.84690 44.963109 106.20498 44.963104 curveto
106.55328 44.963109 106.83160 45.124242 107.03994 45.446503 curveto
107.22222 45.726454 107.31337 46.048720 107.31338 46.413300 curveto
107.31338 48.952362 lineto
107.31337 49.219290 107.56402 49.352753 108.06533 49.352753 curveto
108.09463 49.592010 lineto
fill
0.0000000 0.0000000 0.0000000 setrgbcolor
newpath
111.84951 42.756073 moveto
108.80264 49.665253 lineto
108.36806 49.572479 lineto
111.44912 42.663300 lineto
111.84951 42.756073 lineto
fill
0.0000000 0.0000000 0.0000000 setrgbcolor
newpath
115.33096 48.376190 moveto
115.33095 48.717988 115.17470 49.009329 114.86221 49.250214 curveto
114.57574 49.478078 114.25673 49.592010 113.90517 49.592010 curveto
113.78798 49.592010 113.61383 49.570852 113.38271 49.528534 curveto
113.15159 49.482961 112.97744 49.460175 112.86025 49.460175 curveto
112.73655 49.460175 112.65355 49.523651 112.61123 49.650604 curveto
112.42080 49.611542 lineto
112.37197 48.351776 lineto
112.48428 48.332245 lineto
112.77399 49.032115 113.19065 49.382050 113.73428 49.382050 curveto
114.36578 49.382050 114.68154 49.097219 114.68154 48.527557 curveto
114.68154 48.198783 114.48460 47.943249 114.09072 47.760956 curveto
113.72614 47.604708 113.35993 47.448458 112.99209 47.292206 curveto
112.59821 47.051323 112.40127 46.696506 112.40127 46.227753 curveto
112.40127 45.889215 112.56728 45.606012 112.89931 45.378143 curveto
113.19228 45.173070 113.51455 45.070531 113.86611 45.070526 curveto
114.40322 45.070531 114.80849 45.151911 115.08193 45.314667 curveto
115.14541 46.413300 lineto
115.03310 46.432831 lineto
114.82477 45.990126 114.68642 45.728082 114.61806 45.646698 curveto
114.43577 45.425348 114.17210 45.314671 113.82705 45.314667 curveto
113.60569 45.314671 113.40875 45.383030 113.23623 45.519745 curveto
113.04743 45.662978 112.95302 45.842014 112.95303 46.056854 curveto
112.95302 46.320529 113.15810 46.548394 113.56826 46.740448 curveto
114.31696 47.088758 114.69781 47.267794 114.71084 47.277557 curveto
115.12425 47.550997 115.33095 47.917207 115.33096 48.376190 curveto
fill
0.0000000 0.0000000 0.0000000 setrgbcolor
newpath
118.60732 51.950409 moveto
116.34170 51.950409 lineto
116.34170 51.501190 lineto
117.88955 51.501190 lineto
117.88955 43.112518 lineto
116.34170 43.112518 lineto
116.34170 42.658417 lineto
118.60732 42.658417 lineto
118.60732 51.950409 lineto
fill
0.0000000 0.0000000 0.0000000 setrgbcolor
[] 0 setdash
0.28209710 setlinewidth
0 setlinejoin
0 setlinecap
newpath
163.56068 49.892376 moveto
163.56068 113.20888 163.56068 113.20888 163.56068 113.20888 curveto
stroke
gsave [1.9000185e-17 0.31030681 -0.31030681 1.9000185e-17 163.56068 48.340842] concat
0.0000000 0.0000000 0.0000000 setrgbcolor
newpath
8.7185878 4.0337352 moveto
-2.2072895 0.016013256 lineto
8.7185884 -4.0017078 lineto
6.9730900 -1.6296469 6.9831476 1.6157441 8.7185878 4.0337352 curveto
closepath
eofill
grestore
0.0000000 0.0000000 0.0000000 setrgbcolor
[] 0 setdash
0.22042209 setlinewidth
0 setlinejoin
0 setlinecap
newpath
158.22353 105.83918 moveto
221.26225 105.83918 lineto
stroke
gsave [-0.24246430 0.0000000 0.0000000 -0.24246430 222.47457 105.83918] concat
0.0000000 0.0000000 0.0000000 setrgbcolor
newpath
8.7185878 4.0337352 moveto
-2.2072895 0.016013256 lineto
8.7185884 -4.0017078 lineto
6.9730900 -1.6296469 6.9831476 1.6157441 8.7185878 4.0337352 curveto
closepath
eofill
grestore
0.0000000 0.0000000 0.0000000 setrgbcolor
[] 0 setdash
1.0000000 setlinewidth
0 setlinejoin
0 setlinecap
newpath
163.62813 105.83355 moveto
203.25682 105.83355 lineto
stroke
0.0000000 0.0000000 0.0000000 setrgbcolor
newpath
170.09009 48.738487 moveto
169.76456 48.976118 169.59855 49.098188 169.59204 49.104698 curveto
169.38045 49.234907 169.18514 49.300011 169.00610 49.300011 curveto
168.72615 49.300011 168.53410 49.086795 168.42993 48.660362 curveto
168.03605 48.946821 167.81795 49.101443 167.77563 49.124229 curveto
167.56079 49.244672 167.31339 49.304893 167.03345 49.304893 curveto
166.75675 49.304893 166.52238 49.210492 166.33032 49.021690 curveto
166.14152 48.829633 166.04712 48.596886 166.04712 48.323448 curveto
166.04712 47.981653 166.18221 47.701705 166.45239 47.483604 curveto
166.61190 47.356653 166.89673 47.208541 167.30688 47.039268 curveto
168.41040 46.585167 lineto
168.41040 45.857628 lineto
168.41040 45.600470 168.31762 45.383999 168.13208 45.208214 curveto
167.94979 45.032437 167.72843 44.944546 167.46802 44.944542 curveto
167.05460 44.944546 166.84790 45.164273 166.84790 45.603722 curveto
166.84790 45.633022 166.85441 45.672085 166.86743 45.720909 curveto
166.88045 45.769741 166.88696 45.807176 166.88696 45.833214 curveto
166.88696 45.953660 166.79582 46.061082 166.61353 46.155479 curveto
166.45402 46.240118 166.30754 46.282436 166.17407 46.282433 curveto
166.11873 46.282436 166.09106 46.236863 166.09106 46.145714 curveto
166.09106 45.712775 166.27336 45.357957 166.63794 45.081261 curveto
166.96997 44.827359 167.36059 44.700406 167.80981 44.700401 curveto
168.25903 44.700406 168.58781 44.783414 168.79614 44.949425 curveto
169.02726 45.131721 169.14282 45.440965 169.14282 45.877159 curveto
169.14282 48.391808 lineto
169.14282 48.671756 169.23885 48.811730 169.43091 48.811729 curveto
169.55135 48.811730 169.76782 48.720584 170.08032 48.538292 curveto
170.09009 48.738487 lineto
168.41528 48.333214 moveto
168.41040 46.868370 lineto
167.41919 47.302940 lineto
166.97322 47.498255 166.75024 47.812382 166.75024 48.245323 curveto
166.75024 48.430871 166.81046 48.578983 166.93091 48.689659 curveto
167.05135 48.800337 167.20434 48.855675 167.38989 48.855675 curveto
167.58195 48.855675 167.76749 48.801964 167.94653 48.694542 curveto
168.02466 48.645714 168.18091 48.525272 168.41528 48.333214 curveto
fill
0.0000000 0.0000000 0.0000000 setrgbcolor
newpath
221.13699 113.38036 moveto
220.84728 113.95327 220.44851 114.23973 219.94070 114.23973 curveto
219.63797 114.23973 219.38406 114.14696 219.17899 113.96141 curveto
218.96414 113.76610 218.85672 113.51870 218.85672 113.21922 curveto
218.85672 110.15770 lineto
218.38309 110.15770 lineto
218.30984 109.91844 lineto
218.66466 109.78498 218.92345 109.58479 219.08621 109.31786 curveto
219.20665 109.12255 219.31408 108.80679 219.40848 108.37059 curveto
219.57938 108.37059 lineto
219.57938 109.77196 lineto
221.13699 109.77196 lineto
220.93192 110.15770 lineto
219.57938 110.15770 lineto
219.57938 112.92137 lineto
219.57937 113.09064 219.66727 113.27293 219.84305 113.46825 curveto
220.01883 113.66356 220.19135 113.76122 220.36063 113.76122 curveto
220.47456 113.76122 220.61616 113.67170 220.78543 113.49266 curveto
220.95795 113.31037 221.04422 113.21922 221.04422 113.21922 curveto
221.10932 113.21922 221.14025 113.27293 221.13699 113.38036 curveto
fill
0.0000000 0.0000000 0.0000000 setrgbcolor
newpath
199.32112 112.47314 moveto
199.32112 113.35531 199.08023 113.98519 198.59846 114.36279 curveto
198.16877 114.70133 197.49983 114.87061 196.59163 114.87061 curveto
196.32796 114.87061 196.08870 114.82503 195.87386 114.73389 curveto
195.59391 114.61019 195.45393 114.43278 195.45393 114.20166 curveto
195.45393 114.09424 195.49137 114.00472 195.56624 113.93311 curveto
195.64111 113.85824 195.73388 113.82080 195.84456 113.82080 curveto
196.06917 113.82080 196.30517 113.92985 196.55257 114.14795 curveto
196.80322 114.36605 197.05224 114.47510 197.29964 114.47510 curveto
198.17528 114.47510 198.61311 113.86149 198.61311 112.63428 curveto
198.61311 112.29899 198.53010 111.98324 198.36409 111.68701 curveto
198.16877 111.33871 197.91487 111.16455 197.60237 111.16455 curveto
197.27359 111.16455 196.92691 111.25733 196.56233 111.44287 curveto
196.46956 111.19385 lineto
196.75276 111.11573 197.09130 110.89763 197.48518 110.53955 curveto
197.91161 110.15219 198.12483 109.82992 198.12483 109.57275 curveto
198.12483 109.27328 198.01090 109.01449 197.78304 108.79639 curveto
197.55517 108.57829 197.29150 108.46924 196.99202 108.46924 curveto
196.63395 108.46924 196.15380 108.75570 195.55159 109.32861 curveto
195.40022 109.26514 lineto
195.72900 108.76384 196.00895 108.41553 196.24007 108.22021 curveto
196.58512 107.93702 196.99853 107.79542 197.48030 107.79541 curveto
197.89371 107.79542 198.24853 107.92563 198.54475 108.18604 curveto
198.85725 108.45948 199.01350 108.79965 199.01350 109.20654 curveto
199.01350 109.55486 198.90608 109.84457 198.69124 110.07568 curveto
198.54801 110.23194 198.28759 110.41097 197.90999 110.61279 curveto
198.35269 110.64209 198.70588 110.85368 198.96956 111.24756 curveto
199.20393 111.59912 199.32112 112.00765 199.32112 112.47314 curveto
fill
0.0000000 0.0000000 0.0000000 setrgbcolor
newpath
204.32112 111.26221 moveto
204.32112 112.05323 204.15347 112.80192 203.81819 113.50830 curveto
203.40152 114.39046 202.84000 114.83154 202.13362 114.83154 curveto
201.40120 114.83154 200.83154 114.39697 200.42464 113.52783 curveto
200.10563 112.84750 199.94612 112.09229 199.94612 111.26221 curveto
199.94612 110.47120 200.11376 109.72250 200.44905 109.01611 curveto
200.86572 108.13721 201.42724 107.69776 202.13362 107.69775 curveto
202.86604 107.69776 203.43407 108.13070 203.83772 108.99658 curveto
204.15998 109.68018 204.32112 110.43539 204.32112 111.26221 curveto
203.60335 111.48193 moveto
203.60334 109.14144 203.11344 107.97120 202.13362 107.97119 curveto
201.15380 107.97120 200.66389 108.99659 200.66389 111.04736 curveto
200.66389 113.38460 201.15380 114.55322 202.13362 114.55322 curveto
203.11344 114.55322 203.60334 113.52946 203.60335 111.48193 curveto
fill
0.0000000 0.0000000 0.0000000 setrgbcolor
newpath
209.86800 111.26221 moveto
209.86799 112.05323 209.70035 112.80192 209.36507 113.50830 curveto
208.94840 114.39046 208.38687 114.83154 207.68050 114.83154 curveto
206.94807 114.83154 206.37841 114.39697 205.97151 113.52783 curveto
205.65250 112.84750 205.49300 112.09229 205.49300 111.26221 curveto
205.49300 110.47120 205.66064 109.72250 205.99593 109.01611 curveto
206.41259 108.13721 206.97411 107.69776 207.68050 107.69775 curveto
208.41291 107.69776 208.98095 108.13070 209.38460 108.99658 curveto
209.70686 109.68018 209.86799 110.43539 209.86800 111.26221 curveto
209.15022 111.48193 moveto
209.15022 109.14144 208.66031 107.97120 207.68050 107.97119 curveto
206.70068 107.97120 206.21077 108.99659 206.21077 111.04736 curveto
206.21077 113.38460 206.70068 114.55322 207.68050 114.55322 curveto
208.66031 114.55322 209.15022 113.52946 209.15022 111.48193 curveto
fill
0.0000000 0.0000000 0.0000000 setrgbcolor
newpath
225.79236 115.86765 moveto
223.52185 115.86765 lineto
223.52185 106.57565 lineto
225.79236 106.57565 lineto
225.79236 107.02975 lineto
224.23962 107.02975 lineto
224.23962 115.41843 lineto
225.79236 115.41843 lineto
225.79236 115.86765 lineto
fill
0.0000000 0.0000000 0.0000000 setrgbcolor
newpath
229.36658 112.29343 moveto
229.36657 112.63522 229.21032 112.92657 228.89783 113.16745 curveto
228.61137 113.39531 228.29236 113.50925 227.94080 113.50925 curveto
227.82361 113.50925 227.64945 113.48809 227.41833 113.44577 curveto
227.18721 113.40020 227.01306 113.37741 226.89587 113.37741 curveto
226.77218 113.37741 226.68917 113.44089 226.64685 113.56784 curveto
226.45642 113.52878 lineto
226.40759 112.26901 lineto
226.51990 112.24948 lineto
226.80961 112.94935 227.22628 113.29929 227.76990 113.29929 curveto
228.40141 113.29929 228.71716 113.01446 228.71716 112.44479 curveto
228.71716 112.11602 228.52022 111.86049 228.12634 111.67819 curveto
227.76176 111.52194 227.39555 111.36569 227.02771 111.20944 curveto
226.63383 110.96856 226.43689 110.61374 226.43689 110.14499 curveto
226.43689 109.80645 226.60290 109.52325 226.93494 109.29538 curveto
227.22790 109.09031 227.55017 108.98777 227.90173 108.98776 curveto
228.43884 108.98777 228.84411 109.06915 229.11755 109.23190 curveto
229.18103 110.33054 lineto
229.06873 110.35007 lineto
228.86039 109.90736 228.72204 109.64532 228.65369 109.56393 curveto
228.47139 109.34258 228.20772 109.23191 227.86267 109.23190 curveto
227.64132 109.23191 227.44438 109.30027 227.27185 109.43698 curveto
227.08305 109.58021 226.98865 109.75925 226.98865 109.97409 curveto
226.98865 110.23777 227.19372 110.46563 227.60388 110.65768 curveto
228.35258 111.00599 228.73344 111.18503 228.74646 111.19479 curveto
229.15987 111.46823 229.36657 111.83444 229.36658 112.29343 curveto
fill
0.0000000 0.0000000 0.0000000 setrgbcolor
newpath
232.64294 115.86765 moveto
230.37732 115.86765 lineto
230.37732 115.41843 lineto
231.92517 115.41843 lineto
231.92517 107.02975 lineto
230.37732 107.02975 lineto
230.37732 106.57565 lineto
232.64294 106.57565 lineto
232.64294 115.86765 lineto
fill
0.0000000 0.0000000 0.0000000 setrgbcolor
newpath
174.47594 51.585167 moveto
172.20543 51.585167 lineto
172.20543 42.293175 lineto
174.47594 42.293175 lineto
174.47594 42.747276 lineto
172.92320 42.747276 lineto
172.92320 51.135948 lineto
174.47594 51.135948 lineto
174.47594 51.585167 lineto
fill
0.0000000 0.0000000 0.0000000 setrgbcolor
newpath
182.78648 49.226768 moveto
180.62340 49.226768 lineto
180.62340 49.007042 lineto
181.06610 49.007042 181.28745 48.787316 181.28746 48.347862 curveto
181.28746 46.126183 lineto
181.28745 45.849493 181.22072 45.606980 181.08727 45.398643 curveto
180.93101 45.157762 180.72105 45.037320 180.45738 45.037315 curveto
180.05373 45.037320 179.57359 45.240770 179.01695 45.647667 curveto
179.01695 48.587120 lineto
179.01695 48.854048 179.27736 48.987511 179.79820 48.987511 curveto
179.82262 49.226768 lineto
177.66441 49.226768 lineto
177.66441 49.007042 lineto
178.10386 49.007042 178.32359 48.787316 178.32359 48.347862 curveto
178.32359 46.126183 lineto
178.32359 45.846238 178.26662 45.605353 178.15269 45.403526 curveto
178.01272 45.159390 177.81252 45.037320 177.55211 45.037315 curveto
177.14195 45.037320 176.63902 45.257046 176.04332 45.696495 curveto
176.04332 48.484581 lineto
176.04332 48.803592 176.28909 48.977745 176.78062 49.007042 curveto
176.75133 49.226768 lineto
174.68590 49.226768 lineto
174.66637 49.187706 lineto
174.69566 49.036339 lineto
174.89749 49.036339 175.06025 48.953331 175.18394 48.787315 curveto
175.29788 48.634321 175.35484 48.453657 175.35484 48.245323 curveto
175.35484 45.554893 lineto
175.35484 45.437710 175.25393 45.344936 175.05211 45.276573 curveto
175.02607 45.266812 174.87307 45.231004 174.59312 45.169151 curveto
174.59312 45.047081 lineto
174.62568 45.011278 174.66637 44.985236 174.71519 44.968956 curveto
174.97236 44.881070 175.35647 44.723192 175.86754 44.495323 curveto
176.04332 44.627159 lineto
176.04332 45.506065 lineto
176.98407 44.900601 177.63349 44.597867 177.99156 44.597862 curveto
178.20966 44.597867 178.41311 44.698778 178.60191 44.900597 curveto
178.76141 45.073127 178.87697 45.274950 178.94859 45.506065 curveto
179.88934 44.900601 180.53876 44.597867 180.89684 44.597862 curveto
181.24514 44.597867 181.52346 44.759000 181.73180 45.081261 curveto
181.91408 45.361212 182.00523 45.683478 182.00523 46.048058 curveto
182.00523 48.587120 lineto
182.00523 48.854048 182.25588 48.987511 182.75719 48.987511 curveto
182.78648 49.226768 lineto
fill
0.0000000 0.0000000 0.0000000 setrgbcolor
newpath
186.54137 42.390831 moveto
183.49449 49.300011 lineto
183.05992 49.207237 lineto
186.14098 42.298058 lineto
186.54137 42.390831 lineto
fill
0.0000000 0.0000000 0.0000000 setrgbcolor
newpath
190.02281 48.010948 moveto
190.02281 48.352746 189.86656 48.644087 189.55406 48.884972 curveto
189.26760 49.112836 188.94859 49.226768 188.59703 49.226768 curveto
188.47984 49.226768 188.30569 49.205610 188.07457 49.163292 curveto
187.84345 49.117719 187.66930 49.094933 187.55211 49.094933 curveto
187.42841 49.094933 187.34540 49.158409 187.30309 49.285362 curveto
187.11266 49.246300 lineto
187.06383 47.986534 lineto
187.17613 47.967003 lineto
187.46584 48.666873 187.88251 49.016808 188.42613 49.016808 curveto
189.05764 49.016808 189.37340 48.731977 189.37340 48.162315 curveto
189.37340 47.833541 189.17646 47.578007 188.78258 47.395714 curveto
188.41799 47.239466 188.05178 47.083216 187.68394 46.926964 curveto
187.29006 46.686081 187.09312 46.331264 187.09312 45.862511 curveto
187.09312 45.523973 187.25914 45.240770 187.59117 45.012901 curveto
187.88414 44.807828 188.20640 44.705289 188.55797 44.705284 curveto
189.09508 44.705289 189.50035 44.786669 189.77379 44.949425 curveto
189.83727 46.048058 lineto
189.72496 46.067589 lineto
189.51662 45.624884 189.37828 45.362840 189.30992 45.281456 curveto
189.12763 45.060106 188.86396 44.949429 188.51891 44.949425 curveto
188.29755 44.949429 188.10061 45.017788 187.92809 45.154503 curveto
187.73928 45.297736 187.64488 45.476772 187.64488 45.691612 curveto
187.64488 45.955287 187.84996 46.183152 188.26012 46.375206 curveto
189.00881 46.723516 189.38967 46.902552 189.40269 46.912315 curveto
189.81610 47.185755 190.02281 47.551965 190.02281 48.010948 curveto
fill
0.0000000 0.0000000 0.0000000 setrgbcolor
newpath
fill
0.0000000 0.0000000 0.0000000 setrgbcolor
newpath
196.30699 51.585167 moveto
194.04137 51.585167 lineto
194.04137 51.135948 lineto
195.58922 51.135948 lineto
195.58922 42.747276 lineto
194.04137 42.747276 lineto
194.04137 42.293175 lineto
196.30699 42.293175 lineto
196.30699 51.585167 lineto
fill
0.0000000 0.0000000 0.0000000 setrgbcolor
newpath
194.01299 44.867016 moveto
194.01298 44.916496 193.89840 45.287589 193.66924 45.980297 curveto
190.39970 45.980297 lineto
190.32549 45.749828 lineto
192.06507 44.346184 192.93486 43.070144 192.93486 41.921703 curveto
192.93486 41.249833 192.63017 40.913896 192.02080 40.913891 curveto
191.34371 40.913896 190.82809 41.232906 190.47392 41.870922 curveto
190.30205 41.796703 lineto
190.44267 41.408687 190.68226 41.081864 191.02080 40.816235 curveto
191.37757 40.534990 191.75517 40.394365 192.15361 40.394360 curveto
192.52080 40.394365 192.82939 40.506344 193.07939 40.730297 curveto
193.33980 40.964677 193.47001 41.262854 193.47002 41.624828 curveto
193.47001 42.783686 192.68486 44.061028 191.11455 45.456860 curveto
193.25127 45.456860 lineto
193.39449 45.456860 193.53121 45.346183 193.66142 45.124828 curveto
193.79163 44.903475 193.85152 44.792798 193.84111 44.792797 curveto
193.86194 44.792798 193.89189 44.804517 193.93095 44.827953 curveto
193.97001 44.848788 193.99736 44.861809 194.01299 44.867016 curveto
fill
grestore
showpage
