%!PS-Adobe-3.0 EPSF-3.0
%%Creator: cairo 1.14.8 (http://cairographics.org)
%%CreationDate: Mon Jan 28 20:10:11 2019
%%Pages: 1
%%DocumentData: Clean7Bit
%%LanguageLevel: 2
%%BoundingBox: 0 -1 116 139
%%EndComments
%%BeginProlog
save
50 dict begin
/q { gsave } bind def
/Q { grestore } bind def
/cm { 6 array astore concat } bind def
/w { setlinewidth } bind def
/J { setlinecap } bind def
/j { setlinejoin } bind def
/M { setmiterlimit } bind def
/d { setdash } bind def
/m { moveto } bind def
/l { lineto } bind def
/c { curveto } bind def
/h { closepath } bind def
/re { exch dup neg 3 1 roll 5 3 roll moveto 0 rlineto
      0 exch rlineto 0 rlineto closepath } bind def
/S { stroke } bind def
/f { fill } bind def
/f* { eofill } bind def
/n { newpath } bind def
/W { clip } bind def
/W* { eoclip } bind def
/BT { } bind def
/ET { } bind def
/pdfmark where { pop globaldict /?pdfmark /exec load put }
    { globaldict begin /?pdfmark /pop load def /pdfmark
    /cleartomark load def end } ifelse
/BDC { mark 3 1 roll /BDC pdfmark } bind def
/EMC { mark /EMC pdfmark } bind def
/cairo_store_point { /cairo_point_y exch def /cairo_point_x exch def } def
/Tj { show currentpoint cairo_store_point } bind def
/TJ {
  {
    dup
    type /stringtype eq
    { show } { -0.001 mul 0 cairo_font_matrix dtransform rmoveto } ifelse
  } forall
  currentpoint cairo_store_point
} bind def
/cairo_selectfont { cairo_font_matrix aload pop pop pop 0 0 6 array astore
    cairo_font exch selectfont cairo_point_x cairo_point_y moveto } bind def
/Tf { pop /cairo_font exch def /cairo_font_matrix where
      { pop cairo_selectfont } if } bind def
/Td { matrix translate cairo_font_matrix matrix concatmatrix dup
      /cairo_font_matrix exch def dup 4 get exch 5 get cairo_store_point
      /cairo_font where { pop cairo_selectfont } if } bind def
/Tm { 2 copy 8 2 roll 6 array astore /cairo_font_matrix exch def
      cairo_store_point /cairo_font where { pop cairo_selectfont } if } bind def
/g { setgray } bind def
/rg { setrgbcolor } bind def
/d1 { setcachedevice } bind def
%%EndProlog
%%BeginSetup
%%EndSetup
%%Page: 1 1
%%BeginPageSetup
%%PageBoundingBox: 0 -1 116 139
%%EndPageSetup
q 0 -1 116 140 rectclip q
0 g
0.423925 w
0 J
0 j
[] 0.0 d
4 M q 1 0 0 -1 0 138.129044 cm
8.879 52.457 m 114.758 114.098 l 12.531 114.105 l S Q
1 1 0.984314 rg
26.766 99.797 m 64.074 77.836 l 53.484 59.844 l 16.176 81.805 l h
26.766 99.797 m f
0 g
0.646349 w
q 1 -0.588594 -0.588594 -1 0 138.129044 cm
36.636 16.769 m 73.945 16.77 l 73.945 34.762 l 36.636 34.761 l h
36.636 16.769 m S Q
1 0 0 rg
0.751181 w
[ 2.253543 2.253543] 0 d
q 1 0 0 -1 0 138.129044 cm
41.336 136.652 m 74.078 78.195 l S Q
0.976471 0 0 rg
0.75 w
[] 0.0 d
q 1 0 0 -1 0 138.129044 cm
41.336 57.98 m 41.336 136.652 l S Q
0.898039 0 0 rg
41.336 4.477 m 39.836 5.977 l 41.336 0.727 l 42.836 5.977 l h
41.336 4.477 m f*
0.976471 0 0 rg
0.4 w
q 0 1 1 0 0 138.129044 cm
-133.652 41.336 m -132.152 39.836 l -137.402 41.336 l -132.152 42.836 l
 h
-133.652 41.336 m S Q
0 0 0.960784 rg
0.751181 w
q 1 0 0 -1 0 138.129044 cm
41.336 57.98 m 88.363 86.988 l S Q
85.805 52.719 m 83.738 52.231 l 89 50.75 l 85.316 54.789 l h
85.805 52.719 m f*
0.340981 w
q -1 0.616822 0.616822 1 0 138.129044 cm
-100.319 -23.531 m -99.04 -24.808 l -103.513 -23.529 l -99.04 -22.249 l
 h
-100.319 -23.531 m S Q
0.751181 w
q 1 0 0 -1 0 138.129044 cm
41.336 57.98 m 66.387 14.469 l S Q
64.887 121.059 m 65.441 119.008 l 66.762 124.313 l 62.836 120.504 l h
64.887 121.059 m f*
0.347195 w
q -0.575758 -1 -1 0.575758 0 138.129044 cm
-15.238 -56.114 m -13.937 -57.417 l -18.492 -56.115 l -13.934 -54.813 l
 h
-15.238 -56.114 m S Q
0.984314 0 0 rg
0.75 w
[ 2.25 2.25] 0 d
q 1 0 0 -1 0 138.129044 cm
41.336 57.98 m 74.078 78.195 l S Q
0.996078 0 0 rg
41.336 80.149 m 74.078 136.848 l f
0.988235 0 0 rg
0.751181 w
[] 0.0 d
q 1 0 0 -1 0 138.129044 cm
41.336 57.98 m 74.078 1.281 l S Q
0.996078 0 0 rg
72.574 134.246 m 73.125 132.192 l 74.453 137.496 l 70.523 133.695 l h
72.574 134.246 m f*
0.988235 0 0 rg
0.34693 w
q -0.577519 -1 -1 0.577519 0 138.129044 cm
-28.518 -56.104 m -27.216 -57.407 l -31.769 -56.106 l -27.217 -54.805 l
 h
-28.518 -56.104 m S Q
0 g
0.75 w
q 1 0 0 -1 0 138.129044 cm
93.727 101.828 m 89.715 108.211 89.859 114.254 89.859 114.254 c S Q
q 1 0 0 -1 0 138.129044 cm
37.074 66.961 m 1.277 46.137 l S Q
3.871 90.485 m 5.922 91.027 l 0.629 92.371 l 4.414 88.434 l h
3.871 90.485 m f*
0.345739 w
q 1 -0.581818 -0.581818 -1 0 138.129044 cm
23.602 33.912 m 24.898 32.615 l 20.36 33.912 l 24.899 35.209 l h
23.602 33.912 m S Q
Q Q
showpage
%%Trailer
end restore
%%EOF
