%!PS-Adobe-3.0 EPSF-3.0
%%Creator: cairo 1.14.8 (http://cairographics.org)
%%CreationDate: Thu Jan  3 21:37:57 2019
%%Pages: 1
%%DocumentData: Clean7Bit
%%LanguageLevel: 2
%%BoundingBox: 0 -1 107 139
%%EndComments
%%BeginProlog
save
50 dict begin
/q { gsave } bind def
/Q { grestore } bind def
/cm { 6 array astore concat } bind def
/w { setlinewidth } bind def
/J { setlinecap } bind def
/j { setlinejoin } bind def
/M { setmiterlimit } bind def
/d { setdash } bind def
/m { moveto } bind def
/l { lineto } bind def
/c { curveto } bind def
/h { closepath } bind def
/re { exch dup neg 3 1 roll 5 3 roll moveto 0 rlineto
      0 exch rlineto 0 rlineto closepath } bind def
/S { stroke } bind def
/f { fill } bind def
/f* { eofill } bind def
/n { newpath } bind def
/W { clip } bind def
/W* { eoclip } bind def
/BT { } bind def
/ET { } bind def
/pdfmark where { pop globaldict /?pdfmark /exec load put }
    { globaldict begin /?pdfmark /pop load def /pdfmark
    /cleartomark load def end } ifelse
/BDC { mark 3 1 roll /BDC pdfmark } bind def
/EMC { mark /EMC pdfmark } bind def
/cairo_store_point { /cairo_point_y exch def /cairo_point_x exch def } def
/Tj { show currentpoint cairo_store_point } bind def
/TJ {
  {
    dup
    type /stringtype eq
    { show } { -0.001 mul 0 cairo_font_matrix dtransform rmoveto } ifelse
  } forall
  currentpoint cairo_store_point
} bind def
/cairo_selectfont { cairo_font_matrix aload pop pop pop 0 0 6 array astore
    cairo_font exch selectfont cairo_point_x cairo_point_y moveto } bind def
/Tf { pop /cairo_font exch def /cairo_font_matrix where
      { pop cairo_selectfont } if } bind def
/Td { matrix translate cairo_font_matrix matrix concatmatrix dup
      /cairo_font_matrix exch def dup 4 get exch 5 get cairo_store_point
      /cairo_font where { pop cairo_selectfont } if } bind def
/Tm { 2 copy 8 2 roll 6 array astore /cairo_font_matrix exch def
      cairo_store_point /cairo_font where { pop cairo_selectfont } if } bind def
/g { setgray } bind def
/rg { setrgbcolor } bind def
/d1 { setcachedevice } bind def
%%EndProlog
%%BeginSetup
%%EndSetup
%%Page: 1 1
%%BeginPageSetup
%%PageBoundingBox: 0 -1 107 139
%%EndPageSetup
q 0 -1 107 140 rectclip q
0 g
0.423925 w
0 J
0 j
[] 0.0 d
4 M q 1 0 0 -1 0 138.127029 cm
0.105 52.453 m 105.988 114.094 l 3.762 114.102 l S Q
1 1 0.984314 rg
17.996 99.795 m 55.305 77.838 l 44.715 59.846 l 7.406 81.807 l h
17.996 99.795 m f
0 g
0.646349 w
q 1 -0.588594 -0.588594 -1 0 138.127029 cm
30.122 20.602 m 67.43 20.6 l 67.43 38.592 l 30.121 38.591 l h
30.122 20.602 m S Q
1 0 0 rg
0.751181 w
[ 2.253543 2.253543] 0 d
q 1 0 0 -1 0 138.127029 cm
32.566 136.648 m 65.309 78.195 l S Q
0.976471 0 0 rg
0.75 w
[] 0.0 d
q 1 0 0 -1 0 138.127029 cm
32.566 57.977 m 32.566 136.648 l S Q
0.898039 0 0 rg
32.566 4.479 m 31.066 5.979 l 32.566 0.729 l 34.066 5.979 l h
32.566 4.479 m f*
0.976471 0 0 rg
0.4 w
q 0 1 1 0 0 138.127029 cm
-133.648 32.566 m -132.148 31.066 l -137.398 32.566 l -132.148 34.066 l
 h
-133.648 32.566 m S Q
0 0 0.960784 rg
0.751181 w
q 1 0 0 -1 0 138.127029 cm
32.566 57.977 m 79.594 86.984 l S Q
77.035 52.721 m 74.969 52.229 l 80.23 50.748 l 76.543 54.787 l h
77.035 52.721 m f*
0.340981 w
q -1 0.616822 0.616822 1 0 138.127029 cm
-93.965 -27.447 m -92.688 -28.726 l -97.161 -27.448 l -92.685 -26.17 l 
h
-93.965 -27.447 m S Q
0.751181 w
q 1 0 0 -1 0 138.127029 cm
32.566 57.977 m 57.617 14.465 l S Q
56.117 121.057 m 56.668 119.006 l 57.992 124.315 l 54.066 120.506 l h
56.117 121.057 m f*
0.347195 w
q -0.575758 -1 -1 0.575758 0 138.127029 cm
-11.445 -49.527 m -10.143 -50.828 l -14.703 -49.527 l -10.145 -48.225 l
 h
-11.445 -49.527 m S Q
0.984314 0 0 rg
0.75 w
[ 2.25 2.25] 0 d
q 1 0 0 -1 0 138.127029 cm
32.566 57.977 m 65.309 78.195 l S Q
0.996078 0 0 rg
32.566 80.15 m 65.309 136.846 l f
0.988235 0 0 rg
[] 0.0 d
q 1 0 0 -1 0 138.127029 cm
32.566 57.977 m 65.309 1.281 l S Q
0.996078 0 0 rg
63.809 134.248 m 64.355 132.201 l 65.684 137.498 l 61.758 133.701 l h
63.809 134.248 m f*
0.988235 0 0 rg
0.346385 w
q -0.577519 -1 -1 0.577519 0 138.127029 cm
-24.725 -49.529 m -23.427 -50.826 l -27.974 -49.528 l -23.427 -48.228 l
 h
-24.725 -49.529 m S Q
0 g
0.75 w
q 1 0 0 -1 0 138.127029 cm
84.957 101.828 m 80.945 108.211 81.09 114.25 81.09 114.25 c S Q
Q Q
showpage
%%Trailer
end restore
%%EOF
