%!PS-Adobe-3.0 EPSF-3.0
%%Creator: cairo 1.14.8 (http://cairographics.org)
%%CreationDate: Sat Jan 26 18:19:32 2019
%%Pages: 1
%%DocumentData: Clean7Bit
%%LanguageLevel: 2
%%BoundingBox: 0 -1 108 66
%%EndComments
%%BeginProlog
save
50 dict begin
/q { gsave } bind def
/Q { grestore } bind def
/cm { 6 array astore concat } bind def
/w { setlinewidth } bind def
/J { setlinecap } bind def
/j { setlinejoin } bind def
/M { setmiterlimit } bind def
/d { setdash } bind def
/m { moveto } bind def
/l { lineto } bind def
/c { curveto } bind def
/h { closepath } bind def
/re { exch dup neg 3 1 roll 5 3 roll moveto 0 rlineto
      0 exch rlineto 0 rlineto closepath } bind def
/S { stroke } bind def
/f { fill } bind def
/f* { eofill } bind def
/n { newpath } bind def
/W { clip } bind def
/W* { eoclip } bind def
/BT { } bind def
/ET { } bind def
/pdfmark where { pop globaldict /?pdfmark /exec load put }
    { globaldict begin /?pdfmark /pop load def /pdfmark
    /cleartomark load def end } ifelse
/BDC { mark 3 1 roll /BDC pdfmark } bind def
/EMC { mark /EMC pdfmark } bind def
/cairo_store_point { /cairo_point_y exch def /cairo_point_x exch def } def
/Tj { show currentpoint cairo_store_point } bind def
/TJ {
  {
    dup
    type /stringtype eq
    { show } { -0.001 mul 0 cairo_font_matrix dtransform rmoveto } ifelse
  } forall
  currentpoint cairo_store_point
} bind def
/cairo_selectfont { cairo_font_matrix aload pop pop pop 0 0 6 array astore
    cairo_font exch selectfont cairo_point_x cairo_point_y moveto } bind def
/Tf { pop /cairo_font exch def /cairo_font_matrix where
      { pop cairo_selectfont } if } bind def
/Td { matrix translate cairo_font_matrix matrix concatmatrix dup
      /cairo_font_matrix exch def dup 4 get exch 5 get cairo_store_point
      /cairo_font where { pop cairo_selectfont } if } bind def
/Tm { 2 copy 8 2 roll 6 array astore /cairo_font_matrix exch def
      cairo_store_point /cairo_font where { pop cairo_selectfont } if } bind def
/g { setgray } bind def
/rg { setrgbcolor } bind def
/d1 { setcachedevice } bind def
%%EndProlog
%%BeginSetup
%%EndSetup
%%Page: 1 1
%%BeginPageSetup
%%PageBoundingBox: 0 -1 108 66
%%EndPageSetup
q 0 -1 108 67 rectclip q
0 g
0.75 w
0 J
0 j
[] 0.0 d
4 M q 1 0 0 -1 0 65.416756 cm
41.383 23.688 19.465 9.418 re S Q
q 1 0 0 1 0 65.416756 cm
4.289 -34.316 m 4.289 -63.434 l 31.77 -63.434 l S Q
4.289 28.1 m 2.789 26.6 l 4.289 31.85 l 5.789 26.6 l h
4.289 28.1 m f*
0.4 w
q 0 -1 1 0 0 65.416756 cm
37.316 4.289 m 38.816 2.789 l 33.566 4.289 l 38.816 5.789 l h
37.316 4.289 m S Q
28.77 1.983 m 27.27 3.483 l 32.52 1.983 l 27.27 0.483 l h
28.77 1.983 m f*
q -1 0 0 -1 0 65.416756 cm
-28.77 63.434 m -27.27 61.934 l -32.52 63.434 l -27.27 64.934 l h
-28.77 63.434 m S Q
0.75 w
q 1 0 0 1 0 65.416756 cm
50.707 -28.668 m 50.707 -63.938 l S Q
50.707 4.479 m 52.207 5.979 l 50.707 0.729 l 49.207 5.979 l h
50.707 4.479 m f*
0.4 w
q 0 1 -1 0 0 65.416756 cm
-60.938 -50.707 m -59.438 -52.207 l -64.688 -50.707 l -59.438 -49.207 l
 h
-60.938 -50.707 m S Q
0.75 w
q 1 0 0 1 0 65.416756 cm
1.805 -14.172 m 50.707 -28.668 l S Q
4.68 50.389 m 5.691 48.526 l 1.086 51.456 l 6.543 51.401 l h
4.68 50.389 m f*
0.38351 w
q 1 -0.296386 0.296386 1 0 65.416756 cm
8.396 -12.539 m 9.834 -13.976 l 4.802 -12.538 l 9.833 -11.101 l h
8.396 -12.539 m S Q
0.75 w
q 1 0 0 1 0 65.416756 cm
105.793 -1.477 m 50.555 -28.516 l S Q
103.098 62.62 m 101.09 63.307 l 106.465 64.268 l 102.41 60.612 l h
103.098 62.62 m f*
0.359267 w
q -1 -0.489503 0.489503 -1 0 65.416756 cm
-82.065 42.968 m -80.717 41.62 l -85.432 42.968 l -80.717 44.316 l h
-82.065 42.968 m S Q
0.882353 0 0 rg
0.75 w
q 1 0 0 1 0 65.416756 cm
105.578 -28.668 m 50.707 -28.668 l 50.828 -1.477 l S Q
102.578 36.749 m 101.078 38.249 l 106.328 36.749 l 101.078 35.249 l h
102.578 36.749 m f*
0.4 w
q -1 0 0 -1 0 65.416756 cm
-102.578 28.668 m -101.078 27.168 l -106.328 28.668 l -101.078 30.168 l
 h
-102.578 28.668 m S Q
50.816 60.94 m 49.309 59.444 l 50.832 64.69 l 52.309 59.432 l h
50.816 60.94 m f*
0.399996 w
q -0.00443953 -1 1 -0.00443953 0 65.416756 cm
4.251 50.835 m 5.754 49.334 l 0.501 50.834 l 5.752 52.334 l h
4.251 50.835 m S Q
0 g
0.525 w
[ 3.15 1.05] 0 d
q 1 0 0 1 0 65.416756 cm
105.578 -28.668 m 105.793 -1.477 l 50.828 -1.477 l S Q
0 0.968627 0 rg
0.75 w
[] 0.0 d
q 1 0 0 1 0 65.416756 cm
1.477 -28.711 m 50.707 -28.711 l 50.598 -14.215 l S Q
4.477 36.706 m 5.977 35.206 l 0.727 36.706 l 5.977 38.206 l h
4.477 36.706 m f*
0.4 w
q 1 0 0 1 0 65.416756 cm
4.477 -28.711 m 5.977 -30.211 l 0.727 -28.711 l 5.977 -27.211 l h
4.477 -28.711 m S Q
50.621 48.202 m 49.133 46.694 l 50.594 51.952 l 52.133 46.714 l h
50.621 48.202 m f*
0.399989 w
q 0.00747058 -1 1 0.00747058 0 65.416756 cm
17.592 50.49 m 19.089 48.99 l 13.842 50.49 l 19.092 51.99 l h
17.592 50.49 m S Q
0 g
0.525 w
[ 3.15 1.05] 0 d
q 1 0 0 1 0 65.416756 cm
1.98 -29.133 m 1.789 -14.172 l 50.848 -14.172 l S Q
0.75 w
[] 0.0 d
q 1 0 0 1 0 65.416756 cm
66.578 -28.504 m 66.578 -28.504 67.641 -24.266 64.762 -21.539 c S Q
q 1 0 0 1 0 65.416756 cm
30.25 -28.656 m 30.25 -28.656 28.887 -25.93 31.008 -23.055 c S Q
Q Q
showpage
%%Trailer
end restore
%%EOF
