%!PS-Adobe-3.0 EPSF-3.0
%%Creator: cairo 1.14.8 (http://cairographics.org)
%%CreationDate: Fri Dec 21 20:52:36 2018
%%Pages: 1
%%DocumentData: Clean7Bit
%%LanguageLevel: 2
%%BoundingBox: 0 -1 214 89
%%EndComments
%%BeginProlog
save
50 dict begin
/q { gsave } bind def
/Q { grestore } bind def
/cm { 6 array astore concat } bind def
/w { setlinewidth } bind def
/J { setlinecap } bind def
/j { setlinejoin } bind def
/M { setmiterlimit } bind def
/d { setdash } bind def
/m { moveto } bind def
/l { lineto } bind def
/c { curveto } bind def
/h { closepath } bind def
/re { exch dup neg 3 1 roll 5 3 roll moveto 0 rlineto
      0 exch rlineto 0 rlineto closepath } bind def
/S { stroke } bind def
/f { fill } bind def
/f* { eofill } bind def
/n { newpath } bind def
/W { clip } bind def
/W* { eoclip } bind def
/BT { } bind def
/ET { } bind def
/pdfmark where { pop globaldict /?pdfmark /exec load put }
    { globaldict begin /?pdfmark /pop load def /pdfmark
    /cleartomark load def end } ifelse
/BDC { mark 3 1 roll /BDC pdfmark } bind def
/EMC { mark /EMC pdfmark } bind def
/cairo_store_point { /cairo_point_y exch def /cairo_point_x exch def } def
/Tj { show currentpoint cairo_store_point } bind def
/TJ {
  {
    dup
    type /stringtype eq
    { show } { -0.001 mul 0 cairo_font_matrix dtransform rmoveto } ifelse
  } forall
  currentpoint cairo_store_point
} bind def
/cairo_selectfont { cairo_font_matrix aload pop pop pop 0 0 6 array astore
    cairo_font exch selectfont cairo_point_x cairo_point_y moveto } bind def
/Tf { pop /cairo_font exch def /cairo_font_matrix where
      { pop cairo_selectfont } if } bind def
/Td { matrix translate cairo_font_matrix matrix concatmatrix dup
      /cairo_font_matrix exch def dup 4 get exch 5 get cairo_store_point
      /cairo_font where { pop cairo_selectfont } if } bind def
/Tm { 2 copy 8 2 roll 6 array astore /cairo_font_matrix exch def
      cairo_store_point /cairo_font where { pop cairo_selectfont } if } bind def
/g { setgray } bind def
/rg { setrgbcolor } bind def
/d1 { setcachedevice } bind def
%%EndProlog
%%BeginSetup
%%EndSetup
%%Page: 1 1
%%BeginPageSetup
%%PageBoundingBox: 0 -1 214 89
%%EndPageSetup
q 0 -1 214 90 rectclip q
0 g
0.75 w
0 J
0 j
[] 0.0 d
4 M q 1 0 0 1 0 88.537849 cm
207.348 -55.07 m 207.617 -13.98 l 202.312 -8.945 l 66.668 -9.219 l S Q
q 1 0 0 1 0 88.537849 cm
0 -19.152 m 197.551 -19.152 l 197.551 -88.539 l S Q
q 1 0 0 -1 0 88.537849 cm
21.77 0.375 44.898 18.504 re S Q
1 1 0.984314 rg
207.617 74.557 m 207.617 71.854 205.426 69.659 202.719 69.659 c 200.016
 69.659 197.82 71.854 197.82 74.557 c 197.82 77.264 200.016 79.456 202.719
 79.456 c 205.426 79.456 207.617 77.264 207.617 74.557 c h
207.617 74.557 m f
0 g
q 1 0 0 -1 0 88.537849 cm
207.617 13.98 m 207.617 16.684 205.426 18.879 202.719 18.879 c 200.016 
18.879 197.82 16.684 197.82 13.98 c 197.82 11.273 200.016 9.082 202.719 
9.082 c 205.426 9.082 207.617 11.273 207.617 13.98 c h
207.617 13.98 m S Q
q 1 0 0 1 0 88.537849 cm
202.719 -13.98 m 192.652 -24.32 l S Q
1 1 0.984314 rg
201.359 33.198 11.699 -8.98 re f
0 g
q 1 0 0 -1 0 88.537849 cm
201.359 55.34 11.699 8.98 re S Q
q 1 0 0 1 0 88.537849 cm
44.625 -28.129 m 172.789 -28.129 l S Q
48.551 62.221 m 43.633 60.417 l 48.551 58.608 l 47.762 59.675 47.77 61.136
 48.551 62.221 c h
48.551 62.221 m f*
0.28125 w
1 j
q 1 0 0 1 0 88.537849 cm
48.551 -26.316 m 43.633 -28.121 l 48.551 -29.93 l 47.762 -28.863 47.77 
-27.402 48.551 -26.316 c h
48.551 -26.316 m S Q
169.789 60.409 m 168.289 61.909 l 173.539 60.409 l 168.289 58.909 l h
169.789 60.409 m f*
0.4 w
0 j
q -1 0 0 -1 0 88.537849 cm
-169.789 28.129 m -168.289 26.629 l -173.539 28.129 l -168.289 29.629 l
 h
-169.789 28.129 m S Q
Q Q
showpage
%%Trailer
end restore
%%EOF
