%!PS-Adobe-2.0
%%Creator: inkscape 0.41.1
%%Pages: 1
%%Orientation: Portrait
%%BoundingBox: 21 781 136 825
%%HiResBoundingBox: 21.692742 781.92581 135.64652 824.86115
%%EndComments
%%Page: 1 1
0 842 translate
0.80000000 -0.80000000 scale
gsave [1.0000000 0.0000000 0.0000000 1.0000000 0.0000000 0.0000000] concat
0.0000000 0.0000000 0.0000000 setrgbcolor
[] 0 setdash
0.37325650 setlinewidth
0 setlinejoin
0 setlinecap
newpath
27.302556 60.281845 moveto
167.70769 60.281852 lineto
stroke
gsave [-0.41058215 -2.0469872e-08 2.0469872e-08 -0.41058215 169.76060 60.281852] concat
0.0000000 0.0000000 0.0000000 setrgbcolor
newpath
8.7185878 4.0337352 moveto
-2.2072895 0.016013256 lineto
8.7185884 -4.0017078 lineto
6.9730900 -1.6296469 6.9831476 1.6157441 8.7185878 4.0337352 curveto
closepath
eofill
grestore
gsave [1.0000000 0.0000000 0.0000000 1.0000000 25.635110 9.5216280] concat
0.0000000 0.0000000 0.0000000 setrgbcolor
newpath
53.677490 29.109592 moveto
53.501709 29.109592 lineto
53.501704 28.461812 53.215246 28.137919 52.642334 28.137913 curveto
50.440186 28.137913 lineto
50.440186 30.759983 lineto
52.261475 30.759983 lineto
52.456783 30.759987 52.611406 30.683490 52.725342 30.530491 curveto
52.822994 30.397032 52.871822 30.226133 52.871826 30.017796 curveto
53.008545 30.017796 lineto
53.008545 31.922092 lineto
52.871826 31.922092 lineto
52.871822 31.388242 52.668372 31.121315 52.261475 31.121311 curveto
50.440186 31.121311 lineto
50.440186 33.772678 lineto
50.440184 34.208877 50.734780 34.426975 51.323975 34.426975 curveto
51.323975 34.646702 lineto
48.770264 34.646702 lineto
48.770264 34.426975 lineto
49.310628 34.426975 49.580810 34.189345 49.580811 33.714085 curveto
49.580811 28.450413 lineto
49.580810 28.095602 49.310628 27.919821 48.770264 27.923069 curveto
48.770264 27.713108 lineto
53.560303 27.713108 lineto
53.677490 29.109592 lineto
fill
0.0000000 0.0000000 0.0000000 setrgbcolor
[] 0 setdash
0.35433072 setlinewidth
0 setlinejoin
0 setlinecap
newpath
46.326380 25.308182 moveto
54.566250 25.308182 54.566250 25.308182 54.566250 25.308182 curveto
stroke
gsave [-0.21259843 0.0000000 0.0000000 -0.21259843 55.629242 25.308182] concat
0.0000000 0.0000000 0.0000000 setrgbcolor
newpath
8.7185878 4.0337352 moveto
-2.2072895 0.016013256 lineto
8.7185884 -4.0017078 lineto
6.9730900 -1.6296469 6.9831476 1.6157441 8.7185878 4.0337352 curveto
closepath
eofill
grestore
grestore
0.47058824 0.47058824 0.47058824 setrgbcolor
newpath
106.15883 41.787922 moveto
139.20618 41.787922 lineto
139.20618 54.971714 lineto
106.15883 54.971714 lineto
106.15883 41.787922 lineto
closepath
fill
0.47058824 0.47058824 0.47058824 setrgbcolor
[] 0 setdash
0.35433072 setlinewidth
1 setlinejoin
1 setlinecap
newpath
106.15883 41.787922 moveto
139.20618 41.787922 lineto
139.20618 54.971714 lineto
106.15883 54.971714 lineto
106.15883 41.787922 lineto
closepath
stroke
0.47058824 0.47058824 0.47058824 setrgbcolor
newpath
132.93657 47.830494 moveto
153.26158 47.830494 lineto
153.26158 54.971714 lineto
132.93657 54.971714 lineto
132.93657 47.830494 lineto
closepath
fill
0.47058824 0.47058824 0.47058824 setrgbcolor
[] 0 setdash
0.35433072 setlinewidth
1 setlinejoin
1 setlinecap
newpath
132.93657 47.830494 moveto
153.26158 47.830494 lineto
153.26158 54.971714 lineto
132.93657 54.971714 lineto
132.93657 47.830494 lineto
closepath
stroke
0.47058824 0.47058824 0.47058824 setrgbcolor
newpath
91.554108 47.830494 moveto
111.87912 47.830494 lineto
111.87912 54.971714 lineto
91.554108 54.971714 lineto
91.554108 47.830494 lineto
closepath
fill
0.47058824 0.47058824 0.47058824 setrgbcolor
[] 0 setdash
0.35433072 setlinewidth
1 setlinejoin
1 setlinecap
newpath
91.554108 47.830494 moveto
111.87912 47.830494 lineto
111.87912 54.971714 lineto
91.554108 54.971714 lineto
91.554108 47.830494 lineto
closepath
stroke
gsave [1.0000000 0.0000000 0.0000000 1.0000000 58.045300 -1.0986490] concat
0.47058824 0.47058824 0.47058824 setrgbcolor
newpath
45.044621 58.633877 moveto
45.044621 60.048937 43.896166 61.197392 42.481106 61.197392 curveto
41.066045 61.197392 39.917591 60.048937 39.917591 58.633877 curveto
39.917591 57.218816 41.066045 56.070362 42.481106 56.070362 curveto
43.896166 56.070362 45.044621 57.218816 45.044621 58.633877 curveto
closepath
fill
0.47058824 0.47058824 0.47058824 setrgbcolor
[] 0 setdash
0.35433072 setlinewidth
1 setlinejoin
1 setlinecap
newpath
45.044621 58.633877 moveto
45.044621 60.048937 43.896166 61.197392 42.481106 61.197392 curveto
41.066045 61.197392 39.917591 60.048937 39.917591 58.633877 curveto
39.917591 57.218816 41.066045 56.070362 42.481106 56.070362 curveto
43.896166 56.070362 45.044621 57.218816 45.044621 58.633877 curveto
closepath
stroke
grestore
gsave [1.0000000 0.0000000 0.0000000 1.0000000 100.34330 -1.0986490] concat
0.47058824 0.47058824 0.47058824 setrgbcolor
newpath
45.044621 58.633877 moveto
45.044621 60.048937 43.896166 61.197392 42.481106 61.197392 curveto
41.066045 61.197392 39.917591 60.048937 39.917591 58.633877 curveto
39.917591 57.218816 41.066045 56.070362 42.481106 56.070362 curveto
43.896166 56.070362 45.044621 57.218816 45.044621 58.633877 curveto
closepath
fill
0.47058824 0.47058824 0.47058824 setrgbcolor
[] 0 setdash
0.35433072 setlinewidth
1 setlinejoin
1 setlinecap
newpath
45.044621 58.633877 moveto
45.044621 60.048937 43.896166 61.197392 42.481106 61.197392 curveto
41.066045 61.197392 39.917591 60.048937 39.917591 58.633877 curveto
39.917591 57.218816 41.066045 56.070362 42.481106 56.070362 curveto
43.896166 56.070362 45.044621 57.218816 45.044621 58.633877 curveto
closepath
stroke
grestore
gsave [1.0000000 0.0000000 0.0000000 1.0000000 6.0425660 -1.0986490] concat
0.47058824 0.47058824 0.47058824 setrgbcolor
newpath
45.044621 58.633877 moveto
45.044621 60.048937 43.896166 61.197392 42.481106 61.197392 curveto
41.066045 61.197392 39.917591 60.048937 39.917591 58.633877 curveto
39.917591 57.218816 41.066045 56.070362 42.481106 56.070362 curveto
43.896166 56.070362 45.044621 57.218816 45.044621 58.633877 curveto
closepath
fill
0.47058824 0.47058824 0.47058824 setrgbcolor
[] 0 setdash
0.35433072 setlinewidth
1 setlinejoin
1 setlinecap
newpath
45.044621 58.633877 moveto
45.044621 60.048937 43.896166 61.197392 42.481106 61.197392 curveto
41.066045 61.197392 39.917591 60.048937 39.917591 58.633877 curveto
39.917591 57.218816 41.066045 56.070362 42.481106 56.070362 curveto
43.896166 56.070362 45.044621 57.218816 45.044621 58.633877 curveto
closepath
stroke
grestore
gsave [1.0000000 0.0000000 0.0000000 1.0000000 29.297310 -1.0986490] concat
0.47058824 0.47058824 0.47058824 setrgbcolor
newpath
45.044621 58.633877 moveto
45.044621 60.048937 43.896166 61.197392 42.481106 61.197392 curveto
41.066045 61.197392 39.917591 60.048937 39.917591 58.633877 curveto
39.917591 57.218816 41.066045 56.070362 42.481106 56.070362 curveto
43.896166 56.070362 45.044621 57.218816 45.044621 58.633877 curveto
closepath
fill
0.47058824 0.47058824 0.47058824 setrgbcolor
[] 0 setdash
0.35433072 setlinewidth
1 setlinejoin
1 setlinecap
newpath
45.044621 58.633877 moveto
45.044621 60.048937 43.896166 61.197392 42.481106 61.197392 curveto
41.066045 61.197392 39.917591 60.048937 39.917591 58.633877 curveto
39.917591 57.218816 41.066045 56.070362 42.481106 56.070362 curveto
43.896166 56.070362 45.044621 57.218816 45.044621 58.633877 curveto
closepath
stroke
grestore
0.47058824 0.47058824 0.47058824 setrgbcolor
newpath
41.878876 47.830494 moveto
77.141460 47.830494 lineto
77.141460 54.971714 lineto
41.878876 54.971714 lineto
41.878876 47.830494 lineto
closepath
fill
0.47058824 0.47058824 0.47058824 setrgbcolor
[] 0 setdash
0.46671361 setlinewidth
1 setlinejoin
1 setlinecap
newpath
41.878876 47.830494 moveto
77.141460 47.830494 lineto
77.141460 54.971714 lineto
41.878876 54.971714 lineto
41.878876 47.830494 lineto
closepath
stroke
0.47058824 0.47058824 0.47058824 setrgbcolor
newpath
77.271668 54.605497 moveto
91.737218 54.605497 lineto
eofill
0.47058824 0.47058824 0.47058824 setrgbcolor
[] 0 setdash
1.0000000 setlinewidth
0 setlinejoin
0 setlinecap
newpath
77.271668 54.605497 moveto
91.737218 54.605497 lineto
stroke
0.0000000 0.0000000 0.0000000 setrgbcolor
[] 0 setdash
1.0000000 setlinewidth
0 setlinejoin
0 setlinecap
newpath
61.524362 51.492657 moveto
83.863564 51.492657 83.863564 51.492657 83.863564 51.492657 curveto
stroke
gsave [0.40000000 0.0000000 0.0000000 0.40000000 61.524362 51.492657] concat
0.0000000 0.0000000 0.0000000 setrgbcolor
[] 0 setdash
1.2500000 setlinewidth
0 setlinejoin
0 setlinecap
newpath
0.0000000 5.6500000 moveto
0.0000000 -5.6500000 lineto
stroke
grestore
gsave [-0.60000000 0.0000000 0.0000000 -0.60000000 86.863564 51.492657] concat
0.0000000 0.0000000 0.0000000 setrgbcolor
newpath
8.7185878 4.0337352 moveto
-2.2072895 0.016013256 lineto
8.7185884 -4.0017078 lineto
6.9730900 -1.6296469 6.9831476 1.6157441 8.7185878 4.0337352 curveto
closepath
eofill
grestore
0.0000000 0.0000000 0.0000000 setrgbcolor
[] 0 setdash
0.70002931 setlinewidth
0 setlinejoin
0 setlinecap
newpath
59.582041 51.309549 moveto
48.634915 51.309549 48.634915 51.309549 48.634915 51.309549 curveto
stroke
gsave [-0.28001173 3.4290414e-17 -3.4290414e-17 -0.28001173 59.582041 51.309549] concat
0.0000000 0.0000000 0.0000000 setrgbcolor
[] 0 setdash
1.2500000 setlinewidth
0 setlinejoin
0 setlinecap
newpath
0.0000000 5.6500000 moveto
0.0000000 -5.6500000 lineto
stroke
grestore
gsave [0.42001759 -5.1435621e-17 5.1435621e-17 0.42001759 46.534827 51.309549] concat
0.0000000 0.0000000 0.0000000 setrgbcolor
newpath
8.7185878 4.0337352 moveto
-2.2072895 0.016013256 lineto
8.7185884 -4.0017078 lineto
6.9730900 -1.6296469 6.9831476 1.6157441 8.7185878 4.0337352 curveto
closepath
eofill
grestore
gsave [1.0000000 0.0000000 0.0000000 1.0000000 -5.8595020 9.3385200] concat
0.0000000 0.0000000 0.0000000 setrgbcolor
newpath
53.677490 29.109592 moveto
53.501709 29.109592 lineto
53.501704 28.461812 53.215246 28.137919 52.642334 28.137913 curveto
50.440186 28.137913 lineto
50.440186 30.759983 lineto
52.261475 30.759983 lineto
52.456783 30.759987 52.611406 30.683490 52.725342 30.530491 curveto
52.822994 30.397032 52.871822 30.226133 52.871826 30.017796 curveto
53.008545 30.017796 lineto
53.008545 31.922092 lineto
52.871826 31.922092 lineto
52.871822 31.388242 52.668372 31.121315 52.261475 31.121311 curveto
50.440186 31.121311 lineto
50.440186 33.772678 lineto
50.440184 34.208877 50.734780 34.426975 51.323975 34.426975 curveto
51.323975 34.646702 lineto
48.770264 34.646702 lineto
48.770264 34.426975 lineto
49.310628 34.426975 49.580810 34.189345 49.580811 33.714085 curveto
49.580811 28.450413 lineto
49.580810 28.095602 49.310628 27.919821 48.770264 27.923069 curveto
48.770264 27.713108 lineto
53.560303 27.713108 lineto
53.677490 29.109592 lineto
fill
0.0000000 0.0000000 0.0000000 setrgbcolor
[] 0 setdash
0.35433072 setlinewidth
0 setlinejoin
0 setlinecap
newpath
46.326380 25.308182 moveto
54.566250 25.308182 54.566250 25.308182 54.566250 25.308182 curveto
stroke
gsave [-0.21259843 0.0000000 0.0000000 -0.21259843 55.629242 25.308182] concat
0.0000000 0.0000000 0.0000000 setrgbcolor
newpath
8.7185878 4.0337352 moveto
-2.2072895 0.016013256 lineto
8.7185884 -4.0017078 lineto
6.9730900 -1.6296469 6.9831476 1.6157441 8.7185878 4.0337352 curveto
closepath
eofill
grestore
grestore
0.0000000 0.0000000 0.0000000 setrgbcolor
newpath
50.835178 40.939850 moveto
50.395725 41.352936 lineto
50.301972 40.936926 50.006074 40.728918 49.508030 40.728912 curveto
49.220918 40.728918 48.963106 40.815344 48.734592 40.988190 curveto
48.488497 41.175695 48.365450 41.410070 48.365452 41.691315 curveto
48.365452 42.732819 lineto
49.398167 42.732819 lineto
49.398167 43.066803 lineto
48.365452 43.066803 lineto
48.365452 45.975983 lineto
48.365450 46.350983 48.571993 46.538483 48.985081 46.538483 curveto
49.017305 46.538483 49.064180 46.538483 49.125706 46.538483 curveto
49.187227 46.535553 49.232637 46.534088 49.261936 46.534088 curveto
49.261936 46.731842 lineto
47.121799 46.731842 lineto
47.099827 46.604401 lineto
47.340061 46.531159 47.482150 46.482819 47.526096 46.459381 curveto
47.672580 46.380280 47.745822 46.261628 47.745823 46.103424 curveto
47.745823 43.066803 lineto
47.663791 43.075596 47.407443 43.055088 46.976780 43.005280 curveto
46.976780 42.833893 lineto
47.340061 42.833897 47.550998 42.800205 47.609592 42.732819 curveto
47.745823 42.732819 lineto
47.745823 42.600983 lineto
47.745822 42.129308 47.797092 41.789464 47.899632 41.581451 curveto
47.978732 41.426183 48.189669 41.183019 48.532444 40.851959 curveto
48.831270 40.564856 49.261934 40.421301 49.824436 40.421295 curveto
50.126191 40.421301 50.463104 40.594153 50.835178 40.939850 curveto
fill
0.0000000 0.0000000 0.0000000 setrgbcolor
newpath
53.397190 42.807526 moveto
53.388398 42.974522 53.297578 43.200107 53.124729 43.484283 curveto
52.761445 43.296787 52.510957 43.203037 52.373264 43.203033 curveto
52.197481 43.203037 52.042208 43.287998 51.907444 43.457916 curveto
51.804903 43.613193 51.703829 43.768466 51.604221 43.923737 curveto
51.604221 46.103424 lineto
51.604220 46.419831 51.801974 46.578034 52.197483 46.578033 curveto
52.235567 46.578034 52.289766 46.576569 52.360081 46.573639 curveto
52.430391 46.570709 52.480196 46.569245 52.509495 46.569244 curveto
52.527073 46.731842 lineto
50.351780 46.731842 lineto
50.351780 46.604401 lineto
50.764865 46.592682 50.971408 46.425690 50.971409 46.103424 curveto
50.971409 43.528229 lineto
50.971408 43.355381 50.760471 43.223545 50.338596 43.132721 curveto
50.338596 42.970123 lineto
50.596409 42.940830 50.961154 42.791416 51.432835 42.521881 curveto
51.604221 42.557037 lineto
51.604221 43.594147 lineto
51.955782 42.937901 52.269258 42.609776 52.544651 42.609772 curveto
52.685274 42.609776 52.969453 42.675694 53.397190 42.807526 curveto
fill
0.0000000 0.0000000 0.0000000 setrgbcolor
newpath
169.55815 55.926365 moveto
167.76128 55.926365 lineto
167.76128 57.723240 lineto
167.30229 57.723240 lineto
167.30229 55.926365 lineto
165.50542 55.926365 lineto
165.50542 55.467381 lineto
167.30229 55.467381 lineto
167.30229 53.670506 lineto
167.76128 53.670506 lineto
167.76128 55.467381 lineto
169.55815 55.467381 lineto
169.55815 55.926365 lineto
fill
0.0000000 0.0000000 0.0000000 setrgbcolor
[] 0 setdash
0.79451901 setlinewidth
0 setlinejoin
0 setlinecap
newpath
60.425712 48.381079 moveto
60.425712 34.279224 60.425712 34.279224 60.425712 34.279224 curveto
stroke
gsave [1.9459460e-17 -0.31780760 0.31780760 1.9459460e-17 60.425712 48.381079] concat
0.0000000 0.0000000 0.0000000 setrgbcolor
[] 0 setdash
1.2500000 setlinewidth
0 setlinejoin
0 setlinecap
newpath
0.0000000 5.6500000 moveto
0.0000000 -5.6500000 lineto
stroke
grestore
gsave [-2.9189191e-17 0.47671140 -0.47671140 -2.9189191e-17 60.425712 31.895667] concat
0.0000000 0.0000000 0.0000000 setrgbcolor
newpath
8.7185878 4.0337352 moveto
-2.2072895 0.016013256 lineto
8.7185884 -4.0017078 lineto
6.9730900 -1.6296469 6.9831476 1.6157441 8.7185878 4.0337352 curveto
closepath
eofill
grestore
0.0000000 0.0000000 0.0000000 setrgbcolor
newpath
71.092232 30.781898 moveto
71.038521 30.786781 lineto
70.729270 30.793292 70.374453 30.690753 69.974068 30.479164 curveto
69.576927 30.264321 69.298607 30.025063 69.139107 29.761391 curveto
67.991646 27.871742 lineto
67.835393 27.897787 67.680770 27.910808 67.527779 27.910805 curveto
67.303167 27.910808 67.006943 27.861980 66.639107 27.764320 curveto
66.634224 29.790688 lineto
66.634222 30.086912 66.749782 30.311521 66.980904 30.464516 curveto
67.182724 30.597979 67.436630 30.656573 67.742622 30.640297 curveto
67.776802 30.777016 lineto
67.771919 30.825844 lineto
64.803169 30.825844 lineto
64.832466 30.611000 lineto
64.886177 30.611000 lineto
65.218208 30.614255 65.449327 30.550779 65.579536 30.420570 curveto
65.712999 30.287107 65.779731 30.054360 65.779732 29.722328 curveto
65.779732 24.697914 lineto
65.779731 24.261723 65.463976 24.046879 64.832466 24.053383 curveto
64.832466 23.872719 lineto
65.284939 23.810877 65.950629 23.779952 66.829536 23.779945 curveto
67.806096 23.779952 68.527124 23.872726 68.992622 24.058266 curveto
69.731550 24.351241 70.101015 24.909509 70.101021 25.733070 curveto
70.101015 26.146486 69.972435 26.524090 69.715279 26.865883 curveto
69.480899 27.181642 69.166771 27.433920 68.772896 27.622719 curveto
70.252388 29.917641 lineto
70.519309 30.327797 70.787864 30.534503 71.058052 30.537758 curveto
71.092232 30.781898 lineto
69.075630 25.733070 moveto
69.075626 25.264326 68.932397 24.863936 68.645943 24.531898 curveto
68.343205 24.186853 67.960718 24.014327 67.498482 24.014320 curveto
67.387802 24.014327 67.244573 24.027348 67.068794 24.053383 curveto
66.844183 24.082686 66.700954 24.100590 66.639107 24.107094 curveto
66.639107 27.500648 lineto
66.860459 27.562501 67.187607 27.593425 67.620552 27.593422 curveto
68.131616 27.593425 68.512475 27.402996 68.763130 27.022133 curveto
68.971459 26.703127 69.075626 26.273439 69.075630 25.733070 curveto
fill
0.0000000 0.0000000 0.0000000 setrgbcolor
[] 0 setdash
0.35433072 setlinewidth
0 setlinejoin
0 setlinecap
newpath
62.256750 21.462910 moveto
70.496620 21.462910 70.496620 21.462910 70.496620 21.462910 curveto
stroke
gsave [-0.21259843 0.0000000 0.0000000 -0.21259843 71.559612 21.462910] concat
0.0000000 0.0000000 0.0000000 setrgbcolor
newpath
8.7185878 4.0337352 moveto
-2.2072895 0.016013256 lineto
8.7185884 -4.0017078 lineto
6.9730900 -1.6296469 6.9831476 1.6157441 8.7185878 4.0337352 curveto
closepath
eofill
grestore
0.0000000 0.0000000 0.0000000 setrgbcolor
[] 0 setdash
0.79451901 setlinewidth
0 setlinejoin
0 setlinecap
newpath
60.608820 54.238020 moveto
60.608820 68.339875 60.608820 68.339875 60.608820 68.339875 curveto
stroke
gsave [1.9459460e-17 0.31780760 -0.31780760 1.9459460e-17 60.608820 54.238020] concat
0.0000000 0.0000000 0.0000000 setrgbcolor
[] 0 setdash
1.2500000 setlinewidth
0 setlinejoin
0 setlinecap
newpath
0.0000000 5.6500000 moveto
0.0000000 -5.6500000 lineto
stroke
grestore
gsave [-2.9189191e-17 -0.47671140 0.47671140 -2.9189191e-17 60.608820 70.723432] concat
0.0000000 0.0000000 0.0000000 setrgbcolor
newpath
8.7185878 4.0337352 moveto
-2.2072895 0.016013256 lineto
8.7185884 -4.0017078 lineto
6.9730900 -1.6296469 6.9831476 1.6157441 8.7185878 4.0337352 curveto
closepath
eofill
grestore
gsave [1.0000000 0.0000000 0.0000000 1.0000000 18.127670 40.283810] concat
0.0000000 0.0000000 0.0000000 setrgbcolor
newpath
54.170654 29.578342 moveto
54.170649 30.206602 53.892329 30.735573 53.335693 31.165257 curveto
52.824622 31.559140 52.245195 31.756080 51.597412 31.756077 curveto
51.376055 31.756080 51.079832 31.707252 50.708740 31.609592 curveto
50.703857 33.635960 lineto
50.703855 33.932184 50.819415 34.156793 51.050537 34.309788 curveto
51.252357 34.443251 51.506263 34.501845 51.812256 34.485569 curveto
51.846436 34.622288 lineto
51.841553 34.671116 lineto
48.872803 34.671116 lineto
48.902100 34.456272 lineto
48.955811 34.456272 lineto
49.287841 34.459528 49.518961 34.396051 49.649170 34.265842 curveto
49.782632 34.132379 49.849364 33.899632 49.849365 33.567600 curveto
49.849365 28.543186 lineto
49.849364 28.110250 49.533609 27.895406 48.902100 27.898655 curveto
48.902100 27.717991 lineto
49.354573 27.656149 50.020262 27.625224 50.899170 27.625217 curveto
51.878984 27.625224 52.601640 27.717998 53.067139 27.903538 curveto
53.802811 28.196513 54.170649 28.754781 54.170654 29.578342 curveto
53.145264 29.578342 moveto
53.145259 29.106343 53.002030 28.705953 52.715576 28.377171 curveto
52.416093 28.032125 52.033607 27.859599 51.568115 27.859592 curveto
51.457435 27.859599 51.314206 27.872620 51.138428 27.898655 curveto
50.920327 27.927959 50.777098 27.945862 50.708740 27.952366 curveto
50.708740 31.345921 lineto
50.930092 31.407773 51.257240 31.438697 51.690186 31.438694 curveto
52.201250 31.438697 52.582109 31.249895 52.832764 30.872288 curveto
53.041093 30.553281 53.145259 30.121967 53.145264 29.578342 curveto
fill
0.0000000 0.0000000 0.0000000 setrgbcolor
[] 0 setdash
0.35433072 setlinewidth
0 setlinejoin
0 setlinecap
newpath
46.326380 25.308182 moveto
54.566250 25.308182 54.566250 25.308182 54.566250 25.308182 curveto
stroke
gsave [-0.21259843 0.0000000 0.0000000 -0.21259843 55.629242 25.308182] concat
0.0000000 0.0000000 0.0000000 setrgbcolor
newpath
8.7185878 4.0337352 moveto
-2.2072895 0.016013256 lineto
8.7185884 -4.0017078 lineto
6.9730900 -1.6296469 6.9831476 1.6157441 8.7185878 4.0337352 curveto
closepath
eofill
grestore
grestore
grestore
showpage
