%!PS-Adobe-3.0 EPSF-3.0
%%Creator: inkscape 0.46
%%Pages: 1
%%Orientation: Portrait
%%BoundingBox: 8 770 146 838
%%HiResBoundingBox: 8.8143807 770.65974 145.99205 837.62349
%%EndComments
%%Page: 1 1
0 842 translate
0.8 -0.8 scale
0 0 0 setrgbcolor
[] 0 setdash
1 setlinewidth
0 setlinejoin
0 setlinecap
gsave [1 0 0 1 0 0] concat
0 0 0 setrgbcolor
[] 0 setdash
0.35433072 setlinewidth
0 setlinejoin
0 setlinecap
newpath
11.81522 7.2132373 moveto
11.81522 80.130021 lineto
81.862593 80.130021 lineto
stroke
gsave [8.678313e-18 0.14173229 -0.14173229 8.678313e-18 11.81522 8.6305602] concat
gsave
0 0 0 setrgbcolor
newpath
0 0 moveto
5 -5 lineto
-12.5 0 lineto
5 5 lineto
0 0 lineto
closepath
eofill
grestore
0 0 0 setrgbcolor
[] 0 setdash
1.25 setlinewidth
0 setlinejoin
0 setlinecap
newpath
0 0 moveto
5 -5 lineto
-12.5 0 lineto
5 5 lineto
0 0 lineto
closepath
stroke
grestore
gsave [-0.14173229 0 0 -0.14173229 80.44527 80.130021] concat
gsave
0 0 0 setrgbcolor
newpath
0 0 moveto
5 -5 lineto
-12.5 0 lineto
5 5 lineto
0 0 lineto
closepath
eofill
grestore
0 0 0 setrgbcolor
[] 0 setdash
1.25 setlinewidth
0 setlinejoin
0 setlinecap
newpath
0 0 moveto
5 -5 lineto
-12.5 0 lineto
5 5 lineto
0 0 lineto
closepath
stroke
grestore
0 0 0 setrgbcolor
[] 0 setdash
0.35433072 setlinewidth
0 setlinejoin
0 setlinecap
newpath
111.99978 7.2132341 moveto
111.99978 80.130021 lineto
182.04715 80.130021 lineto
stroke
gsave [8.678313e-18 0.14173229 -0.14173229 8.678313e-18 111.99978 8.630557] concat
gsave
0 0 0 setrgbcolor
newpath
0 0 moveto
5 -5 lineto
-12.5 0 lineto
5 5 lineto
0 0 lineto
closepath
eofill
grestore
0 0 0 setrgbcolor
[] 0 setdash
1.25 setlinewidth
0 setlinejoin
0 setlinecap
newpath
0 0 moveto
5 -5 lineto
-12.5 0 lineto
5 5 lineto
0 0 lineto
closepath
stroke
grestore
gsave [-0.14173229 0 0 -0.14173229 180.62983 80.130021] concat
gsave
0 0 0 setrgbcolor
newpath
0 0 moveto
5 -5 lineto
-12.5 0 lineto
5 5 lineto
0 0 lineto
closepath
eofill
grestore
0 0 0 setrgbcolor
[] 0 setdash
1.25 setlinewidth
0 setlinejoin
0 setlinecap
newpath
0 0 moveto
5 -5 lineto
-12.5 0 lineto
5 5 lineto
0 0 lineto
closepath
stroke
grestore
gsave [1 0 0 -1 40.340534 37.772392] concat
gsave
/newlatin1font {findfont dup length dict copy dup /Encoding ISOLatin1Encoding put definefont} def
/BitstreamVeraSans-Roman-ISOLatin1 /BitstreamVeraSans-Roman newlatin1font
10 scalefont
setfont
0 0 0 setrgbcolor
newpath
0 0 moveto
(R) show
grestore
grestore
gsave [1 0 0 -1 138.40686 37.097237] concat
gsave
/BitstreamVeraSans-Roman-ISOLatin1 findfont
10 scalefont
setfont
0 0 0 setrgbcolor
newpath
0 0 moveto
(R') show
grestore
grestore
gsave [1 0 0 -1 13.334319 11.947699] concat
gsave
/BitstreamVeraSans-Roman-ISOLatin1 findfont
10 scalefont
setfont
0 0 0 setrgbcolor
newpath
0 0 moveto
(y) show
grestore
grestore
gsave [1 0 0 -1 73.760727 78.619293] concat
gsave
/BitstreamVeraSans-Roman-ISOLatin1 findfont
10 scalefont
setfont
0 0 0 setrgbcolor
newpath
0 0 moveto
(x) show
grestore
grestore
gsave [1 0 0 -1 173.68373 77.775352] concat
gsave
/BitstreamVeraSans-Roman-ISOLatin1 findfont
10 scalefont
setfont
0 0 0 setrgbcolor
newpath
0 0 moveto
(x') show
grestore
grestore
gsave [1 0 0 -1 114.10126 12.622853] concat
gsave
/BitstreamVeraSans-Roman-ISOLatin1 findfont
10 scalefont
setfont
0 0 0 setrgbcolor
newpath
0 0 moveto
(y') show
grestore
grestore
0 0 0 setrgbcolor
[] 0 setdash
1 setlinewidth
0 setlinejoin
0 setlinecap
newpath
112.24459 51.44429 moveto
148.70298 51.44429 lineto
stroke
gsave [-0.4 0 0 -0.4 144.70298 51.44429] concat
gsave
0 0 0 setrgbcolor
newpath
0 0 moveto
5 -5 lineto
-12.5 0 lineto
5 5 lineto
0 0 lineto
closepath
eofill
grestore
0 0 0 setrgbcolor
[] 0 setdash
1.25 setlinewidth
0 setlinejoin
0 setlinecap
newpath
0 0 moveto
5 -5 lineto
-12.5 0 lineto
5 5 lineto
0 0 lineto
closepath
stroke
grestore
gsave [1 0 0 1 4.219721 -4.726088] concat
gsave [1 0 0 -1 118.32099 52.288235] concat
gsave
/BitstreamVeraSans-Roman-ISOLatin1 findfont
10 scalefont
setfont
0 0 0 setrgbcolor
newpath
0 0 moveto
(v) show
grestore
grestore
gsave [1 0 0 -1 122.54071 54.313698] concat
gsave
/BitstreamVeraSans-Roman-ISOLatin1 findfont
6 scalefont
setfont
0 0 0 setrgbcolor
newpath
0 0 moveto
(ref) show
grestore
grestore
grestore
gsave [1 0 0 1 101.1045 -18.06041] concat
gsave
0 0 0 setrgbcolor
newpath
59.392998 97.611362 moveto
59.67068 97.180677 60.245588 97.0565 60.676273 97.334183 curveto
61.106959 97.611865 61.231136 98.186773 60.953453 98.617458 curveto
60.675771 99.048144 60.100863 99.172321 59.670177 98.894638 curveto
59.240499 98.617605 59.115702 98.044925 59.391155 97.614231 curveto
eofill
grestore
0 0 0 setrgbcolor
[] 0 setdash
0.35433072 setlinewidth
0 setlinejoin
1 setlinecap
newpath
59.392998 97.611362 moveto
59.67068 97.180677 60.245588 97.0565 60.676273 97.334183 curveto
61.106959 97.611865 61.231136 98.186773 60.953453 98.617458 curveto
60.675771 99.048144 60.100863 99.172321 59.670177 98.894638 curveto
59.240499 98.617605 59.115702 98.044925 59.391155 97.614231 curveto
stroke
grestore
0 0 0 setrgbcolor
[1.0629921 1.0629921] 0 setdash
0.17716534 setlinewidth
0 setlinejoin
0 setlinecap
newpath
161.36214 88.240259 moveto
11.81522 88.240259 lineto
stroke
gsave [-0.17716534 2.1695781e-17 -2.1695781e-17 -0.17716534 161.36214 88.240259] concat
1 1 1 setrgbcolor
[] 0 setdash
1.15 setlinewidth
0 setlinejoin
2 setlinecap
newpath
0 0 moveto
2 0 lineto
stroke
gsave
0 0 0 setrgbcolor
newpath
0 0 moveto
13 4 lineto
9 0 lineto
13 -4 lineto
0 0 lineto
closepath
eofill
grestore
0 0 0 setrgbcolor
[] 0 setdash
1 setlinewidth
0 setlinejoin
2 setlinecap
newpath
0 -4 moveto
0 40 lineto
stroke
grestore
gsave [-0.17716534 2.1695781e-17 -2.1695781e-17 -0.17716534 11.81522 88.240259] concat
1 1 1 setrgbcolor
[] 0 setdash
1.15 setlinewidth
0 setlinejoin
2 setlinecap
newpath
0 0 moveto
-2 0 lineto
stroke
gsave
0 0 0 setrgbcolor
newpath
0 0 moveto
-13 4 lineto
-9 0 lineto
-13 -4 lineto
0 0 lineto
closepath
eofill
grestore
0 0 0 setrgbcolor
[] 0 setdash
1 setlinewidth
0 setlinejoin
2 setlinecap
newpath
0 -4 moveto
0 40 lineto
stroke
grestore
gsave [1 0 0 1 53.67486 -34.93929] concat
gsave [1 0 0 -1 77.642876 105.11914] concat
gsave
/BitstreamVeraSans-Roman-ISOLatin1 findfont
10 scalefont
setfont
0 0 0 setrgbcolor
newpath
0 0 moveto
(x') show
grestore
grestore
gsave [1 0 0 -1 83.381691 107.14461] concat
gsave
/BitstreamVeraSans-Roman-ISOLatin1 findfont
6 scalefont
setfont
0 0 0 setrgbcolor
newpath
0 0 moveto
(P) show
grestore
grestore
grestore
gsave [1 0 0 1 27.51258 -18.06041] concat
gsave [1 0 0 -1 62.1143 103.43126] concat
gsave
/BitstreamVeraSans-Roman-ISOLatin1 findfont
10 scalefont
setfont
0 0 0 setrgbcolor
newpath
0 0 moveto
(x) show
grestore
grestore
gsave [1 0 0 -1 67.853119 105.28793] concat
gsave
/BitstreamVeraSans-Roman-ISOLatin1 findfont
6 scalefont
setfont
0 0 0 setrgbcolor
newpath
0 0 moveto
(P) show
grestore
grestore
grestore
gsave [1 0 0 -1 163.3876 77.94413] concat
gsave
/BitstreamVeraSans-Roman-ISOLatin1 findfont
10 scalefont
setfont
0 0 0 setrgbcolor
newpath
0 0 moveto
(P) show
grestore
grestore
0 0 0 setrgbcolor
[1.0629921 1.0629921] 0 setdash
0.17716534 setlinewidth
0 setlinejoin
0 setlinecap
newpath
112.17261 72.982381 moveto
161.26533 72.982381 lineto
stroke
gsave [0.17716534 0 0 0.17716534 112.17261 72.982381] concat
1 1 1 setrgbcolor
[] 0 setdash
1.15 setlinewidth
0 setlinejoin
2 setlinecap
newpath
0 0 moveto
2 0 lineto
stroke
gsave
0 0 0 setrgbcolor
newpath
0 0 moveto
13 4 lineto
9 0 lineto
13 -4 lineto
0 0 lineto
closepath
eofill
grestore
0 0 0 setrgbcolor
[] 0 setdash
1 setlinewidth
0 setlinejoin
2 setlinecap
newpath
0 -4 moveto
0 40 lineto
stroke
grestore
gsave [0.17716534 0 0 0.17716534 161.26533 72.982381] concat
1 1 1 setrgbcolor
[] 0 setdash
1.15 setlinewidth
0 setlinejoin
2 setlinecap
newpath
0 0 moveto
-2 0 lineto
stroke
gsave
0 0 0 setrgbcolor
newpath
0 0 moveto
-13 4 lineto
-9 0 lineto
-13 -4 lineto
0 0 lineto
closepath
eofill
grestore
0 0 0 setrgbcolor
[] 0 setdash
1 setlinewidth
0 setlinejoin
2 setlinecap
newpath
0 -4 moveto
0 40 lineto
stroke
grestore
0 0 0 setrgbcolor
[1.4173228 1.4173228] 0 setdash
0.17716534 setlinewidth
0 setlinejoin
0 setlinecap
newpath
11.794379 66.936518 moveto
111.92785 66.936518 lineto
stroke
gsave [0.17716534 0 0 0.17716534 11.794379 66.936518] concat
1 1 1 setrgbcolor
[] 0 setdash
1.15 setlinewidth
0 setlinejoin
2 setlinecap
newpath
0 0 moveto
2 0 lineto
stroke
gsave
0 0 0 setrgbcolor
newpath
0 0 moveto
13 4 lineto
9 0 lineto
13 -4 lineto
0 0 lineto
closepath
eofill
grestore
0 0 0 setrgbcolor
[] 0 setdash
1 setlinewidth
0 setlinejoin
2 setlinecap
newpath
0 -4 moveto
0 40 lineto
stroke
grestore
gsave [0.17716534 0 0 0.17716534 111.92785 66.936518] concat
1 1 1 setrgbcolor
[] 0 setdash
1.15 setlinewidth
0 setlinejoin
2 setlinecap
newpath
0 0 moveto
-2 0 lineto
stroke
gsave
0 0 0 setrgbcolor
newpath
0 0 moveto
-13 4 lineto
-9 0 lineto
-13 -4 lineto
0 0 lineto
closepath
eofill
grestore
0 0 0 setrgbcolor
[] 0 setdash
1 setlinewidth
0 setlinejoin
2 setlinecap
newpath
0 -4 moveto
0 40 lineto
stroke
grestore
gsave [1 0 0 1 18.2292 3.882144] concat
gsave [1 0 0 -1 48.273613 60.390099] concat
gsave
/BitstreamVeraSans-Roman-ISOLatin1 findfont
10 scalefont
setfont
0 0 0 setrgbcolor
newpath
0 0 moveto
(t) show
grestore
grestore
gsave [1 0 0 1 -82.44069 7.608763] concat
gsave [1 0 0 -1 118.32099 52.288235] concat
gsave
/BitstreamVeraSans-Roman-ISOLatin1 findfont
10 scalefont
setfont
0 0 0 setrgbcolor
newpath
0 0 moveto
(v) show
grestore
grestore
gsave [1 0 0 -1 122.54071 54.313698] concat
gsave
/BitstreamVeraSans-Roman-ISOLatin1 findfont
6 scalefont
setfont
0 0 0 setrgbcolor
newpath
0 0 moveto
(ref) show
grestore
grestore
grestore
grestore
grestore
showpage
%%EOF
