%!PS-Adobe-2.0 EPSF-2.0
%%Title: Equilibre.eps
%%Creator: fig2dev Version 3.2 Patchlevel 3d
%%CreationDate: Wed Dec 25 23:00:58 2002
%%For: prof@portable (Vincent Guyot)
%%BoundingBox: 0 0 235 64
%%Magnification: 1.0000
%%EndComments
/$F2psDict 200 dict def
$F2psDict begin
$F2psDict /mtrx matrix put
/col-1 {0 setgray} bind def
/col0 {0.000 0.000 0.000 srgb} bind def
/col1 {0.000 0.000 1.000 srgb} bind def
/col2 {0.000 1.000 0.000 srgb} bind def
/col3 {0.000 1.000 1.000 srgb} bind def
/col4 {1.000 0.000 0.000 srgb} bind def
/col5 {1.000 0.000 1.000 srgb} bind def
/col6 {1.000 1.000 0.000 srgb} bind def
/col7 {1.000 1.000 1.000 srgb} bind def
/col8 {0.000 0.000 0.560 srgb} bind def
/col9 {0.000 0.000 0.690 srgb} bind def
/col10 {0.000 0.000 0.820 srgb} bind def
/col11 {0.530 0.810 1.000 srgb} bind def
/col12 {0.000 0.560 0.000 srgb} bind def
/col13 {0.000 0.690 0.000 srgb} bind def
/col14 {0.000 0.820 0.000 srgb} bind def
/col15 {0.000 0.560 0.560 srgb} bind def
/col16 {0.000 0.690 0.690 srgb} bind def
/col17 {0.000 0.820 0.820 srgb} bind def
/col18 {0.560 0.000 0.000 srgb} bind def
/col19 {0.690 0.000 0.000 srgb} bind def
/col20 {0.820 0.000 0.000 srgb} bind def
/col21 {0.560 0.000 0.560 srgb} bind def
/col22 {0.690 0.000 0.690 srgb} bind def
/col23 {0.820 0.000 0.820 srgb} bind def
/col24 {0.500 0.190 0.000 srgb} bind def
/col25 {0.630 0.250 0.000 srgb} bind def
/col26 {0.750 0.380 0.000 srgb} bind def
/col27 {1.000 0.500 0.500 srgb} bind def
/col28 {1.000 0.630 0.630 srgb} bind def
/col29 {1.000 0.750 0.750 srgb} bind def
/col30 {1.000 0.880 0.880 srgb} bind def
/col31 {1.000 0.840 0.000 srgb} bind def
/col32 {0.875 0.890 0.937 srgb} bind def
/col33 {0.588 0.588 0.620 srgb} bind def
/col34 {0.843 0.859 0.843 srgb} bind def
/col35 {0.620 0.635 0.714 srgb} bind def
/col36 {0.620 0.000 0.000 srgb} bind def
/col37 {0.937 0.937 0.937 srgb} bind def
/col38 {0.875 0.890 0.875 srgb} bind def
/col39 {0.525 0.682 1.000 srgb} bind def
/col40 {0.443 0.443 1.000 srgb} bind def
/col41 {0.780 0.714 0.588 srgb} bind def
/col42 {0.937 0.984 1.000 srgb} bind def
/col43 {0.875 0.796 0.651 srgb} bind def
/col44 {0.255 0.255 0.255 srgb} bind def
/col45 {0.525 0.510 0.525 srgb} bind def
/col46 {0.745 0.765 0.745 srgb} bind def
/col47 {0.875 0.890 0.875 srgb} bind def
/col48 {0.557 0.557 0.557 srgb} bind def
/col49 {0.682 0.667 0.682 srgb} bind def
/col50 {0.255 0.255 0.255 srgb} bind def
/col51 {0.525 0.510 0.525 srgb} bind def
/col52 {0.745 0.765 0.745 srgb} bind def
/col53 {0.525 0.510 0.525 srgb} bind def
/col54 {0.745 0.765 0.745 srgb} bind def
/col55 {0.875 0.890 0.875 srgb} bind def
/col56 {0.557 0.557 0.557 srgb} bind def
/col57 {0.557 0.557 0.557 srgb} bind def
/col58 {0.255 0.255 0.255 srgb} bind def
/col59 {0.525 0.510 0.525 srgb} bind def
/col60 {0.745 0.765 0.745 srgb} bind def
/col61 {0.875 0.890 0.875 srgb} bind def
/col62 {0.255 0.255 0.255 srgb} bind def
/col63 {0.525 0.510 0.525 srgb} bind def
/col64 {0.745 0.765 0.745 srgb} bind def
/col65 {0.875 0.890 0.875 srgb} bind def
/col66 {0.525 0.510 0.525 srgb} bind def
/col67 {0.745 0.765 0.745 srgb} bind def
/col68 {0.875 0.890 0.875 srgb} bind def
/col69 {0.780 0.714 0.588 srgb} bind def
/col70 {0.937 0.984 1.000 srgb} bind def
/col71 {0.875 0.796 0.651 srgb} bind def
/col72 {0.780 0.714 0.588 srgb} bind def
/col73 {0.937 0.984 1.000 srgb} bind def
/col74 {0.875 0.796 0.651 srgb} bind def
/col75 {0.682 0.667 0.682 srgb} bind def
/col76 {0.349 0.333 0.349 srgb} bind def
/col77 {0.557 0.557 0.557 srgb} bind def
/col78 {0.255 0.255 0.255 srgb} bind def
/col79 {0.525 0.510 0.525 srgb} bind def
/col80 {0.745 0.765 0.745 srgb} bind def
/col81 {0.875 0.890 0.875 srgb} bind def
/col82 {0.255 0.255 0.255 srgb} bind def
/col83 {0.525 0.510 0.525 srgb} bind def
/col84 {0.745 0.765 0.745 srgb} bind def
/col85 {0.875 0.890 0.875 srgb} bind def
/col86 {0.525 0.510 0.525 srgb} bind def
/col87 {0.745 0.765 0.745 srgb} bind def
/col88 {0.875 0.890 0.875 srgb} bind def
/col89 {0.255 0.255 0.255 srgb} bind def
/col90 {0.525 0.510 0.525 srgb} bind def
/col91 {0.745 0.765 0.745 srgb} bind def
/col92 {0.255 0.255 0.255 srgb} bind def
/col93 {0.745 0.765 0.745 srgb} bind def
/col94 {0.875 0.890 0.875 srgb} bind def
/col95 {0.255 0.255 0.255 srgb} bind def
/col96 {0.525 0.510 0.525 srgb} bind def
/col97 {0.745 0.765 0.745 srgb} bind def
/col98 {0.557 0.557 0.557 srgb} bind def
/col99 {0.255 0.255 0.255 srgb} bind def
/col100 {0.525 0.510 0.525 srgb} bind def
/col101 {0.745 0.765 0.745 srgb} bind def
/col102 {0.875 0.890 0.875 srgb} bind def
/col103 {0.255 0.255 0.255 srgb} bind def
/col104 {0.525 0.510 0.525 srgb} bind def
/col105 {0.745 0.765 0.745 srgb} bind def
/col106 {0.875 0.890 0.875 srgb} bind def
/col107 {0.745 0.745 0.745 srgb} bind def
/col108 {0.318 0.318 0.318 srgb} bind def
/col109 {0.906 0.890 0.906 srgb} bind def
/col110 {0.000 0.000 0.286 srgb} bind def
/col111 {0.475 0.475 0.475 srgb} bind def
/col112 {0.188 0.204 0.188 srgb} bind def
/col113 {0.255 0.271 0.255 srgb} bind def
/col114 {0.255 0.255 0.255 srgb} bind def
/col115 {0.525 0.510 0.525 srgb} bind def
/col116 {0.745 0.765 0.745 srgb} bind def
/col117 {0.875 0.890 0.875 srgb} bind def
/col118 {0.557 0.573 0.557 srgb} bind def
/col119 {0.906 0.906 0.812 srgb} bind def
/col120 {0.620 0.604 0.620 srgb} bind def
/col121 {0.812 0.573 0.000 srgb} bind def
/col122 {0.969 0.380 0.682 srgb} bind def
/col123 {0.443 0.443 1.000 srgb} bind def
/col124 {0.349 0.365 0.349 srgb} bind def

end
save
newpath 0 64 moveto 0 0 lineto 235 0 lineto 235 64 lineto closepath clip newpath
-1.3 66.0 translate
1 -1 scale

/cp {closepath} bind def
/ef {eofill} bind def
/gr {grestore} bind def
/gs {gsave} bind def
/sa {save} bind def
/rs {restore} bind def
/l {lineto} bind def
/m {moveto} bind def
/rm {rmoveto} bind def
/n {newpath} bind def
/s {stroke} bind def
/sh {show} bind def
/slc {setlinecap} bind def
/slj {setlinejoin} bind def
/slw {setlinewidth} bind def
/srgb {setrgbcolor} bind def
/rot {rotate} bind def
/sc {scale} bind def
/sd {setdash} bind def
/ff {findfont} bind def
/sf {setfont} bind def
/scf {scalefont} bind def
/sw {stringwidth} bind def
/tr {translate} bind def
/tnt {dup dup currentrgbcolor
  4 -2 roll dup 1 exch sub 3 -1 roll mul add
  4 -2 roll dup 1 exch sub 3 -1 roll mul add
  4 -2 roll dup 1 exch sub 3 -1 roll mul add srgb}
  bind def
/shd {dup dup currentrgbcolor 4 -2 roll mul 4 -2 roll mul
  4 -2 roll mul srgb} bind def
/$F2psBegin {$F2psDict begin /$F2psEnteredState save def} def
/$F2psEnd {$F2psEnteredState restore end} def

$F2psBegin
10 setmiterlimit
 0.06299 0.06299 sc
%
% Fig objects follow
%
% Polyline
7.500 slw
n 1455 1035 m 1005 1035 l 1230 810 l
 1455 1035 l  cp gs col0 s gr 
% Polyline
60.000 slw
n 75 765 m
 3690 765 l gs col0 s gr 
% Polyline
7.500 slw
n 75 405 m 495 405 l 495 720 l 75 720 l
 cp gs col0 s gr 
% Polyline
n 3440 555 m 3660 555 l 3660 720 l 3440 720 l
 cp gs col0 s gr 
% Polyline
 [15 45] 45 sd
n 1230 945 m
 1230 135 l gs col0 s gr  [] 0 sd
% Polyline
 [15 45] 45 sd
n 3547 967 m
 3547 157 l gs col0 s gr  [] 0 sd
% Polyline
 [15 45] 45 sd
n 292 960 m
 292 150 l gs col0 s gr  [] 0 sd
% Polyline
gs  clippath
1237 255 m 1237 195 l 1052 195 l 1202 225 l 1052 255 l cp
277 195 m 277 255 l 462 255 l 312 225 l 462 195 l cp
eoclip
n 292 225 m
 1222 225 l gs col0 s gr gr

% arrowhead
n 462 195 m 312 225 l 462 255 l 432 225 l 462 195 l 
 cp gs 0.00 setgray ef gr  col0 s
% arrowhead
n 1052 255 m 1202 225 l 1052 195 l 1082 225 l 1052 255 l 
 cp gs 0.00 setgray ef gr  col0 s
% Polyline
gs  clippath
3555 255 m 3555 195 l 3370 195 l 3520 225 l 3370 255 l cp
1215 195 m 1215 255 l 1400 255 l 1250 225 l 1400 195 l cp
eoclip
n 1230 225 m
 3540 225 l gs col0 s gr gr

% arrowhead
n 1400 195 m 1250 225 l 1400 255 l 1370 225 l 1400 195 l 
 cp gs 0.00 setgray ef gr  col0 s
% arrowhead
n 3370 255 m 3520 225 l 3370 195 l 3400 225 l 3370 255 l 
 cp gs 0.00 setgray ef gr  col0 s
/Times-Roman ff 180.00 scf sf
2175 165 m
gs 1 -1 sc (2m) col0 sh gr
/Times-Roman ff 180.00 scf sf
600 172 m
gs 1 -1 sc (1m) col0 sh gr
/Times-Roman ff 180.00 scf sf
555 629 m
gs 1 -1 sc (2kg) col0 sh gr
/Times-Roman ff 180.00 scf sf
3098 645 m
gs 1 -1 sc (1kg) col0 sh gr
$F2psEnd
rs
