%!PS-Adobe-2.0 EPSF-2.0
%%Title: Travailgeneral.eps
%%Creator: fig2dev Version 3.2 Patchlevel 3d
%%CreationDate: Sat Dec 28 20:36:24 2002
%%For: prof@portable (Vincent Guyot)
%%BoundingBox: 0 0 178 115
%%Magnification: 1.0000
%%EndComments
/$F2psDict 200 dict def
$F2psDict begin
$F2psDict /mtrx matrix put
/col-1 {0 setgray} bind def
/col0 {0.000 0.000 0.000 srgb} bind def
/col1 {0.000 0.000 1.000 srgb} bind def
/col2 {0.000 1.000 0.000 srgb} bind def
/col3 {0.000 1.000 1.000 srgb} bind def
/col4 {1.000 0.000 0.000 srgb} bind def
/col5 {1.000 0.000 1.000 srgb} bind def
/col6 {1.000 1.000 0.000 srgb} bind def
/col7 {1.000 1.000 1.000 srgb} bind def
/col8 {0.000 0.000 0.560 srgb} bind def
/col9 {0.000 0.000 0.690 srgb} bind def
/col10 {0.000 0.000 0.820 srgb} bind def
/col11 {0.530 0.810 1.000 srgb} bind def
/col12 {0.000 0.560 0.000 srgb} bind def
/col13 {0.000 0.690 0.000 srgb} bind def
/col14 {0.000 0.820 0.000 srgb} bind def
/col15 {0.000 0.560 0.560 srgb} bind def
/col16 {0.000 0.690 0.690 srgb} bind def
/col17 {0.000 0.820 0.820 srgb} bind def
/col18 {0.560 0.000 0.000 srgb} bind def
/col19 {0.690 0.000 0.000 srgb} bind def
/col20 {0.820 0.000 0.000 srgb} bind def
/col21 {0.560 0.000 0.560 srgb} bind def
/col22 {0.690 0.000 0.690 srgb} bind def
/col23 {0.820 0.000 0.820 srgb} bind def
/col24 {0.500 0.190 0.000 srgb} bind def
/col25 {0.630 0.250 0.000 srgb} bind def
/col26 {0.750 0.380 0.000 srgb} bind def
/col27 {1.000 0.500 0.500 srgb} bind def
/col28 {1.000 0.630 0.630 srgb} bind def
/col29 {1.000 0.750 0.750 srgb} bind def
/col30 {1.000 0.880 0.880 srgb} bind def
/col31 {1.000 0.840 0.000 srgb} bind def

end
save
newpath 0 115 moveto 0 0 lineto 178 0 lineto 178 115 lineto closepath clip newpath
-8.9 127.1 translate
1 -1 scale

/cp {closepath} bind def
/ef {eofill} bind def
/gr {grestore} bind def
/gs {gsave} bind def
/sa {save} bind def
/rs {restore} bind def
/l {lineto} bind def
/m {moveto} bind def
/rm {rmoveto} bind def
/n {newpath} bind def
/s {stroke} bind def
/sh {show} bind def
/slc {setlinecap} bind def
/slj {setlinejoin} bind def
/slw {setlinewidth} bind def
/srgb {setrgbcolor} bind def
/rot {rotate} bind def
/sc {scale} bind def
/sd {setdash} bind def
/ff {findfont} bind def
/sf {setfont} bind def
/scf {scalefont} bind def
/sw {stringwidth} bind def
/tr {translate} bind def
/tnt {dup dup currentrgbcolor
  4 -2 roll dup 1 exch sub 3 -1 roll mul add
  4 -2 roll dup 1 exch sub 3 -1 roll mul add
  4 -2 roll dup 1 exch sub 3 -1 roll mul add srgb}
  bind def
/shd {dup dup currentrgbcolor 4 -2 roll mul 4 -2 roll mul
  4 -2 roll mul srgb} bind def
 /DrawEllipse {
	/endangle exch def
	/startangle exch def
	/yrad exch def
	/xrad exch def
	/y exch def
	/x exch def
	/savematrix mtrx currentmatrix def
	x y tr xrad yrad sc 0 0 1 startangle endangle arc
	closepath
	savematrix setmatrix
	} def

/$F2psBegin {$F2psDict begin /$F2psEnteredState save def} def
/$F2psEnd {$F2psEnteredState restore end} def

$F2psBegin
10 setmiterlimit
 0.06299 0.06299 sc
%
% Fig objects follow
%
% Polyline
7.500 slw
gs  clippath
1154 1792 m 1154 1747 l 1068 1747 l 1128 1770 l 1068 1792 l cp
eoclip
n 952 1770 m
 1139 1770 l gs col0 s gr gr

% arrowhead
n 1068 1792 m 1128 1770 l 1068 1747 l 1068 1792 l  cp gs 0.00 setgray ef gr  col0 s
/Times-Roman ff 180.00 scf sf
997 1942 m
gs 1 -1 sc (F) col0 sh gr
/Symbol ff 180.00 scf sf
405 1485 m
gs 1 -1 sc (D) col0 sh gr
/Times-Roman ff 180.00 scf sf
540 1485 m
gs 1 -1 sc (l) col0 sh gr
/Symbol ff 180.00 scf sf
1350 1440 m
gs 1 -1 sc (D) col0 sh gr
/Times-Roman ff 180.00 scf sf
1485 1440 m
gs 1 -1 sc (l) col0 sh gr
/Symbol ff 180.00 scf sf
2070 990 m
gs 1 -1 sc (D) col0 sh gr
/Times-Roman ff 180.00 scf sf
2205 990 m
gs 1 -1 sc (l) col0 sh gr
% Ellipse
n 306 1854 30 30 0 360 DrawEllipse gs 0.00 setgray ef gr gs col0 s gr

% Ellipse
n 2925 397 30 30 0 360 DrawEllipse gs 0.00 setgray ef gr gs col0 s gr

% Polyline
30.000 slw
gs  clippath
802 1541 m 768 1474 l 688 1515 l 759 1522 l 722 1582 l cp
eoclip
n 487 1657 m
 772 1515 l gs col0 s gr gr

% arrowhead
15.000 slw
n 722 1582 m 759 1522 l 688 1515 l 722 1582 l  cp gs 0.00 setgray ef gr  col0 s
% Polyline
30.000 slw
gs  clippath
2596 816 m 2532 778 l 2487 855 l 2550 823 l 2551 893 l cp
eoclip
n 2401 1075 m
 2557 810 l gs col0 s gr gr

% arrowhead
15.000 slw
n 2551 893 m 2550 823 l 2487 855 l 2551 893 l  cp gs 0.00 setgray ef gr  col0 s
% Polyline
30.000 slw
gs  clippath
1859 1503 m 1843 1430 l 1756 1449 l 1823 1473 l 1772 1522 l cp
eoclip
n 1513 1542 m
 1837 1470 l gs col0 s gr gr

% arrowhead
15.000 slw
n 1772 1522 m 1823 1473 l 1756 1449 l 1772 1522 l  cp gs 0.00 setgray ef gr  col0 s
% Polyline
7.500 slw
gs  clippath
925 1961 m 956 1928 l 893 1869 l 922 1927 l 862 1902 l cp
eoclip
n 585 1612 m
 930 1935 l gs col0 s gr gr

% arrowhead
n 862 1902 m 922 1927 l 893 1869 l 862 1902 l  cp gs 0.00 setgray ef gr  col0 s
% Polyline
gs  clippath
1764 783 m 1719 777 l 1707 862 l 1738 806 l 1752 868 l cp
eoclip
n 1638 1528 m
 1740 795 l gs col0 s gr gr

% arrowhead
n 1752 868 m 1738 806 l 1707 862 l 1752 868 l  cp gs 0.00 setgray ef gr  col0 s
% Polyline
gs  clippath
2188 343 m 2148 363 l 2186 440 l 2180 377 l 2226 420 l cp
eoclip
n 2470 958 m
 2175 367 l gs col0 s gr gr

% arrowhead
n 2226 420 m 2180 377 l 2186 440 l 2226 420 l  cp gs 0.00 setgray ef gr  col0 s
% Polyline
gs  clippath
652 1312 m 652 1267 l 566 1267 l 626 1290 l 566 1312 l cp
eoclip
n 450 1290 m
 637 1290 l gs col0 s gr gr

% arrowhead
n 566 1312 m 626 1290 l 566 1267 l 566 1312 l  cp gs 0.00 setgray ef gr  col0 s
% Polyline
gs  clippath
1597 825 m 1597 780 l 1511 780 l 1571 803 l 1511 825 l cp
eoclip
n 1395 803 m
 1582 803 l gs col0 s gr gr

% arrowhead
n 1511 825 m 1571 803 l 1511 780 l 1511 825 l  cp gs 0.00 setgray ef gr  col0 s
% Polyline
gs  clippath
2452 255 m 2452 210 l 2366 210 l 2426 233 l 2366 255 l cp
eoclip
n 2250 233 m
 2437 233 l gs col0 s gr gr

% arrowhead
n 2366 255 m 2426 233 l 2366 210 l 2366 255 l  cp gs 0.00 setgray ef gr  col0 s
% Polyline
gs  clippath
2302 824 m 2302 779 l 2216 779 l 2276 802 l 2216 824 l cp
eoclip
n 2100 802 m
 2287 802 l gs col0 s gr gr

% arrowhead
n 2216 824 m 2276 802 l 2216 779 l 2216 824 l  cp gs 0.00 setgray ef gr  col0 s
% Polyline
gs  clippath
1589 1282 m 1589 1237 l 1503 1237 l 1563 1260 l 1503 1282 l cp
eoclip
n 1387 1260 m
 1574 1260 l gs col0 s gr gr

% arrowhead
n 1503 1282 m 1563 1260 l 1503 1237 l 1503 1282 l  cp gs 0.00 setgray ef gr  col0 s
% Polyline
2 slj
n 315 1845 m 315 1844 l 318 1841 l 324 1834 l 333 1822 l 346 1806 l
 360 1788 l 375 1769 l 390 1752 l 403 1736 l 415 1722 l
 426 1710 l 437 1699 l 447 1689 l 458 1680 l 468 1671 l
 479 1663 l 490 1655 l 502 1646 l 515 1638 l 528 1630 l
 541 1622 l 554 1614 l 568 1607 l 581 1600 l 594 1593 l
 606 1587 l 618 1581 l 630 1575 l 642 1569 l 654 1563 l
 667 1557 l 680 1551 l 695 1545 l 710 1539 l 726 1533 l
 743 1528 l 761 1523 l 778 1518 l 797 1515 l 816 1512 l
 835 1509 l 855 1508 l 871 1507 l 889 1506 l 907 1506 l
 927 1506 l 947 1506 l 969 1507 l 991 1508 l 1014 1509 l
 1037 1511 l 1061 1512 l 1084 1514 l 1107 1516 l 1129 1519 l
 1151 1521 l 1172 1523 l 1192 1525 l 1211 1528 l 1230 1530 l
 1250 1533 l 1270 1535 l 1291 1538 l 1311 1540 l 1331 1543 l
 1351 1545 l 1372 1547 l 1392 1549 l 1412 1551 l 1431 1552 l
 1450 1554 l 1469 1554 l 1487 1554 l 1504 1554 l 1521 1554 l
 1538 1553 l 1552 1551 l 1568 1549 l 1584 1547 l 1600 1545 l
 1617 1542 l 1634 1538 l 1652 1534 l 1671 1530 l 1690 1525 l
 1708 1520 l 1727 1514 l 1746 1508 l 1765 1502 l 1783 1496 l
 1801 1490 l 1818 1483 l 1835 1477 l 1853 1470 l 1870 1463 l
 1887 1456 l 1905 1448 l 1924 1439 l 1943 1431 l 1963 1421 l
 1983 1411 l 2003 1401 l 2024 1390 l 2044 1379 l 2065 1367 l
 2084 1355 l 2103 1343 l 2122 1331 l 2140 1319 l 2157 1307 l
 2174 1295 l 2190 1283 l 2204 1271 l 2219 1259 l 2233 1247 l
 2247 1234 l 2262 1220 l 2277 1206 l 2292 1191 l 2306 1175 l
 2321 1160 l 2336 1143 l 2350 1127 l 2364 1110 l 2378 1094 l
 2391 1077 l 2404 1061 l 2416 1045 l 2428 1029 l 2439 1013 l
 2450 998 l 2460 983 l 2471 965 l 2483 948 l 2494 930 l
 2505 911 l 2517 892 l 2528 873 l 2539 853 l 2551 834 l
 2562 814 l 2573 795 l 2584 776 l 2594 758 l 2604 741 l
 2613 724 l 2622 709 l 2631 694 l 2639 680 l 2648 668 l
 2658 652 l 2668 637 l 2678 622 l 2689 608 l 2700 594 l
 2711 581 l 2721 569 l 2732 557 l 2743 546 l 2753 536 l
 2763 527 l 2772 518 l 2781 510 l 2790 503 l 2800 494 l
 2811 486 l 2823 477 l 2836 467 l 2850 457 l 2866 446 l
 2883 434 l 2899 423 l 2912 414 l 2921 408 l 2924 405 l

 2925 405 l gs col0 s gr 
/Times-Roman ff 180.00 scf sf
2745 368 m
gs 1 -1 sc (B) col0 sh gr
/Times-Roman ff 180.00 scf sf
142 1785 m
gs 1 -1 sc (A) col0 sh gr
/Times-Roman ff 150.00 scf sf
592 1500 m
gs 1 -1 sc (1) col0 sh gr
/Times-Roman ff 150.00 scf sf
2250 1027 m
gs 1 -1 sc (20) col0 sh gr
/Times-Roman ff 150.00 scf sf
1544 1455 m
gs 1 -1 sc (i) col0 sh gr
/Times-Roman ff 150.00 scf sf
1552 1027 m
gs 1 -1 sc (i) col0 sh gr
/Times-Roman ff 150.00 scf sf
1080 2017 m
gs 1 -1 sc (1) col0 sh gr
/Times-Roman ff 150.00 scf sf
2392 480 m
gs 1 -1 sc (20) col0 sh gr
/Times-Roman ff 180.00 scf sf
2295 405 m
gs 1 -1 sc (F) col0 sh gr
/Times-Roman ff 180.00 scf sf
1440 990 m
gs 1 -1 sc (F) col0 sh gr
$F2psEnd
rs
