%!PS-Adobe-2.0 EPSF-2.0
%%Title: Massesuspendue.fig
%%Creator: fig2dev Version 3.2 Patchlevel 5-alpha5
%%CreationDate: Mon Feb 13 23:19:11 2006
%%For: guyotv@debian ()
%%BoundingBox: 0 0 115 154
%Magnification: 1.0000
%%EndComments
/$F2psDict 200 dict def
$F2psDict begin
$F2psDict /mtrx matrix put
/col-1 {0 setgray} bind def
/col0 {0.000 0.000 0.000 srgb} bind def
/col1 {0.000 0.000 1.000 srgb} bind def
/col2 {0.000 1.000 0.000 srgb} bind def
/col3 {0.000 1.000 1.000 srgb} bind def
/col4 {1.000 0.000 0.000 srgb} bind def
/col5 {1.000 0.000 1.000 srgb} bind def
/col6 {1.000 1.000 0.000 srgb} bind def
/col7 {1.000 1.000 1.000 srgb} bind def
/col8 {0.000 0.000 0.560 srgb} bind def
/col9 {0.000 0.000 0.690 srgb} bind def
/col10 {0.000 0.000 0.820 srgb} bind def
/col11 {0.530 0.810 1.000 srgb} bind def
/col12 {0.000 0.560 0.000 srgb} bind def
/col13 {0.000 0.690 0.000 srgb} bind def
/col14 {0.000 0.820 0.000 srgb} bind def
/col15 {0.000 0.560 0.560 srgb} bind def
/col16 {0.000 0.690 0.690 srgb} bind def
/col17 {0.000 0.820 0.820 srgb} bind def
/col18 {0.560 0.000 0.000 srgb} bind def
/col19 {0.690 0.000 0.000 srgb} bind def
/col20 {0.820 0.000 0.000 srgb} bind def
/col21 {0.560 0.000 0.560 srgb} bind def
/col22 {0.690 0.000 0.690 srgb} bind def
/col23 {0.820 0.000 0.820 srgb} bind def
/col24 {0.500 0.190 0.000 srgb} bind def
/col25 {0.630 0.250 0.000 srgb} bind def
/col26 {0.750 0.380 0.000 srgb} bind def
/col27 {1.000 0.500 0.500 srgb} bind def
/col28 {1.000 0.630 0.630 srgb} bind def
/col29 {1.000 0.750 0.750 srgb} bind def
/col30 {1.000 0.880 0.880 srgb} bind def
/col31 {1.000 0.840 0.000 srgb} bind def
/col32 {0.906 0.906 0.906 srgb} bind def
/col33 {0.443 0.459 0.443 srgb} bind def
/col34 {0.612 0.000 0.000 srgb} bind def
/col35 {0.549 0.549 0.549 srgb} bind def
/col36 {0.259 0.259 0.259 srgb} bind def
/col37 {0.549 0.549 0.549 srgb} bind def
/col38 {0.549 0.549 0.549 srgb} bind def
/col39 {0.259 0.259 0.259 srgb} bind def
/col40 {0.549 0.549 0.549 srgb} bind def
/col41 {0.259 0.259 0.259 srgb} bind def
/col42 {0.549 0.549 0.549 srgb} bind def
/col43 {0.259 0.259 0.259 srgb} bind def
/col44 {0.761 0.761 0.761 srgb} bind def
/col45 {0.431 0.431 0.431 srgb} bind def
/col46 {0.267 0.267 0.267 srgb} bind def
/col47 {0.557 0.561 0.557 srgb} bind def
/col48 {0.443 0.443 0.443 srgb} bind def
/col49 {0.682 0.682 0.682 srgb} bind def
/col50 {0.200 0.200 0.200 srgb} bind def
/col51 {0.580 0.576 0.584 srgb} bind def
/col52 {0.455 0.439 0.459 srgb} bind def
/col53 {0.333 0.333 0.333 srgb} bind def
/col54 {0.702 0.702 0.702 srgb} bind def
/col55 {0.765 0.765 0.765 srgb} bind def
/col56 {0.427 0.427 0.427 srgb} bind def
/col57 {0.271 0.271 0.271 srgb} bind def
/col58 {0.557 0.557 0.557 srgb} bind def
/col59 {0.886 0.886 0.933 srgb} bind def
/col60 {0.580 0.580 0.604 srgb} bind def
/col61 {0.859 0.859 0.859 srgb} bind def
/col62 {0.631 0.631 0.718 srgb} bind def
/col63 {0.929 0.929 0.929 srgb} bind def
/col64 {0.878 0.878 0.878 srgb} bind def
/col65 {0.525 0.675 1.000 srgb} bind def
/col66 {0.439 0.439 1.000 srgb} bind def
/col67 {0.776 0.718 0.592 srgb} bind def
/col68 {0.937 0.973 1.000 srgb} bind def
/col69 {0.863 0.796 0.651 srgb} bind def
/col70 {0.251 0.251 0.251 srgb} bind def
/col71 {0.502 0.502 0.502 srgb} bind def
/col72 {0.753 0.753 0.753 srgb} bind def
/col73 {0.667 0.667 0.667 srgb} bind def
/col74 {0.525 0.510 0.525 srgb} bind def
/col75 {0.780 0.765 0.780 srgb} bind def
/col76 {0.906 0.890 0.906 srgb} bind def
/col77 {0.525 0.525 0.525 srgb} bind def
/col78 {0.780 0.780 0.780 srgb} bind def
/col79 {0.969 0.969 0.969 srgb} bind def
/col80 {0.620 0.620 0.620 srgb} bind def
/col81 {0.255 0.271 0.255 srgb} bind def
/col82 {0.337 0.318 0.318 srgb} bind def
/col83 {0.937 0.984 1.000 srgb} bind def
/col84 {0.400 0.400 0.400 srgb} bind def
/col85 {0.745 0.745 0.745 srgb} bind def
/col86 {0.318 0.318 0.318 srgb} bind def
/col87 {0.000 0.000 0.286 srgb} bind def
/col88 {0.475 0.475 0.475 srgb} bind def
/col89 {0.188 0.204 0.188 srgb} bind def
/col90 {0.780 0.714 0.588 srgb} bind def
/col91 {0.843 0.843 0.843 srgb} bind def
/col92 {0.522 0.502 0.490 srgb} bind def
/col93 {0.824 0.824 0.824 srgb} bind def
/col94 {0.227 0.227 0.227 srgb} bind def
/col95 {0.271 0.451 0.667 srgb} bind def
/col96 {0.000 0.000 0.000 srgb} bind def
/col97 {0.255 0.255 0.255 srgb} bind def
/col98 {0.839 0.843 0.839 srgb} bind def
/col99 {0.482 0.475 0.647 srgb} bind def
/col100 {0.451 0.459 0.549 srgb} bind def
/col101 {0.388 0.365 0.808 srgb} bind def

end
save
newpath 0 154 moveto 0 0 lineto 115 0 lineto 115 154 lineto closepath clip newpath
-40.6 201.1 translate
1 -1 scale

/cp {closepath} bind def
/ef {eofill} bind def
/gr {grestore} bind def
/gs {gsave} bind def
/sa {save} bind def
/rs {restore} bind def
/l {lineto} bind def
/m {moveto} bind def
/rm {rmoveto} bind def
/n {newpath} bind def
/s {stroke} bind def
/sh {show} bind def
/slc {setlinecap} bind def
/slj {setlinejoin} bind def
/slw {setlinewidth} bind def
/srgb {setrgbcolor} bind def
/rot {rotate} bind def
/sc {scale} bind def
/sd {setdash} bind def
/ff {findfont} bind def
/sf {setfont} bind def
/scf {scalefont} bind def
/sw {stringwidth} bind def
/tr {translate} bind def
/tnt {dup dup currentrgbcolor
  4 -2 roll dup 1 exch sub 3 -1 roll mul add
  4 -2 roll dup 1 exch sub 3 -1 roll mul add
  4 -2 roll dup 1 exch sub 3 -1 roll mul add srgb}
  bind def
/shd {dup dup currentrgbcolor 4 -2 roll mul 4 -2 roll mul
  4 -2 roll mul srgb} bind def
/reencdict 12 dict def /ReEncode { reencdict begin
/newcodesandnames exch def /newfontname exch def /basefontname exch def
/basefontdict basefontname findfont def /newfont basefontdict maxlength dict def
basefontdict { exch dup /FID ne { dup /Encoding eq
{ exch dup length array copy newfont 3 1 roll put }
{ exch newfont 3 1 roll put } ifelse } { pop pop } ifelse } forall
newfont /FontName newfontname put newcodesandnames aload pop
128 1 255 { newfont /Encoding get exch /.notdef put } for
newcodesandnames length 2 idiv { newfont /Encoding get 3 1 roll put } repeat
newfontname newfont definefont pop end } def
/isovec [
8#055 /minus 8#200 /grave 8#201 /acute 8#202 /circumflex 8#203 /tilde
8#204 /macron 8#205 /breve 8#206 /dotaccent 8#207 /dieresis
8#210 /ring 8#211 /cedilla 8#212 /hungarumlaut 8#213 /ogonek 8#214 /caron
8#220 /dotlessi 8#230 /oe 8#231 /OE
8#240 /space 8#241 /exclamdown 8#242 /cent 8#243 /sterling
8#244 /currency 8#245 /yen 8#246 /brokenbar 8#247 /section 8#250 /dieresis
8#251 /copyright 8#252 /ordfeminine 8#253 /guillemotleft 8#254 /logicalnot
8#255 /hyphen 8#256 /registered 8#257 /macron 8#260 /degree 8#261 /plusminus
8#262 /twosuperior 8#263 /threesuperior 8#264 /acute 8#265 /mu 8#266 /paragraph
8#267 /periodcentered 8#270 /cedilla 8#271 /onesuperior 8#272 /ordmasculine
8#273 /guillemotright 8#274 /onequarter 8#275 /onehalf
8#276 /threequarters 8#277 /questiondown 8#300 /Agrave 8#301 /Aacute
8#302 /Acircumflex 8#303 /Atilde 8#304 /Adieresis 8#305 /Aring
8#306 /AE 8#307 /Ccedilla 8#310 /Egrave 8#311 /Eacute
8#312 /Ecircumflex 8#313 /Edieresis 8#314 /Igrave 8#315 /Iacute
8#316 /Icircumflex 8#317 /Idieresis 8#320 /Eth 8#321 /Ntilde 8#322 /Ograve
8#323 /Oacute 8#324 /Ocircumflex 8#325 /Otilde 8#326 /Odieresis 8#327 /multiply
8#330 /Oslash 8#331 /Ugrave 8#332 /Uacute 8#333 /Ucircumflex
8#334 /Udieresis 8#335 /Yacute 8#336 /Thorn 8#337 /germandbls 8#340 /agrave
8#341 /aacute 8#342 /acircumflex 8#343 /atilde 8#344 /adieresis 8#345 /aring
8#346 /ae 8#347 /ccedilla 8#350 /egrave 8#351 /eacute
8#352 /ecircumflex 8#353 /edieresis 8#354 /igrave 8#355 /iacute
8#356 /icircumflex 8#357 /idieresis 8#360 /eth 8#361 /ntilde 8#362 /ograve
8#363 /oacute 8#364 /ocircumflex 8#365 /otilde 8#366 /odieresis 8#367 /divide
8#370 /oslash 8#371 /ugrave 8#372 /uacute 8#373 /ucircumflex
8#374 /udieresis 8#375 /yacute 8#376 /thorn 8#377 /ydieresis] def
/Times-Roman /Times-Roman-iso isovec ReEncode
/$F2psBegin {$F2psDict begin /$F2psEnteredState save def} def
/$F2psEnd {$F2psEnteredState restore end} def

$F2psBegin
10 setmiterlimit
0 slj 0 slc
 0.06299 0.06299 sc
%
% Fig objects follow
%
% 
% here starts figure with depth 50
% Polyline
0 slj
0 slc
7.500 slw
n 656 776 m
 1196 776 l gs col0 s gr 
% Polyline
n 1836 783 m
 2376 783 l gs col0 s gr 
% Polyline
n 1882 2550 m 2422 2550 l 2422 2775 l 1882 2775 l
 cp gs col0 s gr 
% Polyline
 [60] 0 sd
n 682 1703 m
 2457 1703 l gs col0 s gr  [] 0 sd
% Polyline
gs  clippath
1512 3051 m 1512 3168 l 1557 3169 l 1557 3052 l 1557 3052 l 1535 3127 l 1512 3051 l cp
eoclip
n 1536 1703 m
 1535 3154 l gs col0 s gr gr

% arrowhead
n 1512 3051 m 1535 3127 l 1557 3052 l 1535 3067 l 1512 3051 l 
 cp gs 0.00 setgray ef gr  col0 s
% Polyline
gs  clippath
2116 3078 m 2116 3195 l 2161 3195 l 2161 3078 l 2161 3078 l 2139 3153 l 2116 3078 l cp
eoclip
n 2139 2704 m
 2139 3180 l gs col0 s gr gr

% arrowhead
n 2116 3078 m 2139 3153 l 2161 3078 l 2139 3093 l 2116 3078 l 
 cp gs 0.00 setgray ef gr  col0 s
% Polyline
gs  clippath
2161 2249 m 2161 2132 l 2116 2132 l 2116 2249 l 2116 2249 l 2139 2174 l 2161 2249 l cp
eoclip
n 2139 2652 m
 2139 2147 l gs col0 s gr gr

% arrowhead
n 2161 2249 m 2139 2174 l 2116 2249 l 2139 2234 l 2161 2249 l 
 cp gs 0.00 setgray ef gr  col0 s
% Polyline
gs  clippath
2412 2939 m 2467 2939 l 2467 2923 l 2412 2923 l 2412 2923 l 2431 2931 l 2412 2938 l cp
eoclip
n 2349 2931 m
 2452 2931 l gs col0 s gr gr

% arrowhead
n 2412 2938 m 2431 2931 l 2412 2923 l 2416 2931 l 2412 2938 l 
 cp gs 0.00 setgray ef gr  col0 s
% Polyline
gs  clippath
2404 2335 m 2459 2335 l 2459 2319 l 2404 2319 l 2404 2319 l 2423 2327 l 2404 2334 l cp
eoclip
n 2341 2327 m
 2444 2327 l gs col0 s gr gr

% arrowhead
n 2404 2334 m 2423 2327 l 2404 2319 l 2408 2327 l 2404 2334 l 
 cp gs 0.00 setgray ef gr  col0 s
% Polyline
n 1479 2648 m
 1591 2648 l gs col0 s gr 
/Times-Roman-iso ff 158.75 scf sf
1102 1285 m
gs 1 -1 sc (k) col0 sh gr
/Times-Roman-iso ff 158.75 scf sf
2213 2447 m
gs 1 -1 sc (-kx) col0 sh gr
/Times-Roman-iso ff 158.75 scf sf
2233 3042 m
gs 1 -1 sc (mg) col0 sh gr
/Times-Roman-iso ff 158.75 scf sf
1475 1650 m
gs 1 -1 sc (O) col0 sh gr
/Times-Roman-iso ff 158.75 scf sf
1938 2708 m
gs 1 -1 sc (m) col0 sh gr
/Times-Roman-iso ff 158.75 scf sf
1394 3128 m
gs 1 -1 sc (x) col0 sh gr
/Times-Roman-iso ff 158.75 scf sf
1240 2626 m
gs 1 -1 sc (x) col0 sh gr
/Times-Roman-iso ff 127.00 scf sf
1321 2717 m
gs 1 -1 sc (\351q) col0 sh gr
% here ends figure;
% 
% here starts figure with depth 2
% Polyline
0 slj
0 slc
7.500 slw
n 2140 1110 m
 2140 784 l gs col0 s gr 
% Polyline
n 2140 2235 m
 2140 2552 l gs col0 s gr 
% Polyline
n 925 946 m
 925 775 l gs col0 s gr 
% Polyline
n 925 1537 m
 925 1703 l gs col0 s gr 
% here ends figure;
% 
% here starts figure with depth 0
% Polyline
2 slj
0 slc
7.500 slw
n 2140 1110 m 2143 1111 l 2148 1112 l 2157 1115 l 2169 1119 l 2182 1125 l
 2194 1131 l 2207 1140 l 2217 1150 l 2226 1163 l 2233 1180 l
 2235 1201 l 2233 1221 l 2229 1239 l 2224 1256 l 2219 1270 l
 2214 1282 l 2208 1292 l 2203 1301 l 2198 1310 l 2191 1319 l
 2184 1329 l 2176 1341 l 2165 1354 l 2153 1367 l 2140 1378 l
 2130 1384 l 2120 1388 l 2111 1390 l 2104 1390 l 2097 1389 l
 2091 1387 l 2086 1385 l 2082 1382 l 2078 1379 l 2074 1375 l
 2070 1372 l 2066 1368 l 2062 1364 l 2058 1359 l 2054 1354 l
 2051 1348 l 2048 1342 l 2047 1335 l 2049 1324 l 2054 1312 l
 2060 1302 l 2066 1292 l 2072 1283 l 2078 1275 l 2084 1268 l
 2091 1260 l 2100 1253 l 2111 1248 l 2125 1244 l 2140 1245 l
 2153 1250 l 2165 1257 l 2176 1264 l 2184 1272 l 2191 1278 l
 2198 1284 l 2203 1289 l 2208 1295 l 2214 1302 l 2219 1311 l
 2224 1323 l 2229 1338 l 2233 1357 l 2235 1378 l 2233 1400 l
 2229 1421 l 2224 1438 l 2219 1453 l 2214 1464 l 2208 1474 l
 2203 1482 l 2198 1490 l 2191 1499 l 2184 1509 l 2176 1520 l
 2165 1533 l 2153 1546 l 2140 1557 l 2130 1563 l 2120 1567 l
 2111 1569 l 2104 1569 l 2097 1568 l 2091 1566 l 2086 1564 l
 2082 1561 l 2078 1558 l 2074 1555 l 2070 1551 l 2066 1547 l
 2062 1543 l 2058 1538 l 2054 1533 l 2051 1527 l 2048 1521 l
 2047 1514 l 2049 1503 l 2054 1491 l 2060 1481 l 2066 1471 l
 2072 1462 l 2078 1454 l 2084 1447 l 2091 1439 l 2100 1432 l
 2111 1427 l 2125 1423 l 2140 1424 l 2153 1429 l 2165 1436 l
 2176 1443 l 2184 1451 l 2191 1457 l 2198 1463 l 2203 1468 l
 2208 1474 l 2214 1481 l 2219 1490 l 2224 1502 l 2229 1517 l
 2233 1536 l 2235 1557 l 2233 1579 l 2229 1600 l 2224 1617 l
 2219 1632 l 2214 1643 l 2208 1653 l 2203 1661 l 2198 1669 l
 2191 1678 l 2184 1688 l 2176 1699 l 2165 1712 l 2153 1725 l
 2140 1736 l 2130 1742 l 2120 1746 l 2111 1748 l 2104 1748 l
 2097 1747 l 2091 1745 l 2086 1743 l 2082 1740 l 2078 1737 l
 2074 1734 l 2070 1730 l 2066 1726 l 2062 1722 l 2058 1718 l
 2054 1712 l 2051 1707 l 2048 1700 l 2047 1693 l 2049 1681 l
 2054 1670 l 2060 1659 l 2066 1649 l 2072 1640 l 2078 1632 l
 2084 1624 l 2091 1617 l 2100 1610 l 2111 1604 l 2125 1600 l
 2140 1601 l 2153 1606 l 2165 1613 l 2176 1621 l 2184 1628 l
 2191 1634 l 2198 1640 l 2203 1646 l 2208 1652 l 2214 1659 l
 2219 1668 l 2224 1680 l 2229 1696 l 2233 1714 l 2235 1736 l
 2233 1758 l 2229 1779 l 2224 1797 l 2219 1811 l 2214 1822 l
 2208 1832 l 2203 1841 l 2198 1849 l 2191 1857 l 2184 1867 l
 2176 1878 l 2165 1891 l 2153 1904 l 2140 1915 l 2130 1921 l
 2120 1925 l 2111 1926 l 2104 1926 l 2097 1925 l 2091 1923 l
 2086 1921 l 2082 1918 l 2078 1915 l 2074 1911 l 2070 1908 l
 2066 1904 l 2062 1900 l 2058 1895 l 2054 1890 l 2051 1884 l
 2048 1877 l 2047 1870 l 2049 1858 l 2054 1847 l 2060 1836 l
 2066 1827 l 2072 1818 l 2078 1810 l 2084 1802 l 2091 1795 l
 2100 1788 l 2111 1782 l 2125 1779 l 2140 1780 l 2153 1785 l
 2165 1792 l 2176 1800 l 2184 1807 l 2191 1814 l 2198 1820 l
 2203 1825 l 2208 1831 l 2214 1838 l 2219 1848 l 2224 1859 l
 2229 1875 l 2233 1893 l 2235 1915 l 2233 1937 l 2229 1958 l
 2224 1975 l 2219 1990 l 2214 2001 l 2208 2011 l 2203 2019 l
 2198 2027 l 2191 2036 l 2184 2045 l 2176 2056 l 2165 2069 l
 2153 2082 l 2140 2093 l 2130 2099 l 2120 2103 l 2111 2104 l
 2104 2105 l 2097 2104 l 2091 2102 l 2086 2099 l 2082 2096 l
 2078 2093 l 2074 2090 l 2070 2086 l 2066 2082 l 2062 2078 l
 2058 2074 l 2054 2068 l 2051 2063 l 2048 2056 l 2047 2049 l
 2049 2037 l 2054 2026 l 2060 2016 l 2066 2006 l 2072 1997 l
 2078 1989 l 2084 1981 l 2091 1974 l 2100 1967 l 2111 1961 l
 2125 1958 l 2140 1959 l 2153 1964 l 2165 1971 l 2176 1979 l
 2184 1987 l 2191 1994 l 2198 2000 l 2203 2007 l 2208 2013 l
 2214 2021 l 2219 2030 l 2224 2042 l 2229 2056 l 2233 2074 l
 2235 2093 l 2233 2116 l 2226 2136 l 2217 2154 l 2207 2171 l
 2194 2185 l 2182 2199 l 2169 2211 l 2157 2221 l 2148 2228 l
 2143 2233 l
 2140 2235 l gs col-1 s gr 
% Polyline
n 925 946 m 928 946 l 933 947 l 942 949 l 954 951 l 967 954 l
 979 957 l 992 962 l 1002 967 l 1011 974 l 1018 983 l
 1020 994 l 1017 1008 l 1010 1021 l 1003 1031 l 995 1040 l
 988 1046 l 980 1053 l 971 1060 l 959 1069 l 943 1078 l
 925 1087 l 907 1092 l 892 1093 l 880 1092 l 870 1090 l
 863 1087 l 856 1084 l 849 1080 l 841 1076 l 835 1070 l
 832 1064 l 834 1058 l 839 1052 l 845 1047 l 851 1042 l
 857 1037 l 863 1033 l 869 1029 l 876 1025 l 885 1021 l
 896 1018 l 910 1017 l 925 1017 l 940 1020 l 954 1025 l
 965 1029 l 974 1033 l 982 1037 l 988 1040 l 994 1044 l
 1000 1049 l 1007 1055 l 1013 1063 l 1018 1074 l 1020 1087 l
 1018 1101 l 1013 1113 l 1007 1123 l 1000 1130 l 994 1137 l
 988 1142 l 982 1147 l 974 1152 l 965 1159 l 954 1166 l
 940 1174 l 925 1181 l 907 1186 l 892 1187 l 880 1186 l
 870 1184 l 863 1181 l 856 1178 l 849 1174 l 841 1170 l
 835 1164 l 832 1158 l 834 1152 l 839 1146 l 845 1141 l
 851 1136 l 857 1131 l 863 1127 l 869 1123 l 876 1119 l
 885 1115 l 896 1112 l 910 1111 l 925 1111 l 940 1114 l
 954 1119 l 965 1123 l 974 1127 l 982 1131 l 988 1134 l
 994 1138 l 1000 1143 l 1007 1149 l 1013 1157 l 1018 1168 l
 1020 1181 l 1018 1195 l 1013 1207 l 1007 1217 l 1000 1224 l
 994 1231 l 988 1236 l 982 1241 l 974 1246 l 965 1253 l
 954 1260 l 940 1268 l 925 1275 l 907 1280 l 892 1281 l
 880 1280 l 870 1278 l 863 1275 l 856 1272 l 849 1268 l
 841 1264 l 835 1259 l 832 1252 l 834 1246 l 839 1240 l
 845 1234 l 851 1229 l 857 1225 l 863 1220 l 869 1216 l
 876 1212 l 885 1208 l 896 1205 l 910 1204 l 925 1204 l
 940 1207 l 954 1212 l 965 1216 l 974 1221 l 982 1224 l
 988 1228 l 994 1231 l 1000 1236 l 1007 1242 l 1013 1251 l
 1018 1262 l 1020 1275 l 1018 1289 l 1013 1301 l 1007 1311 l
 1000 1319 l 994 1325 l 988 1330 l 982 1335 l 974 1340 l
 965 1347 l 954 1354 l 940 1362 l 925 1369 l 910 1373 l
 896 1375 l 885 1375 l 876 1373 l 869 1371 l 863 1369 l
 857 1366 l 851 1363 l 845 1359 l 839 1355 l 834 1351 l
 832 1345 l 834 1339 l 839 1333 l 845 1327 l 851 1322 l
 857 1318 l 863 1314 l 869 1310 l 876 1306 l 885 1302 l
 896 1299 l 910 1297 l 925 1298 l 940 1301 l 954 1306 l
 965 1311 l 974 1315 l 982 1318 l 988 1322 l 994 1326 l
 1000 1330 l 1007 1337 l 1013 1345 l 1018 1356 l 1020 1369 l
 1018 1383 l 1013 1395 l 1007 1404 l 1000 1412 l 994 1418 l
 988 1423 l 982 1428 l 974 1434 l 965 1440 l 954 1447 l
 940 1455 l 925 1462 l 907 1467 l 892 1468 l 880 1467 l
 870 1465 l 863 1462 l 856 1459 l 849 1455 l 841 1451 l
 835 1445 l 832 1439 l 834 1433 l 839 1427 l 845 1422 l
 851 1417 l 857 1412 l 863 1408 l 869 1404 l 876 1400 l
 885 1396 l 896 1393 l 910 1392 l 925 1392 l 940 1395 l
 954 1400 l 965 1405 l 974 1409 l 982 1413 l 988 1417 l
 994 1421 l 1000 1426 l 1007 1432 l 1013 1440 l 1018 1450 l
 1020 1462 l 1017 1476 l 1008 1489 l 996 1500 l 982 1509 l
 967 1518 l 951 1525 l 938 1531 l 930 1535 l 926 1537 l

 925 1537 l gs col-1 s gr 
% here ends figure;
$F2psEnd
rs
showpage
%%Trailer
%EOF
