%!PS-Adobe-2.0 EPSF-2.0
%%Title: Masseoscillantesuspendue.fig
%%Creator: fig2dev Version 3.2 Patchlevel 5-alpha5
%%CreationDate: Mon Feb 13 23:27:15 2006
%%For: guyotv@debian ()
%%BoundingBox: 0 0 84 181
%Magnification: 1.0000
%%EndComments
/$F2psDict 200 dict def
$F2psDict begin
$F2psDict /mtrx matrix put
/col-1 {0 setgray} bind def
/col0 {0.000 0.000 0.000 srgb} bind def
/col1 {0.000 0.000 1.000 srgb} bind def
/col2 {0.000 1.000 0.000 srgb} bind def
/col3 {0.000 1.000 1.000 srgb} bind def
/col4 {1.000 0.000 0.000 srgb} bind def
/col5 {1.000 0.000 1.000 srgb} bind def
/col6 {1.000 1.000 0.000 srgb} bind def
/col7 {1.000 1.000 1.000 srgb} bind def
/col8 {0.000 0.000 0.560 srgb} bind def
/col9 {0.000 0.000 0.690 srgb} bind def
/col10 {0.000 0.000 0.820 srgb} bind def
/col11 {0.530 0.810 1.000 srgb} bind def
/col12 {0.000 0.560 0.000 srgb} bind def
/col13 {0.000 0.690 0.000 srgb} bind def
/col14 {0.000 0.820 0.000 srgb} bind def
/col15 {0.000 0.560 0.560 srgb} bind def
/col16 {0.000 0.690 0.690 srgb} bind def
/col17 {0.000 0.820 0.820 srgb} bind def
/col18 {0.560 0.000 0.000 srgb} bind def
/col19 {0.690 0.000 0.000 srgb} bind def
/col20 {0.820 0.000 0.000 srgb} bind def
/col21 {0.560 0.000 0.560 srgb} bind def
/col22 {0.690 0.000 0.690 srgb} bind def
/col23 {0.820 0.000 0.820 srgb} bind def
/col24 {0.500 0.190 0.000 srgb} bind def
/col25 {0.630 0.250 0.000 srgb} bind def
/col26 {0.750 0.380 0.000 srgb} bind def
/col27 {1.000 0.500 0.500 srgb} bind def
/col28 {1.000 0.630 0.630 srgb} bind def
/col29 {1.000 0.750 0.750 srgb} bind def
/col30 {1.000 0.880 0.880 srgb} bind def
/col31 {1.000 0.840 0.000 srgb} bind def
/col32 {0.906 0.906 0.906 srgb} bind def
/col33 {0.443 0.459 0.443 srgb} bind def
/col34 {0.612 0.000 0.000 srgb} bind def
/col35 {0.549 0.549 0.549 srgb} bind def
/col36 {0.259 0.259 0.259 srgb} bind def
/col37 {0.549 0.549 0.549 srgb} bind def
/col38 {0.549 0.549 0.549 srgb} bind def
/col39 {0.259 0.259 0.259 srgb} bind def
/col40 {0.549 0.549 0.549 srgb} bind def
/col41 {0.259 0.259 0.259 srgb} bind def
/col42 {0.549 0.549 0.549 srgb} bind def
/col43 {0.259 0.259 0.259 srgb} bind def
/col44 {0.761 0.761 0.761 srgb} bind def
/col45 {0.431 0.431 0.431 srgb} bind def
/col46 {0.267 0.267 0.267 srgb} bind def
/col47 {0.557 0.561 0.557 srgb} bind def
/col48 {0.443 0.443 0.443 srgb} bind def
/col49 {0.682 0.682 0.682 srgb} bind def
/col50 {0.200 0.200 0.200 srgb} bind def
/col51 {0.580 0.576 0.584 srgb} bind def
/col52 {0.455 0.439 0.459 srgb} bind def
/col53 {0.333 0.333 0.333 srgb} bind def
/col54 {0.702 0.702 0.702 srgb} bind def
/col55 {0.765 0.765 0.765 srgb} bind def
/col56 {0.427 0.427 0.427 srgb} bind def
/col57 {0.271 0.271 0.271 srgb} bind def
/col58 {0.557 0.557 0.557 srgb} bind def
/col59 {0.886 0.886 0.933 srgb} bind def
/col60 {0.580 0.580 0.604 srgb} bind def
/col61 {0.859 0.859 0.859 srgb} bind def
/col62 {0.631 0.631 0.718 srgb} bind def
/col63 {0.929 0.929 0.929 srgb} bind def
/col64 {0.878 0.878 0.878 srgb} bind def
/col65 {0.525 0.675 1.000 srgb} bind def
/col66 {0.439 0.439 1.000 srgb} bind def
/col67 {0.776 0.718 0.592 srgb} bind def
/col68 {0.937 0.973 1.000 srgb} bind def
/col69 {0.863 0.796 0.651 srgb} bind def
/col70 {0.251 0.251 0.251 srgb} bind def
/col71 {0.502 0.502 0.502 srgb} bind def
/col72 {0.753 0.753 0.753 srgb} bind def
/col73 {0.667 0.667 0.667 srgb} bind def
/col74 {0.525 0.510 0.525 srgb} bind def
/col75 {0.780 0.765 0.780 srgb} bind def
/col76 {0.906 0.890 0.906 srgb} bind def
/col77 {0.525 0.525 0.525 srgb} bind def
/col78 {0.780 0.780 0.780 srgb} bind def
/col79 {0.969 0.969 0.969 srgb} bind def
/col80 {0.620 0.620 0.620 srgb} bind def
/col81 {0.255 0.271 0.255 srgb} bind def
/col82 {0.337 0.318 0.318 srgb} bind def
/col83 {0.937 0.984 1.000 srgb} bind def
/col84 {0.400 0.400 0.400 srgb} bind def
/col85 {0.745 0.745 0.745 srgb} bind def
/col86 {0.318 0.318 0.318 srgb} bind def
/col87 {0.000 0.000 0.286 srgb} bind def
/col88 {0.475 0.475 0.475 srgb} bind def
/col89 {0.188 0.204 0.188 srgb} bind def
/col90 {0.780 0.714 0.588 srgb} bind def
/col91 {0.843 0.843 0.843 srgb} bind def
/col92 {0.522 0.502 0.490 srgb} bind def
/col93 {0.824 0.824 0.824 srgb} bind def
/col94 {0.227 0.227 0.227 srgb} bind def
/col95 {0.271 0.451 0.667 srgb} bind def
/col96 {0.000 0.000 0.000 srgb} bind def
/col97 {0.255 0.255 0.255 srgb} bind def
/col98 {0.839 0.843 0.839 srgb} bind def
/col99 {0.482 0.475 0.647 srgb} bind def
/col100 {0.451 0.459 0.549 srgb} bind def
/col101 {0.388 0.365 0.808 srgb} bind def

end
save
newpath 0 181 moveto 0 0 lineto 84 0 lineto 84 181 lineto closepath clip newpath
-71.6 229.1 translate
1 -1 scale

/cp {closepath} bind def
/ef {eofill} bind def
/gr {grestore} bind def
/gs {gsave} bind def
/sa {save} bind def
/rs {restore} bind def
/l {lineto} bind def
/m {moveto} bind def
/rm {rmoveto} bind def
/n {newpath} bind def
/s {stroke} bind def
/sh {show} bind def
/slc {setlinecap} bind def
/slj {setlinejoin} bind def
/slw {setlinewidth} bind def
/srgb {setrgbcolor} bind def
/rot {rotate} bind def
/sc {scale} bind def
/sd {setdash} bind def
/ff {findfont} bind def
/sf {setfont} bind def
/scf {scalefont} bind def
/sw {stringwidth} bind def
/tr {translate} bind def
/tnt {dup dup currentrgbcolor
  4 -2 roll dup 1 exch sub 3 -1 roll mul add
  4 -2 roll dup 1 exch sub 3 -1 roll mul add
  4 -2 roll dup 1 exch sub 3 -1 roll mul add srgb}
  bind def
/shd {dup dup currentrgbcolor 4 -2 roll mul 4 -2 roll mul
  4 -2 roll mul srgb} bind def
/reencdict 12 dict def /ReEncode { reencdict begin
/newcodesandnames exch def /newfontname exch def /basefontname exch def
/basefontdict basefontname findfont def /newfont basefontdict maxlength dict def
basefontdict { exch dup /FID ne { dup /Encoding eq
{ exch dup length array copy newfont 3 1 roll put }
{ exch newfont 3 1 roll put } ifelse } { pop pop } ifelse } forall
newfont /FontName newfontname put newcodesandnames aload pop
128 1 255 { newfont /Encoding get exch /.notdef put } for
newcodesandnames length 2 idiv { newfont /Encoding get 3 1 roll put } repeat
newfontname newfont definefont pop end } def
/isovec [
8#055 /minus 8#200 /grave 8#201 /acute 8#202 /circumflex 8#203 /tilde
8#204 /macron 8#205 /breve 8#206 /dotaccent 8#207 /dieresis
8#210 /ring 8#211 /cedilla 8#212 /hungarumlaut 8#213 /ogonek 8#214 /caron
8#220 /dotlessi 8#230 /oe 8#231 /OE
8#240 /space 8#241 /exclamdown 8#242 /cent 8#243 /sterling
8#244 /currency 8#245 /yen 8#246 /brokenbar 8#247 /section 8#250 /dieresis
8#251 /copyright 8#252 /ordfeminine 8#253 /guillemotleft 8#254 /logicalnot
8#255 /hyphen 8#256 /registered 8#257 /macron 8#260 /degree 8#261 /plusminus
8#262 /twosuperior 8#263 /threesuperior 8#264 /acute 8#265 /mu 8#266 /paragraph
8#267 /periodcentered 8#270 /cedilla 8#271 /onesuperior 8#272 /ordmasculine
8#273 /guillemotright 8#274 /onequarter 8#275 /onehalf
8#276 /threequarters 8#277 /questiondown 8#300 /Agrave 8#301 /Aacute
8#302 /Acircumflex 8#303 /Atilde 8#304 /Adieresis 8#305 /Aring
8#306 /AE 8#307 /Ccedilla 8#310 /Egrave 8#311 /Eacute
8#312 /Ecircumflex 8#313 /Edieresis 8#314 /Igrave 8#315 /Iacute
8#316 /Icircumflex 8#317 /Idieresis 8#320 /Eth 8#321 /Ntilde 8#322 /Ograve
8#323 /Oacute 8#324 /Ocircumflex 8#325 /Otilde 8#326 /Odieresis 8#327 /multiply
8#330 /Oslash 8#331 /Ugrave 8#332 /Uacute 8#333 /Ucircumflex
8#334 /Udieresis 8#335 /Yacute 8#336 /Thorn 8#337 /germandbls 8#340 /agrave
8#341 /aacute 8#342 /acircumflex 8#343 /atilde 8#344 /adieresis 8#345 /aring
8#346 /ae 8#347 /ccedilla 8#350 /egrave 8#351 /eacute
8#352 /ecircumflex 8#353 /edieresis 8#354 /igrave 8#355 /iacute
8#356 /icircumflex 8#357 /idieresis 8#360 /eth 8#361 /ntilde 8#362 /ograve
8#363 /oacute 8#364 /ocircumflex 8#365 /otilde 8#366 /odieresis 8#367 /divide
8#370 /oslash 8#371 /ugrave 8#372 /uacute 8#373 /ucircumflex
8#374 /udieresis 8#375 /yacute 8#376 /thorn 8#377 /ydieresis] def
/Times-Roman /Times-Roman-iso isovec ReEncode
/$F2psBegin {$F2psDict begin /$F2psEnteredState save def} def
/$F2psEnd {$F2psEnteredState restore end} def

$F2psBegin
10 setmiterlimit
0 slj 0 slc
 0.06299 0.06299 sc
%
% Fig objects follow
%
% 
% here starts figure with depth 50
% Polyline
0 slj
0 slc
7.500 slw
n 1836 783 m
 2376 783 l gs col0 s gr 
% Polyline
 [60] 0 sd
n 1149 1701 m
 2457 1703 l gs col0 s gr  [] 0 sd
% Polyline
gs  clippath
1515 3374 m 1515 3491 l 1560 3490 l 1560 3373 l 1560 3373 l 1538 3449 l 1515 3374 l cp
eoclip
n 1536 1703 m
 1538 3476 l gs col0 s gr gr

% arrowhead
n 1515 3374 m 1538 3449 l 1560 3373 l 1537 3389 l 1515 3374 l 
 cp gs 0.00 setgray ef gr  col0 s
% Polyline
n 1479 2648 m
 1591 2648 l gs col0 s gr 
% Polyline
n 1867 2986 m 2407 2986 l 2407 3211 l 1867 3211 l
 cp gs col0 s gr 
% Polyline
gs  clippath
2120 3523 m 2120 3640 l 2165 3640 l 2165 3523 l 2165 3523 l 2143 3598 l 2120 3523 l cp
eoclip
n 2143 3149 m
 2143 3625 l gs col0 s gr gr

% arrowhead
n 2120 3523 m 2143 3598 l 2165 3523 l 2143 3538 l 2120 3523 l 
 cp gs 0.00 setgray ef gr  col0 s
% Polyline
gs  clippath
2165 2654 m 2165 2537 l 2120 2537 l 2120 2654 l 2120 2654 l 2143 2579 l 2165 2654 l cp
eoclip
n 2143 3057 m
 2143 2552 l gs col0 s gr gr

% arrowhead
n 2165 2654 m 2143 2579 l 2120 2654 l 2143 2639 l 2165 2654 l 
 cp gs 0.00 setgray ef gr  col0 s
% Polyline
n 1476 3091 m
 1588 3091 l gs col0 s gr 
% Polyline
gs  clippath
2398 3379 m 2453 3379 l 2453 3363 l 2398 3363 l 2398 3363 l 2417 3371 l 2398 3378 l cp
eoclip
n 2335 3371 m
 2438 3371 l gs col0 s gr gr

% arrowhead
n 2398 3378 m 2417 3371 l 2398 3363 l 2402 3371 l 2398 3378 l 
 cp gs 0.00 setgray ef gr  col0 s
% Polyline
gs  clippath
2379 2764 m 2434 2764 l 2434 2748 l 2379 2748 l 2379 2748 l 2398 2756 l 2379 2763 l cp
eoclip
n 2316 2756 m
 2419 2756 l gs col0 s gr gr

% arrowhead
n 2379 2763 m 2398 2756 l 2379 2748 l 2383 2756 l 2379 2763 l 
 cp gs 0.00 setgray ef gr  col0 s
% Polyline
gs  clippath
1595 2989 m 1595 3106 l 1640 3106 l 1640 2989 l 1640 2989 l 1618 3064 l 1595 2989 l cp
eoclip
n 1618 2646 m
 1618 3091 l gs col0 s gr gr

% arrowhead
n 1595 2989 m 1618 3064 l 1640 2989 l 1618 3004 l 1595 2989 l 
 cp gs 0.00 setgray ef gr  col0 s
/Times-Roman-iso ff 158.75 scf sf
1475 1650 m
gs 1 -1 sc (O) col0 sh gr
/Times-Roman-iso ff 158.75 scf sf
1240 2626 m
gs 1 -1 sc (x) col0 sh gr
/Times-Roman-iso ff 127.00 scf sf
1321 2717 m
gs 1 -1 sc (\351q) col0 sh gr
/Times-Roman-iso ff 158.75 scf sf
1913 3148 m
gs 1 -1 sc (m) col0 sh gr
/Times-Roman-iso ff 158.75 scf sf
1349 3128 m
gs 1 -1 sc (x) col0 sh gr
/Times-Roman-iso ff 158.75 scf sf
2218 3487 m
gs 1 -1 sc (mg) col0 sh gr
/Times-Roman-iso ff 158.75 scf sf
2193 2882 m
gs 1 -1 sc (-kx) col0 sh gr
/Times-Roman-iso ff 158.75 scf sf
1673 2901 m
gs 1 -1 sc (x') col0 sh gr
/Times-Roman-iso ff 158.75 scf sf
1615 2640 m
gs 1 -1 sc (O') col0 sh gr
% here ends figure;
% 
% here starts figure with depth 2
% Polyline
0 slj
0 slc
7.500 slw
n 2142 1194 m
 2142 788 l gs col0 s gr 
% Polyline
n 2142 2591 m
 2142 2985 l gs col0 s gr 
% here ends figure;
% 
% here starts figure with depth 0
% Polyline
2 slj
0 slc
7.500 slw
n 2142 1194 m 2143 1194 l 2146 1195 l 2151 1197 l 2157 1200 l 2165 1203 l
 2174 1207 l 2184 1212 l 2194 1218 l 2203 1225 l 2212 1234 l
 2220 1244 l 2227 1256 l 2233 1270 l 2237 1287 l 2238 1307 l
 2236 1331 l 2232 1354 l 2227 1375 l 2222 1392 l 2216 1407 l
 2211 1419 l 2206 1430 l 2200 1441 l 2194 1453 l 2187 1466 l
 2178 1480 l 2168 1496 l 2155 1512 l 2142 1526 l 2133 1533 l
 2124 1537 l 2115 1540 l 2108 1541 l 2101 1540 l 2096 1539 l
 2091 1536 l 2086 1534 l 2082 1531 l 2079 1527 l 2075 1523 l
 2071 1520 l 2068 1515 l 2064 1511 l 2060 1506 l 2057 1501 l
 2053 1495 l 2050 1488 l 2048 1481 l 2047 1473 l 2049 1461 l
 2053 1449 l 2058 1437 l 2063 1426 l 2068 1417 l 2073 1407 l
 2079 1399 l 2084 1391 l 2090 1383 l 2097 1375 l 2106 1368 l
 2116 1363 l 2129 1360 l 2142 1361 l 2155 1367 l 2168 1376 l
 2178 1385 l 2187 1394 l 2194 1402 l 2200 1409 l 2206 1416 l
 2211 1423 l 2216 1432 l 2222 1443 l 2227 1457 l 2232 1476 l
 2236 1499 l 2238 1526 l 2236 1554 l 2232 1579 l 2227 1601 l
 2222 1619 l 2216 1633 l 2211 1645 l 2206 1656 l 2200 1666 l
 2194 1677 l 2187 1689 l 2178 1703 l 2168 1719 l 2155 1735 l
 2142 1749 l 2133 1756 l 2124 1761 l 2115 1763 l 2108 1764 l
 2101 1763 l 2096 1762 l 2091 1759 l 2086 1757 l 2082 1753 l
 2079 1750 l 2075 1746 l 2071 1742 l 2068 1738 l 2064 1733 l
 2060 1728 l 2057 1723 l 2053 1717 l 2050 1710 l 2048 1703 l
 2047 1695 l 2049 1683 l 2053 1671 l 2058 1659 l 2063 1648 l
 2068 1638 l 2073 1629 l 2079 1621 l 2084 1612 l 2090 1604 l
 2097 1597 l 2106 1590 l 2116 1585 l 2129 1582 l 2142 1583 l
 2155 1589 l 2168 1598 l 2178 1607 l 2187 1616 l 2194 1624 l
 2200 1631 l 2206 1638 l 2211 1646 l 2216 1654 l 2222 1666 l
 2227 1680 l 2232 1699 l 2236 1722 l 2238 1749 l 2236 1777 l
 2232 1802 l 2227 1824 l 2222 1842 l 2216 1856 l 2211 1868 l
 2206 1878 l 2200 1888 l 2194 1899 l 2187 1911 l 2178 1925 l
 2168 1941 l 2155 1957 l 2142 1971 l 2133 1978 l 2124 1983 l
 2115 1985 l 2108 1986 l 2101 1986 l 2096 1984 l 2091 1982 l
 2086 1979 l 2082 1976 l 2079 1972 l 2075 1969 l 2071 1965 l
 2068 1961 l 2064 1956 l 2060 1951 l 2057 1946 l 2053 1940 l
 2050 1933 l 2048 1926 l 2047 1918 l 2049 1906 l 2053 1893 l
 2058 1882 l 2063 1871 l 2068 1861 l 2073 1851 l 2079 1843 l
 2084 1834 l 2090 1826 l 2097 1818 l 2106 1811 l 2116 1806 l
 2129 1803 l 2142 1804 l 2155 1810 l 2168 1819 l 2178 1828 l
 2187 1837 l 2194 1845 l 2200 1852 l 2206 1859 l 2211 1867 l
 2216 1876 l 2222 1887 l 2227 1902 l 2232 1921 l 2236 1944 l
 2238 1971 l 2236 1999 l 2232 2024 l 2227 2046 l 2222 2064 l
 2216 2079 l 2211 2091 l 2206 2101 l 2200 2111 l 2194 2122 l
 2187 2134 l 2178 2148 l 2168 2164 l 2155 2180 l 2142 2194 l
 2132 2202 l 2122 2206 l 2113 2208 l 2105 2208 l 2098 2207 l
 2092 2204 l 2087 2201 l 2083 2197 l 2079 2193 l 2075 2189 l
 2071 2184 l 2067 2179 l 2062 2174 l 2058 2168 l 2054 2162 l
 2051 2154 l 2048 2146 l 2047 2137 l 2049 2125 l 2053 2112 l
 2058 2101 l 2063 2090 l 2068 2080 l 2073 2071 l 2079 2062 l
 2084 2054 l 2090 2046 l 2097 2038 l 2106 2032 l 2116 2026 l
 2129 2024 l 2142 2025 l 2155 2031 l 2168 2040 l 2178 2050 l
 2187 2059 l 2194 2067 l 2200 2075 l 2206 2082 l 2211 2089 l
 2216 2098 l 2222 2110 l 2227 2125 l 2232 2144 l 2236 2167 l
 2238 2194 l 2236 2222 l 2232 2247 l 2227 2269 l 2222 2287 l
 2216 2301 l 2211 2313 l 2206 2323 l 2200 2333 l 2194 2344 l
 2187 2356 l 2178 2370 l 2168 2385 l 2155 2401 l 2142 2415 l
 2132 2423 l 2122 2427 l 2113 2429 l 2105 2429 l 2098 2428 l
 2092 2426 l 2087 2423 l 2083 2419 l 2079 2415 l 2075 2411 l
 2071 2407 l 2067 2402 l 2062 2396 l 2058 2391 l 2054 2384 l
 2051 2377 l 2048 2369 l 2047 2360 l 2049 2348 l 2053 2335 l
 2058 2324 l 2063 2313 l 2068 2303 l 2073 2294 l 2079 2285 l
 2084 2277 l 2090 2269 l 2097 2262 l 2106 2255 l 2116 2249 l
 2129 2247 l 2142 2248 l 2155 2254 l 2168 2263 l 2178 2273 l
 2187 2283 l 2194 2291 l 2200 2300 l 2206 2308 l 2211 2316 l
 2216 2325 l 2222 2337 l 2227 2352 l 2232 2370 l 2236 2391 l
 2238 2415 l 2236 2439 l 2231 2462 l 2224 2482 l 2216 2500 l
 2206 2517 l 2195 2532 l 2184 2546 l 2173 2559 l 2163 2570 l
 2154 2579 l 2148 2585 l 2144 2589 l
 2142 2591 l gs col-1 s gr 
% here ends figure;
$F2psEnd
rs
showpage
%%Trailer
%EOF
