\relax 
\@writefile{lof}{\contentsline {figure}{\numberline {J.1}{\ignorespaces Mar\IeC {\'e}e}}{199}}
\newlabel{maree}{{J.1}{199}}
\@writefile{toc}{\contentsline {chapter}{\numberline {J}Mar\IeC {\'e}es}{199}}
\@writefile{lof}{\addvspace {10\p@ }}
\@writefile{lot}{\addvspace {10\p@ }}
\newlabel{chapmarees}{{J}{199}}
\@writefile{toc}{\contentsline {section}{\numberline {J.1}Introduction}{199}}
\@writefile{toc}{\contentsline {section}{\numberline {J.2}Centre de gravit\IeC {\'e}}{199}}
\@writefile{lof}{\contentsline {figure}{\numberline {J.2}{\ignorespaces Syst\IeC {\`e}me Terre-Lune\relax }}{200}}
\newlabel{systterrelune}{{J.2}{200}}
\newlabel{distgrav}{{J.1}{200}}
\@writefile{toc}{\contentsline {section}{\numberline {J.3}Force d'inertie}{200}}
\newlabel{acccentr}{{J.2}{200}}
\@writefile{toc}{\contentsline {subsection}{\numberline {J.3.1}Vitesse angulaire}{200}}
\@writefile{lof}{\contentsline {figure}{\numberline {J.3}{\ignorespaces Syst\IeC {\`e}me Terre-Lune-eau\relax }}{200}}
\newlabel{systterreluneeau}{{J.3}{200}}
\newlabel{omega}{{J.3}{200}}
\@writefile{toc}{\contentsline {subsection}{\numberline {J.3.2}Force d'inertie}{200}}
\newlabel{forceinertie}{{J.4}{200}}
\@writefile{toc}{\contentsline {section}{\numberline {J.4}Poids relatif}{201}}
\newlabel{Newacc}{{J.5}{201}}
\newlabel{DLmaree}{{J.6}{201}}
\newlabel{secondeloimaree}{{J.7}{201}}
\newlabel{forcedemareebalance}{{J.8}{201}}
\@writefile{toc}{\contentsline {section}{\numberline {J.5}Analyse diff\IeC {\'e}rentielle}{201}}
\@writefile{toc}{\contentsline {section}{\numberline {J.6}Autres rythmes}{201}}
\@writefile{lof}{\contentsline {figure}{\numberline {J.4}{\ignorespaces D\IeC {\'e}calage horaire}}{202}}
\newlabel{decalage}{{J.4}{202}}
\@writefile{toc}{\contentsline {subsection}{\numberline {J.6.1}D\IeC {\'e}calages}{202}}
\@writefile{toc}{\contentsline {subsection}{\numberline {J.6.2}Mar\IeC {\'e}es de vives et mortes eaux}{202}}
\@writefile{lof}{\contentsline {figure}{\numberline {J.5}{\ignorespaces Vives et mortes eaux}}{202}}
\newlabel{vivemorteeau}{{J.5}{202}}
\@writefile{toc}{\contentsline {subsection}{\numberline {J.6.3}Mar\IeC {\'e}es d'\IeC {\'e}quinoxes}{202}}
\citation{BS07}
\@writefile{toc}{\contentsline {subsection}{\numberline {J.6.4}Mar\IeC {\'e}es de p\IeC {\'e}rig\IeC {\'e}e et p\IeC {\'e}rih\IeC {\'e}lie}{203}}
\@writefile{toc}{\contentsline {subsection}{\numberline {J.6.5}Mar\IeC {\'e}es de d\IeC {\'e}clinaison}{203}}
\@writefile{toc}{\contentsline {subsection}{\numberline {J.6.6}Retards et mar\IeC {\'e}es c\IeC {\^o}ti\IeC {\`e}res}{203}}
\@writefile{toc}{\contentsline {section}{\numberline {J.7}Limite de Roche}{203}}
\newlabel{limroche}{{J.7}{203}}
\@writefile{lof}{\contentsline {figure}{\numberline {J.6}{\ignorespaces Limite de Roche}}{204}}
\newlabel{roche}{{J.6}{204}}
\@writefile{toc}{\contentsline {subsection}{\numberline {J.7.1}Mod\IeC {\`e}le simplifi\IeC {\'e}}{204}}
\@writefile{lof}{\contentsline {figure}{\numberline {J.7}{\ignorespaces Limite de Roche}}{205}}
\newlabel{limitederoche}{{J.7}{205}}
\@writefile{toc}{\contentsline {subsection}{\numberline {J.7.2}Exemples}{205}}
\@setckpt{Annexe-Maree/Annexe-Maree}{
\setcounter{page}{206}
\setcounter{equation}{10}
\setcounter{enumi}{2}
\setcounter{enumii}{0}
\setcounter{enumiii}{0}
\setcounter{enumiv}{0}
\setcounter{footnote}{0}
\setcounter{mpfootnote}{0}
\setcounter{part}{0}
\setcounter{chapter}{10}
\setcounter{section}{7}
\setcounter{subsection}{2}
\setcounter{subsubsection}{0}
\setcounter{paragraph}{0}
\setcounter{subparagraph}{0}
\setcounter{figure}{7}
\setcounter{table}{0}
\setcounter{NAT@ctr}{0}
\setcounter{parentequation}{0}
\setcounter{FancyVerbLine}{0}
\setcounter{float@type}{8}
\setcounter{fignum}{1}
\setcounter{r@tfl@t}{4}
\setcounter{subfigure}{0}
\setcounter{lofdepth}{1}
\setcounter{subtable}{0}
\setcounter{lotdepth}{1}
\setcounter{ContinuedFloat}{0}
\setcounter{endnote}{108}
\setcounter{OptionTest}{0}
\setcounter{DefaultLines}{2}
\setcounter{DefaultDepth}{0}
\setcounter{L@lines}{3}
\setcounter{L@depth}{0}
\setcounter{lstnumber}{1}
\setcounter{Solution}{0}
\setcounter{exc}{0}
\setcounter{Solution OS}{0}
\setcounter{exosc}{0}
\setcounter{lstlisting}{0}
}
