\relax 
\newlabel{Mvt2dim}{{M}{167}}
\@writefile{toc}{\contentsline {chapter}{\numberline {M}M\IeC {\'e}canique en plusieurs dimensions}{167}}
\@writefile{lof}{\addvspace {10\p@ }}
\@writefile{lot}{\addvspace {10\p@ }}
\@writefile{toc}{\contentsline {section}{\numberline {M.1}Pr\IeC {\'e}liminaires}{167}}
\@writefile{toc}{\contentsline {subsection}{\numberline {M.1.1}Dimensions}{167}}
\@writefile{toc}{\contentsline {subsection}{\numberline {M.1.2}Syst\IeC {\`e}me d'axes}{167}}
\@writefile{toc}{\contentsline {section}{\numberline {M.2}Notion de vecteur en physique}{167}}
\@writefile{toc}{\contentsline {subsection}{\numberline {M.2.1}Norme d'un vecteur}{167}}
\@writefile{toc}{\contentsline {subsection}{\numberline {M.2.2}Op\IeC {\'e}rations vectorielles}{168}}
\@writefile{toc}{\contentsline {subsubsection}{produit scalaire}{168}}
\@writefile{toc}{\contentsline {subsubsection}{Produit vectoriel}{168}}
\@writefile{toc}{\contentsline {section}{\numberline {M.3}M\IeC {\'e}canique}{168}}
\@writefile{toc}{\contentsline {subsection}{\numberline {M.3.1}Cin\IeC {\'e}matique}{168}}
\@writefile{toc}{\contentsline {subsubsection}{Position}{168}}
\@writefile{toc}{\contentsline {subsubsection}{Vitesse}{169}}
\newlabel{vitinstant}{{M.2}{169}}
\@writefile{toc}{\contentsline {subsubsection}{Acc\IeC {\'e}l\IeC {\'e}ration}{169}}
\newlabel{accinstant}{{M.4}{169}}
\@writefile{toc}{\contentsline {subsection}{\numberline {M.3.2}Dynamique}{169}}
\@writefile{toc}{\contentsline {subsubsection}{Premi\IeC {\`e}re loi}{169}}
\@writefile{toc}{\contentsline {subsubsection}{Seconde loi}{169}}
\@writefile{toc}{\contentsline {subsubsection}{Troisi\IeC {\`e}me loi}{169}}
\@writefile{toc}{\contentsline {section}{\numberline {M.4}Exemples}{169}}
\@writefile{toc}{\contentsline {subsection}{\numberline {M.4.1}Statique}{169}}
\@writefile{lof}{\contentsline {figure}{\numberline {M.1}{\ignorespaces \IeC {\'E}quilibre statique}}{170}}
\newlabel{ballon}{{M.1}{170}}
\@writefile{lof}{\contentsline {figure}{\numberline {M.2}{\ignorespaces Le plan inclin\IeC {\'e}}}{170}}
\newlabel{planincline}{{M.2}{170}}
\@writefile{toc}{\contentsline {subsection}{\numberline {M.4.2}Plan inclin\IeC {\'e}}{170}}
\@writefile{lof}{\contentsline {figure}{\numberline {M.3}{\ignorespaces Le plan inclin\IeC {\'e}}}{171}}
\newlabel{planincline2}{{M.3}{171}}
\@writefile{lof}{\contentsline {figure}{\numberline {M.4}{\ignorespaces Tir balistique}}{172}}
\newlabel{tirbalistique}{{M.4}{172}}
\@writefile{toc}{\contentsline {subsection}{\numberline {M.4.3}Balistique}{172}}
\newlabel{Port\IeC {\'e}e}{{M.8}{173}}
\newlabel{deuxangles}{{M.5(a)}{174}}
\newlabel{sub@deuxangles}{{(a)}{174}}
\newlabel{unangle}{{M.5(b)}{174}}
\newlabel{sub@unangle}{{(b)}{174}}
\@writefile{lof}{\contentsline {figure}{\numberline {M.5}{\ignorespaces Tirs balistiques}}{174}}
\@writefile{lof}{\contentsline {subfigure}{\numberline{(a)}{\ignorespaces {Deux angles}}}{174}}
\@writefile{lof}{\contentsline {subfigure}{\numberline{(b)}{\ignorespaces {Un angle}}}{174}}
\newlabel{tir}{{M.5}{174}}
\@writefile{lof}{\contentsline {figure}{\numberline {M.6}{\ignorespaces Parabole de s\IeC {\'e}curit\IeC {\'e}}}{174}}
\newlabel{parabolesecurite}{{M.6}{174}}
\@writefile{toc}{\contentsline {subsection}{\numberline {M.4.4}Mouvement circulaire uniforme : MCU}{174}}
\@writefile{toc}{\contentsline {subsubsection}{D\IeC {\'e}finition}{174}}
\@writefile{toc}{\contentsline {subsubsection}{Cin\IeC {\'e}matique}{174}}
\@writefile{toc}{\contentsline {subsubsection}{Relation importante}{175}}
\@writefile{lof}{\contentsline {figure}{\numberline {M.7}{\ignorespaces Mouvement circulaire uniforme}}{175}}
\newlabel{MCU}{{M.7}{175}}
\@writefile{toc}{\contentsline {subsubsection}{Dynamique}{176}}
\@writefile{toc}{\contentsline {subsubsection}{Virages inclin\IeC {\'e}s}{176}}
\@writefile{toc}{\contentsline {paragraph}{Vitesses minimales}{176}}
\@writefile{lof}{\contentsline {figure}{\numberline {M.8}{\ignorespaces Virages inclin\IeC {\'e} : vitesse minimale}}{176}}
\newlabel{viragesvmin0}{{M.8}{176}}
\@writefile{lof}{\contentsline {figure}{\numberline {M.9}{\ignorespaces Virages inclin\IeC {\'e} : vitesses minimale}}{176}}
\newlabel{viragesvminpas0}{{M.9}{176}}
\@writefile{toc}{\contentsline {paragraph}{Vitesses maximales}{177}}
\@writefile{lof}{\contentsline {figure}{\numberline {M.10}{\ignorespaces Virages inclin\IeC {\'e} : vitesse maximale}}{177}}
\newlabel{viragesvmaxfinie}{{M.10}{177}}
\citation{GC88}
\@writefile{toc}{\contentsline {subsection}{\numberline {M.4.5}Satellite en orbite g\IeC {\'e}ostationnaire}{178}}
\newlabel{geostat}{{M.4.5}{178}}
\@writefile{toc}{\contentsline {subsubsection}{Introduction}{178}}
\@writefile{toc}{\contentsline {subsubsection}{Th\IeC {\'e}oriquement}{178}}
\@writefile{toc}{\contentsline {subsubsection}{Num\IeC {\'e}riquement}{178}}
\@writefile{toc}{\contentsline {subsection}{\numberline {M.4.6}Mouvement central}{178}}
\@writefile{toc}{\contentsline {subsubsection}{Mouvement kepleriens}{179}}
\@writefile{toc}{\contentsline {subsubsection}{Loi de Kepler}{179}}
\@setckpt{Annexe-MecaniqueDim/Annexe-MecaniqueDim}{
\setcounter{page}{180}
\setcounter{equation}{9}
\setcounter{enumi}{3}
\setcounter{enumii}{0}
\setcounter{enumiii}{0}
\setcounter{enumiv}{0}
\setcounter{footnote}{2}
\setcounter{mpfootnote}{0}
\setcounter{part}{0}
\setcounter{chapter}{13}
\setcounter{section}{4}
\setcounter{subsection}{6}
\setcounter{subsubsection}{0}
\setcounter{paragraph}{0}
\setcounter{subparagraph}{0}
\setcounter{figure}{10}
\setcounter{table}{0}
\setcounter{FancyVerbLine}{0}
\setcounter{float@type}{8}
\setcounter{r@tfl@t}{4}
\setcounter{subfigure}{0}
\setcounter{lofdepth}{1}
\setcounter{subtable}{0}
\setcounter{lotdepth}{1}
\setcounter{parentequation}{0}
\setcounter{endnote}{65}
\setcounter{OptionTest}{0}
\setcounter{DefaultLines}{2}
\setcounter{L@lines}{3}
\setcounter{lstlisting}{0}
\setcounter{lstnumber}{1}
\setcounter{ex}{71}
}
