%!PS-Adobe-3.0 EPSF-3.0
%%Creator: inkscape 0.44.1
%%Pages: 1
%%Orientation: Portrait
%%BoundingBox: 19 732 164 834
%%HiResBoundingBox: 19.550728 732.94101 163.97065 833.69734
%%DocumentMedia: plain 596 842 0 () ()
%%EndComments
%%Page: 1 1
0 842 translate
0.8 -0.8 scale
gsave [1 0 0 1 0 0] concat
0 0 0 setrgbcolor
[] 0 setdash
0.35433072 setlinewidth
0 setlinejoin
0 setlinecap
newpath
25.232523 92.33766 moveto
202.14049 92.33766 lineto
stroke
gsave [-0.14173229 0 0 -0.14173229 200.72317 92.33766] concat
gsave
0 0 0 setrgbcolor
newpath
0 0 moveto
5 -5 lineto
-12.5 0 lineto
5 5 lineto
0 0 lineto
closepath
eofill
grestore
0 0 0 setrgbcolor
[] 0 setdash
1.25 setlinewidth
0 setlinejoin
0 setlinecap
newpath
0 0 moveto
5 -5 lineto
-12.5 0 lineto
5 5 lineto
0 0 lineto
closepath
stroke
grestore
0 0 0 setrgbcolor
[] 0 setdash
0.35433072 setlinewidth
0 setlinejoin
0 setlinecap
newpath
25.232523 15.906967 moveto
25.409329 136.00876 lineto
stroke
gsave [0.00020864877 0.14173213 -0.14173213 0.00020864877 25.234609 17.324288] concat
gsave
0 0 0 setrgbcolor
newpath
0 0 moveto
5 -5 lineto
-12.5 0 lineto
5 5 lineto
0 0 lineto
closepath
eofill
grestore
0 0 0 setrgbcolor
[] 0 setdash
1.25 setlinewidth
0 setlinejoin
0 setlinecap
newpath
0 0 moveto
5 -5 lineto
-12.5 0 lineto
5 5 lineto
0 0 lineto
closepath
stroke
grestore
0 0 0 setrgbcolor
[] 0 setdash
0.70866144 setlinewidth
0 setlinejoin
0 setlinecap
newpath
35 135.44591 moveto
65 92.362183 lineto
95 92.362183 lineto
140 37.362183 lineto
170.44105 37.362183 lineto
179.45816 29.715886 lineto
stroke
gsave [1 0 0 -1 29.139126 17.384064] concat
gsave
/newlatin1font {findfont dup length dict copy dup /Encoding ISOLatin1Encoding put definefont} def
/(Thryomanes-ISOLatin1) /(Thryomanes) newlatin1font
10 scalefont
setfont
0 0 0 setrgbcolor
newpath
0 0 moveto
(T) show
grestore
grestore
gsave [1 0 0 -1 191.12737 86.824242] concat
gsave
/(Thryomanes-ISOLatin1) findfont
10 scalefont
setfont
0 0 0 setrgbcolor
newpath
0 0 moveto
(t) show
grestore
grestore
gsave [1 0 0 -1 64.711021 84.525764] concat
gsave
/(Thryomanes-ISOLatin1) findfont
10 scalefont
setfont
0 0 0 setrgbcolor
newpath
0 0 moveto
(Palier) show
grestore
grestore
gsave [1 0 0 -1 64.808678 105.21208] concat
gsave
/(Thryomanes-ISOLatin1) findfont
10 scalefont
setfont
0 0 0 setrgbcolor
newpath
0 0 moveto
(de fusion) show
grestore
grestore
gsave [1 0 0 -1 27.758553 89.452026] concat
gsave
/(Thryomanes-ISOLatin1) findfont
10 scalefont
setfont
0 0 0 setrgbcolor
newpath
0 0 moveto
(0) show
grestore
grestore
gsave [1 0 0 -1 141.09125 30.069498] concat
gsave
/(Thryomanes-ISOLatin1) findfont
10 scalefont
setfont
0 0 0 setrgbcolor
newpath
0 0 moveto
(Palier) show
grestore
grestore
gsave [1 0 0 -1 141.1889 51.99345] concat
gsave
/(Thryomanes-ISOLatin1) findfont
10 scalefont
setfont
0 0 0 setrgbcolor
newpath
0 0 moveto
(de vaporisation) show
grestore
grestore
0 0 0 setrgbcolor
[2.2728864 2.2728864] 0 setdash
0.28411081 setlinewidth
0 setlinejoin
0 setlinecap
newpath
25.876485 37.220127 moveto
139.6144 37.220127 lineto
stroke
gsave [1 0 0 -1 28.819389 34.489651] concat
gsave
/(Thryomanes-ISOLatin1) findfont
10 scalefont
setfont
0 0 0 setrgbcolor
newpath
0 0 moveto
(100) show
grestore
grestore
gsave [1 0 0 -1 46.70826 132.61702] concat
gsave
/(Thryomanes-ISOLatin1) findfont
10 scalefont
setfont
0 0 0 setrgbcolor
newpath
0 0 moveto
(glace) show
grestore
grestore
gsave [1 0 0 -1 117.45147 77.578476] concat
gsave
/(Thryomanes-ISOLatin1) findfont
10 scalefont
setfont
0 0 0 setrgbcolor
newpath
0 0 moveto
(eau) show
grestore
grestore
gsave [1 0 0 -1 175.56842 21.229195] concat
gsave
/(Thryomanes-ISOLatin1) findfont
10 scalefont
setfont
0 0 0 setrgbcolor
newpath
0 0 moveto
(vapeur) show
grestore
grestore
gsave [1 0 0 -1 141.1889 64.016266] concat
gsave
/(Thryomanes-ISOLatin1) findfont
10 scalefont
setfont
0 0 0 setrgbcolor
newpath
0 0 moveto
(de liqu\351faction) show
grestore
grestore
gsave [1 0 0 -1 64.808678 116.35086] concat
gsave
/(Thryomanes-ISOLatin1) findfont
10 scalefont
setfont
0 0 0 setrgbcolor
newpath
0 0 moveto
(de solidification) show
grestore
grestore
grestore
showpage
%%EOF
