\relax 
\@writefile{toc}{\contentsline {chapter}{\numberline {P}L'\IeC {\'e}nergie}{193}}
\@writefile{lof}{\addvspace {10\p@ }}
\@writefile{lot}{\addvspace {10\p@ }}
\@writefile{toc}{\contentsline {section}{\numberline {P.1}Introduction}{193}}
\@writefile{lof}{\contentsline {figure}{\numberline {P.1}{\ignorespaces \IeC {\'E}nergie et vitesse}}{193}}
\newlabel{energie}{{P.1}{193}}
\@writefile{toc}{\contentsline {section}{\numberline {P.2}Le travail}{193}}
\newlabel{historiquement}{{P.2.1}{193}}
\@writefile{toc}{\contentsline {subsection}{\numberline {P.2.1}Historiquement}{193}}
\@writefile{lof}{\contentsline {figure}{\numberline {P.2}{\ignorespaces Balance \IeC {\`a} fl\IeC {\'e}au}}{193}}
\newlabel{balance}{{P.2}{193}}
\@writefile{toc}{\contentsline {subsection}{\numberline {P.2.2}D\IeC {\'e}finition}{194}}
\@writefile{toc}{\contentsline {subsubsection}{Travail simple}{194}}
\@writefile{lof}{\contentsline {figure}{\numberline {P.3}{\ignorespaces Travail simple}}{194}}
\newlabel{travailsimple}{{P.3}{194}}
\@writefile{toc}{\contentsline {subsubsection}{Travail et produit scalaire}{194}}
\@writefile{lof}{\contentsline {figure}{\numberline {P.4}{\ignorespaces Travail et produit scalaire}}{194}}
\newlabel{travailvecteur}{{P.4}{194}}
\@writefile{toc}{\contentsline {subsubsection}{Travail cas g\IeC {\'e}n\IeC {\'e}ral}{194}}
\@writefile{lof}{\contentsline {figure}{\numberline {P.5}{\ignorespaces Travail en g\IeC {\'e}n\IeC {\'e}ral}}{195}}
\newlabel{travailgeneral}{{P.5}{195}}
\@writefile{toc}{\contentsline {section}{\numberline {P.3}L'\IeC {\'e}nergie}{195}}
\@writefile{toc}{\contentsline {subsection}{\numberline {P.3.1}Introduction}{195}}
\@writefile{toc}{\contentsline {subsection}{\numberline {P.3.2}\IeC {\'E}nergie potentielle}{196}}
\newlabel{\IeC {\'e}nergie cin\IeC {\'e}tique}{{P.3.3}{196}}
\@writefile{toc}{\contentsline {subsection}{\numberline {P.3.3}\IeC {\'E}nergie cin\IeC {\'e}tique}{196}}
\@writefile{toc}{\contentsline {subsection}{\numberline {P.3.4}\IeC {\'E}nergie m\IeC {\'e}canique}{196}}
\@writefile{toc}{\contentsline {subsection}{\numberline {P.3.5}Exemple}{196}}
\@writefile{toc}{\contentsline {section}{\numberline {P.4}Conservation de l'\IeC {\'e}nergie}{197}}
\@writefile{toc}{\contentsline {subsection}{\numberline {P.4.1}Introduction}{197}}
\@writefile{toc}{\contentsline {subsection}{\numberline {P.4.2}Th\IeC {\'e}or\IeC {\`e}me de conservation de l'\IeC {\'e}nergie m\IeC {\'e}canique}{197}}
\@writefile{toc}{\contentsline {subsection}{\numberline {P.4.3}Exemples}{197}}
\@writefile{toc}{\contentsline {section}{\numberline {P.5}Limite du th\IeC {\'e}or\IeC {\`e}me de conservation de l'\IeC {\'e}nergie m\IeC {\'e}canique}{198}}
\@writefile{toc}{\contentsline {section}{\numberline {P.6}Forces conservatives}{198}}
\newlabel{conservatives}{{P.6}{198}}
\@writefile{toc}{\contentsline {subsection}{\numberline {P.6.1}D\IeC {\'e}finition}{198}}
\@writefile{toc}{\contentsline {subsection}{\numberline {P.6.2}Exemple}{198}}
\@writefile{lof}{\contentsline {figure}{\numberline {P.6}{\ignorespaces Travail du poids}}{199}}
\newlabel{travailferme}{{P.6}{199}}
\@setckpt{Annexe-EnergieOS/Annexe-EnergieOS}{
\setcounter{page}{200}
\setcounter{equation}{0}
\setcounter{enumi}{2}
\setcounter{enumii}{0}
\setcounter{enumiii}{0}
\setcounter{enumiv}{0}
\setcounter{footnote}{0}
\setcounter{mpfootnote}{0}
\setcounter{part}{0}
\setcounter{chapter}{16}
\setcounter{section}{6}
\setcounter{subsection}{2}
\setcounter{subsubsection}{0}
\setcounter{paragraph}{0}
\setcounter{subparagraph}{0}
\setcounter{figure}{6}
\setcounter{table}{0}
\setcounter{FancyVerbLine}{0}
\setcounter{float@type}{8}
\setcounter{r@tfl@t}{4}
\setcounter{subfigure}{0}
\setcounter{lofdepth}{1}
\setcounter{subtable}{0}
\setcounter{lotdepth}{1}
\setcounter{parentequation}{0}
\setcounter{endnote}{65}
\setcounter{OptionTest}{0}
\setcounter{DefaultLines}{2}
\setcounter{L@lines}{3}
\setcounter{lstlisting}{0}
\setcounter{lstnumber}{1}
\setcounter{ex}{71}
}
