<?xml version="1.0" encoding="UTF-8" standalone="no"?>
<!-- Created with Inkscape (http://www.inkscape.org/) -->
<svg
   xmlns:dc="http://purl.org/dc/elements/1.1/"
   xmlns:cc="http://web.resource.org/cc/"
   xmlns:rdf="http://www.w3.org/1999/02/22-rdf-syntax-ns#"
   xmlns:svg="http://www.w3.org/2000/svg"
   xmlns="http://www.w3.org/2000/svg"
   xmlns:sodipodi="http://sodipodi.sourceforge.net/DTD/sodipodi-0.dtd"
   xmlns:inkscape="http://www.inkscape.org/namespaces/inkscape"
   width="210mm"
   height="297mm"
   id="svg2"
   sodipodi:version="0.32"
   inkscape:version="0.44.1"
   sodipodi:docbase="/home/guyotv/Documents/echange/Cours/Final/CoursOSDF/Dessins"
   sodipodi:docname="DiagPVEss.svg">
  <defs
     id="defs4">
    <marker
       inkscape:stockid="Arrow1Lend"
       orient="auto"
       refY="0.0"
       refX="0.0"
       id="Arrow1Lend"
       style="overflow:visible;">
      <path
         id="path3017"
         d="M 0.0,0.0 L 5.0,-5.0 L -12.5,0.0 L 5.0,5.0 L 0.0,0.0 z "
         style="fill-rule:evenodd;stroke:#000000;stroke-width:1.0pt;marker-start:none;"
         transform="scale(0.8) rotate(180) translate(12.5,0)" />
    </marker>
    <marker
       inkscape:stockid="Arrow1Mend"
       orient="auto"
       refY="0.0"
       refX="0.0"
       id="Arrow1Mend"
       style="overflow:visible;">
      <path
         id="path2926"
         d="M 0.0,0.0 L 5.0,-5.0 L -12.5,0.0 L 5.0,5.0 L 0.0,0.0 z "
         style="fill-rule:evenodd;stroke:#000000;stroke-width:1.0pt;marker-start:none;"
         transform="scale(0.4) rotate(180) translate(10,0)" />
    </marker>
    <marker
       inkscape:stockid="Arrow1Mstart"
       orient="auto"
       refY="0.0"
       refX="0.0"
       id="Arrow1Mstart"
       style="overflow:visible">
      <path
         id="path2929"
         d="M 0.0,0.0 L 5.0,-5.0 L -12.5,0.0 L 5.0,5.0 L 0.0,0.0 z "
         style="fill-rule:evenodd;stroke:#000000;stroke-width:1.0pt;marker-start:none"
         transform="scale(0.4) translate(10,0)" />
    </marker>
  </defs>
  <sodipodi:namedview
     id="base"
     pagecolor="#ffffff"
     bordercolor="#666666"
     borderopacity="1.0"
     inkscape:pageopacity="0.0"
     inkscape:pageshadow="2"
     inkscape:zoom="5.5592382"
     inkscape:cx="112.85714"
     inkscape:cy="978.67618"
     inkscape:document-units="cm"
     inkscape:current-layer="layer1"
     inkscape:window-width="1672"
     inkscape:window-height="1017"
     inkscape:window-x="0"
     inkscape:window-y="0" />
  <metadata
     id="metadata7">
    <rdf:RDF>
      <cc:Work
         rdf:about="">
        <dc:format>image/svg+xml</dc:format>
        <dc:type
           rdf:resource="http://purl.org/dc/dcmitype/StillImage" />
      </cc:Work>
    </rdf:RDF>
  </metadata>
  <g
     inkscape:label="Calque 1"
     inkscape:groupmode="layer"
     id="layer1">
    <path
       style="fill:none;fill-opacity:0.75;fill-rule:evenodd;stroke:black;stroke-width:0.70866142;stroke-linecap:butt;stroke-linejoin:miter;stroke-opacity:1;stroke-miterlimit:4;stroke-dasharray:none;marker-start:url(#Arrow1Mstart);marker-end:url(#Arrow1Mend)"
       d="M 32.198656,16.968514 L 32.198656,130.47328 L 199.84753,130.47328"
       id="path1874" />
    <path
       style="fill:none;fill-opacity:0.75;fill-rule:evenodd;stroke:black;stroke-width:0.70866142;stroke-linecap:butt;stroke-linejoin:miter;marker-mid:none;stroke-miterlimit:4;stroke-dasharray:none;stroke-opacity:1"
       d="M 71.853832,41.873467 C 121.6808,62.020112 121.51314,62.020112 174.94257,62.020112 L 174.94257,106.10796 C 120.4384,106.10796 120.51448,106.10796 72.126554,85.601553 L 71.853832,41.873467 z "
       id="path2944"
       sodipodi:nodetypes="ccccc" />
    <path
       sodipodi:type="arc"
       style="opacity:1;fill:none;fill-opacity:1;fill-rule:evenodd;stroke:black;stroke-width:0.70866144;stroke-linecap:round;stroke-linejoin:round;stroke-miterlimit:4;stroke-dasharray:none;stroke-dashoffset:0;stroke-opacity:1"
       id="path2946"
       sodipodi:cx="42.72168"
       sodipodi:cy="47.638184"
       sodipodi:rx="0.44970191"
       sodipodi:ry="0.44970191"
       d="M 42.387278,47.938861 A 0.44970191,0.44970191 0 1 1 42.393851,47.946015"
       sodipodi:start="2.4092472"
       sodipodi:end="8.6708271"
       sodipodi:open="true"
       transform="matrix(2.118757,0,0,2.118517,-18.83438,-58.68067)" />
    <path
       transform="matrix(2.118757,0,0,2.118517,84.41718,-39.07367)"
       sodipodi:open="true"
       sodipodi:end="8.6708271"
       sodipodi:start="2.4092472"
       d="M 42.387278,47.938861 A 0.44970191,0.44970191 0 1 1 42.393851,47.946015"
       sodipodi:ry="0.44970191"
       sodipodi:rx="0.44970191"
       sodipodi:cy="47.638184"
       sodipodi:cx="42.72168"
       id="path2948"
       style="opacity:1;fill:none;fill-opacity:1;fill-rule:evenodd;stroke:black;stroke-width:0.70866144;stroke-linecap:round;stroke-linejoin:round;stroke-miterlimit:4;stroke-dasharray:none;stroke-dashoffset:0;stroke-opacity:1"
       sodipodi:type="arc" />
    <path
       sodipodi:type="arc"
       style="opacity:1;fill:none;fill-opacity:1;fill-rule:evenodd;stroke:black;stroke-width:0.70866144;stroke-linecap:round;stroke-linejoin:round;stroke-miterlimit:4;stroke-dasharray:none;stroke-dashoffset:0;stroke-opacity:1"
       id="path2950"
       sodipodi:cx="42.72168"
       sodipodi:cy="47.638184"
       sodipodi:rx="0.44970191"
       sodipodi:ry="0.44970191"
       d="M 42.387278,47.938861 A 0.44970191,0.44970191 0 1 1 42.393851,47.946015"
       sodipodi:start="2.4092472"
       sodipodi:end="8.6708271"
       sodipodi:open="true"
       transform="matrix(2.118757,0,0,2.118517,84.41718,4.997121)" />
    <path
       transform="matrix(2.118757,0,0,2.118517,-18.47462,-15.50929)"
       sodipodi:open="true"
       sodipodi:end="8.6708271"
       sodipodi:start="2.4092472"
       d="M 42.387278,47.938861 A 0.44970191,0.44970191 0 1 1 42.393851,47.946015"
       sodipodi:ry="0.44970191"
       sodipodi:rx="0.44970191"
       sodipodi:cy="47.638184"
       sodipodi:cx="42.72168"
       id="path2952"
       style="opacity:1;fill:none;fill-opacity:1;fill-rule:evenodd;stroke:black;stroke-width:0.70866144;stroke-linecap:round;stroke-linejoin:round;stroke-miterlimit:4;stroke-dasharray:none;stroke-dashoffset:0;stroke-opacity:1"
       sodipodi:type="arc" />
    <path
       style="fill:none;fill-opacity:0.75;fill-rule:evenodd;stroke:black;stroke-width:0.70866144;stroke-linecap:butt;stroke-linejoin:miter;marker-start:none;marker-end:url(#Arrow1Mend);stroke-miterlimit:4;stroke-dasharray:none;stroke-opacity:1"
       d="M 71.952305,85.682965 L 71.952305,67.155247"
       id="path2970" />
    <path
       style="fill:none;fill-opacity:0.75;fill-rule:evenodd;stroke:black;stroke-width:0.70866144;stroke-linecap:butt;stroke-linejoin:miter;marker-start:none;marker-end:url(#Arrow1Mend);stroke-miterlimit:4;stroke-dasharray:none;stroke-opacity:1"
       d="M 175.02398,65.180632 L 175.02398,83.708349"
       id="path2972" />
    <path
       style="fill:none;fill-opacity:0.75;fill-rule:evenodd;stroke:black;stroke-width:0.70866144;stroke-linecap:butt;stroke-linejoin:miter;marker-start:none;marker-end:url(#Arrow1Mend);stroke-miterlimit:4;stroke-dasharray:none;stroke-opacity:1"
       d="M 151.98666,61.938705 L 155.15868,61.938705"
       id="path2974" />
    <path
       style="fill:none;fill-opacity:0.75;fill-rule:evenodd;stroke:black;stroke-width:0.70866144;stroke-linecap:butt;stroke-linejoin:miter;marker-start:none;marker-end:url(#Arrow1Mend);stroke-miterlimit:4;stroke-dasharray:none;stroke-opacity:1"
       d="M 97.563705,96.06963 L 95.090751,94.924209"
       id="path2976"
       inkscape:transform-center-y="1.5346016"
       inkscape:transform-center-x="0.92693582" />
    <text
       xml:space="preserve"
       style="font-size:10px;font-style:normal;font-variant:normal;font-weight:normal;font-stretch:normal;text-align:start;line-height:100%;writing-mode:lr-tb;text-anchor:start;fill:black;fill-opacity:1;stroke:none;stroke-width:1px;stroke-linecap:butt;stroke-linejoin:miter;stroke-opacity:1;font-family:Thryomanes"
       x="195.5304"
       y="124.53721"
       id="text2994"
       sodipodi:linespacing="100%"><tspan
         sodipodi:role="line"
         id="tspan2996"
         x="195.5304"
         y="124.53721">V/m</tspan></text>
    <text
       xml:space="preserve"
       style="font-size:10px;font-style:normal;font-variant:normal;font-weight:normal;font-stretch:normal;text-align:start;line-height:100%;writing-mode:lr-tb;text-anchor:start;fill:black;fill-opacity:1;stroke:none;stroke-width:1px;stroke-linecap:butt;stroke-linejoin:miter;stroke-opacity:1;font-family:Thryomanes"
       x="38.134724"
       y="20.38625"
       id="text2998"
       sodipodi:linespacing="100%"><tspan
         sodipodi:role="line"
         id="tspan3000"
         x="38.134724"
         y="20.38625">p/bar</tspan></text>
    <path
       style="fill:none;fill-opacity:0.75;fill-rule:evenodd;stroke:black;stroke-width:0.37992683;stroke-linecap:butt;stroke-linejoin:miter;stroke-miterlimit:4;stroke-dasharray:3.03941448, 3.03941448;stroke-dashoffset:0;stroke-opacity:1"
       d="M 72.222126,85.831377 L 72.222126,130.50475"
       id="path3002" />
    <path
       style="fill:none;fill-opacity:0.75;fill-rule:evenodd;stroke:black;stroke-width:0.35433072;stroke-linecap:butt;stroke-linejoin:miter;stroke-miterlimit:4;stroke-dasharray:2.83464567, 2.83464567;stroke-dashoffset:0;stroke-opacity:1"
       d="M 174.8441,106.09943 L 174.8441,130.38334"
       id="path3004" />
    <path
       style="fill:none;fill-opacity:0.75;fill-rule:evenodd;stroke:black;stroke-width:0.60113013;stroke-linecap:butt;stroke-linejoin:miter;stroke-miterlimit:4;stroke-dasharray:none;stroke-dashoffset:0;stroke-opacity:1"
       d="M 72.335187,105.64973 L 174.28133,105.64973"
       id="path3006" />
    <path
       style="fill:none;fill-opacity:0.75;fill-rule:evenodd;stroke:black;stroke-width:1.08059776;stroke-linecap:butt;stroke-linejoin:miter;marker-end:url(#Arrow1Mend);stroke-miterlimit:4;stroke-dasharray:none;stroke-opacity:1"
       d="M 123.83975,68.484692 L 123.83975,46.257794"
       id="path1949" />
    <path
       id="path3023"
       d="M 51.407042,63.056856 L 92.239977,63.056856"
       style="fill:none;fill-opacity:0.75;fill-rule:evenodd;stroke:black;stroke-width:2.48031497;stroke-linecap:butt;stroke-linejoin:miter;marker-end:url(#Arrow1Mend);stroke-miterlimit:4;stroke-dasharray:none;stroke-opacity:1" />
    <path
       style="fill:none;fill-opacity:0.75;fill-rule:evenodd;stroke:black;stroke-width:2.12598419;stroke-linecap:butt;stroke-linejoin:miter;marker-end:url(#Arrow1Mend);stroke-miterlimit:4;stroke-dasharray:none;stroke-opacity:1"
       d="M 156.81717,88.420043 L 197.65011,88.420043"
       id="path3029" />
    <path
       id="path3039"
       d="M 89.482535,100.63821 L 89.482535,84.330113"
       style="fill:none;fill-opacity:0.75;fill-rule:evenodd;stroke:black;stroke-width:0.70348704;stroke-linecap:butt;stroke-linejoin:miter;marker-end:url(#Arrow1Mend);stroke-miterlimit:4;stroke-dasharray:none;stroke-opacity:1" />
    <text
       xml:space="preserve"
       style="font-size:10px;font-style:normal;font-variant:normal;font-weight:normal;font-stretch:normal;text-align:start;line-height:100%;writing-mode:lr-tb;text-anchor:start;fill:black;fill-opacity:1;stroke:none;stroke-width:1px;stroke-linecap:butt;stroke-linejoin:miter;stroke-opacity:1;font-family:Thryomanes"
       x="170.16721"
       y="145.2235"
       id="text2816"
       sodipodi:linespacing="100%"><tspan
         sodipodi:role="line"
         id="tspan2818"
         x="170.16721"
         y="145.2235">V1</tspan></text>
    <text
       xml:space="preserve"
       style="font-size:10px;font-style:normal;font-variant:normal;font-weight:normal;font-stretch:normal;text-align:start;line-height:100%;writing-mode:lr-tb;text-anchor:start;fill:black;fill-opacity:1;stroke:none;stroke-width:1px;stroke-linecap:butt;stroke-linejoin:miter;stroke-opacity:1;font-family:Thryomanes"
       x="67.275406"
       y="144.3241"
       id="text2820"
       sodipodi:linespacing="100%"><tspan
         sodipodi:role="line"
         id="tspan2822"
         x="67.275406"
         y="144.3241">V2</tspan></text>
    <text
       xml:space="preserve"
       style="font-size:10px;font-style:normal;font-variant:normal;font-weight:normal;font-stretch:normal;text-align:start;line-height:100%;writing-mode:lr-tb;text-anchor:start;fill:black;fill-opacity:1;stroke:none;stroke-width:1px;stroke-linecap:butt;stroke-linejoin:miter;stroke-opacity:1;font-family:Thryomanes"
       x="130.41354"
       y="55.283119"
       id="text2846"
       sodipodi:linespacing="100%"><tspan
         sodipodi:role="line"
         id="tspan2848"
         x="130.41354"
         y="55.283119">A</tspan></text>
    <text
       xml:space="preserve"
       style="font-size:10px;font-style:normal;font-variant:normal;font-weight:normal;font-stretch:normal;text-align:start;line-height:100%;writing-mode:lr-tb;text-anchor:start;fill:black;fill-opacity:1;stroke:none;stroke-width:1px;stroke-linecap:butt;stroke-linejoin:miter;stroke-opacity:1;font-family:Thryomanes"
       x="93.178238"
       y="88.201302"
       id="text2850"
       sodipodi:linespacing="100%"><tspan
         sodipodi:role="line"
         id="tspan2852"
         x="93.178238"
         y="88.201302">A</tspan></text>
    <text
       xml:space="preserve"
       style="font-size:10px;font-style:normal;font-variant:normal;font-weight:normal;font-stretch:normal;text-align:start;line-height:100%;writing-mode:lr-tb;text-anchor:start;fill:black;fill-opacity:1;stroke:none;stroke-width:1px;stroke-linecap:butt;stroke-linejoin:miter;stroke-opacity:1;font-family:Thryomanes"
       x="41.552456"
       y="54.743477"
       id="text2854"
       sodipodi:linespacing="100%"><tspan
         sodipodi:role="line"
         id="tspan2856"
         x="41.552456"
         y="54.743477">Q1</tspan></text>
    <text
       xml:space="preserve"
       style="font-size:10px;font-style:normal;font-variant:normal;font-weight:normal;font-stretch:normal;text-align:start;line-height:100%;writing-mode:lr-tb;text-anchor:start;fill:black;fill-opacity:1;stroke:none;stroke-width:1px;stroke-linecap:butt;stroke-linejoin:miter;stroke-opacity:1;font-family:Thryomanes"
       x="184.01802"
       y="77.408455"
       id="text2858"
       sodipodi:linespacing="100%"><tspan
         sodipodi:role="line"
         id="tspan2860"
         x="184.01802"
         y="77.408455">Q2</tspan></text>
    <path
       id="path2866"
       d="M 82.571852,105.64972 L 85.297192,105.64972"
       style="fill:none;fill-opacity:0.75;fill-rule:evenodd;stroke:black;stroke-width:0.70866144;stroke-linecap:butt;stroke-linejoin:miter;marker-start:none;marker-end:url(#Arrow1Mend);stroke-miterlimit:4;stroke-dasharray:none;stroke-opacity:1" />
    <path
       id="path2868"
       d="M 106.42468,105.64972 L 103.69934,105.64972"
       style="fill:none;fill-opacity:0.75;fill-rule:evenodd;stroke:black;stroke-width:0.70866144;stroke-linecap:butt;stroke-linejoin:miter;marker-start:none;marker-end:url(#Arrow1Mend);stroke-miterlimit:4;stroke-dasharray:none;stroke-opacity:1" />
    <text
       xml:space="preserve"
       style="font-size:10px;font-style:normal;font-variant:normal;font-weight:normal;font-stretch:normal;text-align:start;line-height:100%;writing-mode:lr-tb;text-anchor:start;fill:black;fill-opacity:1;stroke:none;stroke-width:1px;stroke-linecap:butt;stroke-linejoin:miter;stroke-opacity:1;font-family:Thryomanes"
       x="108.46809"
       y="120.0402"
       id="text2870"
       sodipodi:linespacing="100%"><tspan
         sodipodi:role="line"
         id="tspan2872"
         x="108.46809"
         y="120.0402">a ; f</tspan></text>
    <text
       xml:space="preserve"
       style="font-size:10px;font-style:normal;font-variant:normal;font-weight:normal;font-stretch:normal;text-align:start;line-height:100%;writing-mode:lr-tb;text-anchor:start;fill:black;fill-opacity:1;stroke:none;stroke-width:1px;stroke-linecap:butt;stroke-linejoin:miter;stroke-opacity:1;font-family:Thryomanes"
       x="115.66333"
       y="97.914864"
       id="text2874"
       sodipodi:linespacing="100%"><tspan
         sodipodi:role="line"
         id="tspan2876"
         x="115.66333"
         y="97.914864">b</tspan></text>
    <text
       xml:space="preserve"
       style="font-size:10px;font-style:normal;font-variant:normal;font-weight:normal;font-stretch:normal;text-align:start;line-height:100%;writing-mode:lr-tb;text-anchor:start;fill:black;fill-opacity:1;stroke:none;stroke-width:1px;stroke-linecap:butt;stroke-linejoin:miter;stroke-opacity:1;font-family:Thryomanes"
       x="50.186733"
       y="78.307861"
       id="text2878"
       sodipodi:linespacing="100%"><tspan
         sodipodi:role="line"
         id="tspan2880"
         x="50.186733"
         y="78.307861">c</tspan></text>
    <text
       xml:space="preserve"
       style="font-size:10px;font-style:normal;font-variant:normal;font-weight:normal;font-stretch:normal;text-align:start;line-height:100%;writing-mode:lr-tb;text-anchor:start;fill:black;fill-opacity:1;stroke:none;stroke-width:1px;stroke-linecap:butt;stroke-linejoin:miter;stroke-opacity:1;font-family:Thryomanes"
       x="98.394775"
       y="45.389679"
       id="text2882"
       sodipodi:linespacing="100%"><tspan
         sodipodi:role="line"
         id="tspan2884"
         x="98.394775"
         y="45.389679">d</tspan></text>
    <text
       xml:space="preserve"
       style="font-size:10px;font-style:normal;font-variant:normal;font-weight:normal;font-stretch:normal;text-align:start;line-height:100%;writing-mode:lr-tb;text-anchor:start;fill:black;fill-opacity:1;stroke:none;stroke-width:1px;stroke-linecap:butt;stroke-linejoin:miter;stroke-opacity:1;font-family:Thryomanes"
       x="158.29506"
       y="75.789528"
       id="text2886"
       sodipodi:linespacing="100%"><tspan
         sodipodi:role="line"
         id="tspan2888"
         x="158.29506"
         y="75.789528">e</tspan></text>
  </g>
</svg>
