<?xml version="1.0" encoding="UTF-8" standalone="no"?>
<!-- Created with Inkscape (http://www.inkscape.org/) -->
<svg
   xmlns:dc="http://purl.org/dc/elements/1.1/"
   xmlns:cc="http://web.resource.org/cc/"
   xmlns:rdf="http://www.w3.org/1999/02/22-rdf-syntax-ns#"
   xmlns:svg="http://www.w3.org/2000/svg"
   xmlns="http://www.w3.org/2000/svg"
   xmlns:sodipodi="http://sodipodi.sourceforge.net/DTD/sodipodi-0.dtd"
   xmlns:inkscape="http://www.inkscape.org/namespaces/inkscape"
   width="210mm"
   height="297mm"
   id="svg2"
   sodipodi:version="0.32"
   inkscape:version="0.44.1"
   sodipodi:docbase="/home/guyotv/Documents/echange/Cours/Final/CoursOSDF/Dessins"
   sodipodi:docname="DiagPVMotSimple.svg">
  <defs
     id="defs4">
    <marker
       inkscape:stockid="Arrow1Mend"
       orient="auto"
       refY="0.0"
       refX="0.0"
       id="Arrow1Mend"
       style="overflow:visible;">
      <path
         id="path2926"
         d="M 0.0,0.0 L 5.0,-5.0 L -12.5,0.0 L 5.0,5.0 L 0.0,0.0 z "
         style="fill-rule:evenodd;stroke:#000000;stroke-width:1.0pt;marker-start:none;"
         transform="scale(0.4) rotate(180) translate(10,0)" />
    </marker>
    <marker
       inkscape:stockid="Arrow1Mstart"
       orient="auto"
       refY="0.0"
       refX="0.0"
       id="Arrow1Mstart"
       style="overflow:visible">
      <path
         id="path2929"
         d="M 0.0,0.0 L 5.0,-5.0 L -12.5,0.0 L 5.0,5.0 L 0.0,0.0 z "
         style="fill-rule:evenodd;stroke:#000000;stroke-width:1.0pt;marker-start:none"
         transform="scale(0.4) translate(10,0)" />
    </marker>
  </defs>
  <sodipodi:namedview
     id="base"
     pagecolor="#ffffff"
     bordercolor="#666666"
     borderopacity="1.0"
     inkscape:pageopacity="0.0"
     inkscape:pageshadow="2"
     inkscape:zoom="5.5592382"
     inkscape:cx="112.85714"
     inkscape:cy="978.67618"
     inkscape:document-units="cm"
     inkscape:current-layer="layer1"
     inkscape:window-width="1672"
     inkscape:window-height="1017"
     inkscape:window-x="0"
     inkscape:window-y="0" />
  <metadata
     id="metadata7">
    <rdf:RDF>
      <cc:Work
         rdf:about="">
        <dc:format>image/svg+xml</dc:format>
        <dc:type
           rdf:resource="http://purl.org/dc/dcmitype/StillImage" />
      </cc:Work>
    </rdf:RDF>
  </metadata>
  <g
     inkscape:label="Calque 1"
     inkscape:groupmode="layer"
     id="layer1">
    <path
       style="fill:none;fill-opacity:0.75;fill-rule:evenodd;stroke:black;stroke-width:0.70866142;stroke-linecap:butt;stroke-linejoin:miter;stroke-opacity:1;stroke-miterlimit:4;stroke-dasharray:none;marker-start:url(#Arrow1Mstart);marker-end:url(#Arrow1Mend)"
       d="M 32.198656,16.968514 L 32.198656,130.47328 L 199.84753,130.47328"
       id="path1874" />
    <path
       style="fill:none;fill-opacity:0.75;fill-rule:evenodd;stroke:black;stroke-width:0.70866142;stroke-linecap:butt;stroke-linejoin:miter;marker-mid:none;stroke-miterlimit:4;stroke-dasharray:none;stroke-opacity:1"
       d="M 71.853832,41.873467 L 174.94257,41.873467 L 174.94257,106.10796 L 72.126554,106.10796 L 71.853832,41.873467 z "
       id="path2944" />
    <path
       sodipodi:type="arc"
       style="opacity:1;fill:none;fill-opacity:1;fill-rule:evenodd;stroke:black;stroke-width:0.70866144;stroke-linecap:round;stroke-linejoin:round;stroke-miterlimit:4;stroke-dasharray:none;stroke-dashoffset:0;stroke-opacity:1"
       id="path2946"
       sodipodi:cx="42.72168"
       sodipodi:cy="47.638184"
       sodipodi:rx="0.44970191"
       sodipodi:ry="0.44970191"
       d="M 42.387278,47.938861 A 0.44970191,0.44970191 0 1 1 42.393851,47.946015"
       sodipodi:start="2.4092472"
       sodipodi:end="8.6708271"
       sodipodi:open="true"
       transform="matrix(2.118757,0,0,2.118517,-18.83438,-58.68067)" />
    <path
       transform="matrix(2.118757,0,0,2.118517,84.41718,-59.04043)"
       sodipodi:open="true"
       sodipodi:end="8.6708271"
       sodipodi:start="2.4092472"
       d="M 42.387278,47.938861 A 0.44970191,0.44970191 0 1 1 42.393851,47.946015"
       sodipodi:ry="0.44970191"
       sodipodi:rx="0.44970191"
       sodipodi:cy="47.638184"
       sodipodi:cx="42.72168"
       id="path2948"
       style="opacity:1;fill:none;fill-opacity:1;fill-rule:evenodd;stroke:black;stroke-width:0.70866144;stroke-linecap:round;stroke-linejoin:round;stroke-miterlimit:4;stroke-dasharray:none;stroke-dashoffset:0;stroke-opacity:1"
       sodipodi:type="arc" />
    <path
       sodipodi:type="arc"
       style="opacity:1;fill:none;fill-opacity:1;fill-rule:evenodd;stroke:black;stroke-width:0.70866144;stroke-linecap:round;stroke-linejoin:round;stroke-miterlimit:4;stroke-dasharray:none;stroke-dashoffset:0;stroke-opacity:1"
       id="path2950"
       sodipodi:cx="42.72168"
       sodipodi:cy="47.638184"
       sodipodi:rx="0.44970191"
       sodipodi:ry="0.44970191"
       d="M 42.387278,47.938861 A 0.44970191,0.44970191 0 1 1 42.393851,47.946015"
       sodipodi:start="2.4092472"
       sodipodi:end="8.6708271"
       sodipodi:open="true"
       transform="matrix(2.118757,0,0,2.118517,84.41718,4.997121)" />
    <path
       transform="matrix(2.118757,0,0,2.118517,-18.47462,4.997121)"
       sodipodi:open="true"
       sodipodi:end="8.6708271"
       sodipodi:start="2.4092472"
       d="M 42.387278,47.938861 A 0.44970191,0.44970191 0 1 1 42.393851,47.946015"
       sodipodi:ry="0.44970191"
       sodipodi:rx="0.44970191"
       sodipodi:cy="47.638184"
       sodipodi:cx="42.72168"
       id="path2952"
       style="opacity:1;fill:none;fill-opacity:1;fill-rule:evenodd;stroke:black;stroke-width:0.70866144;stroke-linecap:round;stroke-linejoin:round;stroke-miterlimit:4;stroke-dasharray:none;stroke-dashoffset:0;stroke-opacity:1"
       sodipodi:type="arc" />
    <text
       xml:space="preserve"
       style="font-size:10px;font-style:normal;font-variant:normal;font-weight:normal;font-stretch:normal;text-align:start;line-height:100%;writing-mode:lr-tb;text-anchor:start;fill:black;fill-opacity:1;stroke:none;stroke-width:1px;stroke-linecap:butt;stroke-linejoin:miter;stroke-opacity:1;font-family:Thryomanes"
       x="44.970192"
       y="118.78102"
       id="text2954"
       sodipodi:linespacing="100%"><tspan
         sodipodi:role="line"
         id="tspan2956"
         x="44.970192"
         y="118.78102">Etat1</tspan></text>
    <text
       xml:space="preserve"
       style="font-size:10px;font-style:normal;font-variant:normal;font-weight:normal;font-stretch:normal;text-align:start;line-height:100%;writing-mode:lr-tb;text-anchor:start;fill:black;fill-opacity:1;stroke:none;stroke-width:1px;stroke-linecap:butt;stroke-linejoin:miter;stroke-opacity:1;font-family:Thryomanes"
       x="42.165512"
       y="37.708744"
       id="text2958"
       sodipodi:linespacing="100%"><tspan
         sodipodi:role="line"
         id="tspan2960"
         x="42.165512"
         y="37.708744">Etat2</tspan></text>
    <text
       xml:space="preserve"
       style="font-size:10px;font-style:normal;font-variant:normal;font-weight:normal;font-stretch:normal;text-align:start;line-height:100%;writing-mode:lr-tb;text-anchor:start;fill:black;fill-opacity:1;stroke:none;stroke-width:1px;stroke-linecap:butt;stroke-linejoin:miter;stroke-opacity:1;font-family:Thryomanes"
       x="182.83228"
       y="37.348984"
       id="text2962"
       sodipodi:linespacing="100%"><tspan
         sodipodi:role="line"
         id="tspan2964"
         x="182.83228"
         y="37.348984">Etat3</tspan></text>
    <text
       xml:space="preserve"
       style="font-size:10px;font-style:normal;font-variant:normal;font-weight:normal;font-stretch:normal;text-align:start;line-height:100%;writing-mode:lr-tb;text-anchor:start;fill:black;fill-opacity:1;stroke:none;stroke-width:1px;stroke-linecap:butt;stroke-linejoin:miter;stroke-opacity:1;font-family:Thryomanes"
       x="183.11862"
       y="109.06747"
       id="text2966"
       sodipodi:linespacing="100%"><tspan
         sodipodi:role="line"
         id="tspan2968"
         x="183.11862"
         y="109.06747">Etat4</tspan></text>
    <path
       style="fill:none;fill-opacity:0.75;fill-rule:evenodd;stroke:black;stroke-width:0.70866144;stroke-linecap:butt;stroke-linejoin:miter;marker-start:none;marker-end:url(#Arrow1Mend);stroke-miterlimit:4;stroke-dasharray:none;stroke-opacity:1"
       d="M 71.952305,85.682965 L 71.952305,67.155247"
       id="path2970" />
    <path
       style="fill:none;fill-opacity:0.75;fill-rule:evenodd;stroke:black;stroke-width:0.70866144;stroke-linecap:butt;stroke-linejoin:miter;marker-start:none;marker-end:url(#Arrow1Mend);stroke-miterlimit:4;stroke-dasharray:none;stroke-opacity:1"
       d="M 175.02398,65.180632 L 175.02398,83.708349"
       id="path2972" />
    <path
       style="fill:none;fill-opacity:0.75;fill-rule:evenodd;stroke:black;stroke-width:0.70866144;stroke-linecap:butt;stroke-linejoin:miter;marker-start:none;marker-end:url(#Arrow1Mend);stroke-miterlimit:4;stroke-dasharray:none;stroke-opacity:1"
       d="M 95.880519,41.79206 L 114.40824,41.79206"
       id="path2974" />
    <path
       style="fill:none;fill-opacity:0.75;fill-rule:evenodd;stroke:black;stroke-width:0.70866144;stroke-linecap:butt;stroke-linejoin:miter;marker-start:none;marker-end:url(#Arrow1Mend);stroke-miterlimit:4;stroke-dasharray:none;stroke-opacity:1"
       d="M 116.91842,106.18937 L 98.390701,106.18937"
       id="path2976" />
    <text
       xml:space="preserve"
       style="font-size:10px;font-style:normal;font-variant:normal;font-weight:normal;font-stretch:normal;text-align:start;line-height:100%;writing-mode:lr-tb;text-anchor:start;fill:black;fill-opacity:1;stroke:none;stroke-width:1px;stroke-linecap:butt;stroke-linejoin:miter;stroke-opacity:1;font-family:Thryomanes"
       x="35.25663"
       y="75.429756"
       id="text2978"
       sodipodi:linespacing="100%"><tspan
         sodipodi:role="line"
         id="tspan2980"
         x="35.25663"
         y="75.429756">Etapea</tspan></text>
    <text
       xml:space="preserve"
       style="font-size:10px;font-style:normal;font-variant:normal;font-weight:normal;font-stretch:normal;text-align:start;line-height:100%;writing-mode:lr-tb;text-anchor:start;fill:black;fill-opacity:1;stroke:none;stroke-width:1px;stroke-linecap:butt;stroke-linejoin:miter;stroke-opacity:1;font-family:Thryomanes"
       x="109.31373"
       y="33.281929"
       id="text2982"
       sodipodi:linespacing="100%"><tspan
         sodipodi:role="line"
         id="tspan2984"
         x="109.31373"
         y="33.281929">Etapeb</tspan></text>
    <text
       xml:space="preserve"
       style="font-size:10px;font-style:normal;font-variant:normal;font-weight:normal;font-stretch:normal;text-align:start;line-height:100%;writing-mode:lr-tb;text-anchor:start;fill:black;fill-opacity:1;stroke:none;stroke-width:1px;stroke-linecap:butt;stroke-linejoin:miter;stroke-opacity:1;font-family:Thryomanes"
       x="181.13992"
       y="76.149284"
       id="text2986"
       sodipodi:linespacing="100%"><tspan
         sodipodi:role="line"
         id="tspan2988"
         x="181.13992"
         y="76.149284">Etapec</tspan></text>
    <text
       xml:space="preserve"
       style="font-size:10px;font-style:normal;font-variant:normal;font-weight:normal;font-stretch:normal;text-align:start;line-height:100%;writing-mode:lr-tb;text-anchor:start;fill:black;fill-opacity:1;stroke:none;stroke-width:1px;stroke-linecap:butt;stroke-linejoin:miter;stroke-opacity:1;font-family:Thryomanes"
       x="110.93266"
       y="120.70397"
       id="text2990"
       sodipodi:linespacing="100%"><tspan
         sodipodi:role="line"
         id="tspan2992"
         x="110.93266"
         y="120.70397">Etaped</tspan></text>
    <text
       xml:space="preserve"
       style="font-size:10px;font-style:normal;font-variant:normal;font-weight:normal;font-stretch:normal;text-align:start;line-height:100%;writing-mode:lr-tb;text-anchor:start;fill:black;fill-opacity:1;stroke:none;stroke-width:1px;stroke-linecap:butt;stroke-linejoin:miter;stroke-opacity:1;font-family:Thryomanes"
       x="195.5304"
       y="124.53721"
       id="text2994"
       sodipodi:linespacing="100%"><tspan
         sodipodi:role="line"
         id="tspan2996"
         x="195.5304"
         y="124.53721">V/m</tspan></text>
    <text
       xml:space="preserve"
       style="font-size:10px;font-style:normal;font-variant:normal;font-weight:normal;font-stretch:normal;text-align:start;line-height:100%;writing-mode:lr-tb;text-anchor:start;fill:black;fill-opacity:1;stroke:none;stroke-width:1px;stroke-linecap:butt;stroke-linejoin:miter;stroke-opacity:1;font-family:Thryomanes"
       x="38.134724"
       y="20.38625"
       id="text2998"
       sodipodi:linespacing="100%"><tspan
         sodipodi:role="line"
         id="tspan3000"
         x="38.134724"
         y="20.38625">p/bar</tspan></text>
    <path
       style="fill:none;fill-opacity:0.75;fill-rule:evenodd;stroke:black;stroke-width:0.35433071;stroke-linecap:butt;stroke-linejoin:miter;stroke-opacity:1;stroke-miterlimit:4;stroke-dasharray:2.83464567,2.83464567;stroke-dashoffset:0"
       d="M 71.952305,106.18937 L 71.952305,130.47328"
       id="path3002" />
    <path
       style="fill:none;fill-opacity:0.75;fill-rule:evenodd;stroke:black;stroke-width:0.35433072;stroke-linecap:butt;stroke-linejoin:miter;stroke-miterlimit:4;stroke-dasharray:2.83464567, 2.83464567;stroke-dashoffset:0;stroke-opacity:1"
       d="M 174.8441,106.09943 L 174.8441,130.38334"
       id="path3004" />
    <path
       style="fill:none;fill-opacity:0.75;fill-rule:evenodd;stroke:black;stroke-width:0.35433071;stroke-linecap:butt;stroke-linejoin:miter;stroke-miterlimit:4;stroke-dasharray:2.83464567,2.83464567;stroke-dashoffset:0;stroke-opacity:1"
       d="M 32.217363,106.18937 L 71.393955,106.18937"
       id="path3006" />
    <path
       style="fill:none;fill-opacity:0.75;fill-rule:evenodd;stroke:black;stroke-width:0.35433071;stroke-linecap:butt;stroke-linejoin:miter;stroke-miterlimit:4;stroke-dasharray:2.83464567,2.83464567;stroke-dashoffset:0;stroke-opacity:1"
       d="M 32.21219,41.97194 L 70.679602,41.97194"
       id="path3008" />
    <text
       xml:space="preserve"
       style="font-size:10px;font-style:normal;font-variant:normal;font-weight:normal;font-stretch:normal;text-align:start;line-height:100%;writing-mode:lr-tb;text-anchor:start;fill:black;fill-opacity:1;stroke:none;stroke-width:1px;stroke-linecap:butt;stroke-linejoin:miter;stroke-opacity:1;font-family:Thryomanes"
       x="16.18927"
       y="108.88759"
       id="text3014"
       sodipodi:linespacing="100%"><tspan
         sodipodi:role="line"
         id="tspan3016"
         x="16.18927"
         y="108.88759">1</tspan></text>
    <text
       xml:space="preserve"
       style="font-size:10px;font-style:normal;font-variant:normal;font-weight:normal;font-stretch:normal;text-align:start;line-height:100%;writing-mode:lr-tb;text-anchor:start;fill:black;fill-opacity:1;stroke:none;stroke-width:1px;stroke-linecap:butt;stroke-linejoin:miter;stroke-opacity:1;font-family:Thryomanes"
       x="69.613853"
       y="144.50398"
       id="text3018"
       sodipodi:linespacing="100%"><tspan
         sodipodi:role="line"
         id="tspan3020"
         x="69.613853"
         y="144.50398">5</tspan></text>
    <text
       xml:space="preserve"
       style="font-size:10px;font-style:normal;font-variant:normal;font-weight:normal;font-stretch:normal;text-align:start;line-height:100%;writing-mode:lr-tb;text-anchor:start;fill:black;fill-opacity:1;stroke:none;stroke-width:1px;stroke-linecap:butt;stroke-linejoin:miter;stroke-opacity:1;font-family:Thryomanes"
       x="7.5549917"
       y="45.209797"
       id="text3022"
       sodipodi:linespacing="100%"><tspan
         sodipodi:role="line"
         id="tspan3024"
         x="7.5549917"
         y="45.209797">3,41</tspan></text>
    <text
       xml:space="preserve"
       style="font-size:10px;font-style:normal;font-variant:normal;font-weight:normal;font-stretch:normal;text-align:start;line-height:100%;writing-mode:lr-tb;text-anchor:start;fill:black;fill-opacity:1;stroke:none;stroke-width:1px;stroke-linecap:butt;stroke-linejoin:miter;stroke-opacity:1;font-family:Thryomanes"
       x="164.95065"
       y="144.14421"
       id="text3026"
       sodipodi:linespacing="100%"><tspan
         sodipodi:role="line"
         id="tspan3028"
         x="164.95065"
         y="144.14421">12,5</tspan></text>
    <text
       xml:space="preserve"
       style="font-size:10px;font-style:normal;font-variant:normal;font-weight:normal;font-stretch:normal;text-align:start;line-height:100%;writing-mode:lr-tb;text-anchor:start;fill:black;fill-opacity:1;stroke:none;stroke-width:1px;stroke-linecap:butt;stroke-linejoin:miter;stroke-opacity:1;font-family:Thryomanes"
       x="75.909676"
       y="99.353905"
       id="text3048"
       sodipodi:linespacing="100%"><tspan
         sodipodi:role="line"
         id="tspan3050"
         x="75.909676"
         y="99.353905">293,15</tspan></text>
    <text
       xml:space="preserve"
       style="font-size:10px;font-style:normal;font-variant:normal;font-weight:normal;font-stretch:normal;text-align:start;line-height:100%;writing-mode:lr-tb;text-anchor:start;fill:black;fill-opacity:1;stroke:none;stroke-width:1px;stroke-linecap:butt;stroke-linejoin:miter;stroke-opacity:1;font-family:Thryomanes"
       x="76.269447"
       y="55.283119"
       id="text3052"
       sodipodi:linespacing="100%"><tspan
         sodipodi:role="line"
         id="tspan3054"
         x="76.269447"
         y="55.283119">1000</tspan></text>
    <text
       xml:space="preserve"
       style="font-size:10px;font-style:normal;font-variant:normal;font-weight:normal;font-stretch:normal;text-align:start;line-height:100%;writing-mode:lr-tb;text-anchor:start;fill:black;fill-opacity:1;stroke:none;stroke-width:1px;stroke-linecap:butt;stroke-linejoin:miter;stroke-opacity:1;font-family:Thryomanes"
       x="139.22771"
       y="55.103233"
       id="text3056"
       sodipodi:linespacing="100%"><tspan
         sodipodi:role="line"
         id="tspan3058"
         x="139.22771"
         y="55.103233">2500</tspan></text>
    <text
       xml:space="preserve"
       style="font-size:10px;font-style:normal;font-variant:normal;font-weight:normal;font-stretch:normal;text-align:start;line-height:100%;writing-mode:lr-tb;text-anchor:start;fill:black;fill-opacity:1;stroke:none;stroke-width:1px;stroke-linecap:butt;stroke-linejoin:miter;stroke-opacity:1;font-family:Thryomanes"
       x="134.91057"
       y="99.893547"
       id="text3060"
       sodipodi:linespacing="100%"><tspan
         sodipodi:role="line"
         id="tspan3062"
         x="134.91057"
         y="99.893547">732,87</tspan></text>
  </g>
</svg>
