<?xml version="1.0" encoding="UTF-8" standalone="no"?>
<!-- Created with Inkscape (http://www.inkscape.org/) -->
<svg
   xmlns:dc="http://purl.org/dc/elements/1.1/"
   xmlns:cc="http://web.resource.org/cc/"
   xmlns:rdf="http://www.w3.org/1999/02/22-rdf-syntax-ns#"
   xmlns:svg="http://www.w3.org/2000/svg"
   xmlns="http://www.w3.org/2000/svg"
   xmlns:sodipodi="http://sodipodi.sourceforge.net/DTD/sodipodi-0.dtd"
   xmlns:inkscape="http://www.inkscape.org/namespaces/inkscape"
   width="210mm"
   height="297mm"
   id="svg2"
   sodipodi:version="0.32"
   inkscape:version="0.44.1"
   sodipodi:docbase="/home/guyotv/Documents/echange/Cours/Final/CoursOSDF/Dessins"
   sodipodi:docname="Moteur1.svg">
  <defs
     id="defs4">
    <marker
       inkscape:stockid="Arrow1Mend"
       orient="auto"
       refY="0.0"
       refX="0.0"
       id="Arrow1Mend"
       style="overflow:visible;">
      <path
         id="path4702"
         d="M 0.0,0.0 L 5.0,-5.0 L -12.5,0.0 L 5.0,5.0 L 0.0,0.0 z "
         style="fill-rule:evenodd;stroke:#000000;stroke-width:1.0pt;marker-start:none;"
         transform="scale(0.4) rotate(180) translate(10,0)" />
    </marker>
  </defs>
  <sodipodi:namedview
     id="base"
     pagecolor="#ffffff"
     bordercolor="#666666"
     borderopacity="1.0"
     inkscape:pageopacity="0.0"
     inkscape:pageshadow="2"
     inkscape:zoom="4.870381"
     inkscape:cx="113.76889"
     inkscape:cy="947.37763"
     inkscape:document-units="cm"
     inkscape:current-layer="layer1"
     inkscape:window-width="1672"
     inkscape:window-height="1017"
     inkscape:window-x="0"
     inkscape:window-y="0" />
  <metadata
     id="metadata7">
    <rdf:RDF>
      <cc:Work
         rdf:about="">
        <dc:format>image/svg+xml</dc:format>
        <dc:type
           rdf:resource="http://purl.org/dc/dcmitype/StillImage" />
      </cc:Work>
    </rdf:RDF>
  </metadata>
  <g
     inkscape:label="Calque 1"
     inkscape:groupmode="layer"
     id="layer1">
    <path
       style="fill:none;fill-opacity:0.75;fill-rule:evenodd;stroke:black;stroke-width:0.70866142;stroke-linecap:butt;stroke-linejoin:miter;stroke-opacity:1;stroke-miterlimit:4;stroke-dasharray:none"
       d="M 15.399206,86.11334 L 56.669078,86.11334 L 56.669078,145.04097 L 126.47881,145.04097 L 126.47881,48.333954 L 190.33419,48.539277"
       id="path1874"
       sodipodi:nodetypes="cccccc" />
    <path
       style="fill:none;fill-opacity:1;fill-rule:evenodd;stroke:black;stroke-width:0.70866142;stroke-linecap:butt;stroke-linejoin:miter;stroke-opacity:1;stroke-miterlimit:4;stroke-dasharray:none"
       d="M 58.927628,86.318662 L 124.01494,86.318662 L 124.01494,90.219794 L 93.216527,90.219794 L 93.216527,124.30337 L 126.47881,124.30337 L 126.47881,127.79386 L 56.669078,127.79386 L 56.669078,124.30337 L 88.083458,124.30337 L 88.083458,90.014472 L 58.927628,90.014472 L 58.927628,86.318662 z "
       id="path1876"
       sodipodi:nodetypes="ccccccccccccc" />
    <rect
       style="opacity:1;fill:none;fill-opacity:1;fill-rule:evenodd;stroke:black;stroke-width:1.0629921;stroke-linecap:round;stroke-linejoin:round;stroke-miterlimit:4;stroke-dasharray:none;stroke-dashoffset:0;stroke-opacity:1"
       id="rect2764"
       width="30.387766"
       height="15.399206"
       x="75.353447"
       y="70.508812" />
    <path
       style="fill:none;fill-opacity:0.75;fill-rule:evenodd;stroke:black;stroke-width:0.35433071;stroke-linecap:butt;stroke-linejoin:miter;stroke-opacity:1;marker-end:url(#Arrow1Mend);stroke-miterlimit:4;stroke-dasharray:none"
       d="M 37.36874,78.721721 L 73.916189,78.721721"
       id="path3651" />
    <path
       style="fill:none;fill-opacity:1.0;fill-rule:evenodd;stroke:black;stroke-width:0.69948137;stroke-linecap:butt;stroke-linejoin:miter;stroke-miterlimit:4;stroke-dasharray:none;stroke-opacity:1"
       d="M 56.664487,127.78927 L 126.4834,127.78927 L 126.4834,144.84023 L 56.664487,144.84023 L 56.664487,127.78927 z "
       id="path4718" />
    <path
       sodipodi:type="arc"
       style="opacity:1;fill:none;fill-opacity:1;fill-rule:evenodd;stroke:black;stroke-width:0.70866144;stroke-linecap:round;stroke-linejoin:round;stroke-miterlimit:4;stroke-dasharray:none;stroke-dashoffset:0;stroke-opacity:1"
       id="path1884"
       sodipodi:cx="62.418114"
       sodipodi:cy="130.46306"
       sodipodi:rx="0.41064548"
       sodipodi:ry="0.41064548"
       d="M 62.112754,130.73762 A 0.41064548,0.41064548 0 1 1 62.118757,130.74416"
       sodipodi:start="2.4092472"
       sodipodi:end="8.6708271"
       sodipodi:open="true" />
    <path
       sodipodi:type="arc"
       style="opacity:1;fill:none;fill-opacity:1;fill-rule:evenodd;stroke:black;stroke-width:0.70866144;stroke-linecap:round;stroke-linejoin:round;stroke-miterlimit:4;stroke-dasharray:none;stroke-dashoffset:0;stroke-opacity:1"
       id="path1886"
       sodipodi:cx="62.418114"
       sodipodi:cy="130.46306"
       sodipodi:rx="0.41064548"
       sodipodi:ry="0.41064548"
       d="M 62.112754,130.73762 A 0.41064548,0.41064548 0 1 1 62.118757,130.74416"
       sodipodi:start="2.4092472"
       sodipodi:end="8.6708271"
       sodipodi:open="true"
       transform="translate(9.444848,5.338299)" />
    <path
       sodipodi:type="arc"
       style="opacity:1;fill:none;fill-opacity:1;fill-rule:evenodd;stroke:black;stroke-width:0.70866144;stroke-linecap:round;stroke-linejoin:round;stroke-miterlimit:4;stroke-dasharray:none;stroke-dashoffset:0;stroke-opacity:1"
       id="path1888"
       sodipodi:cx="62.418114"
       sodipodi:cy="130.46306"
       sodipodi:rx="0.41064548"
       sodipodi:ry="0.41064548"
       d="M 62.112754,130.73762 A 0.41064548,0.41064548 0 1 1 62.118757,130.74416"
       sodipodi:start="2.4092472"
       sodipodi:end="8.6708271"
       sodipodi:open="true"
       transform="translate(14.78324,1.231841)" />
    <path
       sodipodi:type="arc"
       style="opacity:1;fill:none;fill-opacity:1;fill-rule:evenodd;stroke:black;stroke-width:0.70866144;stroke-linecap:round;stroke-linejoin:round;stroke-miterlimit:4;stroke-dasharray:none;stroke-dashoffset:0;stroke-opacity:1"
       id="path1890"
       sodipodi:cx="62.418114"
       sodipodi:cy="130.46306"
       sodipodi:rx="0.41064548"
       sodipodi:ry="0.41064548"
       d="M 62.112754,130.73762 A 0.41064548,0.41064548 0 1 1 62.118757,130.74416"
       sodipodi:start="2.4092472"
       sodipodi:end="8.6708271"
       sodipodi:open="true"
       transform="translate(2.463871,7.596847)" />
    <path
       sodipodi:type="arc"
       style="opacity:1;fill:none;fill-opacity:1;fill-rule:evenodd;stroke:black;stroke-width:0.70866144;stroke-linecap:round;stroke-linejoin:round;stroke-miterlimit:4;stroke-dasharray:none;stroke-dashoffset:0;stroke-opacity:1"
       id="path1892"
       sodipodi:cx="62.418114"
       sodipodi:cy="130.46306"
       sodipodi:rx="0.41064548"
       sodipodi:ry="0.41064548"
       d="M 62.112754,130.73762 A 0.41064548,0.41064548 0 1 1 62.118757,130.74416"
       sodipodi:start="2.4092472"
       sodipodi:end="8.6708271"
       sodipodi:open="true"
       transform="translate(17.04179,9.239435)" />
    <path
       sodipodi:type="arc"
       style="opacity:1;fill:none;fill-opacity:1;fill-rule:evenodd;stroke:black;stroke-width:0.70866144;stroke-linecap:round;stroke-linejoin:round;stroke-miterlimit:4;stroke-dasharray:none;stroke-dashoffset:0;stroke-opacity:1"
       id="path1894"
       sodipodi:cx="62.418114"
       sodipodi:cy="130.46306"
       sodipodi:rx="0.41064548"
       sodipodi:ry="0.41064548"
       d="M 62.112754,130.73762 A 0.41064548,0.41064548 0 1 1 62.118757,130.74416"
       sodipodi:start="2.4092472"
       sodipodi:end="8.6708271"
       sodipodi:open="true"
       transform="translate(23.61212,7.596849)" />
    <path
       sodipodi:type="arc"
       style="opacity:1;fill:none;fill-opacity:1;fill-rule:evenodd;stroke:black;stroke-width:0.70866144;stroke-linecap:round;stroke-linejoin:round;stroke-miterlimit:4;stroke-dasharray:none;stroke-dashoffset:0;stroke-opacity:1"
       id="path1896"
       sodipodi:cx="62.418114"
       sodipodi:cy="130.46306"
       sodipodi:rx="0.41064548"
       sodipodi:ry="0.41064548"
       d="M 62.112754,130.73762 A 0.41064548,0.41064548 0 1 1 62.118757,130.74416"
       sodipodi:start="2.4092472"
       sodipodi:end="8.6708271"
       sodipodi:open="true"
       transform="translate(25.04937,1.847812)" />
    <path
       sodipodi:type="arc"
       style="opacity:1;fill:none;fill-opacity:1;fill-rule:evenodd;stroke:black;stroke-width:0.70866144;stroke-linecap:round;stroke-linejoin:round;stroke-miterlimit:4;stroke-dasharray:none;stroke-dashoffset:0;stroke-opacity:1"
       id="path1898"
       sodipodi:cx="62.418114"
       sodipodi:cy="130.46306"
       sodipodi:rx="0.41064548"
       sodipodi:ry="0.41064548"
       d="M 62.112754,130.73762 A 0.41064548,0.41064548 0 1 1 62.118757,130.74416"
       sodipodi:start="2.4092472"
       sodipodi:end="8.6708271"
       sodipodi:open="true"
       transform="translate(32.64632,2.874426)" />
    <path
       sodipodi:type="arc"
       style="opacity:1;fill:none;fill-opacity:1;fill-rule:evenodd;stroke:black;stroke-width:0.70866144;stroke-linecap:round;stroke-linejoin:round;stroke-miterlimit:4;stroke-dasharray:none;stroke-dashoffset:0;stroke-opacity:1"
       id="path1900"
       sodipodi:cx="62.418114"
       sodipodi:cy="130.46306"
       sodipodi:rx="0.41064548"
       sodipodi:ry="0.41064548"
       d="M 62.112754,130.73762 A 0.41064548,0.41064548 0 1 1 62.118757,130.74416"
       sodipodi:start="2.4092472"
       sodipodi:end="8.6708271"
       sodipodi:open="true"
       transform="translate(42.09116,0.821199)" />
    <path
       sodipodi:type="arc"
       style="opacity:1;fill:none;fill-opacity:1;fill-rule:evenodd;stroke:black;stroke-width:0.70866144;stroke-linecap:round;stroke-linejoin:round;stroke-miterlimit:4;stroke-dasharray:none;stroke-dashoffset:0;stroke-opacity:1"
       id="path1902"
       sodipodi:cx="62.418114"
       sodipodi:cy="130.46306"
       sodipodi:rx="0.41064548"
       sodipodi:ry="0.41064548"
       d="M 62.112754,130.73762 A 0.41064548,0.41064548 0 1 1 62.118757,130.74416"
       sodipodi:start="2.4092472"
       sodipodi:end="8.6708271"
       sodipodi:open="true"
       transform="translate(40.6539,5.748944)" />
    <path
       sodipodi:type="arc"
       style="opacity:1;fill:none;fill-opacity:1;fill-rule:evenodd;stroke:black;stroke-width:0.70866144;stroke-linecap:round;stroke-linejoin:round;stroke-miterlimit:4;stroke-dasharray:none;stroke-dashoffset:0;stroke-opacity:1"
       id="path1904"
       sodipodi:cx="62.418114"
       sodipodi:cy="130.46306"
       sodipodi:rx="0.41064548"
       sodipodi:ry="0.41064548"
       d="M 62.112754,130.73762 A 0.41064548,0.41064548 0 1 1 62.118757,130.74416"
       sodipodi:start="2.4092472"
       sodipodi:end="8.6708271"
       sodipodi:open="true"
       transform="translate(37.57406,10.26604)" />
    <path
       sodipodi:type="arc"
       style="opacity:1;fill:none;fill-opacity:1;fill-rule:evenodd;stroke:black;stroke-width:0.70866144;stroke-linecap:round;stroke-linejoin:round;stroke-miterlimit:4;stroke-dasharray:none;stroke-dashoffset:0;stroke-opacity:1"
       id="path1906"
       sodipodi:cx="62.418114"
       sodipodi:cy="130.46306"
       sodipodi:rx="0.41064548"
       sodipodi:ry="0.41064548"
       d="M 62.112754,130.73762 A 0.41064548,0.41064548 0 1 1 62.118757,130.74416"
       sodipodi:start="2.4092472"
       sodipodi:end="8.6708271"
       sodipodi:open="true"
       transform="translate(48.04552,6.775558)" />
    <path
       sodipodi:type="arc"
       style="opacity:1;fill:none;fill-opacity:1;fill-rule:evenodd;stroke:black;stroke-width:0.70866144;stroke-linecap:round;stroke-linejoin:round;stroke-miterlimit:4;stroke-dasharray:none;stroke-dashoffset:0;stroke-opacity:1"
       id="path1908"
       sodipodi:cx="62.418114"
       sodipodi:cy="130.46306"
       sodipodi:rx="0.41064548"
       sodipodi:ry="0.41064548"
       d="M 62.112754,130.73762 A 0.41064548,0.41064548 0 1 1 62.118757,130.74416"
       sodipodi:start="2.4092472"
       sodipodi:end="8.6708271"
       sodipodi:open="true"
       transform="translate(50.09875,1.231844)" />
    <path
       sodipodi:type="arc"
       style="opacity:1;fill:none;fill-opacity:1;fill-rule:evenodd;stroke:black;stroke-width:0.70866144;stroke-linecap:round;stroke-linejoin:round;stroke-miterlimit:4;stroke-dasharray:none;stroke-dashoffset:0;stroke-opacity:1"
       id="path1910"
       sodipodi:cx="62.418114"
       sodipodi:cy="130.46306"
       sodipodi:rx="0.41064548"
       sodipodi:ry="0.41064548"
       d="M 62.112754,130.73762 A 0.41064548,0.41064548 0 1 1 62.118757,130.74416"
       sodipodi:start="2.4092472"
       sodipodi:end="8.6708271"
       sodipodi:open="true"
       transform="translate(56.25843,6.570235)" />
    <path
       sodipodi:type="arc"
       style="opacity:1;fill:none;fill-opacity:1;fill-rule:evenodd;stroke:black;stroke-width:0.70866144;stroke-linecap:round;stroke-linejoin:round;stroke-miterlimit:4;stroke-dasharray:none;stroke-dashoffset:0;stroke-opacity:1"
       id="path1912"
       sodipodi:cx="62.418114"
       sodipodi:cy="130.46306"
       sodipodi:rx="0.41064548"
       sodipodi:ry="0.41064548"
       d="M 62.112754,130.73762 A 0.41064548,0.41064548 0 1 1 62.118757,130.74416"
       sodipodi:start="2.4092472"
       sodipodi:end="8.6708271"
       sodipodi:open="true"
       transform="translate(59.13295,1.231844)" />
    <path
       sodipodi:type="arc"
       style="opacity:1;fill:none;fill-opacity:1;fill-rule:evenodd;stroke:black;stroke-width:0.70866144;stroke-linecap:round;stroke-linejoin:round;stroke-miterlimit:4;stroke-dasharray:none;stroke-dashoffset:0;stroke-opacity:1"
       id="path1914"
       sodipodi:cx="62.418114"
       sodipodi:cy="130.46306"
       sodipodi:rx="0.41064548"
       sodipodi:ry="0.41064548"
       d="M 62.112754,130.73762 A 0.41064548,0.41064548 0 1 1 62.118757,130.74416"
       sodipodi:start="2.4092472"
       sodipodi:end="8.6708271"
       sodipodi:open="true"
       transform="translate(50.09875,10.88201)" />
    <path
       sodipodi:type="arc"
       style="opacity:1;fill:none;fill-opacity:1;fill-rule:evenodd;stroke:black;stroke-width:0.70866144;stroke-linecap:round;stroke-linejoin:round;stroke-miterlimit:4;stroke-dasharray:none;stroke-dashoffset:0;stroke-opacity:1"
       id="path1916"
       sodipodi:cx="62.418114"
       sodipodi:cy="130.46306"
       sodipodi:rx="0.41064548"
       sodipodi:ry="0.41064548"
       d="M 62.112754,130.73762 A 0.41064548,0.41064548 0 1 1 62.118757,130.74416"
       sodipodi:start="2.4092472"
       sodipodi:end="8.6708271"
       sodipodi:open="true"
       transform="translate(57.6957,11.08734)" />
    <path
       sodipodi:type="arc"
       style="opacity:1;fill:none;fill-opacity:1;fill-rule:evenodd;stroke:black;stroke-width:0.70866144;stroke-linecap:round;stroke-linejoin:round;stroke-miterlimit:4;stroke-dasharray:none;stroke-dashoffset:0;stroke-opacity:1"
       id="path1918"
       sodipodi:cx="62.418114"
       sodipodi:cy="130.46306"
       sodipodi:rx="0.41064548"
       sodipodi:ry="0.41064548"
       d="M 62.112754,130.73762 A 0.41064548,0.41064548 0 1 1 62.118757,130.74416"
       sodipodi:start="2.4092472"
       sodipodi:end="8.6708271"
       sodipodi:open="true"
       transform="translate(-1.026612,11.29266)" />
    <path
       sodipodi:type="arc"
       style="opacity:1;fill:none;fill-opacity:1;fill-rule:evenodd;stroke:black;stroke-width:0.70866144;stroke-linecap:round;stroke-linejoin:round;stroke-miterlimit:4;stroke-dasharray:none;stroke-dashoffset:0;stroke-opacity:1"
       id="path1920"
       sodipodi:cx="62.418114"
       sodipodi:cy="130.46306"
       sodipodi:rx="0.41064548"
       sodipodi:ry="0.41064548"
       d="M 62.112754,130.73762 A 0.41064548,0.41064548 0 1 1 62.118757,130.74416"
       sodipodi:start="2.4092472"
       sodipodi:end="8.6708271"
       sodipodi:open="true"
       transform="translate(9.444847,10.67669)" />
    <path
       sodipodi:type="arc"
       style="opacity:1;fill:none;fill-opacity:1;fill-rule:evenodd;stroke:black;stroke-width:0.70866144;stroke-linecap:round;stroke-linejoin:round;stroke-miterlimit:4;stroke-dasharray:none;stroke-dashoffset:0;stroke-opacity:1"
       id="path1922"
       sodipodi:cx="62.418114"
       sodipodi:cy="130.46306"
       sodipodi:rx="0.41064548"
       sodipodi:ry="0.41064548"
       d="M 62.112754,130.73762 A 0.41064548,0.41064548 0 1 1 62.118757,130.74416"
       sodipodi:start="2.4092472"
       sodipodi:end="8.6708271"
       sodipodi:open="true"
       transform="translate(29.36115,10.26604)" />
    <text
       xml:space="preserve"
       style="font-size:10px;font-style:normal;font-variant:normal;font-weight:normal;font-stretch:normal;text-align:start;line-height:100%;writing-mode:lr-tb;text-anchor:start;fill:black;fill-opacity:1;stroke:none;stroke-width:1px;stroke-linecap:butt;stroke-linejoin:miter;stroke-opacity:1;font-family:Thryomanes"
       x="12.437363"
       y="50.340305"
       id="text3799"
       sodipodi:linespacing="100%"><tspan
         sodipodi:role="line"
         id="tspan3801"
         x="12.437363"
         y="50.340305">Etape1 : isochore</tspan></text>
    <path
       style="fill:none;fill-opacity:0.75;fill-rule:evenodd;stroke:black;stroke-width:0.70866144;stroke-linecap:butt;stroke-linejoin:miter;stroke-miterlimit:4;stroke-dasharray:none;stroke-opacity:1"
       d="M 91.573026,146.17025 C 90.957056,146.5809 90.004316,151.2624 83.360112,156.02574 C 78.133588,159.77272 90.957056,165.67591 90.957056,165.67591 L 90.957056,168.55043 L 86.645277,168.55043 L 86.645277,176.76334 L 100.40189,176.76334 L 100.40189,168.34511 L 96.706082,168.34511 L 96.706082,165.67591 C 96.706082,165.67591 105.53061,161.22637 103.0711,154.7938 C 100.4019,147.81283 96.631952,153.75865 91.573026,146.17025 z "
       id="path3756"
       sodipodi:nodetypes="cccccccccccc" />
  </g>
</svg>
