<?xml version="1.0" encoding="UTF-8" standalone="no"?>
<svg
   xmlns:dc="http://purl.org/dc/elements/1.1/"
   xmlns:cc="http://creativecommons.org/ns#"
   xmlns:rdf="http://www.w3.org/1999/02/22-rdf-syntax-ns#"
   xmlns:svg="http://www.w3.org/2000/svg"
   xmlns="http://www.w3.org/2000/svg"
   xmlns:sodipodi="http://sodipodi.sourceforge.net/DTD/sodipodi-0.dtd"
   xmlns:inkscape="http://www.inkscape.org/namespaces/inkscape"
   width="212.59842"
   height="106.29921"
   id="svg1872"
   sodipodi:version="0.32"
   inkscape:version="0.48.3.1 r9886"
   sodipodi:docname="PointingSaisons.svg"
   version="1.0">
  <metadata
     id="metadata1963">
    <rdf:RDF>
      <cc:Work
         rdf:about="">
        <dc:format>image/svg+xml</dc:format>
        <dc:type
           rdf:resource="http://purl.org/dc/dcmitype/StillImage" />
      </cc:Work>
    </rdf:RDF>
  </metadata>
  <sodipodi:namedview
     inkscape:window-height="1017"
     inkscape:window-width="1672"
     inkscape:pageshadow="2"
     inkscape:pageopacity="0.0"
     guidetolerance="10.0"
     gridtolerance="10.0"
     objecttolerance="10.0"
     borderopacity="1.0"
     bordercolor="#666666"
     pagecolor="#ffffff"
     id="base"
     width="6cm"
     height="3cm"
     units="cm"
     inkscape:zoom="7.4600743"
     inkscape:cx="125.691"
     inkscape:cy="52.1854"
     inkscape:window-x="0"
     inkscape:window-y="0"
     inkscape:current-layer="svg1872"
     inkscape:document-units="mm"
     showgrid="false"
     inkscape:window-maximized="0" />
  <defs
     id="defs1874">
    <marker
       inkscape:stockid="Arrow1Mstart"
       orient="auto"
       refY="0.0"
       refX="0.0"
       id="Arrow1Mstart"
       style="overflow:visible">
      <path
         id="path4117"
         d="M 0.0,0.0 L 5.0,-5.0 L -12.5,0.0 L 5.0,5.0 L 0.0,0.0 z "
         style="fill-rule:evenodd;stroke:#000000;stroke-width:1.0pt;marker-start:none"
         transform="scale(0.4) translate(10,0)" />
    </marker>
    <marker
       inkscape:stockid="Arrow1Lstart"
       orient="auto"
       refY="0.0"
       refX="0.0"
       id="Arrow1Lstart"
       style="overflow:visible">
      <path
         id="path4123"
         d="M 0.0,0.0 L 5.0,-5.0 L -12.5,0.0 L 5.0,5.0 L 0.0,0.0 z "
         style="fill-rule:evenodd;stroke:#000000;stroke-width:1.0pt;marker-start:none"
         transform="scale(0.8) translate(12.5,0)" />
    </marker>
    <marker
       inkscape:stockid="Dot_m"
       orient="auto"
       refY="0.0"
       refX="0.0"
       id="Dot_m"
       style="overflow:visible">
      <path
         id="path4058"
         d="M -2.5,-1.0 C -2.5,1.7600000 -4.7400000,4.0 -7.5,4.0 C -10.260000,4.0 -12.5,1.7600000 -12.5,-1.0 C -12.5,-3.7600000 -10.260000,-6.0 -7.5,-6.0 C -4.7400000,-6.0 -2.5,-3.7600000 -2.5,-1.0 z "
         style="fill-rule:evenodd;stroke:#000000;stroke-width:1.0pt;marker-start:none;marker-end:none"
         transform="scale(0.4) translate(7.4, 1)" />
    </marker>
    <marker
       inkscape:stockid="Dot_l"
       orient="auto"
       refY="0.0"
       refX="0.0"
       id="Dot_l"
       style="overflow:visible">
      <path
         id="path4061"
         d="M -2.5,-1.0 C -2.5,1.7600000 -4.7400000,4.0 -7.5,4.0 C -10.260000,4.0 -12.5,1.7600000 -12.5,-1.0 C -12.5,-3.7600000 -10.260000,-6.0 -7.5,-6.0 C -4.7400000,-6.0 -2.5,-3.7600000 -2.5,-1.0 z "
         style="fill-rule:evenodd;stroke:#000000;stroke-width:1.0pt;marker-start:none;marker-end:none"
         transform="scale(0.8) translate(7.4, 1)" />
    </marker>
    <marker
       inkscape:stockid="Arrow1Lend"
       orient="auto"
       refY="0.0"
       refX="0.0"
       id="Arrow1Lend"
       style="overflow:visible;">
      <path
         id="path4120"
         d="M 0.0,0.0 L 5.0,-5.0 L -12.5,0.0 L 5.0,5.0 L 0.0,0.0 z "
         style="fill-rule:evenodd;stroke:#000000;stroke-width:1.0pt;marker-start:none;"
         transform="scale(0.8) rotate(180) translate(12.5,0)" />
    </marker>
    <marker
       inkscape:stockid="Arrow1Mend"
       orient="auto"
       refY="0.0"
       refX="0.0"
       id="Arrow1Mend"
       style="overflow:visible;">
      <path
         id="path4114"
         d="M 0.0,0.0 L 5.0,-5.0 L -12.5,0.0 L 5.0,5.0 L 0.0,0.0 z "
         style="fill-rule:evenodd;stroke:#000000;stroke-width:1.0pt;marker-start:none;"
         transform="scale(0.4) rotate(180) translate(10,0)" />
    </marker>
    <marker
       inkscape:stockid="Arrow1Send"
       orient="auto"
       refY="0.0"
       refX="0.0"
       id="Arrow1Send"
       style="overflow:visible;">
      <path
         id="path4108"
         d="M 0.0,0.0 L 5.0,-5.0 L -12.5,0.0 L 5.0,5.0 L 0.0,0.0 z "
         style="fill-rule:evenodd;stroke:#000000;stroke-width:1.0pt;marker-start:none;"
         transform="scale(0.2) rotate(180) translate(6,0)" />
    </marker>
    <marker
       inkscape:stockid="Arrow2Mend"
       orient="auto"
       refY="0.0"
       refX="0.0"
       id="Arrow2Mend"
       style="overflow:visible;">
      <path
         id="path4096"
         style="font-size:12.0;fill-rule:evenodd;stroke-width:0.62500000;stroke-linejoin:round;"
         d="M 8.7185878,4.0337352 L -2.2072895,0.016013256 L 8.7185884,-4.0017078 C 6.9730900,-1.6296469 6.9831476,1.6157441 8.7185878,4.0337352 z "
         transform="scale(0.6) rotate(180) translate(0,0)" />
    </marker>
    <marker
       id="ArrowEnd"
       viewBox="0 0 10 10"
       refX="0"
       refY="5"
       markerUnits="strokeWidth"
       markerWidth="4"
       markerHeight="3"
       orient="auto">
      <path
         d="M 0,0 L 10,5 L 0,10 L 0,0 z "
         id="path1877" />
    </marker>
    <marker
       id="ArrowStart"
       viewBox="0 0 10 10"
       refX="10"
       refY="5"
       markerUnits="strokeWidth"
       markerWidth="4"
       markerHeight="3"
       orient="auto">
      <path
         d="M 10,0 L 0,5 L 10,10 L 10,0 z "
         id="path1880" />
    </marker>
  </defs>
  <path
     style="fill:none;fill-opacity:0.75;fill-rule:evenodd;stroke:black;stroke-width:0.5;stroke-linecap:butt;stroke-linejoin:miter;stroke-miterlimit:4;stroke-dasharray:none;stroke-opacity:1"
     d="M 38.471465,9.249241 L 75.870557,91.15191"
     id="path2074" />
  <path
     id="path1890"
     d="M 94.00973,51.581214 L 93.97138,49.752816 L 93.8408,47.947428 L 93.62564,46.172916 L 93.31826,44.421414 L 92.9265,42.700592 L 92.45784,41.010449 L 91.89715,39.358657 L 91.2749,37.76075 L 90.57576,36.18605 L 89.79224,34.65737 L 88.9395,33.166843 L 88.017533,31.730301 L 87.034206,30.332206 L 85.981849,28.995472 L 84.86007,27.704757 L 83.684797,26.490938 L 82.463309,25.315665 L 81.180264,24.209422 L 79.843725,23.149199 L 78.445434,22.158202 L 77.00899,21.236432 L 75.518463,20.38369 L 73.989783,19.592309 L 72.414887,18.89336 L 70.81698,18.255574 L 69.165384,17.702551 L 67.482912,17.233897 L 65.76209,16.84214 L 64.010587,16.534752 L 62.235879,16.319797 L 60.430687,16.189211 L 58.602289,16.166004 C 38.889533,16.166004 22.902799,32.14497 22.902799,51.865593 C 22.902799,71.577956 38.881863,87.56489 58.602289,87.56489 C 78.314849,87.56489 94.30925,71.585822 94.30925,51.865593"
     style="fill:white;fill-rule:evenodd;stroke:none" />
  <path
     id="path1892"
     d="M 94.00973,51.581214 L 93.97138,49.752816 L 93.8408,47.947428 L 93.62564,46.172916 L 93.31826,44.421414 L 92.9265,42.700592 L 92.45784,41.010449 L 91.89715,39.358657 L 91.2749,37.76075 L 90.57576,36.18605 L 89.79224,34.65737 L 88.9395,33.166843 L 88.017533,31.730301 L 87.034206,30.332206 L 85.981849,28.995472 L 84.86007,27.704757 L 83.684797,26.490938 L 82.463309,25.315665 L 81.180264,24.209422 L 79.843725,23.149199 L 78.445434,22.158202 L 77.00899,21.236432 L 75.518463,20.38369 L 73.989783,19.592309 L 72.414887,18.89336 L 70.81698,18.255574 L 69.165384,17.702551 L 67.482912,17.233897 L 65.76209,16.84214 L 64.010587,16.534752 L 62.235879,16.319797 L 60.430687,16.189211 L 58.602289,16.166004 C 38.889533,16.166004 22.902799,32.14497 22.902799,51.865593 C 22.902799,71.577956 38.881863,87.56489 58.602289,87.56489 C 78.314849,87.56489 94.30925,71.585822 94.30925,51.865593 L 94.24022,51.796366 L 94.14799,51.7118 L 94.00973,51.581214 z "
     style="fill:none;stroke:white;stroke-width:0" />
  <path
     id="path1894"
     d="M 58.602289,16.166004 C 38.889706,16.083302 22.902799,32.14497 22.902799,51.865593 C 22.902799,71.577956 38.881863,87.56489 58.602289,87.56489 C 78.314849,87.56489 94.30925,71.585822 94.30925,51.865593 L 94.24022,51.796366 C 93.70403,32.091468 78.17314,16.300051 58.602289,16.166004 z "
     style="fill:none;stroke:black;stroke-width:0.71352965"
     sodipodi:nodetypes="cssccc" />
  <path
     id="path1908"
     d="M 27.236953,42.36158 L 27.075491,42.953149 L 26.921895,43.537049 L 26.783639,44.128618 L 26.653054,44.720188 L 26.522468,45.311561 L 26.414892,45.918667 L 26.307316,46.51004 L 26.230616,47.116949 L 26.15372,47.723858 L 26.084494,48.330768 L 26.030804,48.937874 L 25.992454,49.544587 L 25.961578,50.159166 L 25.938568,50.766075 L 25.938568,51.388325 L 25.938568,51.995234 C 25.938568,70.202124 40.350405,85.121161 58.557491,85.75875"
     style="fill:none;stroke:black;stroke-width:0.3567884" />
  <path
     id="path1910"
     d="M 28.479012,46.079932 L 28.409983,46.686842 L 28.348426,47.309091 L 28.294737,47.916 L 28.256387,48.53825 L 28.217841,49.160499 L 28.194831,49.782748 L 28.194831,50.404998 L 28.194831,51.027444 C 28.194831,67.567004 40.086991,81.725536 56.388586,84.575611"
     style="fill:none;stroke:black;stroke-width:0.3567884" />
  <path
     id="path1912"
     d="M 30.323968,52.480172 C 31.046123,65.20167 38.981769,76.417891 50.758683,81.365206"
     style="fill:none;stroke:black;stroke-width:0.3567884" />
  <text
     xml:space="preserve"
     style="font-size:10px;font-style:normal;font-variant:normal;font-weight:normal;font-stretch:normal;text-align:start;line-height:100%;writing-mode:lr-tb;text-anchor:start;fill:black;fill-opacity:1;stroke:none;stroke-width:1px;stroke-linecap:butt;stroke-linejoin:miter;stroke-opacity:1;font-family:Thryomanes"
     x="50.669735"
     y="70.910828"
     id="text2004"
     sodipodi:linespacing="100%"><tspan
       sodipodi:role="line"
       id="tspan2006"
       x="50.669735"
       y="70.910828">Terre</tspan></text>
  <text
     xml:space="preserve"
     style="font-size:10px;font-style:normal;font-variant:normal;font-weight:normal;font-stretch:normal;text-align:start;line-height:100%;writing-mode:lr-tb;text-anchor:start;fill:black;fill-opacity:1;stroke:none;stroke-width:1px;stroke-linecap:butt;stroke-linejoin:miter;stroke-opacity:1;font-family:Thryomanes"
     x="65.951088"
     y="31.769121"
     id="text4134"
     sodipodi:linespacing="100%"><tspan
       sodipodi:role="line"
       id="tspan4136"
       x="65.951088"
       y="31.769121">S</tspan></text>
  <text
     xml:space="preserve"
     style="font-size:10px;font-style:normal;font-variant:normal;font-weight:normal;font-stretch:normal;text-align:start;line-height:100%;writing-mode:lr-tb;text-anchor:start;fill:black;fill-opacity:1;stroke:none;stroke-width:1px;stroke-linecap:butt;stroke-linejoin:miter;stroke-opacity:1;font-family:Thryomanes"
     x="123.05508"
     y="12.332312"
     id="text14955"
     sodipodi:linespacing="100%"><tspan
       sodipodi:role="line"
       id="tspan14957"
       x="123.05508"
       y="12.332312">E</tspan></text>
  <text
     sodipodi:linespacing="100%"
     id="text3093"
     y="56.031616"
     x="79.221718"
     style="font-size:10px;font-style:normal;font-variant:normal;font-weight:normal;font-stretch:normal;text-align:start;line-height:100%;writing-mode:lr-tb;text-anchor:start;fill:black;fill-opacity:1;stroke:none;stroke-width:1px;stroke-linecap:butt;stroke-linejoin:miter;stroke-opacity:1;font-family:Thryomanes"
     xml:space="preserve"><tspan
       y="56.031616"
       x="79.221718"
       id="tspan3095"
       sodipodi:role="line">S'</tspan></text>
  <path
     id="path2973"
     d="M 89.94549,35.254344 L 31.903167,61.259447"
     style="fill:none;fill-opacity:0.75;fill-rule:evenodd;stroke:black;stroke-width:0.5;stroke-linecap:butt;stroke-linejoin:miter;stroke-miterlimit:4;stroke-dasharray:4, 4;stroke-dashoffset:0;stroke-opacity:1"
     sodipodi:nodetypes="cc" />
  <path
     style="fill:none;fill-opacity:0.75;fill-rule:evenodd;stroke:black;stroke-width:0.36084622;stroke-linecap:butt;stroke-linejoin:miter;marker-mid:url(#Arrow1Mend);marker-end:url(#Arrow1Mend);stroke-miterlimit:4;stroke-dasharray:none;stroke-opacity:1"
     d="M 190.07704,18.364432 L 129.49188,18.364432 L 68.906721,18.364432"
     id="path2975"
     sodipodi:nodetypes="ccc" />
  <path
     id="path3874"
     d="M 190.0813,24.802391 L 135.38901,24.802391 L 80.696728,24.802391"
     style="fill:none;fill-opacity:0.75;fill-rule:evenodd;stroke:black;stroke-width:0.3523483;stroke-linecap:butt;stroke-linejoin:miter;marker-mid:url(#Arrow1Mend);marker-end:url(#Arrow1Mend);stroke-miterlimit:4;stroke-dasharray:none;stroke-opacity:1"
     sodipodi:nodetypes="ccc" />
  <path
     id="path5680"
     d="M 190.08615,48.801528 L 141.622,48.801528 L 93.15783,48.801528"
     style="fill:none;fill-opacity:0.75;fill-rule:evenodd;stroke:black;stroke-width:0.34263816;stroke-linecap:butt;stroke-linejoin:miter;marker-mid:url(#Arrow1Mend);marker-end:url(#Arrow1Mend);stroke-miterlimit:4;stroke-dasharray:none;stroke-opacity:1"
     sodipodi:nodetypes="ccc" />
  <path
     style="fill:none;fill-opacity:0.75;fill-rule:evenodd;stroke:black;stroke-width:0.34222522;stroke-linecap:butt;stroke-linejoin:miter;marker-mid:url(#Arrow1Mend);marker-end:url(#Arrow1Mend);stroke-miterlimit:4;stroke-dasharray:none;stroke-opacity:1"
     d="M 190.08636,55.23578 L 141.75569,55.23578 L 93.42502,55.23578"
     id="path5682"
     sodipodi:nodetypes="ccc" />
  <g
     id="g9284"
     transform="translate(-11.39399,-14.20897)">
    <path
       sodipodi:nodetypes="ccccc"
       id="path8381"
       d="M 133.87431,29.719807 L 140.5334,30.911204 L 140.5334,41.861249 L 133.87054,40.565925 L 133.87431,29.719807 z "
       style="fill:white;fill-opacity:1;fill-rule:evenodd;stroke:black;stroke-width:0.28065643;stroke-linecap:butt;stroke-linejoin:miter;stroke-miterlimit:4;stroke-dasharray:none;stroke-opacity:1" />
    <path
       id="path9280"
       d="M 133.8845,32.5561 L 137.01242,32.5561"
       style="fill:none;fill-opacity:0.75;fill-rule:evenodd;stroke:black;stroke-width:0.35787401;stroke-linecap:butt;stroke-linejoin:miter;stroke-miterlimit:4;stroke-dasharray:none;stroke-opacity:1" />
    <path
       style="fill:none;fill-opacity:0.75;fill-rule:evenodd;stroke:black;stroke-width:0.35787401;stroke-linecap:butt;stroke-linejoin:miter;stroke-miterlimit:4;stroke-dasharray:none;stroke-opacity:1"
       d="M 133.83711,39.001513 L 136.96503,39.001513"
       id="path9282" />
  </g>
  <g
     id="g9289"
     transform="translate(-3.351175,16.21968)">
    <path
       style="fill:white;fill-opacity:1;fill-rule:evenodd;stroke:black;stroke-width:0.28065643;stroke-linecap:butt;stroke-linejoin:miter;stroke-miterlimit:4;stroke-dasharray:none;stroke-opacity:1"
       d="M 133.87431,29.719807 L 140.5334,30.911204 L 140.5334,41.861249 L 133.87054,40.565925 L 133.87431,29.719807 z "
       id="path9291"
       sodipodi:nodetypes="ccccc" />
    <path
       style="fill:none;fill-opacity:0.75;fill-rule:evenodd;stroke:black;stroke-width:0.35787401;stroke-linecap:butt;stroke-linejoin:miter;stroke-miterlimit:4;stroke-dasharray:none;stroke-opacity:1"
       d="M 133.8845,32.5561 L 137.01242,32.5561"
       id="path9293" />
    <path
       id="path9295"
       d="M 133.83711,39.001513 L 136.96503,39.001513"
       style="fill:none;fill-opacity:0.75;fill-rule:evenodd;stroke:black;stroke-width:0.35787401;stroke-linecap:butt;stroke-linejoin:miter;stroke-miterlimit:4;stroke-dasharray:none;stroke-opacity:1" />
  </g>
  <text
     sodipodi:linespacing="100%"
     id="text9297"
     y="42.626915"
     x="130.82979"
     style="font-size:10px;font-style:normal;font-variant:normal;font-weight:normal;font-stretch:normal;text-align:start;line-height:100%;writing-mode:lr-tb;text-anchor:start;fill:black;fill-opacity:1;stroke:none;stroke-width:1px;stroke-linecap:butt;stroke-linejoin:miter;stroke-opacity:1;font-family:Thryomanes"
     xml:space="preserve"><tspan
       y="42.626915"
       x="130.82979"
       id="tspan9299"
       sodipodi:role="line">E</tspan></text>
  <path
     style="fill:none;fill-opacity:0.75;fill-rule:evenodd;stroke:black;stroke-width:0.35787401;stroke-linecap:butt;stroke-linejoin:miter;stroke-miterlimit:4;stroke-dasharray:none;stroke-opacity:1"
     d="M 67.559647,17.426104 L 61.125395,17.292057 C 61.125395,17.292057 74.90533,20.534556 81.76862,28.149858 C 81.830732,28.218775 84.985747,28.149858 84.985747,28.149858"
     id="path9301"
     sodipodi:nodetypes="ccsc" />
  <path
     sodipodi:nodetypes="ccsc"
     id="path11097"
     d="M 93.6988,47.050474 L 91.28595,46.916427 C 91.28595,46.916427 93.05744,53.396543 91.41999,57.774228 C 91.38846,57.858528 93.96689,57.774228 93.96689,57.774228"
     style="fill:none;fill-opacity:0.75;fill-rule:evenodd;stroke:black;stroke-width:0.35787401;stroke-linecap:butt;stroke-linejoin:miter;stroke-miterlimit:4;stroke-dasharray:none;stroke-opacity:1" />
  <text
     sodipodi:linespacing="100%"
     id="text12066"
     y="81.634575"
     x="107.63967"
     style="font-size:10px;font-style:normal;font-variant:normal;font-weight:normal;font-stretch:normal;text-align:start;line-height:100%;writing-mode:lr-tb;text-anchor:start;fill:#000000;fill-opacity:1;stroke:none;font-family:Thryomanes"
     xml:space="preserve"><tspan
       y="81.634575"
       x="107.63967"
       id="tspan12068"
       sodipodi:role="line">S&gt;S'→E/S&lt;E/S'</tspan></text>
  <text
     sodipodi:linespacing="100%"
     id="text12070"
     y="91.01786"
     x="80.160065"
     style="font-size:10px;font-style:normal;font-variant:normal;font-weight:normal;font-stretch:normal;text-align:start;line-height:100%;writing-mode:lr-tb;text-anchor:start;fill:black;fill-opacity:1;stroke:none;stroke-width:1px;stroke-linecap:butt;stroke-linejoin:miter;stroke-opacity:1;font-family:Thryomanes"
     xml:space="preserve"><tspan
       y="91.01786"
       x="80.160065"
       id="tspan12072"
       sodipodi:role="line">Sud</tspan></text>
  <text
     xml:space="preserve"
     style="font-size:10px;font-style:normal;font-variant:normal;font-weight:normal;font-stretch:normal;text-align:start;line-height:100%;writing-mode:lr-tb;text-anchor:start;fill:black;fill-opacity:1;stroke:none;stroke-width:1px;stroke-linecap:butt;stroke-linejoin:miter;stroke-opacity:1;font-family:Thryomanes"
     x="43.163109"
     y="12.19827"
     id="text12074"
     sodipodi:linespacing="100%"><tspan
       sodipodi:role="line"
       id="tspan12076"
       x="43.163109"
       y="12.19827">Nord</tspan></text>
</svg>
