%!PS-Adobe-2.0 EPSF-2.0
%%Title: circulaire.fig
%%Creator: fig2dev Version 3.2 Patchlevel 5-alpha5
%%CreationDate: Fri Apr  8 20:36:37 2005
%%For: guyotv@debian ()
%%BoundingBox: 0 0 138 132
%Magnification: 1.0000
%%EndComments
/$F2psDict 200 dict def
$F2psDict begin
$F2psDict /mtrx matrix put
/col-1 {0 setgray} bind def
/col0 {0.000 0.000 0.000 srgb} bind def
/col1 {0.000 0.000 1.000 srgb} bind def
/col2 {0.000 1.000 0.000 srgb} bind def
/col3 {0.000 1.000 1.000 srgb} bind def
/col4 {1.000 0.000 0.000 srgb} bind def
/col5 {1.000 0.000 1.000 srgb} bind def
/col6 {1.000 1.000 0.000 srgb} bind def
/col7 {1.000 1.000 1.000 srgb} bind def
/col8 {0.000 0.000 0.560 srgb} bind def
/col9 {0.000 0.000 0.690 srgb} bind def
/col10 {0.000 0.000 0.820 srgb} bind def
/col11 {0.530 0.810 1.000 srgb} bind def
/col12 {0.000 0.560 0.000 srgb} bind def
/col13 {0.000 0.690 0.000 srgb} bind def
/col14 {0.000 0.820 0.000 srgb} bind def
/col15 {0.000 0.560 0.560 srgb} bind def
/col16 {0.000 0.690 0.690 srgb} bind def
/col17 {0.000 0.820 0.820 srgb} bind def
/col18 {0.560 0.000 0.000 srgb} bind def
/col19 {0.690 0.000 0.000 srgb} bind def
/col20 {0.820 0.000 0.000 srgb} bind def
/col21 {0.560 0.000 0.560 srgb} bind def
/col22 {0.690 0.000 0.690 srgb} bind def
/col23 {0.820 0.000 0.820 srgb} bind def
/col24 {0.500 0.190 0.000 srgb} bind def
/col25 {0.630 0.250 0.000 srgb} bind def
/col26 {0.750 0.380 0.000 srgb} bind def
/col27 {1.000 0.500 0.500 srgb} bind def
/col28 {1.000 0.630 0.630 srgb} bind def
/col29 {1.000 0.750 0.750 srgb} bind def
/col30 {1.000 0.880 0.880 srgb} bind def
/col31 {1.000 0.840 0.000 srgb} bind def

end
save
newpath 0 132 moveto 0 0 lineto 138 0 lineto 138 132 lineto closepath clip newpath
-21.9 145.3 translate
1 -1 scale

/cp {closepath} bind def
/ef {eofill} bind def
/gr {grestore} bind def
/gs {gsave} bind def
/sa {save} bind def
/rs {restore} bind def
/l {lineto} bind def
/m {moveto} bind def
/rm {rmoveto} bind def
/n {newpath} bind def
/s {stroke} bind def
/sh {show} bind def
/slc {setlinecap} bind def
/slj {setlinejoin} bind def
/slw {setlinewidth} bind def
/srgb {setrgbcolor} bind def
/rot {rotate} bind def
/sc {scale} bind def
/sd {setdash} bind def
/ff {findfont} bind def
/sf {setfont} bind def
/scf {scalefont} bind def
/sw {stringwidth} bind def
/tr {translate} bind def
/tnt {dup dup currentrgbcolor
  4 -2 roll dup 1 exch sub 3 -1 roll mul add
  4 -2 roll dup 1 exch sub 3 -1 roll mul add
  4 -2 roll dup 1 exch sub 3 -1 roll mul add srgb}
  bind def
/shd {dup dup currentrgbcolor 4 -2 roll mul 4 -2 roll mul
  4 -2 roll mul srgb} bind def
 /DrawEllipse {
	/endangle exch def
	/startangle exch def
	/yrad exch def
	/xrad exch def
	/y exch def
	/x exch def
	/savematrix mtrx currentmatrix def
	x y tr xrad yrad sc 0 0 1 startangle endangle arc
	closepath
	savematrix setmatrix
	} def

/$F2psBegin {$F2psDict begin /$F2psEnteredState save def} def
/$F2psEnd {$F2psEnteredState restore end} def

$F2psBegin
10 setmiterlimit
0 slj 0 slc
 0.06299 0.06299 sc
%
% Fig objects follow
%
% 
% here starts figure with depth 50
% Arc
7.500 slw
0 slc
n 1396.3 1288.7 96.3 -56.8572 6.7556 arc
gs col0 s gr

% Ellipse
n 1350 1305 826 826 0 360 DrawEllipse gs col0 s gr

% Polyline
0 slj
gs  clippath
1372 377 m 1372 210 l 1327 210 l 1327 377 l 1327 377 l 1350 265 l 1372 377 l cp
eoclip
n 1350 225 m
 1350 2295 l gs col0 s gr gr

% arrowhead
n 1372 377 m 1350 265 l 1327 377 l 1350 355 l 1372 377 l 
 cp gs 0.00 setgray ef gr  col0 s
% Polyline
gs  clippath
2367 1327 m 2535 1327 l 2535 1282 l 2367 1282 l 2367 1282 l 2480 1305 l 2367 1327 l cp
eoclip
n 2520 1305 m
 360 1305 l gs col0 s gr gr

% arrowhead
n 2367 1327 m 2480 1305 l 2367 1282 l 2390 1305 l 2367 1327 l 
 cp gs 0.00 setgray ef gr  col0 s
% Polyline
n 1350 1300 m
 1960 754 l gs col0 s gr 
/Times-Roman ff 158.75 scf sf
2278 1246 m
gs 1 -1 sc (x) col0 sh gr
/Times-Roman ff 158.75 scf sf
1407 400 m
gs 1 -1 sc (y) col0 sh gr
/Times-Roman ff 158.75 scf sf
1187 1463 m
gs 1 -1 sc (O) col0 sh gr
/Times-Roman ff 158.75 scf sf
1556 995 m
gs 1 -1 sc (R) col0 sh gr
/Symbol ff 158.75 scf sf
1542 1258 m
gs 1 -1 sc (a) col0 sh gr
% here ends figure;
$F2psEnd
rs
showpage
%%Trailer
%EOF
