%!PS-Adobe-2.0 EPSF-2.0
%%Title: spherique.fig
%%Creator: fig2dev Version 3.2 Patchlevel 5-alpha5
%%CreationDate: Fri Apr  8 20:53:00 2005
%%For: guyotv@debian ()
%%BoundingBox: 0 0 128 122
%Magnification: 1.0000
%%EndComments
/$F2psDict 200 dict def
$F2psDict begin
$F2psDict /mtrx matrix put
/col-1 {0 setgray} bind def
/col0 {0.000 0.000 0.000 srgb} bind def
/col1 {0.000 0.000 1.000 srgb} bind def
/col2 {0.000 1.000 0.000 srgb} bind def
/col3 {0.000 1.000 1.000 srgb} bind def
/col4 {1.000 0.000 0.000 srgb} bind def
/col5 {1.000 0.000 1.000 srgb} bind def
/col6 {1.000 1.000 0.000 srgb} bind def
/col7 {1.000 1.000 1.000 srgb} bind def
/col8 {0.000 0.000 0.560 srgb} bind def
/col9 {0.000 0.000 0.690 srgb} bind def
/col10 {0.000 0.000 0.820 srgb} bind def
/col11 {0.530 0.810 1.000 srgb} bind def
/col12 {0.000 0.560 0.000 srgb} bind def
/col13 {0.000 0.690 0.000 srgb} bind def
/col14 {0.000 0.820 0.000 srgb} bind def
/col15 {0.000 0.560 0.560 srgb} bind def
/col16 {0.000 0.690 0.690 srgb} bind def
/col17 {0.000 0.820 0.820 srgb} bind def
/col18 {0.560 0.000 0.000 srgb} bind def
/col19 {0.690 0.000 0.000 srgb} bind def
/col20 {0.820 0.000 0.000 srgb} bind def
/col21 {0.560 0.000 0.560 srgb} bind def
/col22 {0.690 0.000 0.690 srgb} bind def
/col23 {0.820 0.000 0.820 srgb} bind def
/col24 {0.500 0.190 0.000 srgb} bind def
/col25 {0.630 0.250 0.000 srgb} bind def
/col26 {0.750 0.380 0.000 srgb} bind def
/col27 {1.000 0.500 0.500 srgb} bind def
/col28 {1.000 0.630 0.630 srgb} bind def
/col29 {1.000 0.750 0.750 srgb} bind def
/col30 {1.000 0.880 0.880 srgb} bind def
/col31 {1.000 0.840 0.000 srgb} bind def

end
save
newpath 0 122 moveto 0 0 lineto 128 0 lineto 128 122 lineto closepath clip newpath
-32.4 134.7 translate
1 -1 scale

/cp {closepath} bind def
/ef {eofill} bind def
/gr {grestore} bind def
/gs {gsave} bind def
/sa {save} bind def
/rs {restore} bind def
/l {lineto} bind def
/m {moveto} bind def
/rm {rmoveto} bind def
/n {newpath} bind def
/s {stroke} bind def
/sh {show} bind def
/slc {setlinecap} bind def
/slj {setlinejoin} bind def
/slw {setlinewidth} bind def
/srgb {setrgbcolor} bind def
/rot {rotate} bind def
/sc {scale} bind def
/sd {setdash} bind def
/ff {findfont} bind def
/sf {setfont} bind def
/scf {scalefont} bind def
/sw {stringwidth} bind def
/tr {translate} bind def
/tnt {dup dup currentrgbcolor
  4 -2 roll dup 1 exch sub 3 -1 roll mul add
  4 -2 roll dup 1 exch sub 3 -1 roll mul add
  4 -2 roll dup 1 exch sub 3 -1 roll mul add srgb}
  bind def
/shd {dup dup currentrgbcolor 4 -2 roll mul 4 -2 roll mul
  4 -2 roll mul srgb} bind def
 /DrawEllipse {
	/endangle exch def
	/startangle exch def
	/yrad exch def
	/xrad exch def
	/y exch def
	/x exch def
	/savematrix mtrx currentmatrix def
	x y tr xrad yrad sc 0 0 1 startangle endangle arc
	closepath
	savematrix setmatrix
	} def

/$F2psBegin {$F2psDict begin /$F2psEnteredState save def} def
/$F2psEnd {$F2psEnteredState restore end} def

$F2psBegin
10 setmiterlimit
0 slj 0 slc
 0.06299 0.06299 sc
%
% Fig objects follow
%
% 
% here starts figure with depth 50
% Arc
7.500 slw
0 slc
n 1375.0 1223.8 70.4 -110.8058 -31.5173 arc
gs col0 s gr

% Arc
n 1360.0 1200.1 192.2 117.2420 54.7097 arcn
gs col0 s gr

% Ellipse
n 1350 1305 826 826 0 360 DrawEllipse gs col0 s gr

% Ellipse
n 1719 797 25 25 0 360 DrawEllipse gs 0.00 setgray ef gr gs col0 s gr

% Polyline
0 slj
gs  clippath
1372 377 m 1372 210 l 1327 210 l 1327 377 l 1327 377 l 1350 265 l 1372 377 l cp
eoclip
n 1350 225 m
 1350 1307 l gs col0 s gr gr

% arrowhead
n 1372 377 m 1350 265 l 1327 377 l 1350 355 l 1372 377 l 
 cp gs 0.00 setgray ef gr  col0 s
% Polyline
gs  clippath
2367 1327 m 2535 1327 l 2534 1282 l 2367 1282 l 2367 1282 l 2480 1305 l 2367 1327 l cp
eoclip
n 2520 1305 m
 1350 1307 l gs col0 s gr gr

% arrowhead
n 2367 1327 m 2480 1305 l 2367 1282 l 2390 1305 l 2367 1327 l 
 cp gs 0.00 setgray ef gr  col0 s
% Polyline
n 1350 1300 m
 1726 790 l gs col0 s gr 
% Polyline
gs  clippath
888 1599 m 750 1695 l 776 1732 l 914 1636 l 914 1636 l 809 1682 l 888 1599 l cp
eoclip
n 776 1705 m
 1350 1307 l gs col0 s gr gr

% arrowhead
n 888 1599 m 809 1682 l 914 1636 l 882 1630 l 888 1599 l 
 cp gs 0.00 setgray ef gr  col0 s
% Polyline
 [15 45] 45 sd
n 1726 797 m 1726 1456 l
 1350 1307 l gs col0 s gr  [] 0 sd
% Polyline
2 slj
n 527 1272 m 527 1273 l 528 1276 l 530 1284 l 533 1295 l 537 1307 l
 544 1321 l 555 1338 l 570 1357 l 584 1372 l 596 1383 l
 605 1390 l 610 1393 l 614 1395 l 617 1397 l 623 1401 l
 633 1407 l 649 1416 l 669 1428 l 689 1439 l 705 1447 l
 715 1452 l 721 1454 l 724 1455 l 727 1456 l 732 1458 l
 743 1462 l 760 1469 l 783 1478 l 806 1487 l 824 1493 l
 835 1497 l 842 1499 l 845 1500 l 849 1501 l 855 1503 l
 867 1507 l 886 1513 l 910 1520 l 934 1527 l 952 1533 l
 963 1536 l 968 1538 l 970 1539 l 972 1540 l 977 1542 l
 989 1545 l 1010 1550 l 1038 1556 l 1063 1561 l 1085 1565 l
 1102 1568 l 1113 1570 l 1121 1572 l 1127 1572 l 1133 1573 l
 1141 1574 l 1152 1576 l 1169 1578 l 1190 1581 l 1215 1584 l
 1243 1587 l 1266 1589 l 1284 1590 l 1299 1591 l 1311 1591 l
 1321 1591 l 1329 1591 l 1334 1591 l
 1336 1591 l gs col0 s gr 
% Polyline
n 2173 1300 m 2173 1301 l 2172 1304 l 2170 1312 l 2166 1323 l 2161 1335 l
 2154 1349 l 2144 1366 l 2130 1385 l 2117 1400 l 2107 1411 l
 2100 1418 l 2097 1421 l 2095 1423 l 2092 1425 l 2088 1429 l
 2079 1435 l 2065 1444 l 2045 1456 l 2024 1467 l 2007 1475 l
 1996 1480 l 1990 1482 l 1986 1483 l 1982 1484 l 1975 1486 l
 1963 1490 l 1943 1497 l 1917 1506 l 1895 1513 l 1876 1519 l
 1862 1523 l 1854 1526 l 1849 1528 l 1846 1529 l 1843 1530 l
 1838 1531 l 1829 1534 l 1814 1537 l 1793 1542 l 1768 1548 l
 1742 1554 l 1721 1558 l 1705 1561 l 1695 1563 l 1689 1564 l
 1685 1565 l 1681 1565 l 1675 1566 l 1665 1568 l 1649 1570 l
 1626 1573 l 1598 1577 l 1570 1580 l 1546 1583 l 1529 1585 l
 1517 1586 l 1508 1586 l 1502 1586 l 1497 1587 l 1489 1587 l
 1478 1588 l 1463 1589 l 1443 1590 l 1421 1591 l 1392 1592 l
 1372 1593 l 1358 1593 l 1349 1592 l 1342 1592 l 1338 1591 l

 1336 1591 l gs col0 s gr 
% Polyline
 [60] 0 sd
n 527 1307 m 527 1306 l 528 1303 l 530 1295 l 533 1284 l 537 1272 l
 544 1258 l 555 1241 l 570 1222 l 584 1207 l 596 1196 l
 605 1189 l 610 1186 l 614 1184 l 617 1182 l 623 1178 l
 633 1172 l 649 1163 l 669 1151 l 689 1140 l 705 1132 l
 715 1127 l 721 1125 l 724 1124 l 727 1123 l 732 1121 l
 743 1117 l 760 1110 l 783 1101 l 806 1092 l 824 1086 l
 835 1082 l 842 1080 l 845 1079 l 849 1078 l 855 1076 l
 867 1072 l 886 1066 l 910 1059 l 934 1052 l 952 1046 l
 963 1043 l 968 1041 l 970 1040 l 972 1039 l 977 1037 l
 989 1034 l 1010 1029 l 1038 1023 l 1063 1018 l 1085 1014 l
 1102 1011 l 1113 1009 l 1121 1007 l 1127 1007 l 1133 1006 l
 1141 1005 l 1152 1003 l 1169 1001 l 1190 998 l 1215 995 l
 1243 992 l 1266 990 l 1284 989 l 1299 988 l 1311 988 l
 1321 988 l 1329 988 l 1334 988 l
 1336 988 l gs col0 s gr  [] 0 sd
% Polyline
 [60] 0 sd
n 2181 1279 m 2181 1278 l 2180 1275 l 2178 1267 l 2174 1256 l 2169 1244 l
 2162 1230 l 2152 1213 l 2138 1194 l 2125 1179 l 2115 1168 l
 2108 1161 l 2105 1158 l 2103 1156 l 2100 1154 l 2096 1150 l
 2087 1144 l 2073 1135 l 2053 1123 l 2032 1112 l 2015 1104 l
 2004 1099 l 1998 1097 l 1994 1096 l 1990 1095 l 1983 1093 l
 1971 1089 l 1951 1082 l 1925 1073 l 1903 1066 l 1884 1060 l
 1870 1056 l 1862 1053 l 1857 1051 l 1854 1050 l 1851 1049 l
 1846 1048 l 1837 1045 l 1822 1042 l 1801 1037 l 1776 1031 l
 1750 1025 l 1729 1021 l 1713 1018 l 1703 1016 l 1697 1015 l
 1693 1014 l 1689 1014 l 1683 1013 l 1673 1011 l 1657 1009 l
 1634 1006 l 1606 1002 l 1578 999 l 1554 996 l 1537 994 l
 1525 993 l 1516 993 l 1510 993 l 1505 992 l 1497 992 l
 1486 991 l 1471 990 l 1451 989 l 1429 988 l 1400 987 l
 1380 986 l 1366 986 l 1357 987 l 1350 987 l 1346 988 l

 1344 988 l gs col0 s gr  [] 0 sd
/Symbol ff 158.75 scf sf
1542 1258 m
gs 1 -1 sc (a) col0 sh gr
/Times-Roman ff 158.75 scf sf
1450 967 m
gs 1 -1 sc (R) col0 sh gr
/Times-Roman ff 158.75 scf sf
1202 1286 m
gs 1 -1 sc (O) col0 sh gr
/Times-Roman ff 158.75 scf sf
2300 1237 m
gs 1 -1 sc (y) col0 sh gr
/Times-Roman ff 158.75 scf sf
1421 414 m
gs 1 -1 sc (z) col0 sh gr
/Times-Roman ff 158.75 scf sf
718 1643 m
gs 1 -1 sc (x) col0 sh gr
/Symbol ff 158.75 scf sf
1371 1123 m
gs 1 -1 sc (q) col0 sh gr
/Symbol ff 158.75 scf sf
1307 1506 m
gs 1 -1 sc (j) col0 sh gr
/Times-Roman ff 158.75 scf sf
1769 846 m
gs 1 -1 sc (P) col0 sh gr
% here ends figure;
$F2psEnd
rs
showpage
%%Trailer
%EOF
