\relax 
\citation{GC88}
\@writefile{toc}{\contentsline {chapter}{\numberline {I}Relativit\IeC {\'e}}{195}}
\@writefile{lof}{\addvspace {10\p@ }}
\@writefile{lot}{\addvspace {10\p@ }}
\newlabel{relativite}{{I}{195}}
\@writefile{toc}{\contentsline {section}{\numberline {I.1}Relativit\IeC {\'e} galil\IeC {\'e}enne}{195}}
\citation{JR00}
\@writefile{toc}{\contentsline {section}{\numberline {I.2}Transformation galil\IeC {\'e}enne}{196}}
\@writefile{lof}{\contentsline {figure}{\numberline {I.1}{\ignorespaces Transformation de galil\IeC {\'e}e}}{196}}
\newlabel{transgalilee}{{I.1}{196}}
\newlabel{eqtransgalilee}{{I.1}{196}}
\newlabel{thmaddvit}{{I.2}{196}}
\citation{GC88}
\newlabel{thmaddvit2}{{I.3}{197}}
\@writefile{toc}{\contentsline {section}{\numberline {I.3}Invariance}{197}}
\@writefile{toc}{\contentsline {section}{\numberline {I.4}Forces inertielles}{197}}
\@writefile{toc}{\contentsline {subsection}{\numberline {I.4.1}Force d'inertie}{197}}
\citation{GC88}
\newlabel{accobjetdsreftournant}{{I.5}{198}}
\newlabel{accreftournant}{{I.6}{198}}
\newlabel{acctournantfinale}{{I.7}{198}}
\newlabel{secondeR}{{I.8}{198}}
\newlabel{secondeR'}{{I.9}{198}}
\@writefile{toc}{\contentsline {subsection}{\numberline {I.4.2}Force centrifuge}{198}}
\newlabel{forcecentrifuge}{{I.4.2}{198}}
\@setckpt{Annexe-Relativite/Annexe-Relativite}{
\setcounter{page}{199}
\setcounter{equation}{11}
\setcounter{enumi}{2}
\setcounter{enumii}{0}
\setcounter{enumiii}{0}
\setcounter{enumiv}{0}
\setcounter{footnote}{1}
\setcounter{mpfootnote}{0}
\setcounter{part}{0}
\setcounter{chapter}{9}
\setcounter{section}{4}
\setcounter{subsection}{2}
\setcounter{subsubsection}{0}
\setcounter{paragraph}{0}
\setcounter{subparagraph}{0}
\setcounter{figure}{1}
\setcounter{table}{0}
\setcounter{NAT@ctr}{0}
\setcounter{parentequation}{0}
\setcounter{FancyVerbLine}{0}
\setcounter{float@type}{8}
\setcounter{fignum}{1}
\setcounter{r@tfl@t}{4}
\setcounter{subfigure}{0}
\setcounter{lofdepth}{1}
\setcounter{subtable}{0}
\setcounter{lotdepth}{1}
\setcounter{ContinuedFloat}{0}
\setcounter{endnote}{104}
\setcounter{OptionTest}{0}
\setcounter{DefaultLines}{2}
\setcounter{DefaultDepth}{0}
\setcounter{L@lines}{3}
\setcounter{L@depth}{0}
\setcounter{lstnumber}{1}
\setcounter{Solution}{0}
\setcounter{exc}{0}
\setcounter{Solution OS}{0}
\setcounter{exosc}{0}
\setcounter{lstlisting}{0}
}
