\relax 
\@writefile{toc}{\contentsline {chapter}{\numberline {8}L'\IeC {\'e}nergie}{119}}
\@writefile{lof}{\addvspace {10\p@ }}
\@writefile{lot}{\addvspace {10\p@ }}
\@writefile{toc}{\contentsline {section}{\numberline {8.1}Introduction}{119}}
\@writefile{lof}{\contentsline {figure}{\numberline {8.1}{\ignorespaces \IeC {\'E}nergie et vitesse\relax }}{119}}
\newlabel{energie}{{8.1}{119}}
\@writefile{toc}{\contentsline {section}{\numberline {8.2}Le travail}{119}}
\newlabel{historiquement}{{8.2.1}{119}}
\@writefile{toc}{\contentsline {subsection}{\numberline {8.2.1}Historiquement}{119}}
\@writefile{lof}{\contentsline {figure}{\numberline {8.2}{\ignorespaces Balance \IeC {\`a} fl\IeC {\'e}au\relax }}{119}}
\newlabel{balance}{{8.2}{119}}
\@writefile{toc}{\contentsline {subsection}{\numberline {8.2.2}D\IeC {\'e}finition}{120}}
\@writefile{toc}{\contentsline {subsubsection}{Travail simple}{120}}
\@writefile{lof}{\contentsline {figure}{\numberline {8.3}{\ignorespaces Travail simple\relax }}{120}}
\newlabel{travailsimple}{{8.3}{120}}
\@writefile{toc}{\contentsline {subsubsection}{Travail et produit scalaire}{120}}
\@writefile{lof}{\contentsline {figure}{\numberline {8.4}{\ignorespaces Travail et produit scalaire\relax }}{120}}
\newlabel{travailvecteur}{{8.4}{120}}
\@writefile{toc}{\contentsline {subsubsection}{Travail cas g\IeC {\'e}n\IeC {\'e}ral}{120}}
\@writefile{lof}{\contentsline {figure}{\numberline {8.5}{\ignorespaces Travail en g\IeC {\'e}n\IeC {\'e}ral\relax }}{120}}
\newlabel{travailgeneral}{{8.5}{120}}
\newlabel{travail}{{8.1}{121}}
\@writefile{toc}{\contentsline {section}{\numberline {8.3}L'\IeC {\'e}nergie}{121}}
\@writefile{toc}{\contentsline {subsection}{\numberline {8.3.1}Introduction}{121}}
\@writefile{toc}{\contentsline {subsection}{\numberline {8.3.2}\IeC {\'E}nergie potentielle}{121}}
\newlabel{enpotdef}{{8.2}{122}}
\newlabel{\IeC {\'e}nergie cin\IeC {\'e}tique}{{8.3.3}{122}}
\@writefile{toc}{\contentsline {subsection}{\numberline {8.3.3}\IeC {\'E}nergie cin\IeC {\'e}tique}{122}}
\newlabel{eqencindef}{{8.3}{122}}
\@writefile{toc}{\contentsline {subsection}{\numberline {8.3.4}\IeC {\'E}nergie m\IeC {\'e}canique}{122}}
\newlabel{enmec}{{8.4}{122}}
\@writefile{toc}{\contentsline {subsection}{\numberline {8.3.5}Exemple}{122}}
\@writefile{toc}{\contentsline {section}{\numberline {8.4}Conservation de l'\IeC {\'e}nergie}{122}}
\@writefile{toc}{\contentsline {subsection}{\numberline {8.4.1}Introduction}{122}}
\@writefile{toc}{\contentsline {subsection}{\numberline {8.4.2}Th\IeC {\'e}or\IeC {\`e}me de conservation de l'\IeC {\'e}nergie m\IeC {\'e}canique}{122}}
\newlabel{consenmec0}{{8.5}{123}}
\newlabel{consenmec}{{8.6}{123}}
\@writefile{toc}{\contentsline {subsection}{\numberline {8.4.3}Exemples}{123}}
\@writefile{toc}{\contentsline {section}{\numberline {8.5}Limite du th\IeC {\'e}or\IeC {\`e}me de conservation}{124}}
\newlabel{mecnc}{{8.14}{124}}
\@writefile{toc}{\contentsline {section}{\numberline {8.6}Forces conservatives}{124}}
\newlabel{conservatives}{{8.6}{124}}
\@writefile{toc}{\contentsline {subsection}{\numberline {8.6.1}D\IeC {\'e}finition}{124}}
\newlabel{forceconservative}{{8.15}{124}}
\@writefile{toc}{\contentsline {subsection}{\numberline {8.6.2}Exemples}{124}}
\@writefile{toc}{\contentsline {subsubsection}{Le poids}{124}}
\@writefile{lof}{\contentsline {figure}{\numberline {8.6}{\ignorespaces Travail du poids\relax }}{125}}
\newlabel{travailferme}{{8.6}{125}}
\@writefile{toc}{\contentsline {subsubsection}{Le ressort}{125}}
\newlabel{enpotres}{{8.16}{125}}
\@writefile{toc}{\contentsline {subsection}{\numberline {8.6.3}G\IeC {\'e}n\IeC {\'e}ralisation}{125}}
\newlabel{fderiveenpot}{{8.17}{126}}
\newlabel{fintenpot}{{8.18}{126}}
\newlabel{enpotvsf}{{8.19}{126}}
\@writefile{toc}{\contentsline {subsubsection}{\IeC {\'E}nergie gravifique}{126}}
\newlabel{forcedegravitation}{{8.20}{126}}
\newlabel{enpotgrav}{{8.21}{126}}
\@writefile{lof}{\contentsline {figure}{\numberline {8.7}{\ignorespaces Force et \IeC {\'e}nergie potentielle de gravitation entre la Terre et le Soleil\relax }}{127}}
\newlabel{forceetenpotST}{{8.7}{127}}
\@setckpt{EnergieOS/EnergieOS}{
\setcounter{page}{128}
\setcounter{equation}{21}
\setcounter{enumi}{2}
\setcounter{enumii}{0}
\setcounter{enumiii}{0}
\setcounter{enumiv}{0}
\setcounter{footnote}{0}
\setcounter{mpfootnote}{0}
\setcounter{part}{0}
\setcounter{chapter}{8}
\setcounter{section}{6}
\setcounter{subsection}{3}
\setcounter{subsubsection}{0}
\setcounter{paragraph}{0}
\setcounter{subparagraph}{0}
\setcounter{figure}{7}
\setcounter{table}{0}
\setcounter{NAT@ctr}{0}
\setcounter{parentequation}{0}
\setcounter{FancyVerbLine}{0}
\setcounter{float@type}{8}
\setcounter{fignum}{1}
\setcounter{r@tfl@t}{3}
\setcounter{subfigure}{0}
\setcounter{lofdepth}{1}
\setcounter{subtable}{0}
\setcounter{lotdepth}{1}
\setcounter{ContinuedFloat}{0}
\setcounter{endnote}{82}
\setcounter{OptionTest}{0}
\setcounter{DefaultLines}{2}
\setcounter{DefaultDepth}{0}
\setcounter{L@lines}{3}
\setcounter{L@depth}{0}
\setcounter{lstnumber}{1}
\setcounter{Solution}{0}
\setcounter{exc}{0}
\setcounter{Solution OS}{0}
\setcounter{exosc}{0}
\setcounter{lstlisting}{0}
}
