\relax 
\@writefile{toc}{\contentsline {chapter}{\numberline {N}M\IeC {\'e}canique diff\IeC {\'e}rentielle}{181}}
\@writefile{lof}{\addvspace {10\p@ }}
\@writefile{lot}{\addvspace {10\p@ }}
\@writefile{toc}{\contentsline {section}{\numberline {N.1}Introduction}{181}}
\@writefile{toc}{\contentsline {section}{\numberline {N.2}Cin\IeC {\'e}matique}{181}}
\newlabel{cinemadiff}{{N.2}{181}}
\newlabel{posvitaccdiff}{{N.4}{181}}
\@writefile{toc}{\contentsline {subsection}{\numberline {N.2.1}Exemples}{182}}
\@writefile{toc}{\contentsline {subsubsection}{Mouvement rectiligne uniform\IeC {\'e}ment acc\IeC {\'e}l\IeC {\'e}r\IeC {\'e} : MRUA}{182}}
\@writefile{toc}{\contentsline {subsubsection}{Port\IeC {\'e} maximum en balistique}{182}}
\@writefile{toc}{\contentsline {section}{\numberline {N.3}Dynamique}{183}}
\newlabel{diffma}{{N.7}{183}}
\@writefile{toc}{\contentsline {subsection}{\numberline {N.3.1}Int\IeC {\'e}gration}{183}}
\@writefile{toc}{\contentsline {subsubsection}{Chute libre}{183}}
\@writefile{toc}{\contentsline {subsubsection}{Freinage}{183}}
\@writefile{toc}{\contentsline {subsection}{\numberline {N.3.2}\IeC {\'E}quation diff\IeC {\'e}rentielle}{184}}
\@writefile{toc}{\contentsline {subsubsection}{Chute dans un fluide visqueux}{184}}
\@writefile{lof}{\contentsline {figure}{\numberline {N.1}{\ignorespaces Chute soumise \IeC {\`a} un frottement visqueux}}{184}}
\newlabel{chutevisqueuse}{{N.1}{184}}
\@writefile{toc}{\contentsline {subsubsection}{Mouvement harmonique}{185}}
\@writefile{lof}{\contentsline {figure}{\numberline {N.2}{\ignorespaces Chute visqueuse}}{185}}
\newlabel{figchutevisqueuse}{{N.2}{185}}
\@writefile{lof}{\contentsline {figure}{\numberline {N.3}{\ignorespaces Masse oscillante}}{185}}
\newlabel{masseoscillante}{{N.3}{185}}
\newlabel{cond_init}{{N.8}{186}}
\newlabel{ressortposition}{{N.9}{186}}
\newlabel{ressortvitesse}{{N.10}{186}}
\newlabel{ressort1ersol}{{N.11}{186}}
\newlabel{ressortvitmax}{{N.12}{186}}
\@writefile{toc}{\contentsline {subsubsection}{Mouvement harmonique d'une masse pendante}{187}}
\@writefile{lof}{\contentsline {figure}{\numberline {N.4}{\ignorespaces Masse suspendue}}{187}}
\newlabel{massesuspendue}{{N.4}{187}}
\@writefile{lof}{\contentsline {figure}{\numberline {N.5}{\ignorespaces Masse oscillante suspendue}}{187}}
\newlabel{masseoscillantesuspendue}{{N.5}{187}}
\@writefile{toc}{\contentsline {subsubsection}{Mouvement non lin\IeC {\'e}aire}{187}}
\newlabel{non-lineaire}{{N.14}{187}}
\@setckpt{Annexe-MecaniqueDifferentielle/Annexe-MecaniqueDifferentielle}{
\setcounter{page}{189}
\setcounter{equation}{14}
\setcounter{enumi}{2}
\setcounter{enumii}{0}
\setcounter{enumiii}{0}
\setcounter{enumiv}{0}
\setcounter{footnote}{0}
\setcounter{mpfootnote}{0}
\setcounter{part}{0}
\setcounter{chapter}{14}
\setcounter{section}{3}
\setcounter{subsection}{2}
\setcounter{subsubsection}{0}
\setcounter{paragraph}{0}
\setcounter{subparagraph}{0}
\setcounter{figure}{5}
\setcounter{table}{0}
\setcounter{FancyVerbLine}{0}
\setcounter{float@type}{8}
\setcounter{r@tfl@t}{4}
\setcounter{subfigure}{0}
\setcounter{lofdepth}{1}
\setcounter{subtable}{0}
\setcounter{lotdepth}{1}
\setcounter{parentequation}{0}
\setcounter{endnote}{65}
\setcounter{OptionTest}{0}
\setcounter{DefaultLines}{2}
\setcounter{L@lines}{3}
\setcounter{lstlisting}{0}
\setcounter{lstnumber}{1}
\setcounter{ex}{71}
}
