\relax 
\citation{AK05}
\citation{AS06}
\@writefile{toc}{\contentsline {chapter}{\numberline {A}Syst\IeC {\`e}mes d'unit\IeC {\'e}s}{163}}
\@writefile{lof}{\addvspace {10\p@ }}
\@writefile{lot}{\addvspace {10\p@ }}
\newlabel{SI}{{A}{163}}
\@writefile{toc}{\contentsline {section}{\numberline {A.1}Introduction}{163}}
\@writefile{toc}{\contentsline {section}{\numberline {A.2}Op\IeC {\'e}rateur d'unit\IeC {\'e}s}{163}}
\newlabel{express_unite}{{A.1}{163}}
\@writefile{toc}{\contentsline {section}{\numberline {A.3}Analyse dimensionnelle}{164}}
\@writefile{toc}{\contentsline {section}{\numberline {A.4}Les unit\IeC {\'e}s du Syst\IeC {\`e}me International}{165}}
\@writefile{toc}{\contentsline {subsection}{\numberline {A.4.1}Exemple}{165}}
\@writefile{toc}{\contentsline {section}{\numberline {A.5}Conversions}{165}}
\newlabel{relationdarc}{{A.2}{165}}
\@writefile{lof}{\contentsline {figure}{\numberline {A.1}{\ignorespaces Relation de l'arc de cercle\relax }}{165}}
\newlabel{arc}{{A.1}{165}}
\@writefile{lot}{\contentsline {table}{\numberline {A.1}{\ignorespaces Les unit\IeC {\'e}s du Syst\IeC {\`e}me International\relax }}{166}}
\newlabel{AL}{{A.1}{166}}
\@writefile{lot}{\contentsline {table}{\numberline {A.2}{\ignorespaces Conversions d'unit\IeC {\'e}s\relax }}{166}}
\newlabel{grandeurs}{{A.2}{166}}
\@writefile{toc}{\contentsline {section}{\numberline {A.6}Sous-multiples}{166}}
\@writefile{lot}{\contentsline {table}{\numberline {A.3}{\ignorespaces Quelques \IeC {\'e}quivalents\relax }}{166}}
\@writefile{toc}{\contentsline {section}{\numberline {A.7}Notation scientifique}{166}}
\@writefile{lot}{\contentsline {table}{\numberline {A.4}{\ignorespaces Multiples et sous-multiples\relax }}{167}}
\newlabel{prefixes}{{A.4}{167}}
\@writefile{toc}{\contentsline {section}{\numberline {A.8}R\IeC {\`e}gles de calcul}{167}}
\@setckpt{Annexe-UnitesInternationales/Annexe-UnitesInternationales}{
\setcounter{page}{168}
\setcounter{equation}{2}
\setcounter{enumi}{3}
\setcounter{enumii}{0}
\setcounter{enumiii}{0}
\setcounter{enumiv}{0}
\setcounter{footnote}{0}
\setcounter{mpfootnote}{0}
\setcounter{part}{0}
\setcounter{chapter}{1}
\setcounter{section}{8}
\setcounter{subsection}{0}
\setcounter{subsubsection}{0}
\setcounter{paragraph}{0}
\setcounter{subparagraph}{0}
\setcounter{figure}{1}
\setcounter{table}{4}
\setcounter{NAT@ctr}{0}
\setcounter{parentequation}{0}
\setcounter{FancyVerbLine}{0}
\setcounter{float@type}{8}
\setcounter{fignum}{1}
\setcounter{r@tfl@t}{4}
\setcounter{subfigure}{0}
\setcounter{lofdepth}{1}
\setcounter{subtable}{0}
\setcounter{lotdepth}{1}
\setcounter{ContinuedFloat}{0}
\setcounter{endnote}{91}
\setcounter{OptionTest}{0}
\setcounter{DefaultLines}{2}
\setcounter{DefaultDepth}{0}
\setcounter{L@lines}{3}
\setcounter{L@depth}{0}
\setcounter{lstnumber}{1}
\setcounter{Solution}{0}
\setcounter{exc}{0}
\setcounter{Solution OS}{0}
\setcounter{exosc}{0}
\setcounter{lstlisting}{0}
}
