%!PS-Adobe-2.0 EPSF-2.0
%%Title: MCU.eps
%%Creator: fig2dev Version 3.2 Patchlevel 3d
%%CreationDate: Fri Dec 13 22:08:14 2002
%%For: prof@linux (Vincent Guyot)
%%BoundingBox: 0 0 135 231
%%Magnification: 1.0000
%%EndComments
/$F2psDict 200 dict def
$F2psDict begin
$F2psDict /mtrx matrix put
/col-1 {0 setgray} bind def
/col0 {0.000 0.000 0.000 srgb} bind def
/col1 {0.000 0.000 1.000 srgb} bind def
/col2 {0.000 1.000 0.000 srgb} bind def
/col3 {0.000 1.000 1.000 srgb} bind def
/col4 {1.000 0.000 0.000 srgb} bind def
/col5 {1.000 0.000 1.000 srgb} bind def
/col6 {1.000 1.000 0.000 srgb} bind def
/col7 {1.000 1.000 1.000 srgb} bind def
/col8 {0.000 0.000 0.560 srgb} bind def
/col9 {0.000 0.000 0.690 srgb} bind def
/col10 {0.000 0.000 0.820 srgb} bind def
/col11 {0.530 0.810 1.000 srgb} bind def
/col12 {0.000 0.560 0.000 srgb} bind def
/col13 {0.000 0.690 0.000 srgb} bind def
/col14 {0.000 0.820 0.000 srgb} bind def
/col15 {0.000 0.560 0.560 srgb} bind def
/col16 {0.000 0.690 0.690 srgb} bind def
/col17 {0.000 0.820 0.820 srgb} bind def
/col18 {0.560 0.000 0.000 srgb} bind def
/col19 {0.690 0.000 0.000 srgb} bind def
/col20 {0.820 0.000 0.000 srgb} bind def
/col21 {0.560 0.000 0.560 srgb} bind def
/col22 {0.690 0.000 0.690 srgb} bind def
/col23 {0.820 0.000 0.820 srgb} bind def
/col24 {0.500 0.190 0.000 srgb} bind def
/col25 {0.630 0.250 0.000 srgb} bind def
/col26 {0.750 0.380 0.000 srgb} bind def
/col27 {1.000 0.500 0.500 srgb} bind def
/col28 {1.000 0.630 0.630 srgb} bind def
/col29 {1.000 0.750 0.750 srgb} bind def
/col30 {1.000 0.880 0.880 srgb} bind def
/col31 {1.000 0.840 0.000 srgb} bind def
/col32 {0.780 0.714 0.588 srgb} bind def
/col33 {0.937 0.984 1.000 srgb} bind def
/col34 {0.875 0.796 0.651 srgb} bind def
/col35 {0.255 0.255 0.255 srgb} bind def
/col36 {0.525 0.510 0.525 srgb} bind def
/col37 {0.745 0.765 0.745 srgb} bind def
/col38 {0.875 0.890 0.875 srgb} bind def
/col39 {0.557 0.557 0.557 srgb} bind def
/col40 {0.682 0.667 0.682 srgb} bind def
/col41 {0.349 0.333 0.349 srgb} bind def
/col42 {0.255 0.255 0.255 srgb} bind def
/col43 {0.525 0.510 0.525 srgb} bind def
/col44 {0.745 0.765 0.745 srgb} bind def
/col45 {0.525 0.510 0.525 srgb} bind def
/col46 {0.745 0.765 0.745 srgb} bind def
/col47 {0.875 0.890 0.875 srgb} bind def
/col48 {0.557 0.557 0.557 srgb} bind def
/col49 {0.557 0.557 0.557 srgb} bind def
/col50 {0.255 0.255 0.255 srgb} bind def
/col51 {0.525 0.510 0.525 srgb} bind def
/col52 {0.745 0.765 0.745 srgb} bind def
/col53 {0.875 0.890 0.875 srgb} bind def
/col54 {0.255 0.255 0.255 srgb} bind def
/col55 {0.525 0.510 0.525 srgb} bind def
/col56 {0.745 0.765 0.745 srgb} bind def
/col57 {0.875 0.890 0.875 srgb} bind def
/col58 {0.525 0.510 0.525 srgb} bind def
/col59 {0.745 0.765 0.745 srgb} bind def
/col60 {0.875 0.890 0.875 srgb} bind def
/col61 {0.780 0.714 0.588 srgb} bind def
/col62 {0.937 0.984 1.000 srgb} bind def
/col63 {0.875 0.796 0.651 srgb} bind def
/col64 {0.780 0.714 0.588 srgb} bind def
/col65 {0.937 0.984 1.000 srgb} bind def
/col66 {0.875 0.796 0.651 srgb} bind def
/col67 {0.682 0.667 0.682 srgb} bind def
/col68 {0.349 0.333 0.349 srgb} bind def
/col69 {0.557 0.557 0.557 srgb} bind def
/col70 {0.255 0.255 0.255 srgb} bind def
/col71 {0.525 0.510 0.525 srgb} bind def
/col72 {0.745 0.765 0.745 srgb} bind def
/col73 {0.875 0.890 0.875 srgb} bind def
/col74 {0.255 0.255 0.255 srgb} bind def
/col75 {0.525 0.510 0.525 srgb} bind def
/col76 {0.745 0.765 0.745 srgb} bind def
/col77 {0.875 0.890 0.875 srgb} bind def
/col78 {0.525 0.510 0.525 srgb} bind def
/col79 {0.745 0.765 0.745 srgb} bind def
/col80 {0.875 0.890 0.875 srgb} bind def
/col81 {0.255 0.255 0.255 srgb} bind def
/col82 {0.525 0.510 0.525 srgb} bind def
/col83 {0.745 0.765 0.745 srgb} bind def
/col84 {0.255 0.255 0.255 srgb} bind def
/col85 {0.745 0.765 0.745 srgb} bind def
/col86 {0.875 0.890 0.875 srgb} bind def
/col87 {0.255 0.255 0.255 srgb} bind def
/col88 {0.525 0.510 0.525 srgb} bind def
/col89 {0.745 0.765 0.745 srgb} bind def
/col90 {0.557 0.557 0.557 srgb} bind def
/col91 {0.255 0.255 0.255 srgb} bind def
/col92 {0.525 0.510 0.525 srgb} bind def
/col93 {0.745 0.765 0.745 srgb} bind def
/col94 {0.875 0.890 0.875 srgb} bind def
/col95 {0.255 0.255 0.255 srgb} bind def
/col96 {0.525 0.510 0.525 srgb} bind def
/col97 {0.745 0.765 0.745 srgb} bind def
/col98 {0.875 0.890 0.875 srgb} bind def
/col99 {0.745 0.745 0.745 srgb} bind def
/col100 {0.318 0.318 0.318 srgb} bind def
/col101 {0.906 0.890 0.906 srgb} bind def
/col102 {0.000 0.000 0.286 srgb} bind def
/col103 {0.475 0.475 0.475 srgb} bind def
/col104 {0.188 0.204 0.188 srgb} bind def
/col105 {0.255 0.271 0.255 srgb} bind def
/col106 {0.255 0.255 0.255 srgb} bind def
/col107 {0.525 0.510 0.525 srgb} bind def
/col108 {0.745 0.765 0.745 srgb} bind def
/col109 {0.875 0.890 0.875 srgb} bind def
/col110 {0.875 0.890 0.937 srgb} bind def
/col111 {0.588 0.588 0.620 srgb} bind def
/col112 {0.843 0.859 0.843 srgb} bind def
/col113 {0.620 0.635 0.714 srgb} bind def
/col114 {0.620 0.000 0.000 srgb} bind def
/col115 {0.937 0.937 0.937 srgb} bind def
/col116 {0.875 0.890 0.875 srgb} bind def
/col117 {0.525 0.682 1.000 srgb} bind def
/col118 {0.443 0.443 1.000 srgb} bind def
/col119 {0.812 0.812 0.812 srgb} bind def
/col120 {0.875 0.890 0.937 srgb} bind def
/col121 {0.588 0.588 0.620 srgb} bind def
/col122 {0.843 0.859 0.843 srgb} bind def
/col123 {0.620 0.635 0.714 srgb} bind def
/col124 {0.620 0.000 0.000 srgb} bind def
/col125 {0.937 0.937 0.937 srgb} bind def
/col126 {0.875 0.890 0.875 srgb} bind def
/col127 {0.525 0.682 1.000 srgb} bind def
/col128 {0.443 0.443 1.000 srgb} bind def

end
save
newpath 0 231 moveto 0 0 lineto 135 0 lineto 135 231 lineto closepath clip newpath
-3.4 262.5 translate
1 -1 scale

/cp {closepath} bind def
/ef {eofill} bind def
/gr {grestore} bind def
/gs {gsave} bind def
/sa {save} bind def
/rs {restore} bind def
/l {lineto} bind def
/m {moveto} bind def
/rm {rmoveto} bind def
/n {newpath} bind def
/s {stroke} bind def
/sh {show} bind def
/slc {setlinecap} bind def
/slj {setlinejoin} bind def
/slw {setlinewidth} bind def
/srgb {setrgbcolor} bind def
/rot {rotate} bind def
/sc {scale} bind def
/sd {setdash} bind def
/ff {findfont} bind def
/sf {setfont} bind def
/scf {scalefont} bind def
/sw {stringwidth} bind def
/tr {translate} bind def
/tnt {dup dup currentrgbcolor
  4 -2 roll dup 1 exch sub 3 -1 roll mul add
  4 -2 roll dup 1 exch sub 3 -1 roll mul add
  4 -2 roll dup 1 exch sub 3 -1 roll mul add srgb}
  bind def
/shd {dup dup currentrgbcolor 4 -2 roll mul 4 -2 roll mul
  4 -2 roll mul srgb} bind def
 /DrawEllipse {
	/endangle exch def
	/startangle exch def
	/yrad exch def
	/xrad exch def
	/y exch def
	/x exch def
	/savematrix mtrx currentmatrix def
	x y tr xrad yrad sc 0 0 1 startangle endangle arc
	closepath
	savematrix setmatrix
	} def

/$F2psBegin {$F2psDict begin /$F2psEnteredState save def} def
/$F2psEnd {$F2psEnteredState restore end} def

$F2psBegin
10 setmiterlimit
 0.06299 0.06299 sc
%
% Fig objects follow
%
% Polyline
7.500 slw
gs  clippath
971 2452 m 971 2392 l 920 2392 l 950 2422 l 920 2452 l cp
eoclip
n 813 2422 m
 956 2422 l gs col0 s gr gr

% arrowhead
n 920 2452 m 950 2422 l 920 2392 l  col0 s
/Times-Roman ff 180.00 scf sf
828 2553 m
gs 1 -1 sc (v) col0 sh gr
/Times-Roman ff 135.00 scf sf
901 2615 m
gs 1 -1 sc (1) col0 sh gr
/Times-Roman ff 180.00 scf sf
202 1857 m
gs 1 -1 sc (v) col0 sh gr
/Times-Roman ff 135.00 scf sf
279 1947 m
gs 1 -1 sc (2) col0 sh gr
% Polyline
gs  clippath
333 1762 m 333 1702 l 282 1702 l 312 1732 l 282 1762 l cp
eoclip
n 175 1732 m
 318 1732 l gs col0 s gr gr

% arrowhead
n 282 1762 m 312 1732 l 282 1702 l  col0 s
% Polyline
gs  clippath
1587 4004 m 1587 3944 l 1536 3944 l 1566 3974 l 1536 4004 l cp
eoclip
n 1429 3974 m
 1572 3974 l gs col0 s gr gr

% arrowhead
n 1536 4004 m 1566 3974 l 1536 3944 l  col0 s
/Times-Roman ff 180.00 scf sf
1444 4105 m
gs 1 -1 sc (v) col0 sh gr
/Times-Roman ff 135.00 scf sf
1517 4167 m
gs 1 -1 sc (1) col0 sh gr
/Times-Roman ff 180.00 scf sf
1604 3500 m
gs 1 -1 sc (v) col0 sh gr
/Times-Roman ff 135.00 scf sf
1681 3590 m
gs 1 -1 sc (2) col0 sh gr
% Polyline
gs  clippath
1735 3405 m 1735 3345 l 1684 3345 l 1714 3375 l 1684 3405 l cp
eoclip
n 1577 3375 m
 1720 3375 l gs col0 s gr gr

% arrowhead
n 1684 3405 m 1714 3375 l 1684 3345 l  col0 s
/Times-Roman ff 180.00 scf sf
653 3550 m
gs 1 -1 sc (v) col0 sh gr
/Times-Roman ff 135.00 scf sf
730 3640 m
gs 1 -1 sc (2) col0 sh gr
% Polyline
gs  clippath
784 3455 m 784 3395 l 733 3395 l 763 3425 l 733 3455 l cp
eoclip
n 626 3425 m
 769 3425 l gs col0 s gr gr

% arrowhead
n 733 3455 m 763 3425 l 733 3395 l  col0 s
% Polyline
gs  clippath
1115 3455 m 1115 3395 l 1064 3395 l 1094 3425 l 1064 3455 l cp
eoclip
n 957 3425 m
 1100 3425 l gs col0 s gr gr

% arrowhead
n 1064 3455 m 1094 3425 l 1064 3395 l  col0 s
/Times-Roman ff 180.00 scf sf
972 3556 m
gs 1 -1 sc (v) col0 sh gr
/Times-Roman ff 135.00 scf sf
1045 3618 m
gs 1 -1 sc (1) col0 sh gr
% Arc
n 1779.9 3882.3 164.9 -179.9 -114.3 arc
gs col0 s gr

% Polyline
gs  clippath
1043 3870 m 1043 3930 l 1194 3930 l 1074 3900 l 1194 3870 l cp
eoclip
n 1868 3900 m
 1058 3900 l gs col0 s gr gr

% arrowhead
n 1194 3870 m 1074 3900 l 1194 3930 l 1194 3870 l  cp gs col7 1.00 shd ef gr  col0 s
% Polyline
gs  clippath
1358 3232 m 1312 3270 l 1407 3388 l 1355 3276 l 1453 3350 l cp
eoclip
n 1868 3911 m
 1345 3263 l gs col0 s gr gr

% arrowhead
n 1453 3350 m 1355 3276 l 1407 3388 l 1453 3350 l  cp gs col7 1.00 shd ef gr  col0 s
% Polyline
gs  clippath
1385 3273 m 1330 3248 l 1267 3386 l 1345 3290 l 1322 3411 l cp
eoclip
n 1067 3897 m
 1352 3275 l gs col0 s gr gr

% arrowhead
n 1322 3411 m 1345 3290 l 1267 3386 l 1322 3411 l  cp gs col7 1.00 shd ef gr  col0 s
% Polyline
n 835 3515 m
 910 3515 l gs col0 s gr 
/Symbol ff 180.00 scf sf
1456 3792 m
gs 1 -1 sc (a) col0 sh gr
% Arc
n 1318.8 1395.3 293.1 135.4 95.6 arcn
gs col0 s gr

% Ellipse
n 1282 1417 897 897 0 360 DrawEllipse gs col0 s gr

% Polyline
gs  clippath
464 2286 m 464 2346 l 615 2346 l 495 2316 l 615 2286 l cp
eoclip
n 1289 2316 m
 479 2316 l gs col0 s gr gr

% arrowhead
n 615 2286 m 495 2316 l 615 2346 l 615 2286 l  cp gs col7 1.00 shd ef gr  col0 s
% Polyline
gs  clippath
79 1305 m 33 1343 l 128 1461 l 76 1349 l 174 1423 l cp
eoclip
n 589 1984 m
 66 1336 l gs col0 s gr gr

% arrowhead
n 174 1423 m 76 1349 l 128 1461 l 174 1423 l  cp gs col7 1.00 shd ef gr  col0 s
% Polyline
n 1288 2322 m
 1288 1445 l gs col0 s gr 
% Polyline
n 593 1990 m
 1288 1454 l gs col0 s gr 
% Polyline
n 532 1909 m 611 1845 l
 671 1920 l gs col0 s gr 
% Polyline
n 1203 2314 m 1203 2235 l
 1290 2235 l gs col0 s gr 
% Polyline
gs  clippath
1328 3053 m 1388 3053 l 1388 2901 l 1358 3021 l 1328 2901 l cp
eoclip
n 1358 2588 m
 1358 3038 l gs col0 s gr gr

% arrowhead
n 1328 2901 m 1358 3021 l 1388 2901 l  col0 s
/Times-Roman ff 180.00 scf sf
1334 1946 m
gs 1 -1 sc (R) col0 sh gr
/Symbol ff 180.00 scf sf
1080 1804 m
gs 1 -1 sc (a) col0 sh gr
/Times-Roman ff 180.00 scf sf
580 1927 m
gs 1 -1 sc (.) col0 sh gr
/Times-Roman ff 180.00 scf sf
1217 2280 m
gs 1 -1 sc (.) col0 sh gr
/Times-Roman ff 180.00 scf sf
817 1669 m
gs 1 -1 sc (R) col0 sh gr
$F2psEnd
rs
