%!PS-Adobe-2.0 EPSF-2.0
%%Title: Planincline2.fig
%%Creator: fig2dev Version 3.2 Patchlevel 5-alpha5
%%CreationDate: Tue Nov 15 22:49:11 2005
%%For: guyotv@debian ()
%%BoundingBox: 0 0 150 140
%Magnification: 1.0000
%%EndComments
/$F2psDict 200 dict def
$F2psDict begin
$F2psDict /mtrx matrix put
/col-1 {0 setgray} bind def
/col0 {0.000 0.000 0.000 srgb} bind def
/col1 {0.000 0.000 1.000 srgb} bind def
/col2 {0.000 1.000 0.000 srgb} bind def
/col3 {0.000 1.000 1.000 srgb} bind def
/col4 {1.000 0.000 0.000 srgb} bind def
/col5 {1.000 0.000 1.000 srgb} bind def
/col6 {1.000 1.000 0.000 srgb} bind def
/col7 {1.000 1.000 1.000 srgb} bind def
/col8 {0.000 0.000 0.560 srgb} bind def
/col9 {0.000 0.000 0.690 srgb} bind def
/col10 {0.000 0.000 0.820 srgb} bind def
/col11 {0.530 0.810 1.000 srgb} bind def
/col12 {0.000 0.560 0.000 srgb} bind def
/col13 {0.000 0.690 0.000 srgb} bind def
/col14 {0.000 0.820 0.000 srgb} bind def
/col15 {0.000 0.560 0.560 srgb} bind def
/col16 {0.000 0.690 0.690 srgb} bind def
/col17 {0.000 0.820 0.820 srgb} bind def
/col18 {0.560 0.000 0.000 srgb} bind def
/col19 {0.690 0.000 0.000 srgb} bind def
/col20 {0.820 0.000 0.000 srgb} bind def
/col21 {0.560 0.000 0.560 srgb} bind def
/col22 {0.690 0.000 0.690 srgb} bind def
/col23 {0.820 0.000 0.820 srgb} bind def
/col24 {0.500 0.190 0.000 srgb} bind def
/col25 {0.630 0.250 0.000 srgb} bind def
/col26 {0.750 0.380 0.000 srgb} bind def
/col27 {1.000 0.500 0.500 srgb} bind def
/col28 {1.000 0.630 0.630 srgb} bind def
/col29 {1.000 0.750 0.750 srgb} bind def
/col30 {1.000 0.880 0.880 srgb} bind def
/col31 {1.000 0.840 0.000 srgb} bind def

end
save
newpath 0 140 moveto 0 0 lineto 150 0 lineto 150 140 lineto closepath clip newpath
-4.5 146.1 translate
1 -1 scale

/cp {closepath} bind def
/ef {eofill} bind def
/gr {grestore} bind def
/gs {gsave} bind def
/sa {save} bind def
/rs {restore} bind def
/l {lineto} bind def
/m {moveto} bind def
/rm {rmoveto} bind def
/n {newpath} bind def
/s {stroke} bind def
/sh {show} bind def
/slc {setlinecap} bind def
/slj {setlinejoin} bind def
/slw {setlinewidth} bind def
/srgb {setrgbcolor} bind def
/rot {rotate} bind def
/sc {scale} bind def
/sd {setdash} bind def
/ff {findfont} bind def
/sf {setfont} bind def
/scf {scalefont} bind def
/sw {stringwidth} bind def
/tr {translate} bind def
/tnt {dup dup currentrgbcolor
  4 -2 roll dup 1 exch sub 3 -1 roll mul add
  4 -2 roll dup 1 exch sub 3 -1 roll mul add
  4 -2 roll dup 1 exch sub 3 -1 roll mul add srgb}
  bind def
/shd {dup dup currentrgbcolor 4 -2 roll mul 4 -2 roll mul
  4 -2 roll mul srgb} bind def
/$F2psBegin {$F2psDict begin /$F2psEnteredState save def} def
/$F2psEnd {$F2psEnteredState restore end} def

$F2psBegin
10 setmiterlimit
0 slj 0 slc
 0.06299 0.06299 sc
%
% Fig objects follow
%
% 
% here starts figure with depth 50
% Arc
7.500 slw
0 slc
n 275.5 1744.0 235.7 -26.1797 7.8020 arc
gs col0 s gr

% Polyline
0 slj
n 2427 1784 m 83 1784 l
 2417 935 l gs col0 s gr 
% Polyline
n 1184 1058 m 1580 916 l 1682 1197 l 1287 1341 l
 1184 1058 l  cp gs col0 s gr 
% Polyline
gs  clippath
1399 2180 m 1399 2322 l 1444 2322 l 1444 2180 l 1444 2180 l 1422 2274 l 1399 2180 l cp
eoclip
n 1422 1132 m
 1422 2307 l gs col0 s gr gr

% arrowhead
n 1399 2180 m 1422 2274 l 1444 2180 l 1422 2199 l 1399 2180 l 
 cp gs 0.00 setgray ef gr  col0 s
% Polyline
gs  clippath
1124 228 m 1077 95 l 1034 110 l 1082 243 l 1082 243 l 1072 148 l 1124 228 l cp
eoclip
n 1425 1138 m
 1061 117 l gs col0 s gr gr

% arrowhead
n 1124 228 m 1072 148 l 1082 243 l 1097 218 l 1124 228 l 
 cp gs 0.00 setgray ef gr  col0 s
% Polyline
gs  clippath
1529 1922 m 1584 1920 l 1583 1904 l 1528 1906 l 1528 1907 l 1548 1914 l 1529 1922 l cp
eoclip
n 1479 1917 m
 1569 1913 l gs col0 s gr gr

% arrowhead
n 1529 1922 m 1548 1914 l 1528 1907 l 1533 1914 l 1529 1922 l 
 cp gs 0.00 setgray ef gr  col0 s
% Polyline
gs  clippath
899 1371 m 766 1419 l 781 1462 l 914 1414 l 914 1414 l 819 1425 l 899 1371 l cp
eoclip
n 1256 1266 m
 788 1436 l gs col0 s gr gr

% arrowhead
n 899 1371 m 819 1425 l 914 1414 l 889 1399 l 899 1371 l 
 cp gs 0.00 setgray ef gr  col0 s
% Polyline
 [60] 0 sd
gs  clippath
1443 237 m 1443 95 l 1398 96 l 1398 237 l 1398 237 l 1421 144 l 1443 237 l cp
eoclip
n 1422 1124 m
 1421 111 l gs col0 s gr gr
 [] 0 sd
% arrowhead
n 1443 237 m 1421 144 l 1398 237 l 1421 218 l 1443 237 l 
 cp gs 0.00 setgray ef gr  col0 s
% Polyline
gs  clippath
1518 511 m 1573 509 l 1572 493 l 1517 495 l 1517 496 l 1537 503 l 1518 511 l cp
eoclip
n 1468 506 m
 1558 502 l gs col0 s gr gr

% arrowhead
n 1518 511 m 1537 503 l 1517 496 l 1522 503 l 1518 511 l 
 cp gs 0.00 setgray ef gr  col0 s
% Polyline
 [60] 0 sd
gs  clippath
1140 1104 m 1047 1104 l 1048 1149 l 1140 1149 l 1140 1149 l 1084 1127 l 1140 1104 l cp
eoclip
n 1423 1126 m
 1063 1127 l gs col0 s gr gr
 [] 0 sd
% arrowhead
n 1140 1104 m 1084 1127 l 1140 1149 l 1128 1126 l 1140 1104 l 
 cp gs 0.00 setgray ef gr  col0 s
% Polyline
gs  clippath
916 945 m 971 943 l 970 927 l 915 929 l 915 930 l 935 937 l 916 945 l cp
eoclip
n 866 940 m
 956 936 l gs col0 s gr gr

% arrowhead
n 916 945 m 935 937 l 915 930 l 920 937 l 916 945 l 
 cp gs 0.00 setgray ef gr  col0 s
% Polyline
 [15 45] 45 sd
n 1064 138 m
 1063 1127 l gs col0 s gr  [] 0 sd
% Polyline
 [15 45] 45 sd
n 1063 126 m
 1422 126 l gs col0 s gr  [] 0 sd
% Polyline
gs  clippath
969 187 m 1024 185 l 1023 169 l 968 171 l 968 172 l 988 179 l 969 187 l cp
eoclip
n 919 182 m
 1009 178 l gs col0 s gr gr

% arrowhead
n 969 187 m 988 179 l 968 172 l 973 179 l 969 187 l 
 cp gs 0.00 setgray ef gr  col0 s
% Polyline
gs  clippath
718 1339 m 773 1337 l 772 1321 l 717 1323 l 717 1324 l 737 1331 l 718 1339 l cp
eoclip
n 668 1334 m
 758 1330 l gs col0 s gr gr

% arrowhead
n 718 1339 m 737 1331 l 717 1324 l 722 1331 l 718 1339 l 
 cp gs 0.00 setgray ef gr  col0 s
% Polyline
gs  clippath
922 1239 m 781 1239 l 781 1284 l 922 1284 l 922 1284 l 829 1262 l 922 1239 l cp
eoclip
n 1260 1262 m
 796 1262 l gs col0 s gr gr

% arrowhead
n 922 1239 m 829 1262 l 922 1284 l 904 1262 l 922 1239 l 
 cp gs 0.00 setgray ef gr  col0 s
% Polyline
gs  clippath
1245 1374 m 1245 1448 l 1275 1448 l 1275 1374 l 1275 1374 l 1260 1412 l 1245 1374 l cp
eoclip
n 1260 1262 m
 1260 1433 l gs col0 s gr gr

% arrowhead
n 1245 1374 m 1260 1412 l 1275 1374 l 1260 1382 l 1245 1374 l 
 cp gs 0.00 setgray ef gr  col0 s
% Polyline
 [15 45] 45 sd
n 796 1433 m
 796 1262 l gs col0 s gr  [] 0 sd
% Polyline
 [15 45] 45 sd
n 800 1432 m
 1256 1433 l gs col0 s gr  [] 0 sd
% Polyline
gs  clippath
260 826 m 143 826 l 143 871 l 260 871 l 260 871 l 185 849 l 260 826 l cp
598 487 m 598 370 l 553 370 l 553 487 l 553 487 l 576 412 l 598 487 l cp
eoclip
n 576 385 m 576 849 l
 158 849 l gs col0 s gr gr

% arrowhead
n 598 487 m 576 412 l 553 487 l 576 472 l 598 487 l 
 cp gs 0.00 setgray ef gr  col0 s
% arrowhead
n 260 826 m 185 849 l 260 871 l 245 849 l 260 826 l 
 cp gs 0.00 setgray ef gr  col0 s
% Polyline
gs  clippath
694 1115 m 749 1113 l 748 1097 l 693 1099 l 693 1100 l 713 1107 l 694 1115 l cp
eoclip
n 644 1110 m
 734 1106 l gs col0 s gr gr

% arrowhead
n 694 1115 m 713 1107 l 693 1100 l 698 1107 l 694 1115 l 
 cp gs 0.00 setgray ef gr  col0 s
% Polyline
gs  clippath
1193 1482 m 1248 1480 l 1247 1464 l 1192 1466 l 1192 1467 l 1212 1474 l 1193 1482 l cp
eoclip
n 1143 1477 m
 1233 1473 l gs col0 s gr gr

% arrowhead
n 1193 1482 m 1212 1474 l 1192 1467 l 1197 1474 l 1193 1482 l 
 cp gs 0.00 setgray ef gr  col0 s
/Times-Roman ff 158.75 scf sf
1674 1029 m
gs 1 -1 sc (m) col0 sh gr
/Times-Roman ff 158.75 scf sf
1474 2066 m
gs 1 -1 sc (P) col0 sh gr
/Symbol ff 158.75 scf sf
561 1734 m
gs 1 -1 sc (a) col0 sh gr
/Times-Roman ff 158.75 scf sf
1460 650 m
gs 1 -1 sc (R) col0 sh gr
/Times-Roman ff 127.00 scf sf
1572 681 m
gs 1 -1 sc (y) col0 sh gr
/Times-Roman ff 158.75 scf sf
861 1098 m
gs 1 -1 sc (R) col0 sh gr
/Times-Roman ff 127.00 scf sf
978 1138 m
gs 1 -1 sc (x) col0 sh gr
/Times-Roman ff 158.75 scf sf
915 332 m
gs 1 -1 sc (R) col0 sh gr
/Times-Roman ff 158.75 scf sf
680 1444 m
gs 1 -1 sc (a) col0 sh gr
/Times-Roman ff 158.75 scf sf
128 806 m
gs 1 -1 sc (x) col0 sh gr
/Times-Roman ff 158.75 scf sf
463 435 m
gs 1 -1 sc (y) col0 sh gr
/Times-Roman ff 158.75 scf sf
653 1208 m
gs 1 -1 sc (a) col0 sh gr
/Times-Roman ff 127.00 scf sf
730 1238 m
gs 1 -1 sc (x) col0 sh gr
/Times-Roman ff 158.75 scf sf
1155 1580 m
gs 1 -1 sc (a) col0 sh gr
/Times-Roman ff 127.00 scf sf
1228 1601 m
gs 1 -1 sc (y) col0 sh gr
% here ends figure;
$F2psEnd
rs
showpage
%%Trailer
%EOF
