%!PS-Adobe-2.0 EPSF-2.0
%%Title: Tirbalistique.fig
%%Creator: fig2dev Version 3.2 Patchlevel 5-alpha5
%%CreationDate: Sun Nov 20 21:12:37 2005
%%For: guyotv@debian ()
%%BoundingBox: 0 0 145 140
%Magnification: 1.0000
%%EndComments
/$F2psDict 200 dict def
$F2psDict begin
$F2psDict /mtrx matrix put
/col-1 {0 setgray} bind def
/col0 {0.000 0.000 0.000 srgb} bind def
/col1 {0.000 0.000 1.000 srgb} bind def
/col2 {0.000 1.000 0.000 srgb} bind def
/col3 {0.000 1.000 1.000 srgb} bind def
/col4 {1.000 0.000 0.000 srgb} bind def
/col5 {1.000 0.000 1.000 srgb} bind def
/col6 {1.000 1.000 0.000 srgb} bind def
/col7 {1.000 1.000 1.000 srgb} bind def
/col8 {0.000 0.000 0.560 srgb} bind def
/col9 {0.000 0.000 0.690 srgb} bind def
/col10 {0.000 0.000 0.820 srgb} bind def
/col11 {0.530 0.810 1.000 srgb} bind def
/col12 {0.000 0.560 0.000 srgb} bind def
/col13 {0.000 0.690 0.000 srgb} bind def
/col14 {0.000 0.820 0.000 srgb} bind def
/col15 {0.000 0.560 0.560 srgb} bind def
/col16 {0.000 0.690 0.690 srgb} bind def
/col17 {0.000 0.820 0.820 srgb} bind def
/col18 {0.560 0.000 0.000 srgb} bind def
/col19 {0.690 0.000 0.000 srgb} bind def
/col20 {0.820 0.000 0.000 srgb} bind def
/col21 {0.560 0.000 0.560 srgb} bind def
/col22 {0.690 0.000 0.690 srgb} bind def
/col23 {0.820 0.000 0.820 srgb} bind def
/col24 {0.500 0.190 0.000 srgb} bind def
/col25 {0.630 0.250 0.000 srgb} bind def
/col26 {0.750 0.380 0.000 srgb} bind def
/col27 {1.000 0.500 0.500 srgb} bind def
/col28 {1.000 0.630 0.630 srgb} bind def
/col29 {1.000 0.750 0.750 srgb} bind def
/col30 {1.000 0.880 0.880 srgb} bind def
/col31 {1.000 0.840 0.000 srgb} bind def

end
save
newpath 0 140 moveto 0 0 lineto 145 0 lineto 145 140 lineto closepath clip newpath
-12.0 153.0 translate
1 -1 scale

/cp {closepath} bind def
/ef {eofill} bind def
/gr {grestore} bind def
/gs {gsave} bind def
/sa {save} bind def
/rs {restore} bind def
/l {lineto} bind def
/m {moveto} bind def
/rm {rmoveto} bind def
/n {newpath} bind def
/s {stroke} bind def
/sh {show} bind def
/slc {setlinecap} bind def
/slj {setlinejoin} bind def
/slw {setlinewidth} bind def
/srgb {setrgbcolor} bind def
/rot {rotate} bind def
/sc {scale} bind def
/sd {setdash} bind def
/ff {findfont} bind def
/sf {setfont} bind def
/scf {scalefont} bind def
/sw {stringwidth} bind def
/tr {translate} bind def
/tnt {dup dup currentrgbcolor
  4 -2 roll dup 1 exch sub 3 -1 roll mul add
  4 -2 roll dup 1 exch sub 3 -1 roll mul add
  4 -2 roll dup 1 exch sub 3 -1 roll mul add srgb}
  bind def
/shd {dup dup currentrgbcolor 4 -2 roll mul 4 -2 roll mul
  4 -2 roll mul srgb} bind def
/$F2psBegin {$F2psDict begin /$F2psEnteredState save def} def
/$F2psEnd {$F2psEnteredState restore end} def

$F2psBegin
10 setmiterlimit
0 slj 0 slc
 0.06299 0.06299 sc
%
% Fig objects follow
%
% 
% here starts figure with depth 50
% Arc
7.500 slw
0 slc
n 221.1 2335.1 138.9 -69.4135 2.0334 arc
gs col0 s gr

% Polyline
0 slj
gs  clippath
2373 2362 m 2490 2362 l 2490 2317 l 2373 2317 l 2373 2317 l 2448 2340 l 2373 2362 l cp
247 327 m 247 210 l 202 210 l 202 327 l 202 327 l 225 252 l 247 327 l cp
eoclip
n 225 225 m 225 2340 l
 2475 2340 l gs col0 s gr gr

% arrowhead
n 247 327 m 225 252 l 202 327 l 225 312 l 247 327 l 
 cp gs 0.00 setgray ef gr  col0 s
% arrowhead
n 2373 2362 m 2448 2340 l 2373 2317 l 2388 2340 l 2373 2362 l 
 cp gs 0.00 setgray ef gr  col0 s
% Polyline
gs  clippath
579 1139 m 610 1026 l 567 1014 l 536 1127 l 536 1127 l 578 1061 l 579 1139 l cp
eoclip
n 225 2340 m
 585 1035 l gs col0 s gr gr

% arrowhead
n 579 1139 m 578 1061 l 536 1127 l 562 1118 l 579 1139 l 
 cp gs 0.00 setgray ef gr  col0 s
% Polyline
gs  clippath
462 911 m 517 911 l 517 895 l 462 895 l 462 895 l 481 903 l 462 910 l cp
eoclip
n 425 903 m
 502 903 l gs col0 s gr gr

% arrowhead
n 462 910 m 481 903 l 462 895 l 466 903 l 462 910 l 
 cp gs 0.00 setgray ef gr  col0 s
% Polyline
 [15 45] 45 sd
gs  clippath
1926 2417 m 2043 2417 l 2043 2372 l 1926 2372 l 1926 2372 l 2001 2395 l 1926 2417 l cp
325 2372 m 208 2372 l 208 2417 l 325 2417 l 325 2417 l 250 2395 l 325 2372 l cp
eoclip
n 223 2395 m
 2028 2395 l gs col0 s gr gr
 [] 0 sd
% arrowhead
n 325 2372 m 250 2395 l 325 2417 l 310 2395 l 325 2372 l 
 cp gs 0.00 setgray ef gr  col0 s
% arrowhead
n 1926 2417 m 2001 2395 l 1926 2372 l 1941 2395 l 1926 2417 l 
 cp gs 0.00 setgray ef gr  col0 s
% Polyline
2 slj
 [60] 0 sd
n 225 2340 m 225 2339 l 226 2335 l 228 2330 l 230 2320 l 234 2307 l
 239 2289 l 245 2266 l 253 2239 l 262 2206 l 272 2168 l
 285 2126 l 298 2078 l 313 2027 l 329 1972 l 347 1914 l
 366 1853 l 385 1789 l 406 1725 l 428 1659 l 450 1592 l
 473 1525 l 497 1458 l 522 1393 l 547 1328 l 573 1264 l
 599 1201 l 627 1141 l 655 1082 l 684 1026 l 714 972 l
 745 921 l 777 873 l 811 827 l 846 786 l 882 748 l
 919 714 l 958 686 l 999 662 l 1040 645 l 1082 634 l
 1125 630 l 1168 634 l 1210 645 l 1251 662 l 1292 686 l
 1331 714 l 1368 748 l 1404 786 l 1439 827 l 1473 873 l
 1505 921 l 1536 972 l 1566 1026 l 1595 1082 l 1623 1141 l
 1651 1201 l 1677 1264 l 1703 1328 l 1728 1393 l 1753 1458 l
 1777 1525 l 1800 1592 l 1822 1659 l 1844 1725 l 1865 1789 l
 1884 1853 l 1903 1914 l 1921 1972 l 1937 2027 l 1952 2078 l
 1965 2126 l 1978 2168 l 1988 2206 l 1997 2239 l 2005 2266 l
 2011 2289 l 2016 2307 l 2020 2320 l 2022 2330 l 2024 2335 l
 2025 2339 l
 2025 2340 l gs col0 s gr  [] 0 sd
/Times-Roman ff 127.00 scf sf
483 1059 m
gs 1 -1 sc (o) col0 sh gr
/Times-Roman ff 158.75 scf sf
418 1020 m
gs 1 -1 sc (v) col0 sh gr
/Times-Roman ff 158.75 scf sf
276 360 m
gs 1 -1 sc (y) col0 sh gr
/Times-Roman ff 158.75 scf sf
2347 2279 m
gs 1 -1 sc (x) col0 sh gr
/Times-Roman ff 158.75 scf sf
1077 586 m
gs 1 -1 sc (S) col0 sh gr
/Times-Roman ff 158.75 scf sf
2045 2297 m
gs 1 -1 sc (P) col0 sh gr
/Times-Roman ff 158.75 scf sf
1033 2312 m
gs 1 -1 sc (L) col0 sh gr
% here ends figure;
$F2psEnd
rs
showpage
%%Trailer
%EOF
