\relax 
\@writefile{toc}{\contentsline {chapter}{\numberline {E}Rotations}{185}}
\@writefile{lof}{\addvspace {10\p@ }}
\@writefile{lot}{\addvspace {10\p@ }}
\@writefile{toc}{\contentsline {section}{\numberline {E.1}Rotation de la Terre sur elle-m\IeC {\^e}me}{185}}
\@writefile{toc}{\contentsline {section}{\numberline {E.2}Rotation de la Terre autour du Soleil}{185}}
\citation{GG92}
\citation{JR07}
\@writefile{lof}{\contentsline {figure}{\numberline {E.1}{\ignorespaces Le syst\IeC {\`e}me g\IeC {\'e}ocentrique de Tycho Brah\IeC {\'e}}}{186}}
\newlabel{tychosystem}{{E.1}{186}}
\@writefile{toc}{\contentsline {section}{\numberline {E.3}Rotation du Soleil dans la Voie Lact\IeC {\'e}e}{187}}
\@writefile{lof}{\contentsline {figure}{\numberline {E.2}{\ignorespaces Le Soleil dans la Voie Lact\IeC {\'e}e}}{187}}
\newlabel{milky_way_2005}{{E.2}{187}}
\@writefile{toc}{\contentsline {section}{\numberline {E.4}Vitesse et r\IeC {\'e}f\IeC {\'e}rentiel}{187}}
\@setckpt{Annexe-Rotations/Annexe-Rotations}{
\setcounter{page}{189}
\setcounter{equation}{0}
\setcounter{enumi}{2}
\setcounter{enumii}{0}
\setcounter{enumiii}{0}
\setcounter{enumiv}{0}
\setcounter{footnote}{3}
\setcounter{mpfootnote}{0}
\setcounter{part}{0}
\setcounter{chapter}{5}
\setcounter{section}{4}
\setcounter{subsection}{0}
\setcounter{subsubsection}{0}
\setcounter{paragraph}{0}
\setcounter{subparagraph}{0}
\setcounter{figure}{2}
\setcounter{table}{0}
\setcounter{NAT@ctr}{0}
\setcounter{parentequation}{0}
\setcounter{FancyVerbLine}{0}
\setcounter{float@type}{8}
\setcounter{fignum}{1}
\setcounter{r@tfl@t}{4}
\setcounter{subfigure}{0}
\setcounter{lofdepth}{1}
\setcounter{subtable}{0}
\setcounter{lotdepth}{1}
\setcounter{ContinuedFloat}{0}
\setcounter{endnote}{100}
\setcounter{OptionTest}{0}
\setcounter{DefaultLines}{2}
\setcounter{DefaultDepth}{0}
\setcounter{L@lines}{3}
\setcounter{L@depth}{0}
\setcounter{lstnumber}{1}
\setcounter{Solution}{0}
\setcounter{exc}{0}
\setcounter{Solution OS}{0}
\setcounter{exosc}{0}
\setcounter{lstlisting}{0}
}
