%!PS-Adobe-2.0 EPSF-2.0
%%Title: Chutevisqueuse.fig
%%Creator: fig2dev Version 3.2 Patchlevel 5-alpha5
%%CreationDate: Wed Jan  4 21:57:14 2006
%%For: guyotv@debian ()
%%BoundingBox: 0 0 40 138
%Magnification: 1.0000
%%EndComments
/$F2psDict 200 dict def
$F2psDict begin
$F2psDict /mtrx matrix put
/col-1 {0 setgray} bind def
/col0 {0.000 0.000 0.000 srgb} bind def
/col1 {0.000 0.000 1.000 srgb} bind def
/col2 {0.000 1.000 0.000 srgb} bind def
/col3 {0.000 1.000 1.000 srgb} bind def
/col4 {1.000 0.000 0.000 srgb} bind def
/col5 {1.000 0.000 1.000 srgb} bind def
/col6 {1.000 1.000 0.000 srgb} bind def
/col7 {1.000 1.000 1.000 srgb} bind def
/col8 {0.000 0.000 0.560 srgb} bind def
/col9 {0.000 0.000 0.690 srgb} bind def
/col10 {0.000 0.000 0.820 srgb} bind def
/col11 {0.530 0.810 1.000 srgb} bind def
/col12 {0.000 0.560 0.000 srgb} bind def
/col13 {0.000 0.690 0.000 srgb} bind def
/col14 {0.000 0.820 0.000 srgb} bind def
/col15 {0.000 0.560 0.560 srgb} bind def
/col16 {0.000 0.690 0.690 srgb} bind def
/col17 {0.000 0.820 0.820 srgb} bind def
/col18 {0.560 0.000 0.000 srgb} bind def
/col19 {0.690 0.000 0.000 srgb} bind def
/col20 {0.820 0.000 0.000 srgb} bind def
/col21 {0.560 0.000 0.560 srgb} bind def
/col22 {0.690 0.000 0.690 srgb} bind def
/col23 {0.820 0.000 0.820 srgb} bind def
/col24 {0.500 0.190 0.000 srgb} bind def
/col25 {0.630 0.250 0.000 srgb} bind def
/col26 {0.750 0.380 0.000 srgb} bind def
/col27 {1.000 0.500 0.500 srgb} bind def
/col28 {1.000 0.630 0.630 srgb} bind def
/col29 {1.000 0.750 0.750 srgb} bind def
/col30 {1.000 0.880 0.880 srgb} bind def
/col31 {1.000 0.840 0.000 srgb} bind def

end
save
newpath 0 138 moveto 0 0 lineto 40 0 lineto 40 138 lineto closepath clip newpath
-32.6 165.2 translate
1 -1 scale

/cp {closepath} bind def
/ef {eofill} bind def
/gr {grestore} bind def
/gs {gsave} bind def
/sa {save} bind def
/rs {restore} bind def
/l {lineto} bind def
/m {moveto} bind def
/rm {rmoveto} bind def
/n {newpath} bind def
/s {stroke} bind def
/sh {show} bind def
/slc {setlinecap} bind def
/slj {setlinejoin} bind def
/slw {setlinewidth} bind def
/srgb {setrgbcolor} bind def
/rot {rotate} bind def
/sc {scale} bind def
/sd {setdash} bind def
/ff {findfont} bind def
/sf {setfont} bind def
/scf {scalefont} bind def
/sw {stringwidth} bind def
/tr {translate} bind def
/tnt {dup dup currentrgbcolor
  4 -2 roll dup 1 exch sub 3 -1 roll mul add
  4 -2 roll dup 1 exch sub 3 -1 roll mul add
  4 -2 roll dup 1 exch sub 3 -1 roll mul add srgb}
  bind def
/shd {dup dup currentrgbcolor 4 -2 roll mul 4 -2 roll mul
  4 -2 roll mul srgb} bind def
 /DrawEllipse {
	/endangle exch def
	/startangle exch def
	/yrad exch def
	/xrad exch def
	/y exch def
	/x exch def
	/savematrix mtrx currentmatrix def
	x y tr xrad yrad sc 0 0 1 startangle endangle arc
	closepath
	savematrix setmatrix
	} def

/$F2psBegin {$F2psDict begin /$F2psEnteredState save def} def
/$F2psEnd {$F2psEnteredState restore end} def

$F2psBegin
10 setmiterlimit
0 slj 0 slc
 0.06299 0.06299 sc
%
% Fig objects follow
%
% 
% here starts figure with depth 50
% Polyline
0 slj
0 slc
7.500 slw
gs  clippath
1019 604 m 1074 604 l 1074 588 l 1019 588 l 1019 588 l 1038 596 l 1019 603 l cp
eoclip
n 969 596 m
 1059 596 l gs col0 s gr gr

% arrowhead
n 1019 603 m 1038 596 l 1019 588 l 1023 596 l 1019 603 l 
 cp gs 0.00 setgray ef gr  col0 s
/Times-Roman ff 158.75 scf sf
965 753 m
gs 1 -1 sc (F) col0 sh gr
/Times-Roman ff 127.00 scf sf
1044 820 m
gs 1 -1 sc (fr) col0 sh gr
% Polyline
gs  clippath
1030 2043 m 1085 2043 l 1085 2027 l 1030 2027 l 1030 2027 l 1049 2035 l 1030 2042 l cp
eoclip
n 980 2035 m
 1070 2035 l gs col0 s gr gr

% arrowhead
n 1030 2042 m 1049 2035 l 1030 2027 l 1034 2035 l 1030 2042 l 
 cp gs 0.00 setgray ef gr  col0 s
/Times-Roman ff 158.75 scf sf
980 2186 m
gs 1 -1 sc (P) col0 sh gr
% Ellipse
n 900 1215 225 225 0 360 DrawEllipse gs col0 s gr

% Polyline
gs  clippath
877 2483 m 877 2625 l 922 2625 l 922 2483 l 922 2483 l 900 2577 l 877 2483 l cp
eoclip
n 900 1440 m
 900 2610 l gs col0 s gr gr

% arrowhead
n 877 2483 m 900 2577 l 922 2483 l 900 2502 l 877 2483 l 
 cp gs 0.00 setgray ef gr  col0 s
% Polyline
gs  clippath
922 576 m 922 435 l 877 435 l 877 576 l 877 576 l 900 483 l 922 576 l cp
eoclip
n 900 990 m
 900 450 l gs col0 s gr gr

% arrowhead
n 922 576 m 900 483 l 877 576 l 900 558 l 922 576 l 
 cp gs 0.00 setgray ef gr  col0 s
% Polyline
gs  clippath
529 1997 m 529 2139 l 574 2139 l 574 1997 l 574 1997 l 552 2091 l 529 1997 l cp
eoclip
n 552 549 m
 552 2124 l gs col0 s gr gr

% arrowhead
n 529 1997 m 552 2091 l 574 1997 l 552 2016 l 529 1997 l 
 cp gs 0.00 setgray ef gr  col0 s
/Times-Roman ff 158.75 scf sf
588 2209 m
gs 1 -1 sc (+) col0 sh gr
/Times-Roman ff 158.75 scf sf
854 1263 m
gs 1 -1 sc (m) col0 sh gr
% here ends figure;
$F2psEnd
rs
showpage
%%Trailer
%EOF
