%!PS-Adobe-2.0 EPSF-2.0
%%Title: Masseoscillante.fig
%%Creator: fig2dev Version 3.2 Patchlevel 5-alpha5
%%CreationDate: Sat Jan  7 05:51:37 2006
%%For: guyotv@debian ()
%%BoundingBox: 0 0 138 50
%Magnification: 1.0000
%%EndComments
/$F2psDict 200 dict def
$F2psDict begin
$F2psDict /mtrx matrix put
/col-1 {0 setgray} bind def
/col0 {0.000 0.000 0.000 srgb} bind def
/col1 {0.000 0.000 1.000 srgb} bind def
/col2 {0.000 1.000 0.000 srgb} bind def
/col3 {0.000 1.000 1.000 srgb} bind def
/col4 {1.000 0.000 0.000 srgb} bind def
/col5 {1.000 0.000 1.000 srgb} bind def
/col6 {1.000 1.000 0.000 srgb} bind def
/col7 {1.000 1.000 1.000 srgb} bind def
/col8 {0.000 0.000 0.560 srgb} bind def
/col9 {0.000 0.000 0.690 srgb} bind def
/col10 {0.000 0.000 0.820 srgb} bind def
/col11 {0.530 0.810 1.000 srgb} bind def
/col12 {0.000 0.560 0.000 srgb} bind def
/col13 {0.000 0.690 0.000 srgb} bind def
/col14 {0.000 0.820 0.000 srgb} bind def
/col15 {0.000 0.560 0.560 srgb} bind def
/col16 {0.000 0.690 0.690 srgb} bind def
/col17 {0.000 0.820 0.820 srgb} bind def
/col18 {0.560 0.000 0.000 srgb} bind def
/col19 {0.690 0.000 0.000 srgb} bind def
/col20 {0.820 0.000 0.000 srgb} bind def
/col21 {0.560 0.000 0.560 srgb} bind def
/col22 {0.690 0.000 0.690 srgb} bind def
/col23 {0.820 0.000 0.820 srgb} bind def
/col24 {0.500 0.190 0.000 srgb} bind def
/col25 {0.630 0.250 0.000 srgb} bind def
/col26 {0.750 0.380 0.000 srgb} bind def
/col27 {1.000 0.500 0.500 srgb} bind def
/col28 {1.000 0.630 0.630 srgb} bind def
/col29 {1.000 0.750 0.750 srgb} bind def
/col30 {1.000 0.880 0.880 srgb} bind def
/col31 {1.000 0.840 0.000 srgb} bind def

end
save
newpath 0 50 moveto 0 0 lineto 138 0 lineto 138 50 lineto closepath clip newpath
-24.8 74.5 translate
1 -1 scale

/cp {closepath} bind def
/ef {eofill} bind def
/gr {grestore} bind def
/gs {gsave} bind def
/sa {save} bind def
/rs {restore} bind def
/l {lineto} bind def
/m {moveto} bind def
/rm {rmoveto} bind def
/n {newpath} bind def
/s {stroke} bind def
/sh {show} bind def
/slc {setlinecap} bind def
/slj {setlinejoin} bind def
/slw {setlinewidth} bind def
/srgb {setrgbcolor} bind def
/rot {rotate} bind def
/sc {scale} bind def
/sd {setdash} bind def
/ff {findfont} bind def
/sf {setfont} bind def
/scf {scalefont} bind def
/sw {stringwidth} bind def
/tr {translate} bind def
/tnt {dup dup currentrgbcolor
  4 -2 roll dup 1 exch sub 3 -1 roll mul add
  4 -2 roll dup 1 exch sub 3 -1 roll mul add
  4 -2 roll dup 1 exch sub 3 -1 roll mul add srgb}
  bind def
/shd {dup dup currentrgbcolor 4 -2 roll mul 4 -2 roll mul
  4 -2 roll mul srgb} bind def
/$F2psBegin {$F2psDict begin /$F2psEnteredState save def} def
/$F2psEnd {$F2psEnteredState restore end} def

$F2psBegin
10 setmiterlimit
0 slj 0 slc
 0.06299 0.06299 sc
%
% Fig objects follow
%
% 
% here starts figure with depth 50
% Polyline
0 slj
0 slc
7.500 slw
n 1395 900 m 1665 900 l 1665 1080 l 1395 1080 l
 cp gs col0 s gr 
% Polyline
n 495 1080 m
 450 1170 l gs col0 s gr 
% Polyline
n 585 1080 m
 540 1170 l gs col0 s gr 
% Polyline
n 675 1080 m
 630 1170 l gs col0 s gr 
% Polyline
n 765 1080 m
 720 1170 l gs col0 s gr 
% Polyline
n 855 1080 m
 810 1170 l gs col0 s gr 
% Polyline
n 945 1080 m
 900 1170 l gs col0 s gr 
% Polyline
n 1035 1080 m
 990 1170 l gs col0 s gr 
% Polyline
n 1125 1080 m
 1080 1170 l gs col0 s gr 
% Polyline
n 1215 1080 m
 1170 1170 l gs col0 s gr 
% Polyline
n 1305 1080 m
 1260 1170 l gs col0 s gr 
% Polyline
n 1395 1080 m
 1350 1170 l gs col0 s gr 
% Polyline
n 1485 1080 m
 1440 1170 l gs col0 s gr 
% Polyline
n 1575 1080 m
 1530 1170 l gs col0 s gr 
% Polyline
n 1665 1080 m
 1620 1170 l gs col0 s gr 
% Polyline
n 450 990 m
 405 1080 l gs col0 s gr 
% Polyline
n 450 900 m
 405 990 l gs col0 s gr 
% Polyline
n 450 810 m
 405 900 l gs col0 s gr 
% Polyline
n 450 720 m
 405 810 l gs col0 s gr 
% Polyline
n 450 630 m
 405 720 l gs col0 s gr 
% Polyline
n 450 540 m
 405 630 l gs col0 s gr 
% Polyline
n 450 450 m
 405 540 l gs col0 s gr 
% Polyline
n 1755 1080 m
 1710 1170 l gs col0 s gr 
% Polyline
n 1845 1080 m
 1800 1170 l gs col0 s gr 
% Polyline
n 1935 1080 m
 1890 1170 l gs col0 s gr 
% Polyline
n 2025 1080 m
 1980 1170 l gs col0 s gr 
% Polyline
n 2115 1080 m
 2070 1170 l gs col0 s gr 
% Polyline
n 2205 1080 m
 2160 1170 l gs col0 s gr 
% Polyline
n 2295 1080 m
 2250 1170 l gs col0 s gr 
% Polyline
n 2385 1080 m
 2340 1170 l gs col0 s gr 
% Polyline
n 450 990 m
 495 990 l gs col0 s gr 
% Polyline
n 495 990 m 540 945 l 630 1035 l
 675 990 l gs col0 s gr 
% Polyline
n 675 990 m 720 945 l 810 1035 l
 855 990 l gs col0 s gr 
% Polyline
n 855 990 m 900 945 l 990 1035 l
 1035 990 l gs col0 s gr 
% Polyline
n 1035 990 m 1080 945 l 1170 1035 l
 1215 990 l gs col0 s gr 
% Polyline
n 1215 990 m 1260 945 l 1350 1035 l
 1395 990 l gs col0 s gr 
% Polyline
gs  clippath
2463 1102 m 2580 1102 l 2580 1057 l 2463 1057 l 2463 1057 l 2538 1080 l 2463 1102 l cp
eoclip
n 450 405 m 450 1080 l
 2565 1080 l gs col0 s gr gr

% arrowhead
n 2463 1102 m 2538 1080 l 2463 1057 l 2478 1080 l 2463 1102 l 
 cp gs 0.00 setgray ef gr  col0 s
% Polyline
gs  clippath
1833 1012 m 1950 1012 l 1950 967 l 1833 967 l 1833 967 l 1908 990 l 1833 1012 l cp
eoclip
n 1395 990 m
 1935 990 l gs col0 s gr gr

% arrowhead
n 1833 1012 m 1908 990 l 1833 967 l 1848 990 l 1833 1012 l 
 cp gs 0.00 setgray ef gr  col0 s
% Polyline
n 2160 1035 m
 2160 1125 l gs col0 s gr 
% Polyline
 [60] 0 sd
gs  clippath
2101 735 m 2175 735 l 2175 705 l 2101 705 l 2101 705 l 2139 720 l 2101 735 l cp
1453 705 m 1380 705 l 1380 735 l 1453 735 l 1453 735 l 1416 720 l 1453 705 l cp
eoclip
n 1395 720 m
 2160 720 l gs col0 s gr gr
 [] 0 sd
% arrowhead
n 1453 705 m 1416 720 l 1453 735 l 1446 720 l 1453 705 l 
 cp gs 0.00 setgray ef gr  col0 s
% arrowhead
n 2101 735 m 2139 720 l 2101 705 l 2109 720 l 2101 735 l 
 cp gs 0.00 setgray ef gr  col0 s
% Polyline
gs  clippath
1944 807 m 1999 807 l 1999 791 l 1944 791 l 1944 791 l 1963 799 l 1944 806 l cp
eoclip
n 1894 799 m
 1984 799 l gs col0 s gr gr

% arrowhead
n 1944 806 m 1963 799 l 1944 791 l 1948 799 l 1944 806 l 
 cp gs 0.00 setgray ef gr  col0 s
/Times-Roman ff 158.75 scf sf
765 945 m
gs 1 -1 sc (k) col0 sh gr
/Times-Roman ff 158.75 scf sf
1485 855 m
gs 1 -1 sc (m) col0 sh gr
/Times-Roman ff 158.75 scf sf
1665 630 m
gs 1 -1 sc (x) col0 sh gr
/Times-Roman ff 158.75 scf sf
1890 945 m
gs 1 -1 sc (F) col0 sh gr
/Times-Roman ff 158.75 scf sf
2115 990 m
gs 1 -1 sc (o) col0 sh gr
/Times-Roman ff 158.75 scf sf
2430 1035 m
gs 1 -1 sc (+) col0 sh gr
/Times-Roman ff 127.00 scf sf
1753 675 m
gs 1 -1 sc (o) col0 sh gr
% here ends figure;
$F2psEnd
rs
showpage
%%Trailer
%EOF
