\relax 
\newlabel{Mvt2dim}{{4}{73}}
\@writefile{toc}{\contentsline {chapter}{\numberline {4}M\IeC {\'e}canique en plusieurs dimensions}{73}}
\@writefile{lof}{\addvspace {10\p@ }}
\@writefile{lot}{\addvspace {10\p@ }}
\@writefile{toc}{\contentsline {section}{\numberline {4.1}Pr\IeC {\'e}liminaires}{73}}
\@writefile{toc}{\contentsline {subsection}{\numberline {4.1.1}Dimensions}{73}}
\@writefile{toc}{\contentsline {subsection}{\numberline {4.1.2}Syst\IeC {\`e}me d'axes}{73}}
\@writefile{toc}{\contentsline {section}{\numberline {4.2}Notion de vecteur en physique}{73}}
\@writefile{toc}{\contentsline {subsection}{\numberline {4.2.1}Norme d'un vecteur}{73}}
\@writefile{toc}{\contentsline {subsection}{\numberline {4.2.2}Op\IeC {\'e}rations vectorielles}{74}}
\@writefile{toc}{\contentsline {subsubsection}{produit scalaire}{74}}
\@writefile{toc}{\contentsline {subsubsection}{Produit vectoriel}{74}}
\@writefile{toc}{\contentsline {section}{\numberline {4.3}M\IeC {\'e}canique}{74}}
\@writefile{toc}{\contentsline {subsection}{\numberline {4.3.1}Cin\IeC {\'e}matique}{74}}
\@writefile{toc}{\contentsline {subsubsection}{Position}{74}}
\@writefile{toc}{\contentsline {subsubsection}{Vitesse}{75}}
\newlabel{vitinstant}{{4.2}{75}}
\@writefile{toc}{\contentsline {subsubsection}{Acc\IeC {\'e}l\IeC {\'e}ration}{75}}
\newlabel{accinstant}{{4.4}{75}}
\@writefile{toc}{\contentsline {subsection}{\numberline {4.3.2}Dynamique}{75}}
\@writefile{toc}{\contentsline {subsubsection}{Premi\IeC {\`e}re loi}{75}}
\@writefile{lof}{\contentsline {figure}{\numberline {4.1}{\ignorespaces \IeC {\'E}quilibre statique\relax }}{75}}
\newlabel{ballon}{{4.1}{75}}
\@writefile{toc}{\contentsline {subsubsection}{Seconde loi}{75}}
\@writefile{toc}{\contentsline {subsubsection}{Troisi\IeC {\`e}me loi}{75}}
\@writefile{toc}{\contentsline {section}{\numberline {4.4}Exemples}{75}}
\@writefile{toc}{\contentsline {subsection}{\numberline {4.4.1}Statique}{75}}
\@writefile{lof}{\contentsline {figure}{\numberline {4.2}{\ignorespaces Le plan inclin\IeC {\'e}\relax }}{76}}
\newlabel{planincline}{{4.2}{76}}
\@writefile{toc}{\contentsline {subsection}{\numberline {4.4.2}Plan inclin\IeC {\'e}}{76}}
\@writefile{lof}{\contentsline {figure}{\numberline {4.3}{\ignorespaces Le plan inclin\IeC {\'e}\relax }}{77}}
\newlabel{planincline2}{{4.3}{77}}
\@writefile{lof}{\contentsline {figure}{\numberline {4.4}{\ignorespaces Tir balistique\relax }}{78}}
\newlabel{tirbalistique}{{4.4}{78}}
\@writefile{toc}{\contentsline {subsection}{\numberline {4.4.3}Balistique}{78}}
\newlabel{Port\IeC {\'e}e}{{4.8}{79}}
\newlabel{deuxangles}{{4.5(a)}{80}}
\newlabel{sub@deuxangles}{{(a)}{80}}
\newlabel{unangle}{{4.5(b)}{80}}
\newlabel{sub@unangle}{{(b)}{80}}
\@writefile{lof}{\contentsline {figure}{\numberline {4.5}{\ignorespaces Tirs balistiques\relax }}{80}}
\newlabel{tir}{{4.5}{80}}
\@writefile{lof}{\contentsline {subfigure}{\numberline{(a)}{\ignorespaces {Deux angles}}}{80}}
\@writefile{lof}{\contentsline {subfigure}{\numberline{(b)}{\ignorespaces {Un angle}}}{80}}
\@writefile{lof}{\contentsline {figure}{\numberline {4.6}{\ignorespaces Parabole de s\IeC {\'e}curit\IeC {\'e}\relax }}{80}}
\newlabel{parabolesecurite}{{4.6}{80}}
\@writefile{toc}{\contentsline {subsection}{\numberline {4.4.4}Mouvement circulaire uniforme~: MCU}{80}}
\@writefile{toc}{\contentsline {subsubsection}{D\IeC {\'e}finition}{80}}
\@writefile{toc}{\contentsline {subsubsection}{Cin\IeC {\'e}matique}{80}}
\@writefile{toc}{\contentsline {subsubsection}{Relation importante}{81}}
\@writefile{lof}{\contentsline {figure}{\numberline {4.7}{\ignorespaces Mouvement circulaire uniforme\relax }}{81}}
\newlabel{dimMCU}{{4.7}{81}}
\@writefile{toc}{\contentsline {subsubsection}{Dynamique}{81}}
\@writefile{toc}{\contentsline {subsubsection}{Virages inclin\IeC {\'e}s}{81}}
\@writefile{toc}{\contentsline {paragraph}{Vitesses minimales}{82}}
\@writefile{lof}{\contentsline {figure}{\numberline {4.8}{\ignorespaces Virages inclin\IeC {\'e}~: vitesse minimale\relax }}{82}}
\newlabel{viragesvmin0}{{4.8}{82}}
\@writefile{lof}{\contentsline {figure}{\numberline {4.9}{\ignorespaces Virages inclin\IeC {\'e}~: vitesses minimale\relax }}{82}}
\newlabel{viragesvminpas0}{{4.9}{82}}
\@writefile{toc}{\contentsline {paragraph}{Vitesses maximales}{83}}
\@writefile{lof}{\contentsline {figure}{\numberline {4.10}{\ignorespaces Virages inclin\IeC {\'e}~: vitesse maximale\relax }}{83}}
\newlabel{viragesvmaxfinie}{{4.10}{83}}
\citation{GC88}
\@writefile{toc}{\contentsline {subsection}{\numberline {4.4.5}Satellite en orbite g\IeC {\'e}ostationnaire}{84}}
\newlabel{dimgeostat}{{4.4.5}{84}}
\@writefile{toc}{\contentsline {subsubsection}{Introduction}{84}}
\@writefile{toc}{\contentsline {subsubsection}{Th\IeC {\'e}oriquement}{84}}
\@writefile{toc}{\contentsline {subsubsection}{Num\IeC {\'e}riquement}{84}}
\@writefile{toc}{\contentsline {subsection}{\numberline {4.4.6}Mouvement central}{84}}
\@writefile{toc}{\contentsline {subsubsection}{Mouvement kepleriens}{84}}
\@writefile{toc}{\contentsline {subsubsection}{Loi de Kepler}{84}}
\@setckpt{MecaniqueDim/MecaniqueDim}{
\setcounter{page}{86}
\setcounter{equation}{9}
\setcounter{enumi}{3}
\setcounter{enumii}{0}
\setcounter{enumiii}{0}
\setcounter{enumiv}{0}
\setcounter{footnote}{2}
\setcounter{mpfootnote}{0}
\setcounter{part}{0}
\setcounter{chapter}{4}
\setcounter{section}{4}
\setcounter{subsection}{6}
\setcounter{subsubsection}{0}
\setcounter{paragraph}{0}
\setcounter{subparagraph}{0}
\setcounter{figure}{10}
\setcounter{table}{0}
\setcounter{NAT@ctr}{0}
\setcounter{parentequation}{0}
\setcounter{FancyVerbLine}{0}
\setcounter{float@type}{8}
\setcounter{fignum}{0}
\setcounter{r@tfl@t}{2}
\setcounter{subfigure}{0}
\setcounter{lofdepth}{1}
\setcounter{subtable}{0}
\setcounter{lotdepth}{1}
\setcounter{ContinuedFloat}{0}
\setcounter{endnote}{62}
\setcounter{OptionTest}{0}
\setcounter{DefaultLines}{2}
\setcounter{DefaultDepth}{0}
\setcounter{L@lines}{3}
\setcounter{L@depth}{0}
\setcounter{lstnumber}{1}
\setcounter{Solution}{0}
\setcounter{exc}{0}
\setcounter{Solution OS}{0}
\setcounter{exosc}{0}
\setcounter{lstlisting}{0}
}
