%!PS-Adobe-3.0 EPSF-3.0
%%BoundingBox: (atend)
%%LanguageLevel: 2
%%Creator: Grace-5.1.20
%%CreationDate: Fri Sep 12 23:16:35 2008
%%DocumentData: Clean8Bit
%%Orientation: Portrait
%%Title: /home/guyotv/Documents/echange/Cours/Final/CoursMecaniqueDF/ImagesNBP/ChuteLibre.agr
%%For: guyotv
%%DocumentNeededResources: (atend)
%%EndComments
%%BeginProlog
/m {moveto} def
/l {lineto} def
/s {stroke} def
/n {newpath} def
/c {closepath} def
/RL {rlineto} def
/SLW {setlinewidth} def
/GS {gsave} def
/GR {grestore} def
/SC {setcolor} def
/SGRY {setgray} def
/SRGB {setrgbcolor} def
/SD {setdash} def
/SLC {setlinecap} def
/SLJ {setlinejoin} def
/SCS {setcolorspace} def
/FFSF {findfont setfont} def
/CC {concat} def
/PXL {n m 0 0 RL s} def
/Color0 {1.0000 1.0000 1.0000} def
/Color1 {0.0000 0.0000 0.0000} def
/Color2 {1.0000 0.0000 0.0000} def
/Color3 {0.0000 1.0000 0.0000} def
/Color4 {0.0000 0.0000 1.0000} def
/Color5 {1.0000 1.0000 0.0000} def
/Color6 {0.7373 0.5608 0.5608} def
/Color7 {0.8627 0.8627 0.8627} def
/Color8 {0.5804 0.0000 0.8275} def
/Color9 {0.0000 1.0000 1.0000} def
/Color10 {1.0000 0.0000 1.0000} def
/Color11 {1.0000 0.6471 0.0000} def
/Color12 {0.4471 0.1294 0.7373} def
/Color13 {0.4039 0.0275 0.2824} def
/Color14 {0.2510 0.8784 0.8157} def
/Color15 {0.0000 0.5451 0.0000} def
/Color16 {0.7529 0.7529 0.7529} def
/Color17 {0.5059 0.5059 0.5059} def
/Color18 {0.2588 0.2588 0.2588} def
/PTRN {
 /pat_bits exch def 
 <<
  /PaintType 2
  /PatternType 1 /TilingType 1
  /BBox[0 0 16 16]
  /XStep 16 /YStep 16
  /PaintProc {
   pop
   16 16 true [-1 0 0 -1 16 16] pat_bits imagemask
  }
 >>
 [0.0065 0 0 0.0065 0 0]
 makepattern
} def
/Pattern0 {<0000000000000000000000000000000000000000000000000000000000000000> PTRN} bind def
/Pattern1 {<ffffffffffffffffffffffffffffffffffffffffffffffffffffffffffffffff> PTRN} bind def
/Pattern2 {<eeeeffffbbbbffffeeeeffffbbbbffffeeeeffffbbbbffffeeeeffffbbbbffff> PTRN} bind def
/Pattern3 {<eeeebbbbeeeebbbbeeeebbbbeeeebbbbeeeebbbbeeeebbbbeeeebbbbeeeebbbb> PTRN} bind def
/Pattern4 {<5555aaaa5555aaaa5555aaaa5555aaaa5555aaaa5555aaaa5555aaaa5555aaaa> PTRN} bind def
/Pattern5 {<1111444411114444111144441111444411114444111144441111444411114444> PTRN} bind def
/Pattern6 {<1111000044440000111100004444000011110000444400001111000044440000> PTRN} bind def
/Pattern7 {<1010000000000000010100000000000010100000000000000101000000000000> PTRN} bind def
/Pattern8 {<0000000000000000000000000000000000000000000000000000000000000000> PTRN} bind def
/Pattern9 {<1e1e0f0f8787c3c3e1e1f0f078783c3c1e1e0f0f8787c3c3e1e1f0f078783c3c> PTRN} bind def
/Pattern10 {<7878f0f0e1e1c3c387870f0f1e1e3c3c7878f0f0e1e1c3c387870f0f1e1e3c3c> PTRN} bind def
/Pattern11 {<3333333333333333333333333333333333333333333333333333333333333333> PTRN} bind def
/Pattern12 {<ffffffff00000000ffffffff00000000ffffffff00000000ffffffff00000000> PTRN} bind def
/Pattern13 {<8181424224241818181824244242818181814242242418181818242442428181> PTRN} bind def
/Pattern14 {<8080404020201010080804040202010180804040202010100808040402020101> PTRN} bind def
/Pattern15 {<0101020204040808101020204040808001010202040408081010202040408080> PTRN} bind def
/Pattern16 {<2222222222222222222222222222222222222222222222222222222222222222> PTRN} bind def
/Pattern17 {<0000ffff000000000000ffff000000000000ffff000000000000ffff00000000> PTRN} bind def
/Pattern18 {<2222ffff222222222222ffff222222222222ffff222222222222ffff22222222> PTRN} bind def
/Pattern19 {<ffffffff33333333ffffffff33333333ffffffff33333333ffffffff33333333> PTRN} bind def
/Pattern20 {<0f0f0f0f0f0f0f0ff0f0f0f0f0f0f0f00f0f0f0f0f0f0f0ff0f0f0f0f0f0f0f0> PTRN} bind def
/Pattern21 {<ff00ff00ff00ff00ff00ff00ff00ff0000ff00ff00ff00ff00ff00ff00ff00ff> PTRN} bind def
/Pattern22 {<8001800180018001800180018001ffffffff8001800180018001800180018001> PTRN} bind def
/Pattern23 {<c003c003c003c003c003c003ffffffffffffffffc003c003c003c003c003c003> PTRN} bind def
/Pattern24 {<040404040404ffff404040404040ffff040404040404ffff404040404040ffff> PTRN} bind def
/Pattern25 {<180018001800180018001800ffffffff001800180018001800180018ffffffff> PTRN} bind def
/Pattern26 {<1111b8b87c7c3a3a1111a3a3c7c78b8b1111b8b87c7c3a3a1111a3a3c7c78b8b> PTRN} bind def
/Pattern27 {<101010102828c7c70101010182827c7c101010102828c7c70101010182827c7c> PTRN} bind def
/Pattern28 {<1c1c121211112121c1c12121111112121c1c121211112121c1c1212111111212> PTRN} bind def
/Pattern29 {<3e3e414180808080e3e31414080808083e3e414180808080e3e3141408080808> PTRN} bind def
/Pattern30 {<4848888884848383848488884848383848488888848483838484888848483838> PTRN} bind def
/Pattern31 {<03030404080808080c0c12122121c0c003030404080808080c0c12122121c0c0> PTRN} bind def
/ellipsedict 8 dict def
ellipsedict /mtrx matrix put
/EARC {
 ellipsedict begin
  /endangle exch def
  /startangle exch def
  /yrad exch def
  /xrad exch def
  /y exch def
  /x exch def
  /savematrix mtrx currentmatrix def
  x y translate
  xrad yrad scale
  0 0 1 startangle endangle arc
  savematrix setmatrix
 end
} def
/TL {
  /kcomp exch def
  /linewidth exch def
  /offset exch def
  GS
  0 offset rmoveto
  linewidth SLW
  dup stringwidth exch kcomp add exch RL s
  GR
} def
/KINIT
{
 /kvector exch def
 /kid 0 def
} def
/KPROC
{
 pop pop
 kvector kid get
 0 rmoveto
 /kid 1 kid add def
} def
/DefEncoding [
 /.notdef
 /.notdef
 /.notdef
 /.notdef
 /.notdef
 /.notdef
 /.notdef
 /.notdef
 /.notdef
 /.notdef
 /.notdef
 /.notdef
 /.notdef
 /.notdef
 /.notdef
 /.notdef
 /.notdef
 /.notdef
 /.notdef
 /.notdef
 /.notdef
 /.notdef
 /.notdef
 /.notdef
 /.notdef
 /.notdef
 /.notdef
 /.notdef
 /.notdef
 /.notdef
 /.notdef
 /.notdef
 /space
 /exclam
 /quotedbl
 /numbersign
 /dollar
 /percent
 /ampersand
 /quoteright
 /parenleft
 /parenright
 /asterisk
 /plus
 /comma
 /hyphen
 /period
 /slash
 /zero
 /one
 /two
 /three
 /four
 /five
 /six
 /seven
 /eight
 /nine
 /colon
 /semicolon
 /less
 /equal
 /greater
 /question
 /at
 /A
 /B
 /C
 /D
 /E
 /F
 /G
 /H
 /I
 /J
 /K
 /L
 /M
 /N
 /O
 /P
 /Q
 /R
 /S
 /T
 /U
 /V
 /W
 /X
 /Y
 /Z
 /bracketleft
 /backslash
 /bracketright
 /asciicircum
 /underscore
 /grave
 /a
 /b
 /c
 /d
 /e
 /f
 /g
 /h
 /i
 /j
 /k
 /l
 /m
 /n
 /o
 /p
 /q
 /r
 /s
 /t
 /u
 /v
 /w
 /x
 /y
 /z
 /braceleft
 /bar
 /braceright
 /asciitilde
 /.notdef
 /.notdef
 /.notdef
 /.notdef
 /.notdef
 /.notdef
 /.notdef
 /.notdef
 /.notdef
 /.notdef
 /.notdef
 /.notdef
 /.notdef
 /.notdef
 /.notdef
 /.notdef
 /.notdef
 /.notdef
 /.notdef
 /.notdef
 /.notdef
 /.notdef
 /.notdef
 /.notdef
 /.notdef
 /.notdef
 /.notdef
 /.notdef
 /.notdef
 /.notdef
 /.notdef
 /.notdef
 /.notdef
 /space
 /exclamdown
 /cent
 /sterling
 /currency
 /yen
 /brokenbar
 /section
 /dieresis
 /copyright
 /ordfeminine
 /guillemotleft
 /logicalnot
 /hyphen
 /registered
 /macron
 /degree
 /plusminus
 /twosuperior
 /threesuperior
 /acute
 /mu
 /paragraph
 /periodcentered
 /cedilla
 /onesuperior
 /ordmasculine
 /guillemotright
 /onequarter
 /onehalf
 /threequarters
 /questiondown
 /Agrave
 /Aacute
 /Acircumflex
 /Atilde
 /Adieresis
 /Aring
 /AE
 /Ccedilla
 /Egrave
 /Eacute
 /Ecircumflex
 /Edieresis
 /Igrave
 /Iacute
 /Icircumflex
 /Idieresis
 /Eth
 /Ntilde
 /Ograve
 /Oacute
 /Ocircumflex
 /Otilde
 /Odieresis
 /multiply
 /Oslash
 /Ugrave
 /Uacute
 /Ucircumflex
 /Udieresis
 /Yacute
 /Thorn
 /germandbls
 /agrave
 /aacute
 /acircumflex
 /atilde
 /adieresis
 /aring
 /ae
 /ccedilla
 /egrave
 /eacute
 /ecircumflex
 /edieresis
 /igrave
 /iacute
 /icircumflex
 /idieresis
 /eth
 /ntilde
 /ograve
 /oacute
 /ocircumflex
 /otilde
 /odieresis
 /divide
 /oslash
 /ugrave
 /uacute
 /ucircumflex
 /udieresis
 /yacute
 /thorn
 /ydieresis
] def
%%EndProlog
%%BeginSetup
%%EndSetup
153.30 153.30 scale
n
0.0000 0.0000 m
0.0000 1.0000 l
1.2943 1.0000 l
1.2943 0.0000 l
c
[/DeviceRGB] SCS
Color0 SC
fill
[/DeviceRGB] SCS
Color1 SC
[] 0 SD
0.0015 SLW
0 SLC
0 SLJ
n
0.2500 0.1564 m
0.2700 0.1564 l
s
n
0.2700 0.1664 m
0.2700 0.1499 l
s
n
0.2500 0.1564 m
0.2300 0.1564 l
s
n
0.2300 0.1499 m
0.2300 0.1664 l
s
n
0.2500 0.1564 m
0.2500 0.1595 l
s
n
0.2400 0.1595 m
0.2600 0.1595 l
s
n
0.2500 0.1564 m
0.2500 0.1533 l
s
n
0.2600 0.1533 m
0.2400 0.1533 l
s
n
0.3500 0.1805 m
0.4000 0.1805 l
s
n
0.4000 0.1905 m
0.4000 0.1705 l
s
n
0.3500 0.1805 m
0.3000 0.1805 l
s
n
0.3000 0.1705 m
0.3000 0.1905 l
s
n
0.3500 0.1805 m
0.3500 0.1883 l
s
n
0.3400 0.1883 m
0.3600 0.1883 l
s
n
0.3500 0.1805 m
0.3500 0.1727 l
s
n
0.3600 0.1727 m
0.3400 0.1727 l
s
n
0.4500 0.2187 m
0.5300 0.2187 l
s
n
0.5300 0.2287 m
0.5300 0.2087 l
s
n
0.4500 0.2187 m
0.3700 0.2187 l
s
n
0.3700 0.2087 m
0.3700 0.2287 l
s
n
0.4500 0.2187 m
0.4500 0.2311 l
s
n
0.4400 0.2311 m
0.4600 0.2311 l
s
n
0.4500 0.2187 m
0.4500 0.2062 l
s
n
0.4600 0.2062 m
0.4400 0.2062 l
s
n
0.5500 0.2721 m
0.6100 0.2721 l
s
n
0.6100 0.2821 m
0.6100 0.2621 l
s
n
0.5500 0.2721 m
0.4900 0.2721 l
s
n
0.4900 0.2621 m
0.4900 0.2821 l
s
n
0.5500 0.2721 m
0.5500 0.2876 l
s
n
0.5400 0.2876 m
0.5600 0.2876 l
s
n
0.5500 0.2721 m
0.5500 0.2565 l
s
n
0.5600 0.2565 m
0.5400 0.2565 l
s
n
0.6500 0.3407 m
0.7500 0.3407 l
s
n
0.7500 0.3508 m
0.7500 0.3307 l
s
n
0.6500 0.3407 m
0.5500 0.3407 l
s
n
0.5500 0.3307 m
0.5500 0.3508 l
s
n
0.6500 0.3407 m
0.6500 0.3625 l
s
n
0.6400 0.3625 m
0.6600 0.3625 l
s
n
0.6500 0.3407 m
0.6500 0.3190 l
s
n
0.6600 0.3190 m
0.6400 0.3190 l
s
n
0.7500 0.4231 m
0.8500 0.4231 l
s
n
0.8500 0.4331 m
0.8500 0.4131 l
s
n
0.7500 0.4231 m
0.6500 0.4231 l
s
n
0.6500 0.4131 m
0.6500 0.4331 l
s
n
0.7500 0.4231 m
0.7500 0.4542 l
s
n
0.7400 0.4542 m
0.7600 0.4542 l
s
n
0.7500 0.4231 m
0.7500 0.3920 l
s
n
0.7600 0.3920 m
0.7400 0.3920 l
s
n
0.8500 0.5239 m
0.9400 0.5239 l
s
n
0.9400 0.5339 m
0.9400 0.5139 l
s
n
0.8500 0.5239 m
0.7600 0.5239 l
s
n
0.7600 0.5139 m
0.7600 0.5339 l
s
n
0.8500 0.5239 m
0.8500 0.5581 l
s
n
0.8400 0.5581 m
0.8600 0.5581 l
s
n
0.8500 0.5239 m
0.8500 0.4896 l
s
n
0.8600 0.4896 m
0.8400 0.4896 l
s
n
0.9500 0.6383 m
1.0100 0.6383 l
s
n
1.0100 0.6483 m
1.0100 0.6283 l
s
n
0.9500 0.6383 m
0.8900 0.6383 l
s
n
0.8900 0.6283 m
0.8900 0.6483 l
s
n
0.9500 0.6383 m
0.9500 0.6772 l
s
n
0.9400 0.6772 m
0.9600 0.6772 l
s
n
0.9500 0.6383 m
0.9500 0.5994 l
s
n
0.9600 0.5994 m
0.9400 0.5994 l
s
n
1.0500 0.7680 m
1.0900 0.7680 l
s
n
1.0900 0.7780 m
1.0900 0.7580 l
s
n
1.0500 0.7680 m
1.0100 0.7680 l
s
n
1.0100 0.7580 m
1.0100 0.7780 l
s
n
1.0500 0.7680 m
1.0500 0.8147 l
s
n
1.0400 0.8147 m
1.0600 0.8147 l
s
n
1.0500 0.7680 m
1.0500 0.7214 l
s
n
1.0600 0.7214 m
1.0400 0.7214 l
s
n
0.2500 0.1564 0.0033 0.0033 0 360 EARC c
GS
Color0 SRGB
fill
GR
[/Pattern /DeviceRGB] SCS
Color1 Pattern8 SC
fill
[/DeviceRGB] SCS
Color1 SC
n 0.2500 0.1564 0.0033 0.0033 0 360 EARC s
n
0.3500 0.1805 0.0033 0.0033 0 360 EARC c
GS
Color0 SRGB
fill
GR
[/Pattern /DeviceRGB] SCS
Color1 Pattern8 SC
fill
[/DeviceRGB] SCS
Color1 SC
n 0.3500 0.1805 0.0033 0.0033 0 360 EARC s
n
0.4500 0.2187 0.0033 0.0033 0 360 EARC c
GS
Color0 SRGB
fill
GR
[/Pattern /DeviceRGB] SCS
Color1 Pattern8 SC
fill
[/DeviceRGB] SCS
Color1 SC
n 0.4500 0.2187 0.0033 0.0033 0 360 EARC s
n
0.5500 0.2721 0.0033 0.0033 0 360 EARC c
GS
Color0 SRGB
fill
GR
[/Pattern /DeviceRGB] SCS
Color1 Pattern8 SC
fill
[/DeviceRGB] SCS
Color1 SC
n 0.5500 0.2721 0.0033 0.0033 0 360 EARC s
n
0.6500 0.3407 0.0033 0.0033 0 360 EARC c
GS
Color0 SRGB
fill
GR
[/Pattern /DeviceRGB] SCS
Color1 Pattern8 SC
fill
[/DeviceRGB] SCS
Color1 SC
n 0.6500 0.3407 0.0033 0.0033 0 360 EARC s
n
0.7500 0.4231 0.0033 0.0033 0 360 EARC c
GS
Color0 SRGB
fill
GR
[/Pattern /DeviceRGB] SCS
Color1 Pattern8 SC
fill
[/DeviceRGB] SCS
Color1 SC
n 0.7500 0.4231 0.0033 0.0033 0 360 EARC s
n
0.8500 0.5239 0.0033 0.0033 0 360 EARC c
GS
Color0 SRGB
fill
GR
[/Pattern /DeviceRGB] SCS
Color1 Pattern8 SC
fill
[/DeviceRGB] SCS
Color1 SC
n 0.8500 0.5239 0.0033 0.0033 0 360 EARC s
n
0.9500 0.6383 0.0033 0.0033 0 360 EARC c
GS
Color0 SRGB
fill
GR
[/Pattern /DeviceRGB] SCS
Color1 Pattern8 SC
fill
[/DeviceRGB] SCS
Color1 SC
n 0.9500 0.6383 0.0033 0.0033 0 360 EARC s
n
1.0500 0.7680 0.0033 0.0033 0 360 EARC c
GS
Color0 SRGB
fill
GR
[/Pattern /DeviceRGB] SCS
Color1 Pattern8 SC
fill
[/DeviceRGB] SCS
Color1 SC
n 1.0500 0.7680 0.0033 0.0033 0 360 EARC s
n
0.1500 0.1500 m
1.1500 0.1500 l
s
n
0.1500 0.8500 m
1.1500 0.8500 l
s
n
0.2500 0.1500 m
0.2500 0.1600 l
s
n
0.2500 0.8500 m
0.2500 0.8400 l
s
n
0.4500 0.1500 m
0.4500 0.1600 l
s
n
0.4500 0.8500 m
0.4500 0.8400 l
s
n
0.6500 0.1500 m
0.6500 0.1600 l
s
n
0.6500 0.8500 m
0.6500 0.8400 l
s
n
0.8500 0.1500 m
0.8500 0.1600 l
s
n
0.8500 0.8500 m
0.8500 0.8400 l
s
n
1.0500 0.1500 m
1.0500 0.1600 l
s
n
1.0500 0.8500 m
1.0500 0.8400 l
s
n
0.1500 0.1500 m
0.1500 0.1700 l
s
n
0.1500 0.8500 m
0.1500 0.8300 l
s
n
0.3500 0.1500 m
0.3500 0.1700 l
s
n
0.3500 0.8500 m
0.3500 0.8300 l
s
n
0.5500 0.1500 m
0.5500 0.1700 l
s
n
0.5500 0.8500 m
0.5500 0.8300 l
s
n
0.7500 0.1500 m
0.7500 0.1700 l
s
n
0.7500 0.8500 m
0.7500 0.8300 l
s
n
0.9500 0.1500 m
0.9500 0.1700 l
s
n
0.9500 0.8500 m
0.9500 0.8300 l
s
n
1.1500 0.1500 m
1.1500 0.1700 l
s
n
1.1500 0.8500 m
1.1500 0.8300 l
s
/Times-Roman findfont
dup length dict begin
 {1 index /FID ne {def} {pop pop} ifelse} forall
 /Encoding DefEncoding def
 currentdict
end
/Font32 exch definefont pop
/Font32 FFSF
0.1433 0.1212 m
GS
[0.0280 0.0000 0.0000 0.0280 0 0] CC
(0) show
GR
/Font32 FFSF
0.3433 0.1212 m
GS
[0.0280 0.0000 0.0000 0.0280 0 0] CC
(2) show
GR
/Font32 FFSF
0.5433 0.1212 m
GS
[0.0280 0.0000 0.0000 0.0280 0 0] CC
(4) show
GR
/Font32 FFSF
0.7433 0.1208 m
GS
[0.0280 0.0000 0.0000 0.0280 0 0] CC
(6) show
GR
/Font32 FFSF
0.9437 0.1212 m
GS
[0.0280 0.0000 0.0000 0.0280 0 0] CC
(8) show
GR
/Font32 FFSF
1.1363 0.1212 m
GS
[0.0280 0.0000 0.0000 0.0280 0 0] CC
(10) show
GR
/Font32 FFSF
0.5944 0.0916 m
GS
[0.0280 0.0000 0.0000 0.0280 0 0] CC
(Temps \(s\)) show
GR
n
0.1500 0.1500 m
0.1500 0.8500 l
s
n
1.1500 0.1500 m
1.1500 0.8500 l
s
n
0.1500 0.2278 m
0.1600 0.2278 l
s
n
1.1500 0.2278 m
1.1400 0.2278 l
s
n
0.1500 0.3833 m
0.1600 0.3833 l
s
n
1.1500 0.3833 m
1.1400 0.3833 l
s
n
0.1500 0.5389 m
0.1600 0.5389 l
s
n
1.1500 0.5389 m
1.1400 0.5389 l
s
n
0.1500 0.6944 m
0.1600 0.6944 l
s
n
1.1500 0.6944 m
1.1400 0.6944 l
s
n
0.1500 0.8500 m
0.1600 0.8500 l
s
n
1.1500 0.8500 m
1.1400 0.8500 l
s
n
0.1500 0.1500 m
0.1700 0.1500 l
s
n
1.1500 0.1500 m
1.1300 0.1500 l
s
n
0.1500 0.3056 m
0.1700 0.3056 l
s
n
1.1500 0.3056 m
1.1300 0.3056 l
s
n
0.1500 0.4611 m
0.1700 0.4611 l
s
n
1.1500 0.4611 m
1.1300 0.4611 l
s
n
0.1500 0.6167 m
0.1700 0.6167 l
s
n
1.1500 0.6167 m
1.1300 0.6167 l
s
n
0.1500 0.7722 m
0.1700 0.7722 l
s
n
1.1500 0.7722 m
1.1300 0.7722 l
s
/Font32 FFSF
0.1267 0.1408 m
GS
[0.0280 0.0000 0.0000 0.0280 0 0] CC
(0) show
GR
/Font32 FFSF
0.0985 0.2964 m
GS
[0.0280 0.0000 0.0000 0.0280 0 0] CC
(100) show
GR
/Font32 FFSF
0.0985 0.4519 m
GS
[0.0280 0.0000 0.0000 0.0280 0 0] CC
(200) show
GR
/Font32 FFSF
0.0985 0.6075 m
GS
[0.0280 0.0000 0.0000 0.0280 0 0] CC
(300) show
GR
/Font32 FFSF
0.0985 0.7630 m
GS
[0.0280 0.0000 0.0000 0.0280 0 0] CC
(400) show
GR
/Font32 FFSF
0.0834 0.4311 m
GS
[0.0000 0.0280 -0.0280 0.0000 0 0] CC
(Position \(m\)) show
GR
n
0.1500 0.1500 m
0.1500 0.8500 l
1.1500 0.8500 l
1.1500 0.1500 l
0.1500 0.1500 l
c
s
/Font32 FFSF
0.4054 0.9190 m
GS
[0.0420 0.0000 0.0000 0.0420 0 0] CC
(Graphe horaire de la position) show
GR
%%Trailer
%%BoundingBox: 8 12 180 147
%%DocumentNeededResources: font Times-Roman
%%EOF
